{
  "id": "aaz",
  "name": "Amarasi",
  "country": {
    "code": "ID",
    "name": "Indonesia",
    "area": "Asia"
  },
  "status": "5 (Developing)",
  "alternate_names": "Timor Amarasi, Uab Meto",
  "population": "70,000 (2011 UBB-GMIT)",
  "location": "Nusa Tenggara Timur Province, southwest tip, Timor island, 80 villages. Dialect locations: Kotos is central and east, Ro’is is west, Ro’is Tais Nonof is south, Ro’is Hero surrounded by Helong [heg] language area",
  "maps": "Indonesia, Nusa Tenggara and Southwestern Maluku",
  "classification": "Austronesian, Malayo-Polynesian, Central-Eastern Malayo-Polynesian, Timor-Babar, Nuclear Timor, Uab Meto",
  "dialects": "Kotos, Ro’is, Ro’is Hero (Kopa), Ro’is Tais Nonof. Part of Uab Meto language chain. Reportedly similar to Uab Meto [aoz] but with differences in phonology, vocabulary, and discourse, with semantic shifts, structural differences, intelligibility problems. Ro’is Tais Nonof dialect has intonation like Ro’is dialect, vocabulary like Kotos dialect",
  "development": "Poetry. Newspapers. Bible portions: 2002–2011",
  "resources": "OLAC resources in and about Amarasi",
  "writing": "Latin script [Latn]",
  "other_comments": "Interspersed with Helong [heg]. Most literature in Kotos dialect. Christian"
}