{
  "id": "aba",
  "name": "Abé",
  "country": {
    "code": "CI",
    "name": "Côte d’Ivoire",
    "area": "Africa"
  },
  "status": "5 (Developing)",
  "alternate_names": "Abbé, Abbey, Abi",
  "population": "170,000 (1995 SIL)",
  "location": "Lagunes Distric, Agboville subprefecture, except Krobou canton, Tiassale subprefecture, Abbe canton, 70 villages; Lacs District, Bongouanou subprefecture",
  "maps": "Côte d’Ivoire",
  "classification": "Niger-Congo, Atlantic-Congo, Volta-Congo, Kwa, Nyo, Agneby",
  "dialects": "Abbey-Ve, Kos (Khos), Morie, Tioffo",
  "typology": "SVO; postpositions; tonal",
  "use": "Also use French [fra]. Used as L2 by Attié [ati], Krobu [kxb]",
  "development": "Literacy rate in L1: 5%–10%. Literacy rate in L2: 50%–75%. Bible portions: 1967–1980",
  "resources": "OLAC resources in and about Abé",
  "writing": "Latin script [Latn]",
  "other_comments": "Christian, traditional religion"
}