{
  "id": "abk",
  "name": "Abkhaz",
  "country": {
    "code": "GE",
    "name": "Georgia",
    "area": "Asia"
  },
  "status": "2 (Provincial). Statutory provincial language in Abkhazia, co-official with Georgian (1995, Constitution, Article 8)",
  "alternate_names": "Abxazo",
  "population": "101,000 in Georgia (1993). Population total all countries: 112,740",
  "location": "Abkhazia, Black Sea coast, separate areas near Gudaut’a and Och’amch’re",
  "maps": "Georgia",
  "classification": "North Caucasian, West Caucasian, Abkhaz-Abazin",
  "dialects": "Abzhui, Bzyb, Samurzakan",
  "use": "94% speak it as L1",
  "development": "Dictionary. Grammar. NT: 1912–2004",
  "resources": "OLAC resources in and about Abkhaz",
  "writing": "Cyrillic script [Cyrl], used since 1860s. Georgian (Mkhedruli) script [Geor], no longer in use",
  "other_comments": "Christian, Muslim"
}