{
  "id": "aci",
  "name": "Aka-Cari",
  "country": {
    "code": "IN",
    "name": "India",
    "area": "Asia"
  },
  "status": "10 (Extinct)",
  "alternate_names": "Cari, Chariar",
  "population": "No known L1 speakers",
  "location": "Andaman and Nicobar Islands, Union Territory; north coast of North Andaman island, Landfall island, other nearby small islands",
  "classification": "Andamanese, Great Andamanese, Northern",
  "resources": "OLAC resources in and about Aka-Cari"
}