{
  "id": "acx",
  "name": "Arabic, Omani Spoken",
  "country": {
    "code": "OM",
    "name": "Oman",
    "area": "Asia"
  },
  "status": "6a (Vigorous)",
  "alternate_names": "Omani Hadari Arabic",
  "population": "720,000 in Oman (1996). Population total all countries: 1,090,900",
  "location": "Widespread, mainly in Hajar mountain highlands and a few coastal regions",
  "maps": "Oman",
  "classification": "Afro-Asiatic, Semitic, Central, South, Arabic",
  "dialects": "A member of macrolanguage Arabic [ara]",
  "typology": "SVO",
  "use": "Used as L2 by Harsusi [hss]",
  "resources": "OLAC resources in and about Arabic, Omani Spoken"
}