{
  "id": "adx",
  "name": "Tibetan, Amdo",
  "country": {
    "code": "CN",
    "name": "China",
    "area": "Asia"
  },
  "status": "6a (Vigorous). Language of recognized nationality: Tibetan",
  "alternate_names": "Amdo, Anduo, Ngambo, Panang",
  "population": "1,800,000 (2005 C. Lhungrub)",
  "location": "Tibet Autonomous Region, Huangnan, Hainan, Haibei, and Guoluo (Golog) autonomous prefectures; Qinghai Province, Haixi Mongolian-Tibetan-Kazakh autonomous prefecture and Gannan Tibetan autonomous prefecture; southwest Gansu Province, Tianzhu autonomous county; west and north Sichuan Province, Ganzi and Aba (Ngaba) Tibetan autonomous prefectures",
  "maps": "China",
  "classification": "Sino-Tibetan, Tibeto-Burman, Western Tibeto-Burman, Bodish, Central Bodish, Amdo",
  "dialects": "Hbrogpa, Panang (Banag, Banang, Panags, Panakha, Pananag, Sbanag, Sbranag), Rongba, Rongmahbrogpa, Rtahu. Central Tibetan [bod] or Khams Tibetan [khg] varieties not intelligible. Lexical similarity: 70% with Central Tibetan [bod] and Khams Tibetan [khg]",
  "typology": "SOV; many onset clusters",
  "use": "All ages. Used as L2 by Baima [bqh], Bonan [peh], Salar [slr]",
  "development": "Classroom teachers use it it, but Modern Literary Tibetan is the language of literature. Films. TV. Videos. Dictionary. Grammar",
  "resources": "OLAC resources in and about Tibetan, Amdo",
  "writing": "Tibetan script [Tibt]",
  "other_comments": "Those in Golog are called Golog, Ngolok, Mgolog, Ggolo, or Gugoluo. Buddhist (Lamaist)"
}