{
  "id": "afp",
  "name": "Tapei",
  "country": {
    "code": "PG",
    "name": "Papua New Guinea",
    "area": "Pacific"
  },
  "status": "6a (Vigorous)",
  "population": "290 (2005 SIL)",
  "location": "East Sepik Province, Karawari rural district, Awim and Imboin villages, Arafundi river area",
  "maps": "Papua New Guinea, Map 6",
  "classification": "Arafundi",
  "dialects": "None known. Lexical similarity: 61%–74% with Nanubae [afk]",
  "use": "All domains. Also use Tok Pisin [tpi]",
  "resources": "OLAC resources in and about Tapei"
}