{
  "id": "agl",
  "name": "Fembe",
  "country": {
    "code": "PG",
    "name": "Papua New Guinea",
    "area": "Pacific"
  },
  "status": "6a (Vigorous)",
  "alternate_names": "Agala, Sinale",
  "population": "350 (1986 SIL)",
  "location": "Western Province, Upper Strickland river",
  "maps": "Papua New Guinea, Map 8",
  "classification": "Trans-New Guinea, East Strickland",
  "dialects": "None known. Reportedly most similar to Odoodee [kkc] and Konai [kxw]",
  "development": "Literacy rate in L1: Below 5%. Literacy rate in L2: Below 5%",
  "resources": "OLAC resources in and about Fembe",
  "other_comments": "Bogaia [boq] moved into Fembe [agl] territory, dividing them into 2 geographical areas. Language shift reported towards Konai [kxw], Duna [duc], and Kubo [jko], breaking linguistic identity in 3 directions. Oil company work also impacting language shift"
}