{
  "id": "agn",
  "name": "Agutaynen",
  "country": {
    "code": "PH",
    "name": "Philippines",
    "area": "Asia"
  },
  "status": "5 (Developing)",
  "alternate_names": "Agutayno, Agutaynon",
  "population": "15,000 (2007 SIL)",
  "location": "Agutaya island, 5 surrounding islands; Roxas, San Vicente, and Brooke’s Point, Palawan municipalities; Mindoro, Taytay, Linapacan, and Manila",
  "maps": "Southern Philippines",
  "classification": "Austronesian, Malayo-Polynesian, Philippine, Kalamian",
  "dialects": "None known. Lexical similarity: 52% with Cuyonon [cyo], 71% with Calamian Tagbanwa [tbk]",
  "use": "Mostly spoken in group. All ages. Neutral attitudes. Also use some Cuyonon [cyo]. Also use English [eng], Filipino [fil]",
  "development": "Literacy rate in L1: 90%. Literacy rate in L2: 90% in Filipino [fil] or English [eng]. Videos. Dictionary. NT: 2004",
  "resources": "OLAC resources in and about Agutaynen",
  "writing": "Latin script [Latn]",
  "other_comments": "Culturally lowland. Christian (Roman Catholic)"
}