{
  "id": "ahp",
  "name": "Aizi, Aproumu",
  "country": {
    "code": "CI",
    "name": "Côte d’Ivoire",
    "area": "Africa"
  },
  "status": "6a (Vigorous)",
  "alternate_names": "Ahizi, Aprou, Aproumu, Aprwe, Oprou",
  "population": "6,500 (1999 SIL)",
  "location": "Lagunes District, Jacqueville subprefecture, Ebrié lagoon banks, Attoutou A (new quarter), Attoutou B, Tefredji, Koko, Bapo (Allaba B, Taboth) villages; Dabou subprefecture, Allaba village",
  "maps": "Côte d’Ivoire",
  "classification": "Niger-Congo, Atlantic-Congo, Volta-Congo, Kru, Aizi",
  "use": "Young people learn French [fra] in school",
  "development": "Literacy rate in L2: 25%–50%",
  "resources": "OLAC resources in and about Aizi, Aproumu",
  "other_comments": "Ethnonym: Chicalé for Lélémrin (Tiagbamrin); Amaboué for Mobumrin; Akabu, Opro, Saptomrin, and Tchavamrin used in different Mobu and Lélé villages to refer to Apro; Ed-eyng by Adioukrou, Ezibo by Alladian to refer to all the Aizi groups. Christian"
}