{
  "id": "ais",
  "name": "Amis, Nataoran",
  "country": {
    "code": "TW",
    "name": "China–Taiwan",
    "area": "Asia"
  },
  "status": "8b (Nearly extinct)",
  "alternate_names": "Nataoran, Natawran, Tauran",
  "population": "5 (Wurm 2000)",
  "location": "Hualien area and north of Fenglin",
  "maps": "Taiwan",
  "classification": "Austronesian, East Formosan, Central",
  "dialects": "Cikosowan, Kaliyawan (Kaliyuawan), Nataoran, Natawran, Pokpok, Ridaw, Sakizaya (Sakiray, Sakiraya). Not generally understood by other Amis. Sakizaya dialect is even more divergent from Central Amis [ami]. In recent years dialects converged. Lexical similarity: 50% with Central Amis",
  "use": "Moribund (2000 S. Wurm). Older adults",
  "resources": "OLAC resources in and about Amis, Nataoran"
}