{
  "id": "aiw",
  "name": "Aari",
  "country": {
    "code": "ET",
    "name": "Ethiopia",
    "area": "Africa"
  },
  "status": "5 (Developing)",
  "alternate_names": "Aarai, Ara, Ari, Aro, “Shankilla” (pej.), “Shankilligna” (pej.), “Shankillinya” (pej.)",
  "population": "235,000 (2007). 129,000 monolinguals. L2 users: 13,300",
  "location": "Southern Nations, Nationalities, and Peoples’ region, Central North Omo zone, south tip of Ethiopia plateau, near the Hamer-Banna [amf] language area",
  "maps": "Southwestern Ethiopia",
  "classification": "Afro-Asiatic, Omotic, South",
  "dialects": "Bako (Baco), Biyo (Bio), Laydo, Seyki, Shangama, Sido, Wubahamer (Ubamer), Zeddo. Reportedly similar to Gayil [gyl]",
  "typology": "SOV",
  "use": "Home, market. Also use Amharic [amh]. Used as L2 by Dime [dim]",
  "development": "Literacy rate in L2: 8%. Grade 1 pilot classes are in progress. Taught in primary schools. NT: 1997",
  "resources": "OLAC resources in and about Aari",
  "writing": "Ethiopic script [Ethi]. Latin script [Latn]",
  "other_comments": "Patrilineal. Traditional religion, Christian"
}