{
  "id": "aju",
  "name": "Arabic, Judeo-Moroccan",
  "country": {
    "code": "IL",
    "name": "Israel",
    "area": "Asia"
  },
  "status": "7 (Shifting)",
  "population": "250,000 in Israel (1992 H. Mutzafi). Population total all countries: 258,930",
  "location": "Widespread",
  "maps": "Algeria, Morocco, Tunisia and Western Sahara",
  "classification": "Afro-Asiatic, Semitic, Central, South, Arabic",
  "dialects": "Many dialects. Much intelligibility with Tunisian Judeo-Arabic [aeb], some with Judeo-Tripolitanian Arabic [yud], none with Judeo-Iraqi Arabic [yhd]. May be inherently intelligible with Moroccan Arabic [ary]. A member of macrolanguage Judeo-Arabic [jrb]",
  "use": "Also use Hebrew [heb]",
  "development": "Radio programs",
  "resources": "OLAC resources in and about Arabic, Judeo-Moroccan",
  "writing": "Hebrew script [Hebr]",
  "other_comments": "Many borrowings from Spanish [spa], Ladino [lad] and French [fra]. Jewish"
}