{
  "id": "akc",
  "name": "Mpur",
  "country": {
    "code": "ID",
    "name": "Indonesia",
    "area": "Asia"
  },
  "status": "6b (Threatened)",
  "alternate_names": "Amberbaken, Dekwambre, Ekware, Kebar",
  "population": "7,000 (1993 R. Doriot)",
  "location": "Papua Barat Province, north coast of Bird’s Head, west of Manokwari, and Kebar valley",
  "maps": "Indonesia, Northwestern Papua",
  "classification": "Language isolate",
  "dialects": "Ajiw, Sirir",
  "use": "Also use Indonesian [ind]",
  "development": "Literacy rate in L2: 15%–25%. Bible portions: 1998–2013",
  "resources": "OLAC resources in and about Mpur",
  "writing": "Latin script [Latn]",
  "other_comments": "Christian, traditional religion"
}