{
  "id": "akf",
  "name": "Akpa",
  "country": {
    "code": "NG",
    "name": "Nigeria",
    "area": "Africa"
  },
  "status": "6a (Vigorous)",
  "alternate_names": "Akweya",
  "population": "26,900 (2000)",
  "location": "Benue state: Otukpo LGA",
  "maps": "Nigeria, Map 7",
  "classification": "Niger-Congo, Atlantic-Congo, Volta-Congo, Benue-Congo, Idomoid, Yatye-Akpa",
  "dialects": "Dialect subgroup. Lexical similarity: 84% with Yace [ekr]",
  "resources": "OLAC resources in and about Akpa"
}