{
  "id": "akl",
  "name": "Inakeanon",
  "country": {
    "code": "PH",
    "name": "Philippines",
    "area": "Asia"
  },
  "status": "4 (Educational). De facto language of provincial identity in Aklan and Capiz provinces",
  "alternate_names": "Aklan, Aklano, Aklanon, Aklanon-Bisayan, Panay",
  "population": "435,000 in Philippines (2000 census). Population total all countries: 458,600",
  "location": "Western Visayas, north Panay island, principally Aklan Province; northwest Capiz Province border; Antique Province, far north, Libertad and Pandan municipalities",
  "maps": "Southern Philippines",
  "classification": "Austronesian, Malayo-Polynesian, Philippine, Greater Central Philippine, Central Philippine, Bisayan, West, Aklan",
  "dialects": "None known. 66% intelligibility with Hiligaynon [hil]. Lexical similarity: 68% with Hiligaynon [hil]",
  "use": "Also use Hiligaynon [hil]",
  "development": "Literacy rate in L1: 70%. Literacy rate in L2: 70%. Taught in primary schools, in Aklan and Capiz. Grammar. Bible portions: 1990–1996",
  "resources": "OLAC resources in and about Inakeanon",
  "writing": "Latin script [Latn]"
}