{
  "id": "akq",
  "name": "Ak",
  "country": {
    "code": "PG",
    "name": "Papua New Guinea",
    "area": "Pacific"
  },
  "status": "7 (Shifting)",
  "population": "75 (Wurm 2000)",
  "location": "Sandaun Province, Kwieftim village",
  "maps": "Papua New Guinea, Map 3",
  "classification": "Sepik, Yellow River",
  "dialects": "None known. Reportedly similar to Namia [nnm] and Awun [aww]",
  "use": "Children beginning to prefer Tok Pisin [tpi] (Wurm 2007)",
  "resources": "OLAC resources in and about Ak"
}