{
  "id": "akx",
  "name": "Aka-Kede",
  "country": {
    "code": "IN",
    "name": "India",
    "area": "Asia"
  },
  "status": "10 (Extinct)",
  "alternate_names": "Kede",
  "population": "No known L1 speakers",
  "location": "Andaman and Nicobar Islands, Union Territory; central and north central Middle Andaman island",
  "classification": "Andamanese, Great Andamanese, Central",
  "resources": "OLAC resources in and about Aka-Kede"
}