{
  "id": "alk",
  "name": "Alak",
  "country": {
    "code": "LA",
    "name": "Laos",
    "area": "Asia"
  },
  "status": "6a (Vigorous)",
  "alternate_names": "Harak, Hrlak",
  "population": "4,000 (Bradley 2007)",
  "location": "South, mainly Salavan and Xekong provinces",
  "maps": "Laos",
  "classification": "Austro-Asiatic, Mon-Khmer, Eastern Mon-Khmer, Bahnaric, Central Bahnaric",
  "dialects": "None known. Reportedly similar to Bahnar [bdq], Tampuan [tpu], and Romam [rmx]",
  "resources": "OLAC resources in and about Alak",
  "other_comments": "Traditional religion"
}