{
  "id": "alr",
  "name": "Alutor",
  "country": {
    "code": "RU",
    "name": "Russian Federation",
    "area": "Europe"
  },
  "status": "8b (Nearly extinct)",
  "alternate_names": "Aliutor, Alyutor, Olyutor",
  "population": "25 (2010 census), decreasing. Some monolinguals. Ethnic population: 2,000 (1997 M. Krauss)",
  "location": "Kamchatka district: northeast Kamchatka peninsula, Vyvenka and Khailino villages; Rekinniki; Tilichiki and Tymlat; some scattered",
  "maps": "Eastern Russia",
  "classification": "Chukotko-Kamchatkan, Northern, Koryak-Alyutor",
  "dialects": "Alutorskij (Alutor Proper). Considered a dialect of Koryak [kpy] until recently",
  "use": "Shifting to Russian [rus]. Home. Actively used by older adults; middle-aged adults are passive bilinguals; younger than 35 use only Russian [rus] (1997)",
  "development": "Dictionary. Grammar",
  "resources": "OLAC resources in and about Alutor",
  "other_comments": "In 1950s–1970s, children were sent to boarding schools"
}