{
  "id": "ama",
  "name": "Amanayé",
  "country": {
    "code": "BR",
    "name": "Brazil",
    "area": "Americas"
  },
  "status": "9 (Dormant)",
  "alternate_names": "Amanage, Amanajé, Amanyé, Manajo, Manaxo, Manaze, Manazo",
  "population": "No known L1 speakers. Ethnic population: 190 (2001 ISA)",
  "location": "Pará State, S|o Domingos do Capim municipality, on Capim river",
  "classification": "Tupian, Tupí-Guaraní, Wayampí, Amanayé",
  "use": "Shifted to Portuguese [por]",
  "resources": "OLAC resources in and about Amanayé"
}