{
  "id": "amq",
  "name": "Amahai",
  "country": {
    "code": "ID",
    "name": "Indonesia",
    "area": "Asia"
  },
  "status": "8b (Nearly extinct)",
  "alternate_names": "Amahei",
  "population": "50 (Wurm 2007)",
  "location": "Maluku Province, 4 villages. Southwest Seram island, near Masohi town",
  "maps": "Indonesia, Central Maluku",
  "classification": "Austronesian, Malayo-Polynesian, Central-Eastern Malayo-Polynesian, Central Maluku, East, Seram, Nunusaku, Piru Bay, East, Seram Straits, Uliase, Hatuhaha, Elpaputi",
  "dialects": "Makariki, Rutah, Soahuku. Lexical similarity: 87% with Makariki and Rutah dialects, probably 2 languages; 59%–69% with Saparua [spr], 59% with Kamarian [kzx], 58% with Kaibobo [kzb], 52% with Luhu [lcq] and Hulung [huk], 50% with Alune [alp], 49% with Naka’ela [nae], 47% with Lisabata-Nuniali [lcs], 45% with Wemale [weo] and Nuaulu, 44% with Boano [bzn] and Saleman [sau]",
  "use": "Pressure from Ambon Malay [abs] and Indonesian [ind] (Wurm 2007)",
  "resources": "OLAC resources in and about Amahai",
  "other_comments": "Muslim, Christian"
}