{
  "id": "anm",
  "name": "Anal",
  "country": {
    "code": "IN",
    "name": "India",
    "area": "Asia"
  },
  "status": "5 (Developing)",
  "alternate_names": "Namfau",
  "population": "23,200 in India (2001 census). Population total all countries: 23,250",
  "location": "Southeast Manipur state: Chandel district, Chandel, Chakpikarong, and engnoupal subdivisions, on Chakpi river banks. Possibly in Bangladesh",
  "maps": "India, Map 5",
  "classification": "Sino-Tibetan, Tibeto-Burman, Sal, Kuki-Chin-Naga, Kuki-Chin, Northern",
  "dialects": "Laizo, Mulsom. Reportedly most similar to Lamgang [lmk] (Kuki Naga)",
  "typology": "SOV",
  "use": "Also use Meitei [mni]. Used as L2 by Moyon Naga [nmo]",
  "development": "Literacy rate in L1: 74% (2001 census). Bible: 2006",
  "resources": "OLAC resources in and about Anal",
  "writing": "Latin script [Latn]",
  "other_comments": "A Scheduled Tribe. Declared themselves Nagas (ethnically) in 1963. Christian"
}