{
  "id": "ans",
  "name": "Anserma",
  "country": {
    "code": "CO",
    "name": "Colombia",
    "area": "Americas"
  },
  "status": "10 (Extinct)",
  "alternate_names": "Anserna",
  "population": "No known L1 speakers",
  "location": "Caldas, Quindío, and Risaralda departments",
  "classification": "Paezan, Coconuco",
  "dialects": "None known. Related to Cauca [cca], Arma [aoh] (both extinct), and Caramanta [crf]",
  "resources": "OLAC resources in and about Anserma"
}