{
  "id": "aor",
  "name": "Aore",
  "country": {
    "code": "VU",
    "name": "Vanuatu",
    "area": "Pacific"
  },
  "status": "10 (Extinct)",
  "population": "No known L1 speakers",
  "location": "Sanma Province, east Espiritu Santo",
  "classification": "Austronesian, Malayo-Polynesian, Central-Eastern Malayo-Polynesian, Eastern Malayo-Polynesian, Oceanic, Central-Eastern Oceanic, Remote Oceanic, North and Central Vanuatu, Northeast Vanuatu-Banks Islands, West Santo",
  "dialects": "None known. Reportedly similar to Malo [mla] and Tutuba [tmi]",
  "resources": "OLAC resources in and about Aore",
  "other_comments": "Map not updated"
}