{
  "id": "aps",
  "name": "Arop-Sissano",
  "country": {
    "code": "PG",
    "name": "Papua New Guinea",
    "area": "Pacific"
  },
  "status": "5 (Developing)",
  "alternate_names": "Arop",
  "population": "1,150 (1998 SIL)",
  "location": "Sandaun Province, Aitape district, Arop village",
  "maps": "Papua New Guinea, Map 3",
  "classification": "Austronesian, Malayo-Polynesian, Central-Eastern Malayo-Polynesian, Eastern Malayo-Polynesian, Oceanic, Western Oceanic, North New Guinea, Schouten, Siau",
  "dialects": "None known. Related to Sissano [sso], Malol [mbk], and Sera [sry]",
  "development": "Literacy rate in L1: 15%–25%. Literacy rate in L2: 25%–50%. Bible portions: 1988–2014",
  "resources": "OLAC resources in and about Arop-Sissano",
  "writing": "Latin script [Latn]",
  "other_comments": "863 people killed in July 1998 tsunami"
}