{
  "id": "apu",
  "name": "Apurinã",
  "country": {
    "code": "BR",
    "name": "Brazil",
    "area": "Americas"
  },
  "status": "6b (Threatened)",
  "alternate_names": "Ipurinãn, Kangite, Popengare",
  "population": "2,780 (Moore 2006). Ethnic population: 6,990 (2010 FUNASA)",
  "location": "Northwest Mato Grosso State; Amazonas State, scattered over Purus river from Rio Branco to Manaus",
  "maps": "Central Brazil",
  "classification": "Maipurean, Southern, Southern Outlier, Piro",
  "typology": "OSV",
  "development": "Grammar. NT: 2004",
  "resources": "OLAC resources in and about Apurinã",
  "writing": "Latin script [Latn]",
  "other_comments": "Traditional religion, Christian"
}