{
  "id": "ard",
  "name": "Arabana",
  "country": {
    "code": "AU",
    "name": "Australia",
    "area": "Pacific"
  },
  "status": "8b (Nearly extinct)",
  "alternate_names": "Arabunna",
  "population": "12 (2006 census)",
  "location": "South Australia, west side Lake Eyre to Stuart range, Maree, Port Augusta",
  "maps": "Australia",
  "classification": "Australian, Pama-Nyungan, Karnic, Palku",
  "development": "Dictionary. Grammar",
  "resources": "OLAC resources in and about Arabana"
}