{
  "id": "arg",
  "name": "Aragonese",
  "country": {
    "code": "ES",
    "name": "Spain",
    "area": "Europe"
  },
  "status": "6b (Threatened)",
  "alternate_names": "Altoaragonés, Aragoieraz, Aragonés, Fabla Aragonesa, High Aragonese, Patués",
  "population": "10,000 (Salminen 2007). 500 monolinguals (1993). Older adults. Ethnic population: 2,000,000 (1994). L2 users: 20,000 (1993 Counsel of the Aragonese Language)",
  "location": "Zaragoza, Huesca Province; Pyrenea (north border), Navarra (west border); north of Montsó (east). Western Aragonese dialect: Ansó, Echo, Chasa, Berdún, and Chaca towns; Central Aragonese dialect: Panticosa, Biescas, Torla, Broto, Bielsa, Yebra, and L’Ainsa; Eastern Aragonese in Benás (Benasque, Benasc, Patués), Plan, Bisagorri, Campo, Perarruga, Graus, and Estadilla; Southern Aragonese in Agüero, Ayerbe, Rasal, Bolea, Lierta, Uesca, Almudébar, Nozito, Labata, Alguezra, Angüés, Pertusa, Balbastro, and Nabal",
  "maps": "Portugal and Spain",
  "classification": "Indo-European, Italic, Romance, Italo-Western, Western, Pyrenean-Mozarabic, Pyrenean",
  "dialects": "Central Aragonese (Belsetán, Bergotés, Pandicuto, Tensino), Eastern Aragonese (Benasqués, Chistabino, Fobano, Grausino, Ribagorzano), Southern Aragonese (Ayerbense, Semontanés), Western Aragonese (Ansotano, Cheso). Different from Spanish local variety (also called Aragonese influenced by High Aragonese). Eastern Aragonese transitional to Catalan [cat]. Reportedly, similarities to Catalan and Occitan [oci]",
  "use": "Few children learn the language (Salminen 2007). Also use some Spanish [spa], depending on education level. Used with outsiders",
  "development": "Literacy rate in L2: Nearly 100%. Magazines. New media. Grammar. Bible portions: 2008",
  "resources": "OLAC resources in and about Aragonese",
  "writing": "Latin script [Latn]",
  "other_comments": "Aragonese Speakers’ League (Ligallo de Fablans de l’Aragonés) in Zaragoza; Council of the Aragonese Language (Consello d’a Fabla Aragonesa) in Uesca. 6 organizations or more of L1 speakers working in the language. Written language based on Central and Eastern Aragonese. Christian"
}