{
  "id": "arq",
  "name": "Arabic, Algerian Spoken",
  "country": {
    "code": "DZ",
    "name": "Algeria",
    "area": "Africa"
  },
  "status": "3 (Wider communication). De facto national working language",
  "alternate_names": "Algerian",
  "population": "26,000,000 in Algeria (2012 Sherbrooke University), increasing. Population total all countries: 26,697,000. L2 users: 3,000,000 in Algeria",
  "location": "Widespread",
  "maps": "Algeria, Morocco, Tunisia and Western Sahara",
  "classification": "Afro-Asiatic, Semitic, Central, South, Arabic",
  "dialects": "Algiers, Constantine, Oran. A member of macrolanguage Arabic [ara]",
  "use": "The Ouled Nail of Biskra speak Arabic [arq], but are ethnically different. Home, street. Standard Arabic [arb] often used in government communication. Used as L2 by Chenoua [cnu], Tumzabt [mzb]",
  "development": "Textbooks often in modern Standard Arabic [arb]; teacher pupil interaction in Algerian Arabic. NT: 1965",
  "resources": "OLAC resources in and about Arabic, Algerian Spoken",
  "writing": "Arabic script [Arab]",
  "other_comments": "Muslim (Sunni), Christian"
}