{
  "id": "ars",
  "name": "Arabic, Najdi Spoken",
  "country": {
    "code": "SA",
    "name": "Saudi Arabia",
    "area": "Asia"
  },
  "status": "3 (Wider communication). De facto national working language",
  "population": "8,000,000 in Saudi Arabia. Population total all countries: 9,870,000",
  "maps": "Iraq                      Jordan and Syria",
  "classification": "Afro-Asiatic, Semitic, Central, South, Arabic",
  "dialects": "Central Najdi (’Ajmaan, Al-Qasiim, ’Awaazim, Biishah, Haayil, Hofuf, Mutair, Najraan, Rashaayda, Riyadh, Rwala, Sudair, ’Utaiba, Wild ’Ali), North Najdi (Bani Khaalid, Dafiir, Shammari), South Anjdi (Aal Murrah, Najran). Some dialects spoken by Bedouins. A member of macrolanguage Arabic [ara]",
  "typology": "SVO",
  "development": "Bible portions: 2013",
  "resources": "OLAC resources in and about Arabic, Najdi Spoken",
  "writing": "Arabic script [Arab]",
  "other_comments": "Muslim"
}