{
  "id": "arw",
  "name": "Arawak",
  "country": {
    "code": "SR",
    "name": "Suriname",
    "area": "Americas"
  },
  "status": "8a (Moribund)",
  "alternate_names": "Arowak, Lokono",
  "population": "700 in Suriname (1980 census). Population total all countries: 2,450. Very few monolinguals. Ethnic population: 2,050 (1980 census)",
  "location": "Commewijne and Para districts, several villages between coast and about 30 km inland, mainly on the savanna",
  "maps": "French Guiana and Suriname                      Guyana                      Venezuela",
  "classification": "Maipurean, Northern, Maritime, Ta-Maipurean",
  "use": "Lokono villages show a progressive loss of language (Crevels 2007). Home, friends; mixed use: Religion. Older adults only. Young people no longer interested in learning the language (Crevels 2007). Mixed attitudes. Also use Dutch [nld], Sranan [srn]",
  "development": "Literacy rate in L1: Below 1%. Literacy rate in L2: 25%–50%. Dictionary. Bible portions: 1850–1978",
  "resources": "OLAC resources in and about Arawak",
  "writing": "Latin script [Latn]"
}