{
  "id": "arz",
  "name": "Arabic, Egyptian Spoken",
  "country": {
    "code": "EG",
    "name": "Egypt",
    "area": "Africa"
  },
  "status": "3 (Wider communication). De facto national working language",
  "alternate_names": "Lower Egypt Arabic, Masri, Massry, Normal Egyptian Arabic",
  "population": "52,500,000 in Egypt (2006). Population total all countries: 55,039,000",
  "location": "Widespread",
  "maps": "Egypt and Libya",
  "classification": "Afro-Asiatic, Semitic, Central, South, Arabic",
  "dialects": "Cairene Arabic, North Delta Arabic, South Central Delta Arabic. Egyptian Spoken Arabic, based on Cairo speech (Cairene) is the most widely understood variety used for media, both in Egypt and throughout the non-nomadic Arab world. It is an amalgam of Delta Arabic and Middle Egypt Arabic, with borrowings from literary Arabic. A member of macrolanguage Arabic [ara]",
  "use": "All domains. Also use English [eng] in academic settings. Also use French [fra] in academic settings. Used as L2 by Mattokki [xnz], Sa’idi Spoken Arabic [aec], Siwi [siz]",
  "development": "Radio programs. Films. TV. Grammar. NT: 1932–2012",
  "resources": "OLAC resources in and about Arabic, Egyptian Spoken",
  "writing": "Arabic script [Arab], primary usage. Braille script [Brai]",
  "other_comments": "Muslim"
}