{
  "id": "asa",
  "name": "Asu",
  "country": {
    "code": "TZ",
    "name": "Tanzania",
    "area": "Africa"
  },
  "status": "6a (Vigorous)",
  "alternate_names": "Ashu, Athu, Casu, Chasu, Chiasu, Kiathu, Kipare, Pare, Pare-Asu",
  "population": "500,000 (2000). 25,000 monolinguals",
  "location": "Kilimanjaro region: Pare mountains, Mwanga and Same districts; Manyara and Tanga regions",
  "maps": "Tanzania",
  "classification": "Niger-Congo, Atlantic-Congo, Volta-Congo, Benue-Congo, Bantoid, Southern, Narrow Bantu, Central, G, Shambala (G.22)",
  "dialects": "Gonja, Mbaga. Related to Taveta [tvs]",
  "use": "Vigorous. Home, religion. All ages. Positive attitudes. Also use English [eng], Swahili [swh]. Used as L2 by Gweno [gwe], Mbugu [mhd]",
  "development": "Literacy rate in L2: 80%. Dictionary. NT: 1922–1967",
  "resources": "OLAC resources in and about Asu",
  "writing": "Latin script [Latn]",
  "other_comments": "‘Wapare’ is an ethnic group name. Christian, Muslim"
}