{
  "id": "atd",
  "name": "Manobo, Ata",
  "country": {
    "code": "PH",
    "name": "Philippines",
    "area": "Asia"
  },
  "status": "5 (Developing)",
  "alternate_names": "Ata of Davao, Atao Manobo, Langilan",
  "population": "26,700 (2000 census)",
  "location": "Mindanao, northwest Davao del Norte Province; southeast Bukidnon Province; Compostela Valley Province, northwest border; Davao del Sur Province, northwest enclave",
  "maps": "Southern Philippines",
  "classification": "Austronesian, Malayo-Polynesian, Philippine, Greater Central Philippine, Manobo, Central, South, Ata-Tigwa",
  "development": "Literacy rate in L1: 25%. Literacy rate in L2: 25%–30%. NT: 2000",
  "resources": "OLAC resources in and about Manobo, Ata",
  "writing": "Latin script [Latn]",
  "other_comments": "Different from Ata [atm] of Mabinay, Negros Oriental, and Atta languages. A Negrito people"
}