{
  "id": "ats",
  "name": "Gros Ventre",
  "country": {
    "code": "US",
    "name": "United States",
    "area": "Americas"
  },
  "status": "8b (Nearly extinct)",
  "alternate_names": "Ahahnelin, Ahe, Ananin, Atsina, Fall Indians, Gros Ventres, White Clay People",
  "population": "10 (Golla 2007), decreasing. No fully fluent speakers (Golla 2007). Ethnic population: 1,000 (Golla 2007)",
  "location": "North central Montana, Fort Belknap reservation, Milk river",
  "maps": "Western United States of America",
  "classification": "Algic, Algonquian, Arapaho",
  "dialects": "None known. Intelligible with Arapaho [arp]",
  "use": "Shifted to English [eng]. Elderly only",
  "resources": "OLAC resources in and about Gros Ventre"
}