{
  "id": "aua",
  "name": "Asumboa",
  "country": {
    "code": "SB",
    "name": "Solomon Islands",
    "area": "Pacific"
  },
  "status": "8b (Nearly extinct)",
  "alternate_names": "Asumbua, Asumuo",
  "population": "10 (1999 SIL)",
  "location": "Temotu Province, Utupua island, Asumbuo village",
  "maps": "Solomon Islands",
  "classification": "Austronesian, Malayo-Polynesian, Central-Eastern Malayo-Polynesian, Eastern Malayo-Polynesian, Oceanic, Temotu, Utupua-Vanikoro, Utupua",
  "typology": "SVO",
  "use": "Shifting to Amba [utp] (Wurm 2007). Also use Amba [utp], Pijin [pis], Tanibili [tbe]",
  "development": "Literacy rate in L1: 10%–30%. Literacy rate in L2: 25%–50%",
  "resources": "OLAC resources in and about Asumboa"
}