{
  "id": "auc",
  "name": "Waorani",
  "country": {
    "code": "EC",
    "name": "Ecuador",
    "area": "Americas"
  },
  "status": "6b (Threatened)",
  "alternate_names": "“Auca” (pej.), Huaorani, Sabela, Waodani",
  "population": "1,650 (2004). Ethnic population: 1,800 (2012 SIL)",
  "location": "Eastern jungle between Napo and Curaray rivers; Orellana Province, central, south from Tiputini, into Pastaza Province, Arajuno and northern Pastaza cantons; very small area in Napo Province",
  "maps": "Ecuador",
  "classification": "Language isolate",
  "typology": "SOV",
  "use": "The language is considered to be endangered due to emerging Huaorani-Quichua bilingualism brought about by mixed marriages and bilingual education programs taught by Quichua teachers who do not speak Huaorani (Crevels 2007). All ages. A few also speak Quichua; mostly those who are married to Quichua and their children. (2007 C. Peeke)",
  "development": "Grammar. NT: 1992",
  "resources": "OLAC resources in and about Waorani",
  "writing": "Latin script [Latn]",
  "other_comments": "“Auca”, non-Quichua, in Quichua. Traditional religion, Christian"
}