{
  "id": "avb",
  "name": "Avau",
  "country": {
    "code": "PG",
    "name": "Papua New Guinea",
    "area": "Pacific"
  },
  "status": "6a (Vigorous)",
  "alternate_names": "Awau",
  "population": "620 (2002 SIL)",
  "location": "West New Britain Province, south coast and islands around Gasmata",
  "maps": "Papua New Guinea, Map 12",
  "classification": "Austronesian, Malayo-Polynesian, Central-Eastern Malayo-Polynesian, Eastern Malayo-Polynesian, Oceanic, Western Oceanic, North New Guinea, Ngero-Vitiaz, Vitiaz, Southwest New Britain, Arawe-Pasismanua, Arawe, East Arawe",
  "dialects": "Gasmata",
  "use": "Also use English [eng], Tok Pisin [tpi]. Used as L2 by Amio-Gelimi [let]",
  "resources": "OLAC resources in and about Avau"
}