{
  "id": "awn",
  "name": "Awngi",
  "country": {
    "code": "ET",
    "name": "Ethiopia",
    "area": "Africa"
  },
  "status": "4 (Educational)",
  "alternate_names": "Agau, Agaw, Agew, Agow, Awawar, Awi, Awiya, Damot, Kumfel, “Kunfäl” (pej.), Kunfel, Kwollanyoch",
  "population": "489,000 (2007 census), increasing. 323,000 monolinguals. Ethnic population: 1,000,000. L2 users: 64,400 (1994 census)",
  "location": "Amhara region: Awi and North Gonder zones, southwest of Lake Tana; Benishangul-Gumuz region: Metekel zone",
  "maps": "Djibouti, Eritrea and Ethiopia",
  "classification": "Afro-Asiatic, Cushitic, Central, Southern",
  "dialects": "Dega, Kunfäl (Northern Awngi), Kwolla",
  "typology": "SOV; tonal",
  "use": "All domains. All ages. Neutral attitudes. Bilingual speakers (Amharic [amh]) mostly in towns. Countryside population has very limited knowledge of Amharic. For Northern Awngi (Kunfäl), only male population has knowledge of Amharic",
  "development": "Taught in primary schools. New media. Radio programs. Bible portions: 2009",
  "resources": "OLAC resources in and about Awngi",
  "writing": "Ethiopic script [Ethi], used since 1995"
}