{
  "id": "awx",
  "name": "Awara",
  "country": {
    "code": "PG",
    "name": "Papua New Guinea",
    "area": "Pacific"
  },
  "status": "6a (Vigorous)",
  "population": "1,900 (2011 SIL), increasing. 670 monolinguals. Ethnic population: 1,950",
  "location": "Morobe Province, Lae district, near the Wantoat [wnc] language area",
  "maps": "Papua New Guinea, Map 10                      Papua New Guinea, Map 11",
  "classification": "Trans-New Guinea, Finisterre-Huon, Finisterre, Wantoat",
  "dialects": "Some dialect variation. Wantoat [wnc], Wapu dialect of Wantoat, and Awara are part of a chain of related varieties, with Awara at the western end. Lexical similarity: 60%–70% with Wantoat [wnc] and Wapu dialect of Wantoat",
  "typology": "SOV",
  "use": "Vigorous. All ages. Positive attitudes. 65% also use Tok Pisin [tpi]. Wantoat [wnc] use is passive. Used as L2 by Sukurum [zsu]",
  "development": "Literacy rate in L1: Below 1%. Literacy rate in L2: 30%. Children’s literacy schools",
  "resources": "OLAC resources in and about Awara",
  "writing": "Latin script [Latn]"
}