{
  "id": "ayo",
  "name": "Ayoreo",
  "country": {
    "code": "PY",
    "name": "Paraguay",
    "area": "Americas"
  },
  "status": "5 (Developing)",
  "alternate_names": "Ayoré, Garaygosode, Guarañoca, Guidaigosode, Koroino, Moro, Morotoco, Poturero, Pyeta Yovai, Samococio, Sirákua, Takrat, Totobiegosode, Yanaigua",
  "population": "2,600 in Paraguay (2009 Universidad Nacional de Asunción), increasing. Population total all countries: 4,300. 1,500 monolinguals",
  "location": "Alto Paraguay Department, Guidaichai, Isla Alta, Cucaani, and Arocojnadi; Boqueron Department, Campo Loro, Ebetogue, Jesudi, and Tunocojai",
  "maps": "Bolivia                      Paraguay",
  "classification": "Zamucoan",
  "dialects": "Tsiracua",
  "use": "All ages",
  "development": "Literacy rate in L1: 20%. Dictionary. Grammar. NT: 1982",
  "resources": "OLAC resources in and about Ayoreo",
  "writing": "Latin script [Latn]",
  "other_comments": "Partially nomadic. Christian"
}