{
  "id": "bbg",
  "name": "Barama",
  "country": {
    "code": "GA",
    "name": "Gabon",
    "area": "Africa"
  },
  "status": "6a (Vigorous)",
  "alternate_names": "Bavarama, Ghibarama, Gibarama, Givarama, Varama, Yibarambu",
  "population": "1,000 (Idiata 2007)",
  "location": "Nyanga province: west of Moabi; Ogooué-Maritime province: east of Omboué; Ngounié province: Douya-Onoy department",
  "maps": "Equatorial Guinea, Gabon and São Tomé e Príncipe",
  "classification": "Niger-Congo, Atlantic-Congo, Volta-Congo, Benue-Congo, Bantoid, Southern, Narrow Bantu, Northwest, B, Shira-Punu (B.402)",
  "resources": "OLAC resources in and about Barama",
  "writing": "Unwritten [Qaax]",
  "other_comments": "Traditional religion"
}