{
  "id": "bbi",
  "name": "Barombi",
  "country": {
    "code": "CM",
    "name": "Cameroon",
    "area": "Africa"
  },
  "status": "6b (Threatened)",
  "alternate_names": "Balombi, Barumbi, Lambi, Lombe, Lombi, Rambi, Rombi",
  "population": "3,000 (2001 SIL)",
  "location": "South West region: Meme division, north of Mount Cameroon, Lake Barombi-Koto area; west of Kumba town, Lake Barombi-Mbo; Ndian division, northeast of Ekondo-Titi",
  "maps": "Southern Cameroon",
  "classification": "Niger-Congo, Atlantic-Congo, Volta-Congo, Benue-Congo, Bantoid, Southern, Narrow Bantu, Northwest, A, Basaa (A.41)",
  "dialects": "None known. Lexical similarity: 86% with Bankon [abb]",
  "resources": "OLAC resources in and about Barombi",
  "writing": "Unwritten [Qaax]"
}