{
  "id": "bbm",
  "name": "Babango",
  "country": {
    "code": "CD",
    "name": "Democratic Republic of the Congo",
    "area": "Africa"
  },
  "status": "6a (Vigorous)",
  "alternate_names": "Bango, Mobango, Southwest Bwa",
  "population": "2,550 (2000)",
  "location": "Orientale province: Basoko territory; some in Equateur province",
  "maps": "Northern Democratic Republic of Congo",
  "classification": "Niger-Congo, Atlantic-Congo, Volta-Congo, Benue-Congo, Bantoid, Southern, Narrow Bantu, Northwest, C, Ngombe (C.441)",
  "dialects": "Possibly a dialect of Budza [bja], which is immediately downriver. Lexical similarity: 89% with Budza",
  "resources": "OLAC resources in and about Babango"
}