{
  "id": "bcq",
  "name": "Bench",
  "country": {
    "code": "ET",
    "name": "Ethiopia",
    "area": "Africa"
  },
  "status": "4 (Educational)",
  "alternate_names": "Dizu, Ghimarra, Gimarra, Gimira",
  "population": "347,000 (2007 census). 14,300 Mer. 150,000 monolinguals. L2 users: 22,600",
  "location": "Southern Nations, Nationalities, and Peoples’ region: Mizan Teferi area",
  "maps": "Southwestern Ethiopia",
  "classification": "Afro-Asiatic, Omotic, North, Gonga-Gimojan, Gimojan, Ometo-Gimira, Gimira",
  "dialects": "Bench (Bencho, Benesho), Mer (Mieru), She (Kaba, Sce)",
  "typology": "SOV; tonal, 5 level tones, 1 glide",
  "use": "Also use Amharic [amh]. Used as L2 by Sheko [she]",
  "development": "Literacy rate in L2: 12% Amharic. Pilot education project begun in 2008. Taught in primary schools as medium of instruction for grades 1–3. Grade 4 materials are being developed. Radio programs. NT: 1990",
  "resources": "OLAC resources in and about Bench",
  "writing": "Ethiopic script [Ethi], used until 2008. Latin script [Latn], used since 2008",
  "other_comments": "Traditional religion"
}