{
  "id": "bdb",
  "name": "Basap",
  "country": {
    "code": "ID",
    "name": "Indonesia",
    "area": "Asia"
  },
  "status": "6b (Threatened)",
  "alternate_names": "Bosap",
  "population": "15,000 (2007 SIL)",
  "location": "Kalimantan Timur Province, scattered in Bulungan, Sangkulirang, and Kutai regencies",
  "maps": "Indonesia, Kalimantan",
  "classification": "Austronesian, Malayo-Polynesian, North Borneo, Rejang-Sajau",
  "dialects": "Berau, Binatang, Bulungan, Dumaring, Jembayan, Karangan",
  "use": "Parents use Indonesian [ind] with children to help prepare them for school (2012 A. Guerrerio). Home, community, religion",
  "resources": "OLAC resources in and about Basap",
  "other_comments": "Traditional religion, Christian"
}