{
  "id": "bdz",
  "name": "Badeshi",
  "country": {
    "code": "PK",
    "name": "Pakistan",
    "area": "Asia"
  },
  "status": "9 (Dormant)",
  "alternate_names": "Badakhshi",
  "population": "No known L1 speakers. No known speakers for three or more generations. Ethnic population: 2,830 (2000)",
  "location": "North-West Frontier Province; Bishigram valley upper reaches, east of Madyan, Swat Kohistan; small groups in Swat, Tirat and Pooran Chakesar valleys; Alai",
  "classification": "Indo-European, Indo-Iranian, Unclassified",
  "use": "Also use Pashto [pbu]",
  "resources": "OLAC resources in and about Badeshi",
  "other_comments": "Only dominant area languages now used: Torwali [trw], Pashto or Ushojo [ush]. Muslim (Sunni)"
}