{
  "id": "bem",
  "name": "Bemba",
  "country": {
    "code": "ZM",
    "name": "Zambia",
    "area": "Africa"
  },
  "status": "2 (Provincial). De facto provincial language in North, Copperbelt, and Luapula provinces.Town Bemba is a widely used lingua franca in urban areas, with higher social status than other languages except English [eng], and is used for educational and administrative purposes",
  "alternate_names": "Chibemba, Chiwemba, Cibemba, Ichibemba, Icibemba, Wemba",
  "population": "3,810,000 in Zambia (2010 census), decreasing. 3,730,000 Bemba, 12,800 Chishinga, 37,900 Kabende, 15,000 Lunda, 1,680 Mukulu, 11,500 Unga (2010 census). Population total all countries: 4,110,000",
  "location": "Eastern, Luapula, and Northern provinces; possibly Copperbelt province",
  "maps": "Southern Democratic Republic of Congo                      Zambia",
  "classification": "Niger-Congo, Atlantic-Congo, Volta-Congo, Benue-Congo, Bantoid, Southern, Narrow Bantu, Central, M, Bemba (M.42)",
  "dialects": "Chishinga, Kabende, Lembue, Lomotua (Lomotwa), Lunda (Luapula), Mukulu, Ngoma, Ng’umbo, Nwesi, Town Bemba, Twa of Bangweulu, Unga. Town Bemba has a Bemba base with heavy code mixing with English and neighboring Bantu languages",
  "typology": "SVO",
  "use": "All ages. Positive attitudes",
  "development": "Taught in primary schools. Newspapers. New media. Radio programs. Dictionary. Grammar. Bible: 1956–2003",
  "resources": "OLAC resources in and about Bemba",
  "writing": "Braille script [Brai]. Latin script [Latn], primary usage",
  "other_comments": "Traditional religion, Christian"
}