{
  "id": "beo",
  "name": "Beami",
  "country": {
    "code": "PG",
    "name": "Papua New Guinea",
    "area": "Pacific"
  },
  "status": "5 (Developing)",
  "alternate_names": "Bedamini, Bedamuni, Mougulu",
  "population": "4,200 (Wurm and Hattori 1981)",
  "location": "Western Province, east of Nomad, into Southern Highlands Province",
  "maps": "Papua New Guinea, Map 8",
  "classification": "Trans-New Guinea, Bosavi",
  "dialects": "Komofio, North Beami",
  "use": "Used as L2 by Edolo [etr]",
  "development": "Literacy rate in L1: 5%–15%. Literacy rate in L2: 15%–25%. Bible: 2008",
  "resources": "OLAC resources in and about Beami",
  "writing": "Latin script [Latn]"
}