{
  "id": "bgf",
  "name": "Bangandu",
  "country": {
    "code": "CM",
    "name": "Cameroon",
    "area": "Africa"
  },
  "status": "6a (Vigorous)",
  "alternate_names": "Bagando, Bangando, Bangantu, Southern Bangantu",
  "population": "2,700 (Voegelin and Voegelin 1977)",
  "location": "East region: Boumba-and-Ngoko division, Moloundou subdivision",
  "maps": "Southern Cameroon",
  "classification": "Niger-Congo, Atlantic-Congo, Volta-Congo, North, Adamawa-Ubangi, Ubangi, Gbaya-Manza-Ngbaka, Southwest",
  "dialects": "None known. May be related to Ngombe [nmj] in Central African Republic",
  "resources": "OLAC resources in and about Bangandu",
  "writing": "Unwritten [Qaax]"
}