{
  "id": "bgq",
  "name": "Bagri",
  "country": {
    "code": "IN",
    "name": "India",
    "area": "Asia"
  },
  "status": "5 (Developing)",
  "alternate_names": "Bagari, Bagria, Bagris, Bahgri, Baorias",
  "population": "647,000 in India (2001 census). Population total all countries: 847,000. 162,000 monolinguals",
  "location": "Punjab state: Firozepur, Rajasthan, Hanumangarh, Sriganganagar, Haryana, Sirsa, and Fatehabad districts",
  "maps": "India, Map 1                      India, Map 2                      Southern Pakistan",
  "classification": "Indo-European, Indo-Iranian, Indo-Aryan, Central zone, Rajasthani, Unclassified",
  "dialects": "None known. Lexical similarity: 81%–95% between all varietes of Bagri, 58%–63% with Eastern Punjabi [pan], 56%–69% with Hindi [hin], 56%–70% with Haryanvi [bgc], 51%–66% with Marwari [rwr], 58%–69% with Merwari [wry], 69%–76% with Shekhawati [swv], 47%–63% with Godwari [gdx], 63%–65% with Dhundari [dhd], 60%–66% with Mewati [wtm], 74% with Jandavra [jnd]. A member of macrolanguage Rajasthani [raj]",
  "typology": "SOV; tonal, 3 tones",
  "use": "Vigorous. Home, village, school, market, religion. Positive attitudes. Majority are bilingual in Hindi [hin]. Educated people and men have greater proficiency",
  "development": "Most Bagri live in rural areas and are illiterate. Grammar",
  "resources": "OLAC resources in and about Bagri",
  "writing": "Devanagari script [Deva]",
  "other_comments": "A Scheduled Caste. Traditional religion"
}