{
  "id": "bgt",
  "name": "Bughotu",
  "country": {
    "code": "SB",
    "name": "Solomon Islands",
    "area": "Pacific"
  },
  "status": "5 (Developing)",
  "alternate_names": "Bugota, Bugoto, Bugotu, Mahaga, Mbughotu",
  "population": "4,050 (1999 SIL)",
  "location": "Santa Isabel island, southeast end from Suma to Horara; Furona island off Kia district northwest coast",
  "maps": "Solomon Islands",
  "classification": "Austronesian, Malayo-Polynesian, Central-Eastern Malayo-Polynesian, Eastern Malayo-Polynesian, Oceanic, Central-Eastern Oceanic, Southeast Solomonic, Gela-Guadalcanal, Bughotu",
  "dialects": "Hageulu, Vulava. Reportedly similar to Gela [nlg] and Gao [gga]. Related to vernaculars on Guadalcanal",
  "use": "Home, village, church. All ages. Different from other languages of Santa Isabel. Other Santa Isabel language speakers cannot communicate with Bughotu except through Pijin [pis]. Also use Gao [gga]. Used as L2 by Cheke Holo [mrn], Gao [gga]",
  "development": "Literacy rate in L1: 30%–60%. Literacy rate in L2: 50%–75%. Dictionary. Grammar. NT: 1914–2009",
  "resources": "OLAC resources in and about Bughotu",
  "writing": "Latin script [Latn]"
}