{
  "id": "bhb",
  "name": "Bhili",
  "country": {
    "code": "IN",
    "name": "India",
    "area": "Asia"
  },
  "status": "5 (Developing)",
  "alternate_names": "Bhagoria, Bhil, Bhilbari, Bhilboli, Bhilla, Bhilodi, Lengotia, Vil",
  "population": "3,310,000 (2001 census)",
  "location": "Madhya Pradesh, Jhabua, Dhar, Ratlam, Indore, and Khargone districts; Rajasthan, Udaipur, Dungapur, and Banswara districts; Gujarat, Sabarkantha, Panch Mahals, and Dohad districts",
  "maps": "India, Map 2                      India, Map 6",
  "classification": "Indo-European, Indo-Iranian, Indo-Aryan, Central zone, Bhil",
  "dialects": "Ahiri, Anarya (Pahadi), Bhilodi, Bhim, Charani, Habura, Konkani, Kotali (Kotvali, Kotwalia), Labani, Magra Ki Boli, Nahari (Baglani), Naikdi, Panchali, Patelia, Ranawat, Rani Bhil, Siyalgir, Valvi. Bhili of Ratlam District in Madhya Pradesh is inherently intelligible with Wagdi [wbr] and a connecting link between Gujarati [guj] and Rajasthani (Marwari) [mve]",
  "use": "Spoken as L1 by the Patelia in Madhya Pradesh. Also use Hindi [hin]",
  "development": "Literacy rate in L1: 1%–5%. Literacy rate in L2: 10%. Radio programs. TV. Videos. Dictionary. Grammar. NT: 1930",
  "resources": "OLAC resources in and about Bhili",
  "writing": "Devanagari script [Deva]. Gujarati script [Gujr]",
  "other_comments": "‘Bhil’ is an ethnic designation (caste or tribe). Bhili is a Scheduled Tribe in Rajasthan, Gujarat, Maharashtra, Madhya Pradesh, and Tripura; Kotwalia is a Scheduled Tribe in Gujarat and Maharashtra. Dewali (Dehawali) is a cover term for Vasavi and Kotali, among others. Traditional religion"
}