{
  "id": "bhh",
  "name": "Bukharic",
  "country": {
    "code": "IL",
    "name": "Israel",
    "area": "Asia"
  },
  "status": "7 (Shifting)",
  "alternate_names": "Bokharan, Bokharic, Bukharan, Bukharian, Judeo-Tajik",
  "population": "50,000 in Israel (1995 H. Mutzafi). Population total all countries: 110,000",
  "location": "Tel Aviv District and city, Or Yehuda, Holon; HaMerkaz (Central) District, Ramla",
  "maps": "Turkmenistan and Uzbekistan",
  "classification": "Indo-European, Indo-Iranian, Iranian, Western, Southwestern, Persian",
  "dialects": "None known. May be easily intelligible of Tajiki or Farsi [pes]. Similar to Dzhidi [jpr]",
  "development": "Radio programs",
  "resources": "OLAC resources in and about Bukharic",
  "writing": "Cyrillic script [Cyrl], primary usage. Hebrew script [Hebr]. Latin script [Latn], no longer in use",
  "other_comments": "Many recent immigrants (1995). Jewish"
}