{
  "id": "bhu",
  "name": "Bhunjia",
  "country": {
    "code": "IN",
    "name": "India",
    "area": "Asia"
  },
  "status": "6a (Vigorous)",
  "alternate_names": "Bhumjiya, Bhunjiya, Bunjia",
  "population": "6,790 (2000 USCWM)",
  "location": "Madhya Pradesh, Hoshangabad district; Chhattisgarh, Raipur district; Odisha, Kalahandi, Koraput, Dhenkanal, Balasore (Baleshwar), and Keonjhar Sambalpur districts, Sunabera Plateau area; Maharashtra",
  "maps": "India, Map 7",
  "classification": "Indo-European, Indo-Iranian, Indo-Aryan, Eastern zone, Oriya",
  "dialects": "A more divergent dialect of Halbi [hlb]. Lexical similarity: 68%–72% with Kamar [keq]",
  "use": "Also use Chhattisgarhi [hne], Hindi [hin]",
  "development": "Literacy rate in L2: 24% in Odisha (2001 census)",
  "resources": "OLAC resources in and about Bhunjia",
  "writing": "Devanagari script [Deva]",
  "other_comments": "A Scheduled Tribe. Hindu"
}