{
  "id": "bit",
  "name": "Berinomo",
  "country": {
    "code": "PG",
    "name": "Papua New Guinea",
    "area": "Pacific"
  },
  "status": "6a (Vigorous)",
  "alternate_names": "Bitara",
  "population": "350 (2000 census)",
  "location": "East Sepik Province, April river, Bitara and Kagiru villages",
  "maps": "Papua New Guinea, Map 5",
  "classification": "Sepik, Sepik Hill, Bahinemo",
  "dialects": "Bitara, Kagiru (Apowasi)",
  "use": "Also use Tok Pisin [tpi]",
  "resources": "OLAC resources in and about Berinomo"
}