{
  "id": "bka",
  "name": "Kyak",
  "country": {
    "code": "NG",
    "name": "Nigeria",
    "area": "Africa"
  },
  "status": "6a (Vigorous)",
  "alternate_names": "Bambuka, Nyakyak",
  "population": "5,000 (Adelberger 1995)",
  "location": "Gombe state: Balanga LGA; Taraba state: Karim Lamido LGA; Adamawa state: Lamurda LGA small area",
  "maps": "Nigeria, Map 5",
  "classification": "Niger-Congo, Atlantic-Congo, Volta-Congo, North, Adamawa-Ubangi, Adamawa, Waja-Jen, Jen",
  "resources": "OLAC resources in and about Kyak",
  "other_comments": "Traditional religion, Christian"
}