{
  "id": "bkn",
  "name": "Bukitan",
  "country": {
    "code": "ID",
    "name": "Indonesia",
    "area": "Asia"
  },
  "status": "6b (Threatened)",
  "alternate_names": "Bakatan, Bakitan, Beketan, Mangkettan, Manketa, Pakatan",
  "population": "570 in Indonesia (2000). Population total all countries: 860",
  "location": "Kalimantan Timur Province, Iwan river; northwestern, Sarawak border",
  "maps": "Indonesia, Kalimantan                      Brunei and Malaysia - Sarawak",
  "classification": "Austronesian, Malayo-Polynesian, North Borneo, Melanau-Kajang, Kajang",
  "dialects": "Punan Busang, Punan Ukit",
  "resources": "OLAC resources in and about Bukitan",
  "other_comments": "Christian"
}