{
  "id": "bkp",
  "name": "Boko",
  "country": {
    "code": "CD",
    "name": "Democratic Republic of the Congo",
    "area": "Africa"
  },
  "status": "6a (Vigorous)",
  "alternate_names": "Iboko",
  "population": "21,000",
  "location": "Equateur province: on Congo river upstream from Mbandaka",
  "maps": "Northern Democratic Republic of Congo",
  "classification": "Niger-Congo, Atlantic-Congo, Volta-Congo, Benue-Congo, Bantoid, Southern, Narrow Bantu, Northwest, C, Ngondi (C.16)",
  "dialects": "Busa",
  "resources": "OLAC resources in and about Boko",
  "other_comments": "Different from Longto [wok] of Cameroon and Boko [bqc] of Benin and Nigeria"
}