{
  "id": "bkz",
  "name": "Bungku",
  "country": {
    "code": "ID",
    "name": "Indonesia",
    "area": "Asia"
  },
  "status": "6a (Vigorous)",
  "alternate_names": "Ikinyikiusa, Nahina, Tamboeko, Tambuku, Tobuco",
  "population": "27,000 (2000 census), increasing",
  "location": "Banda Sea, Sulawesi Tengah Province, Bungku Utara, Bungku Tengah, and Bungku Selatan subdistricts, along coast from Mondeodo south to Kenduri area, around 45 villages; northern Sulawesi Tenggara Province, Konawe regency, Asera, Soropia, and Lasolo subdistricts; Tulambatu and Kenduri areas inland; interior enclave southeast of Lake Poso",
  "maps": "Indonesia, Sulawesi",
  "classification": "Austronesian, Malayo-Polynesian, Celebic, Eastern, Southeastern, Bungku-Tolaki, Eastern, East Coast",
  "dialects": "Bungku, Landawe, Routa, Torete (To Rete), Tulambatu, Waia. Lexical similarity: 81% with Torete, Waia, Tulambatu, and Landawe dialects; 38% with Pamona dialects [pmf]; 88% with Landawe dialect; 84% with Waia dialect; 82% with Torete dialect; 74% with Wawonii [wow]; 66% with Taloki [tlk], Kulisusu [vkl], and Koroni [xkq]; 65% with Moronene [mqn]; 54% with the Mori and Tolaki groups; 82% with the Routa dialect",
  "use": "LWC before independence. Also use Indonesian [ind]",
  "resources": "OLAC resources in and about Bungku",
  "other_comments": "Muslim"
}