{
  "id": "blk",
  "name": "Pa’o",
  "country": {
    "code": "MM",
    "name": "Myanmar",
    "area": "Asia"
  },
  "status": "5 (Developing)",
  "alternate_names": "Black Karen, Northern Taungthu, Pa Oh, Pa-O, Pa’o Karen, Pa-U",
  "population": "560,000 in Myanmar (1983 census). Population total all countries: 560,740",
  "location": "Southwest Shan State; Kayah State, Loikaw; Kayin State areas near Shan State border; Mon State near Thaton",
  "maps": "Central Myanmar                      Northern Thailand",
  "classification": "Sino-Tibetan, Tibeto-Burman, Karenic, Peripheral",
  "dialects": "Northern Pa’o, Southern Pa’o. Reportedly fairly high comprehension among dialects",
  "typology": "SVO",
  "use": "Vigorous. All domains. All ages. Positive attitudes. Also use Burmese [mya], Shan [shn]. Used as L2 by Danau [dnu], Lahta [kvt], Zayein [kxk]",
  "development": "Literacy classes in some communities, especially at Buddhist monasteries. Dictionary. NT: 2009",
  "resources": "OLAC resources in and about Pa’o",
  "writing": "Myanmar (Burmese) script [Mymr]",
  "other_comments": "Buddhist"
}