{
  "id": "bnr",
  "name": "Butmas-Tur",
  "country": {
    "code": "VU",
    "name": "Vanuatu",
    "area": "Pacific"
  },
  "status": "6a (Vigorous)",
  "alternate_names": "Ati",
  "population": "520 (1983 SIL)",
  "location": "Sanma Province, east central Santo",
  "maps": "Vanuatu, Enlarged Area",
  "classification": "Austronesian, Malayo-Polynesian, Central-Eastern Malayo-Polynesian, Eastern Malayo-Polynesian, Oceanic, Central-Eastern Oceanic, Remote Oceanic, North and Central Vanuatu, East Santo, South",
  "resources": "OLAC resources in and about Butmas-Tur"
}