{
  "id": "bnz",
  "name": "Beezen",
  "country": {
    "code": "CM",
    "name": "Cameroon",
    "area": "Africa"
  },
  "status": "6b (Threatened)",
  "population": "450 (2001 SIL)",
  "location": "North West region: Menchum division, Furu-Awa subdivision, Kpep (Beezen) village",
  "maps": "Central Cameroon",
  "classification": "Niger-Congo, Atlantic-Congo, Volta-Congo, Benue-Congo, Jukunoid, Yukuben-Kuteb",
  "use": "Cameroon Pidgin [wes] also used. Schooling is in English [eng]. Low proficiency in Jukun [jbu]",
  "resources": "OLAC resources in and about Beezen",
  "writing": "Unwritten [Qaax]"
}