{
  "id": "bof",
  "name": "Bolon",
  "country": {
    "code": "BF",
    "name": "Burkina Faso",
    "area": "Africa"
  },
  "status": "6b (Threatened)",
  "alternate_names": "Bo, Boka, Boon, Boron",
  "population": "17,000 in Burkina Faso (1998 SIL). Population total all countries: 22,920",
  "location": "Hauts-Bassins region: Houet and Kenedougou provinces, N’Dorola and Samorogouan areas. 12 villages",
  "maps": "Burkina Faso                      Mali, Map 3",
  "classification": "Niger-Congo, Mande, Western, Central-Southwestern, Central, Manding-Jogo, Manding-Vai, Manding-Mokole, Manding",
  "dialects": "Black Bolon (Northern Bolon), Bon, White Bolon (Southern Bolon). The White Bolon dialect has higher inherent intelligibility with Jula [dyu] (81%) than the Black Bolon dialect (52%). Bon and Samalen varieties are highly similar to Bambara [bam]",
  "use": "All ages. Also use Jula [dyu]",
  "resources": "OLAC resources in and about Bolon",
  "other_comments": "Muslim, traditional religion"
}