{
  "id": "bph",
  "name": "Botlikh",
  "country": {
    "code": "RU",
    "name": "Russian Federation",
    "area": "Europe"
  },
  "status": "6b (Threatened)",
  "alternate_names": "Botlix, Buykhadi",
  "population": "210 (2010 census). Ethnic population: 3,500 (2010 census)",
  "location": "Dagestan Republic: Botlikh and Miarsu villages",
  "maps": "Western Russia, Enlarged Area",
  "classification": "North Caucasian, East Caucasian, Avar-Andic, Andic",
  "dialects": "Botlikh, Zibirkhalin",
  "use": "Few domains. Used by many children (Salminen 2007). Positive attitudes. Avar [ava] is literary language. Avar [ava] is used in school and for wider group communitcation (Salminen 2007). Russian [rus] is used in school and for wider group communitcation (Salminen 2007)",
  "development": "Dictionary",
  "resources": "OLAC resources in and about Botlikh",
  "writing": "Unwritten [Qaax]",
  "other_comments": "Muslim"
}