{
  "id": "bqc",
  "name": "Boko",
  "country": {
    "code": "BJ",
    "name": "Benin",
    "area": "Africa"
  },
  "status": "5 (Developing)",
  "alternate_names": "Boo",
  "population": "100,000 in Benin (2013 R. Jones). Population total all countries: 150,000. 28,800 monolinguals",
  "location": "Borgou and Alibori departments, Segbana and Kalale communes",
  "maps": "Benin                      Nigeria, Map 1",
  "classification": "Niger-Congo, Mande, Eastern, Eastern, Busa",
  "dialects": "Bo’o. Lexical similarity: 87% with Busa [bqp], 89% with Bokobaru [bus], 62% with Shanga [sho], 59% with Kyanga [tye], 62% with Bisa [bib] in Burkina Faso and Ghana",
  "typology": "SOV; noun heads initial; up to 5 suffixes on verb; postpositions; logophoricity; 4 level tones; CV, CVV, CCV",
  "use": "Vigorous. All domains. All ages. Positive attitudes. Also use Adamawa Fulfulde [fub], Baatonum [bba], French [fra], Hausa [hau], Yoruba [yor]. Used as L2 by Mokole [mkl]",
  "development": "Literacy rate in L1: 10%. Literacy rate in L2: 6%. Poetry. Radio programs. Dictionary. Grammar. Bible: 1992–2010",
  "resources": "OLAC resources in and about Boko",
  "writing": "Latin script [Latn]",
  "other_comments": "Muslim, traditional religion"
}