{
  "id": "brc",
  "name": "Berbice Creole Dutch",
  "country": {
    "code": "GY",
    "name": "Guyana",
    "area": "Americas"
  },
  "status": "10 (Extinct)",
  "population": "No known L1 speakers (2011 SIL). 15 with limited competence (Holm 1989)",
  "location": "East Berbice-Corentyne, Upper Demerara-Berbice regions",
  "classification": "Creole, Dutch based",
  "dialects": "Claim it is not inherently intelligible with Skepi Creole Dutch [skw] or the Rupununi dialect of Guyanese Creole English [gyn]. About one-third of the basic lexicon and most of the productive morphology is from Izon [ijc] in Nigeria; most of the rest of the lexicon is from Dutch [nld], 10% loans from Arawak [arw] and Guyanese Creole English",
  "typology": "SVO",
  "development": "Grammar",
  "resources": "OLAC resources in and about Berbice Creole Dutch"
}