{
  "id": "brm",
  "name": "Barambu",
  "country": {
    "code": "CD",
    "name": "Democratic Republic of the Congo",
    "area": "Africa"
  },
  "status": "6a (Vigorous)",
  "alternate_names": "Abarambo, Amiangba, Amiangbwa, Balambu, Barambo, Duga",
  "population": "25,600 (1990 census)",
  "location": "Orientale province: Poko territory, between Bomokandi and Uélé rivers",
  "maps": "Northern Democratic Republic of Congo",
  "classification": "Niger-Congo, Atlantic-Congo, Volta-Congo, North, Adamawa-Ubangi, Ubangi, Zande, Barambo-Pambia",
  "dialects": "Unconfirmed reports of a, Pamiaangba dialect, near Dungu in Niangara Territory",
  "resources": "OLAC resources in and about Barambu"
}