{
  "id": "brv",
  "name": "Bru, Western",
  "country": {
    "code": "TH",
    "name": "Thailand",
    "area": "Asia"
  },
  "status": "6a (Vigorous)",
  "alternate_names": "Baru, B’ru, Bruu",
  "population": "20,000 in Thailand (1991)",
  "location": "Ubon Ratchathani, Mukdahan, Nakhon Phanom, and Sakon Nakhon provinces",
  "maps": "Northern Thailand",
  "classification": "Austro-Asiatic, Mon-Khmer, Eastern Mon-Khmer, Katuic, West Katuic, Brou-So",
  "dialects": "None known. Partially intelligible with Eastern Bru [bru]",
  "use": "Also use Thai [tha]",
  "development": "Literacy rate in L1: 1%–5%. Literacy rate in L2: 80%. Bible portions: 2007",
  "resources": "OLAC resources in and about Bru, Western",
  "writing": "Lao script [Laoo]. Latin script [Latn]",
  "other_comments": "Buddhist, Christian, traditional religion"
}