{
  "id": "bsr",
  "name": "Bassa-Kontagora",
  "country": {
    "code": "NG",
    "name": "Nigeria",
    "area": "Africa"
  },
  "status": "8b (Nearly extinct)",
  "population": "10 (1987). Ethnic population: 30,000",
  "location": "Niger state: Mariga LGA, northeast of Kontagora",
  "classification": "Niger-Congo, Atlantic-Congo, Volta-Congo, Benue-Congo, Kainji, Western, Basa",
  "resources": "OLAC resources in and about Bassa-Kontagora"
}