{
  "id": "bta",
  "name": "Bata",
  "country": {
    "code": "NG",
    "name": "Nigeria",
    "area": "Africa"
  },
  "status": "6a (Vigorous)",
  "alternate_names": "Batta, Bete, Birsa, Bwaatye, Bwatiye, Demsa Bata, Dunu, Eastern Bwatiye, Gboati, Gbwata, Gbwate",
  "population": "150,000 in Nigeria (1992). 3,500,000 Bwaatye (Bata and Bacama [bcy]) (2006 census). Population total all countries: 152,500",
  "location": "Adamawa state: Demsa, Maiha, Yola North, Song, Girei, and Fufore LGAs",
  "maps": "Northern Cameroon                      Nigeria, Map 5",
  "classification": "Afro-Asiatic, Chadic, Biu-Mandara, A, A.8",
  "dialects": "Furo, Garoua (Garua), Jirai, Kobotachi, Malabu, Njoboliyo, Ribaw (Ribow), Song Bata, Wadi (Wa’i), Zumu (Jimo, Zomo). Bacama [bcy] and Central Bwatiye [bcy] 54%–68% of non-riverine dialects (Furo and Song); Njoboliyo [bta] 87% of Furo [bta], Song [bta], and Central Bwatiye [bcy]; Njoboliyo [bta] 73% of Bacama. Upriver dialects have contact with downriver dialects due to fishing practices. Dialect chain: Bacama [bcy] 89% with Central Bwatiye [bcy], 81% with Njoboliyo [bta], 86% with Furo [bta], 84% with Song Bata [bta]",
  "use": "Most Muslims shifted to Fulfulde [fub]. All domains. All ages. Mixed attitudes. Adults middle-aged and above also use Fulfulde [fub]. Also use Hausa [hau]. Used as L2 by Mbula-Bwazza [mbu]",
  "development": "Dictionary",
  "resources": "OLAC resources in and about Bata",
  "other_comments": "Bacama [bcy] are joined with the Bata in the Bwaatye Association. Christian, Muslim"
}