{
  "id": "btg",
  "name": "Bété, Gagnoa",
  "country": {
    "code": "CI",
    "name": "Côte d’Ivoire",
    "area": "Africa"
  },
  "status": "6a (Vigorous)",
  "alternate_names": "Eastern Bété, Gagnoua-Bété, Shyen",
  "population": "150,000 (1989 SIL)",
  "location": "Gôh-Djiboua District, Gagnoa subprefecture; Sassandra-Marahoué District, Sinfra subprefecture; some in northern Sud-Bandama District",
  "maps": "Côte d’Ivoire",
  "classification": "Niger-Congo, Atlantic-Congo, Volta-Congo, Kru, Eastern, Bete, Eastern",
  "dialects": "Gbadi (Badie, Gbadie), Guebie, Kpakolo, Nekedi, Niabre, Zadie, Zebie",
  "use": "Also use French [fra]",
  "development": "Literacy rate in L1: Below 1%. Literacy rate in L2: 25%–50%",
  "resources": "OLAC resources in and about Bété, Gagnoa",
  "other_comments": "Christian, traditional religion"
}