{
  "id": "btt",
  "name": "Bete-Bendi",
  "country": {
    "code": "NG",
    "name": "Nigeria",
    "area": "Africa"
  },
  "status": "5 (Developing)",
  "alternate_names": "Bette-Bendi, Dama",
  "population": "100,000 (2006 L. Otronyi), increasing. Some elderly monolinguals",
  "location": "Cross River state: Obudu and Obanliku LGAs",
  "maps": "Nigeria, Map 10",
  "classification": "Niger-Congo, Atlantic-Congo, Volta-Congo, Benue-Congo, Cross River, Bendi",
  "dialects": "Bendi, Bete (Bette, Mbete). Bete intelligible of Bendi. Lexical similarity: 82% with Bendi; 64%–72% with Obanliku [bzy]",
  "use": "Home. All ages. Positive attitudes. Also use English [eng] and surrounding languages. Also use Nigerian Pidgin [pcm]. Used as L2 by Obanliku [bzy]",
  "development": "Literacy rate in L1: Very low. NT: 1982",
  "resources": "OLAC resources in and about Bete-Bendi",
  "writing": "Latin script [Latn], used since 2007",
  "other_comments": "Different from Bete [byf] in Taraba State and Bété [bet] of Côte d’Ivoire. Bete and Bendi have positive attitudes toward each other. Christian, traditional religion"
}