{
  "id": "btw",
  "name": "Butuanon",
  "country": {
    "code": "PH",
    "name": "Philippines",
    "area": "Asia"
  },
  "status": "7 (Shifting)",
  "population": "34,500 (1990 census)",
  "location": "Northern Mindanao, Agusan del Norte Province, Butuan city",
  "maps": "Southern Philippines",
  "classification": "Austronesian, Malayo-Polynesian, Philippine, Greater Central Philippine, Central Philippine, Bisayan, South, Butuan-Tausug",
  "dialects": "None known. Lexical similarity: 70% with Kamayo [kyk]; 69% with Surigaonon [sgd]",
  "use": "Also use Cebuano [ceb]",
  "resources": "OLAC resources in and about Butuanon"
}