{
  "id": "but",
  "name": "Bungain",
  "country": {
    "code": "PG",
    "name": "Papua New Guinea",
    "area": "Pacific"
  },
  "status": "6a (Vigorous)",
  "population": "3,600 (2003 SIL)",
  "location": "East Sepik Province. Yaugiba is 1 village",
  "maps": "Papua New Guinea, Map 4",
  "classification": "Torricelli, Marienberg",
  "development": "Literacy rate in L2: 50%–75%",
  "resources": "OLAC resources in and about Bungain"
}