{
  "id": "buz",
  "name": "Bukwen",
  "country": {
    "code": "NG",
    "name": "Nigeria",
    "area": "Africa"
  },
  "status": "6a (Vigorous)",
  "population": "1,000",
  "location": "Taraba state: near Takum. 1 village",
  "maps": "Nigeria, Map 8",
  "classification": "Niger-Congo, Atlantic-Congo, Volta-Congo, Benue-Congo, Bantoid, Southern, Beboid",
  "resources": "OLAC resources in and about Bukwen"
}