{
  "id": "bvo",
  "name": "Bolgo",
  "country": {
    "code": "TD",
    "name": "Chad",
    "area": "Africa"
  },
  "status": "6a (Vigorous)",
  "population": "1,800 (1993 census)",
  "location": "Guéra region: Bahr Signaka department, Melfi subprefecture, east of the Barain, southeast of Melfi",
  "maps": "Southwestern Chad",
  "classification": "Niger-Congo, Atlantic-Congo, Volta-Congo, North, Adamawa-Ubangi, Adamawa, Mbum-Day, Bua",
  "dialects": "Bolgo Dugag (Small Bolgo), Bolgo Kubar (Big Bolgo). Lexical similarity: 68% with the 2 dialects and with Bolgo Dugag and a form of Koke [kou] spoken in Daguéla",
  "use": "Vigorous. Also use Chadian Spoken Arabic [shu]",
  "resources": "OLAC resources in and about Bolgo",
  "other_comments": "Traditional religion, Muslim"
}