{
  "id": "bwb",
  "name": "Namosi-Naitasiri-Serua",
  "country": {
    "code": "FJ",
    "name": "Fiji",
    "area": "Pacific"
  },
  "status": "6a (Vigorous)",
  "alternate_names": "Namosi-Naitaasiri-Seerua",
  "population": "1,630 (2000)",
  "location": "Namosi, Serua, Naitasiri provinces",
  "maps": "Fiji",
  "classification": "Austronesian, Malayo-Polynesian, Central-Eastern Malayo-Polynesian, Eastern Malayo-Polynesian, Oceanic, Central-Eastern Oceanic, Remote Oceanic, Central Pacific, West Fijian-Rotuman, West Fijian",
  "dialects": "Batiwai, Nalea, Tubai. Namosi is a divergent variety of West Fijian. Dialects listed may be separate languages",
  "resources": "OLAC resources in and about Namosi-Naitasiri-Serua"
}