{
  "id": "bwc",
  "name": "Bwile",
  "country": {
    "code": "ZM",
    "name": "Zambia",
    "area": "Africa"
  },
  "status": "6a (Vigorous)",
  "population": "19,600 in Zambia (2010 census). Population total all countries: 32,000",
  "location": "Luapula province",
  "maps": "Southern Democratic Republic of Congo                      Zambia",
  "classification": "Niger-Congo, Atlantic-Congo, Volta-Congo, Benue-Congo, Bantoid, Southern, Narrow Bantu, Central, M, Bemba (M.401)",
  "dialects": "None known. Not closely related to other languages",
  "use": "Home, community. Positive attitudes",
  "resources": "OLAC resources in and about Bwile"
}