{
  "id": "bwh",
  "name": "Bishuo",
  "country": {
    "code": "CM",
    "name": "Cameroon",
    "area": "Africa"
  },
  "status": "10 (Extinct)",
  "alternate_names": "Biyam, Furu",
  "population": "No known L1 speakers",
  "location": "North West region: Menchum division, Furu-Awa subdivision",
  "classification": "Niger-Congo, Atlantic-Congo, Volta-Congo, Benue-Congo, Bantoid, Southern, Unclassified",
  "dialects": "None known. May be Jukunoid. Lexical similarity: 16%–17% with Noone [nhu], 11% with Bikya [byb]",
  "use": "Shifted to Jukun [jbu]",
  "resources": "OLAC resources in and about Bishuo",
  "writing": "Unwritten [Qaax]",
  "other_comments": "Formerly called ‘Biyam’"
}