{
  "id": "bwt",
  "name": "Bafaw-Balong",
  "country": {
    "code": "CM",
    "name": "Cameroon",
    "area": "Africa"
  },
  "status": "6a (Vigorous)",
  "alternate_names": "Ngoe",
  "population": "8,400 (1982 SIL)",
  "location": "Littoral region: Moungo division; South West region: Meme division, Kumba area and north along Kumba-Mamfe road and southeast of Ekondo-Titi;",
  "maps": "Southern Cameroon",
  "classification": "Niger-Congo, Atlantic-Congo, Volta-Congo, Benue-Congo, Bantoid, Southern, Narrow Bantu, Northwest, A, Lundu-Balong (A.13)",
  "dialects": "Bafo (Afo, “Bafaw” (pej.), Bafowu, Lefo’, Nho), Balong (Bai, Balon, Balung, Bayi, Nlong, Valongi). May be 2 languages",
  "use": "Also use Duala [dua]",
  "resources": "OLAC resources in and about Bafaw-Balong",
  "writing": "Unwritten [Qaax]",
  "other_comments": "Language community is heterogeneous. Christian, traditional religion"
}