{
  "id": "bxg",
  "name": "Bangala",
  "country": {
    "code": "CD",
    "name": "Democratic Republic of the Congo",
    "area": "Africa"
  },
  "status": "3 (Wider communication).Used as an LWC in Aru, Dungu, Faradje, and Watsa territories by all ethnic groups as a preferred market language",
  "alternate_names": "Ngala",
  "population": "Few L1 speakers. L2 users: 3,500,000 (1991 UBS)",
  "location": "Orientale province",
  "classification": "Niger-Congo, Atlantic-Congo, Volta-Congo, Benue-Congo, Bantoid, Southern, Narrow Bantu, Northwest, C, Bangi-Ntomba (C.30)",
  "dialects": "None known. Reportedly becoming more like Lingala [lin]",
  "use": "Used as L2 by Alur [alz], Kakwa [keo], Kaliko [kbo], Lese [les], Logo [log], Lugbara [lgg], Mamvu [mdi], Mangbetu [mdj], Mangbutu [mdk], Mayogo [mdm], Mündü [muh], Ndo [ndp], Omi [omi], Zande [zne]",
  "development": "Bible: 1953–1995",
  "resources": "OLAC resources in and about Bangala",
  "writing": "Latin script [Latn]"
}