{
  "id": "byb",
  "name": "Bikya",
  "country": {
    "code": "CM",
    "name": "Cameroon",
    "area": "Africa"
  },
  "status": "10 (Extinct)",
  "alternate_names": "Furu",
  "population": "No known L1 speakers",
  "location": "North West region: Menchum division, Furu-Awa subdivision, Furubana village",
  "classification": "Niger-Congo, Atlantic-Congo, Volta-Congo, Benue-Congo, Bantoid, Southern, Unclassified",
  "dialects": "None known. In Furu subgroup (2000 B. Connell). May be Eastern Beboid. Lexical similarity: 24% with Noone [nhu] (Beboid), 14% with Akum [aku]",
  "use": "Shifted to Jukun [jbu]",
  "resources": "OLAC resources in and about Bikya",
  "writing": "Unwritten [Qaax]"
}