{
  "id": "bye",
  "name": "Pouye",
  "country": {
    "code": "PG",
    "name": "Papua New Guinea",
    "area": "Pacific"
  },
  "status": "5 (Developing)",
  "alternate_names": "Bouye",
  "population": "960 (2003 SIL), increasing",
  "location": "Sandaun Province, Lumi, East and West Wapei districts. 7 villages: Yukilau, Komtin, Wulme, Wokien, Kiliauto, Maurom, Bulawa",
  "maps": "Papua New Guinea, Map 3",
  "classification": "Sepik, Ram",
  "dialects": "None known. Lexical similarity: 67% with Karawa [xrw]",
  "typology": "SOV",
  "use": "Vigorous. All domains. All ages. Men, boys and a few women also use Tok Pisin [tpi]",
  "development": "Literacy rate in L1: 5%. Literacy rate in L2: 15%–20% (Tok Pisin). Bible portions: 1995–2007",
  "resources": "OLAC resources in and about Pouye",
  "writing": "Latin script [Latn]",
  "other_comments": "Christian, traditional religion"
}