{
  "id": "bzb",
  "name": "Andio",
  "country": {
    "code": "ID",
    "name": "Indonesia",
    "area": "Asia"
  },
  "status": "6b (Threatened)",
  "alternate_names": "Andio’o, “Bobongko” (pej.), Imbao’o, Masama",
  "population": "1,700 (Busenitz 1991)",
  "location": "Sulawesi Tengah Province, Lamala subdistrict, Tauge and Tangeban villages. Near tip of eastern peninsula",
  "maps": "Indonesia, Sulawesi",
  "classification": "Austronesian, Malayo-Polynesian, Celebic, Eastern, Saluan-Banggai, Western",
  "dialects": "None known. Lexical similarity: 44% with Bobongko [bgb], 60% with Batui [zbt], 62% with Coastal Saluan [loe], 66% with Balantak [blz]",
  "use": "Much influence from Indonesian [ind] and neighboring languages, Saluan [loe] and Balantak [blz] (Wurm 2007)",
  "resources": "OLAC resources in and about Andio",
  "other_comments": "‘Masama’ is preferred local name. Muslim"
}