{
  "id": "bzj",
  "name": "Belize Kriol English",
  "country": {
    "code": "BZ",
    "name": "Belize",
    "area": "Americas"
  },
  "status": "3 (Wider communication).Lingua franca in much of the country",
  "alternate_names": "Kriol, Miskito Coast Creole English, Western Caribbean Creole",
  "population": "70,000 in Belize (2006). Population total all countries: 110,000",
  "location": "Widespread, including communities on Ambergris and Caulker cayes",
  "maps": "Belize",
  "classification": "Creole, English based, Atlantic, Western",
  "dialects": "None known. Reportedly similar to Nicaragua Creole English [bzk] and Islander (San Andrés) [icr] creoles. Historically an extension of Nicaragua Creole English. There is a spectrum of varieties from standard American English usage to creole",
  "use": "Creoles, people of East Indian descent. Most domains. Positive attitudes. Used as L2 by Garifuna [cab], Plautdietsch [pdt]",
  "development": "Newspapers. Radio programs. TV. Dictionary. Grammar. NT: 2012",
  "resources": "OLAC resources in and about Belize Kriol English",
  "writing": "Latin script [Latn]"
}