{
  "id": "cap",
  "name": "Chipaya",
  "country": {
    "code": "BO",
    "name": "Bolivia",
    "area": "Americas"
  },
  "status": "5 (Developing)",
  "alternate_names": "Puquina",
  "population": "1,200 (1995), increasing. 60 monolinguals. Ethnic population: 1,800",
  "location": "Oruro Department, Atahuallpa province",
  "maps": "Bolivia",
  "classification": "Chipaya-Uru",
  "dialects": "None known. May be Arawakan or distantly related to Mayan (Olson 1964)",
  "typology": "SOV",
  "use": "Vigorous. Religious services. Positive attitudes. Primary L2 is shifting from Central Aymara [ayr] to Spanish [spa]. Also use Central Aymara [ayr], Spanish [spa]",
  "development": "Literacy rate in L1: 50%. 400 children in school. Have a high school. Grammar. NT: 1978–2009",
  "resources": "OLAC resources in and about Chipaya",
  "writing": "Latin script [Latn]",
  "other_comments": "Christian, traditional religion"
}