{
  "id": "cas",
  "name": "Tsimané",
  "country": {
    "code": "BO",
    "name": "Bolivia",
    "area": "Americas"
  },
  "status": "5 (Developing)",
  "alternate_names": "Chimané, Mosetén",
  "population": "5,320 (Adelaar 2004). Ethnic population: 5,840 (2006 PIB)",
  "location": "Central La Paz Department, well north of La Paz city; southwest El Beni Department and along Maniqui river; San Miguel de Huachi and Santa Ana de Alto Beni",
  "maps": "Bolivia",
  "classification": "Mosetenan",
  "dialects": "Mosetén, Tsimané. Mosetén move into Tsimané communities and function with seemingly no communication difficulties (2002 NTM)",
  "use": "All ages. Women and elders speak very little Spanish [spa]. Children don’t acquire Spanish until they are 15, unless they attend a school in one of the highland communities (Crevels 2007)",
  "development": "Dictionary. Grammar. NT: 1997",
  "resources": "OLAC resources in and about Tsimané",
  "writing": "Latin script [Latn], not in use by Mosetén",
  "other_comments": "Mosetén and Tsimané separate languages (Adelaar 1991). Traditional religion"
}