{
  "id": "caz",
  "name": "Canichana",
  "country": {
    "code": "BO",
    "name": "Bolivia",
    "area": "Americas"
  },
  "status": "9 (Dormant)",
  "alternate_names": "Kanichana",
  "population": "No known L1 speakers. Ethnic population: 1,550 (2001 DNPI)",
  "location": "Lowlands, El Beni Department, Puerto del Carmen area",
  "classification": "Language isolate",
  "dialects": "None known. Reportedly of the Tucanoan family",
  "resources": "OLAC resources in and about Canichana",
  "writing": "Unwritten [Qaax]"
}