{
  "id": "cbk",
  "name": "Chavacano",
  "country": {
    "code": "PH",
    "name": "Philippines",
    "area": "Asia"
  },
  "status": "4 (Educational)",
  "alternate_names": "Chabacano, Chabakano, Zamboangueño",
  "population": "1,200,000 (Quilis 1996). 155,000 Zamboangueño (Holm 1989); 359,000 Zamboangueño (Rubino 2008); 27,800 Caviteño; 3,750 Ternateño (1975 census); 5,470 Cotabato Chavacano (Wurm and Hattori 1981)",
  "location": "Mindanao, Zamboanga del Norte, Zamboanga del Sur, Zamboanga Sibugay and Basilan provinces; scattered groups in Kabasalan, Siay, Margosatubig, Ipil, Malangas, Lapuyan, Buug, Tungawan, Alicia, Isabela, Lamitan, Maluso, Malamawi, and Cotabato city; Cavite, Ternate, and Ermita near Manila",
  "maps": "Southern Philippines",
  "classification": "Creole, Spanish based",
  "dialects": "Caviteño, Cotabato Chavacano (Cotabateño), Davaweño Zamboangueño (Abakay Spanish, Davao Chavacano, Davaoeño, Davaweño), Ermitaño (Ermiteño), Ternateño (Ternateño Chavacano), Zamboangueño (Chavacano)",
  "typology": "Accusative actancy structure",
  "use": "Davaweño Zamboangueño dialect may have no remaining speakers. Ermiteño is extinct; Zamboangueño, Caviteño, and Cotabateño are still used. Most domains. All ages. Positive attitudes. Nearly all also use Filipino [fil]. Also use Cebuano [ceb], Tausug [tsg]. Used as L2 by Balangingih Sama [sse], Central Sama [sml], Yakan [yka]",
  "development": "Literacy rate in L1: 80%. Literacy rate in L2: 80%. Taught in primary schools. Poetry. Radio programs. Films. TV. Dictionary. Grammar. NT: 1981",
  "resources": "OLAC resources in and about Chavacano",
  "writing": "Braille script [Brai]. Latin script [Latn], primary usage",
  "other_comments": "A creole with predominantly Spanish vocabulary and Philippine-type grammatical structure. Speakers in 60 of 66 provinces (1970 census). Christian"
}