{
  "id": "cby",
  "name": "Carabayo",
  "country": {
    "code": "CO",
    "name": "Colombia",
    "area": "Americas"
  },
  "status": "6b (Threatened)",
  "alternate_names": "“Amazonas Macusa” (pej.), Yuri",
  "population": "150. Ethnic population: 200 (Crevels 2007)",
  "location": "Amazonas Department, halfway between San Bernardo and Pure rivers. At least 3 long houses",
  "maps": "Southern Colombia",
  "classification": "Unclassified",
  "resources": "OLAC resources in and about Carabayo",
  "other_comments": "“Macusa” or “Macú”, savage, is arbitrarily applied to uncontacted groups"
}