{
  "id": "ccp",
  "name": "Chakma",
  "country": {
    "code": "BD",
    "name": "Bangladesh",
    "area": "Asia"
  },
  "status": "5 (Developing)",
  "alternate_names": "Sakma, Sangma, Takam",
  "population": "150,000 in Bangladesh (2007). Population total all countries: 326,000",
  "location": "Southeast, Chittagong Hills area, and Chittagong city",
  "maps": "Southeastern Bangladesh                      India, Map 5                      Central Myanmar",
  "classification": "Indo-European, Indo-Iranian, Indo-Aryan, Eastern zone, Bengali-Assamese",
  "dialects": "Chakma of India [ccp] understand Bangladesh Chakma with difficulty. Some dialect variation within Myanmar. Lexical similarity: 58%–67% with Tanchangya [tnv]",
  "use": "All domains. All ages. Positive attitudes. Educated and most men also use Bengali [ben]. Also use Chittagonian [ctg]. Used as L2 by Riang [ria]",
  "development": "Literacy rate in L1: 70%. Literacy rate in L2: 70%. NT: 1926–1991",
  "resources": "OLAC resources in and about Chakma",
  "writing": "Bengali script [Beng]. Chakma script [Cakm], no longer in use. Latin script [Latn]",
  "other_comments": "Buddhist, Christian"
}