{
  "id": "cdr",
  "name": "Kamuku",
  "country": {
    "code": "NG",
    "name": "Nigeria",
    "area": "Africa"
  },
  "status": "6a (Vigorous)",
  "alternate_names": "Cinda-Regi-Tiyal, Tiyal, Tiyar, Tucipu, Tu’yara, ’Yara",
  "population": "45,000 (2010 Z. Yoder et al.)",
  "location": "Niger state: Chanchaga, Rafi, and Mariga LGAs; Kaduna state: Birnin Gwari LGA",
  "maps": "Nigeria, Map 1",
  "classification": "Niger-Congo, Atlantic-Congo, Volta-Congo, Benue-Congo, Kainji, Western, Kamuku",
  "dialects": "Cinda (Jinda, Majinda, Makangara, Tegina, Ucinda), Kuki (Tiyal, Tiyar), Kuru (uKuru), Maruba, Regi (tuRegi). Cinda, Regi, and Kuki mutually intelligible, also by Shiyabe. Lexical similarity: 82%–97% among the 5 dialects, 47%–63% with Eastern Acipa [acp], 59%–70% with Shama-Sambuga [sqa], 65%–75% with Rogo [rod]",
  "use": "Hausa [hau] and English [eng] used in schools. Home. All ages. Positive attitudes. All except some elderly women also use Hausa [hau]. Also use English [eng]",
  "resources": "OLAC resources in and about Kamuku",
  "other_comments": "Clans are Uregi, Urogo, Tiyar (Kuki), Ucinda (Jinda), and Ushana. Laka, or Kamuku Laka, are Hausa-speaking ethnic Kamuku. Traditional religion, Muslim"
}