{
  "id": "ces",
  "name": "Czech",
  "country": {
    "code": "CZ",
    "name": "Czech Republic",
    "area": "Europe"
  },
  "status": "1 (National). De facto national language",
  "alternate_names": "Bohemian, Cestina",
  "population": "10,400,000 in Czech Republic (European Commission 2012). Population total all countries: 10,619,340",
  "location": "Widespread",
  "classification": "Indo-European, Balto-Slavic, Slavic, West, Czech-Slovak",
  "dialects": "Central Bohemian, Czecho-Moravian, Hanak, Lach (Yalach), Northeast Bohemian, Southwest Bohemian. All Czech and Slovak dialects mutually inherently intelligible. Czech is also intelligible with Polish [pol]",
  "typology": "SVO",
  "use": "2,239,000 also use English [eng]. 1,866,000 also use Russian [rus]. 2,612,000 also use Standard German [deu]",
  "development": "Fully developed. Bible: 1380–1980",
  "resources": "OLAC resources in and about Czech",
  "writing": "Braille script [Brai]. Latin script [Latn], primary usage",
  "other_comments": "Christian"
}