{
  "id": "cet",
  "name": "Centúúm",
  "country": {
    "code": "NG",
    "name": "Nigeria",
    "area": "Africa"
  },
  "status": "8a (Moribund)",
  "alternate_names": "Cen Tuum",
  "population": "200 (Crozier and Blench 1992)",
  "location": "Gombe state: Balanga LGA, Cham town, among Dijim [cfa] language group",
  "maps": "Nigeria, Map 5",
  "classification": "Language isolate",
  "use": "Older adults only",
  "resources": "OLAC resources in and about Centúúm"
}