{
  "id": "cin",
  "name": "Cinta Larga",
  "country": {
    "code": "BR",
    "name": "Brazil",
    "area": "Americas"
  },
  "status": "6a (Vigorous)",
  "population": "1,300 (Moore 2006). Nearly all are monolingual. Ethnic population: 1,440 (2006 FUNASA)",
  "location": "Eastern Rondônia, Terra Indigena Roosevelt, Parque Indigena Aripuanã; Western Mato Grosso, Terra Indigena Aripuanã",
  "maps": "Central Brazil",
  "classification": "Tupian, Mondé, Aruá",
  "use": "Vigorous",
  "resources": "OLAC resources in and about Cinta Larga",
  "writing": "Latin script [Latn]"
}