{
  "id": "cjh",
  "name": "Chehalis, Upper",
  "country": {
    "code": "US",
    "name": "United States",
    "area": "Americas"
  },
  "status": "9 (Dormant)",
  "alternate_names": "Chehalis, Kwaiailk",
  "population": "No known L1 speakers. The last speaker died in 2001 (Golla 2007). Ethnic population: 200 (1977 SIL)",
  "location": "Washington, south of Puget Sound",
  "classification": "Salish, Tsamosan, Inland",
  "dialects": "None known. Separate from Lower Chehalis [cea]. Different from Halkomelem [hur] on Chehalis river, British Columbia",
  "development": "Dictionary. Grammar",
  "resources": "OLAC resources in and about Chehalis, Upper"
}