{
  "id": "cld",
  "name": "Chaldean Neo-Aramaic",
  "country": {
    "code": "IQ",
    "name": "Iraq",
    "area": "Asia"
  },
  "status": "7 (Shifting). Recognized language (2005, Constitution, Article 4(1)), constitutional term: Syriac. Unevenly recognized except in Kurdistan Region",
  "alternate_names": "Chaldean, Fallani, Fellihi, Kaldaya, Kildani, Lishana Kaldaya, Modern Chaldean, Neo-Chaldean, Soorath, Soorith, Suras, Sureth",
  "population": "100,000 in Iraq (1994 H. Mutzafi). Population total all countries: 206,000",
  "location": "Contiguous with Assyrian Neo-Aramaic [aii] enclaves in Dahuk and Ninawa governorates",
  "maps": "Iraq",
  "classification": "Afro-Asiatic, Semitic, Central, Aramaic, Eastern, Central, Northeastern",
  "dialects": "Alqosh, Bartille, Dihok, Mangesh, Shirnak-Chizre (Bohtan), Tel Kepe, Tisqopa. High intelligibility of Lishana Deni [lsd] and Ashirat [aii] (western dialect group of Assyrian Neo-Aramaic); little or no intelligibility with other Northeastern Aramaic varieties. A member of macrolanguage Syriac [syr]",
  "development": "Grammar. NT: 2006",
  "resources": "OLAC resources in and about Chaldean Neo-Aramaic",
  "writing": "Syriac script [Syrc]",
  "other_comments": "Ethnic group distinct religiously from other Northeastern Aramaic varieties; separated from the Assyrian in 16th century. The names Chaldean and Assyrian sometimes used in a popular sense to include both groups. Originally located in central western and northern Iraqi Kurdistan and some in bordering Turkey. Christian"
}