{
  "id": "cll",
  "name": "Chala",
  "country": {
    "code": "GH",
    "name": "Ghana",
    "area": "Africa"
  },
  "status": "6a (Vigorous)",
  "alternate_names": "Cala, Tshala",
  "population": "3,000 (2003 GILLBT)",
  "location": "Volta region: Nkwanta, Odomi, Ago villages; Northern region: Jadigbe village near Seipe, south of Ekumdipe is 35% Chala",
  "maps": "Ghana",
  "classification": "Niger-Congo, Atlantic-Congo, Volta-Congo, North, Gur, Central, Southern, Grusi, Eastern",
  "use": "Proficiency is higher than in Akan [aka] which is spoken to outsiders. Also use Gikyode [acd]",
  "resources": "OLAC resources in and about Chala",
  "writing": "Unwritten [Qaax]",
  "other_comments": "They are under the Gikyode [acd] paramount chief. Traditional religion"
}