{
  "id": "coj",
  "name": "Cochimi",
  "country": {
    "code": "MX",
    "name": "Mexico",
    "area": "Americas"
  },
  "status": "9 (Dormant)",
  "alternate_names": "Cadegomeño, Cadegomo, Cochetimi, Cochima, Cochimtee, Didiu, Joaquín, Laimon, Laymon-Cochimi, Laymonem, San, San Francesco Saverio Mission, San Francisco Xavier de, San Javier, San Xavier, Viggé-Biaundo Mission",
  "population": "No known L1 speakers. Ethnic population: 150 (Adelaar 2007). This may include Kumiai [dih] in La Huerta who call themselves Cochimí. Old Cochimí is extinct (Mixco 1978)",
  "location": "Baja California Norte, north of Loreto to the northern part of the peninsula",
  "classification": "Cochimí-Yuman, Yuman",
  "dialects": "None known. Troike (1970) regards it as 2 distinct languages",
  "resources": "OLAC resources in and about Cochimi",
  "writing": "Unwritten [Qaax]"
}