{
  "id": "com",
  "name": "Comanche",
  "country": {
    "code": "US",
    "name": "United States",
    "area": "Americas"
  },
  "status": "8a (Moribund)",
  "population": "100 (Golla 2007), decreasing. Ethnic population: 8,500 (Golla 2007)",
  "location": "Western Oklahoma",
  "maps": "Southeastern United States of America",
  "classification": "Uto-Aztecan, Northern Uto-Aztecan, Numic, Central",
  "dialects": "None known. Reportedly similar to Shoshoni [shh] and Timbisha [par]",
  "use": "Courses in Comanche have been taught at University of Oklahoma (Golla 2007). Speakers 50 and older",
  "development": "Dictionary. Grammar. Bible portions: 1958",
  "resources": "OLAC resources in and about Comanche",
  "writing": "Latin script [Latn]"
}