{
  "id": "coz",
  "name": "Chocholtec",
  "country": {
    "code": "MX",
    "name": "Mexico",
    "area": "Americas"
  },
  "status": "8b (Nearly extinct)",
  "alternate_names": "Chocho, Chocholteco, Chochon, Chochonteco, Chochotec",
  "population": "540 (2011 INALI). Chocholteco del este: 180 speakers, Chocholteco del oeste: 160 speakers, Chocholteco del sur: 200 speakers (2011 INALI)",
  "location": "Oaxaca, Nochixtlán district, Santa María Nativitas, San Juan Bautista Coixtlahuaca, and San Miguel Tulancingo",
  "maps": "Southern Central Mexico",
  "classification": "Otomanguean, Eastern Otomanguean, Popolocan-Zapotecan, Popolocan",
  "dialects": "Chocholteco del este, Chocholteco del oeste, Chocholteco del sur",
  "use": "Also use Spanish [spa]",
  "development": "Grammar",
  "resources": "OLAC resources in and about Chocholtec",
  "writing": "Unwritten [Qaax]"
}