{
  "id": "cpg",
  "name": "Cappadocian Greek",
  "country": {
    "code": "GR",
    "name": "Greece",
    "area": "Europe"
  },
  "status": "8b (Nearly extinct)",
  "population": "2,800 (2015 M. Janse)",
  "location": "Thessaly administrative unit: Mandra village; Macedonia and Thrace administrative unit: Xirohori and Neo Agioneri villages",
  "maps": "Greece and The Former Yugoslav Republic of Macedonia",
  "classification": "Indo-European, Greek, Attic",
  "dialects": "Misiotika (Misti, Mistiot), Pharasa, Sille, Western Cappadocian. Reportedly similar to Pontic [pnt]. Even more distinct from standard Greek [ell] than Pontic. Misiotika is the only Cappadocian dialect still spoken to any extent",
  "development": "Dictionary",
  "resources": "OLAC resources in and about Cappadocian Greek",
  "other_comments": "Different from the ancient Anatolian language spoken in Cappadocia. Christian"
}