{
  "id": "cps",
  "name": "Capiznon",
  "country": {
    "code": "PH",
    "name": "Philippines",
    "area": "Asia"
  },
  "status": "6a (Vigorous)",
  "alternate_names": "Capisano, Capiseño",
  "population": "639,000 (2000)",
  "location": "Western Visayas, northeast Panay, Capiz Province; Iloilo Province, Balasan",
  "maps": "Southern Philippines",
  "classification": "Austronesian, Malayo-Polynesian, Philippine, Greater Central Philippine, Central Philippine, Bisayan, Central, Peripheral",
  "dialects": "None known. Sample had 91% comprehension of Hiligaynon [hil] narrative",
  "use": "Also use Filipino [fil]",
  "resources": "OLAC resources in and about Capiznon"
}