{
  "id": "crq",
  "name": "Chorote, Iyo’wujwa",
  "country": {
    "code": "AR",
    "name": "Argentina",
    "area": "Americas"
  },
  "status": "5 (Developing)",
  "population": "1,500 in Argentina (Crevels 2007). Population total all countries: 2,150. 750 monolinguals. Ethnic population: 2,000 (Crevels 2007). Includes all ethnic Chorote, both [crt] and [crq]",
  "location": "Northeast Salta Province, mixed with Iyojwa’ja Chorote [crt]",
  "maps": "Argentina and Chile                      Paraguay",
  "classification": "Matacoan, Chorote",
  "dialects": "Chorote (Iyowujwa), Manjui (Inkijwas, I’no’, Manjuy)",
  "use": "Vigorous. Home. All ages. Also use Spanish [spa]",
  "development": "Grammar. Bible portions: 1995–2011",
  "resources": "OLAC resources in and about Chorote, Iyo’wujwa",
  "writing": "Latin script [Latn]",
  "other_comments": "Traditional religion"
}