{
  "id": "crt",
  "name": "Chorote, Iyojwa’ja",
  "country": {
    "code": "AR",
    "name": "Argentina",
    "area": "Americas"
  },
  "status": "6b (Threatened)",
  "alternate_names": "Choroti, Eklenjuy, Yofuaha",
  "population": "800 (Crevels 2007). Ethnic population: 2,000 ethnic Chorote [crt] and [crq] (Crevels 2007)",
  "location": "Northeast Salta Province, near the Pilcomayo river",
  "maps": "Argentina and Chile",
  "classification": "Matacoan, Chorote",
  "dialects": "None known. Distinct from Iyo’wujwa Chorote [crq] (Drayson)",
  "use": "Vigorous",
  "development": "Dictionary. Grammar. NT: 1997",
  "resources": "OLAC resources in and about Chorote, Iyojwa’ja",
  "writing": "Latin script [Latn]",
  "other_comments": "Ethnonyms: Chorote in Argentina, Choroti in Paraguay, Eklenjuy by the Nivaclé. Traditional religion"
}