{
  "id": "csi",
  "name": "Miwok, Coast",
  "country": {
    "code": "US",
    "name": "United States",
    "area": "Americas"
  },
  "status": "9 (Dormant)",
  "population": "No known L1 speakers",
  "location": "California, coast from San Francisco Bay to Bodega Bay",
  "classification": "Miwok-Costanoan, Miwokan, Western Miwokan",
  "dialects": "Bodega, Huimen, Marin Miwok",
  "use": "Cultural revitalization underway",
  "development": "Dictionary",
  "resources": "OLAC resources in and about Miwok, Coast",
  "other_comments": "Distinct from other Miwok varieties. Became extinct in 1960s or 1970s. Bodega and Marin Miwok dialects were possibly separate languages"
}