{
  "id": "csr",
  "name": "Costa Rican Sign Language",
  "country": {
    "code": "CR",
    "name": "Costa Rica",
    "area": "Americas"
  },
  "status": "6a (Vigorous)",
  "location": "Scattered",
  "classification": "Deaf sign language",
  "dialects": "Older and younger dialects differ due to influence from ASL [ase] starting in the 1970s (2008 C. Ramirez ). Lexical similarity: 60% with ASL [ase]",
  "resources": "OLAC resources in and about Costa Rican Sign Language"
}