{
  "id": "cta",
  "name": "Chatino, Tataltepec",
  "country": {
    "code": "MX",
    "name": "Mexico",
    "area": "Americas"
  },
  "status": "6b (Threatened)",
  "alternate_names": "Chatino Occidental Bajo, Lowland Chatino",
  "population": "2,640 (2000 INALI). 470 monolinguals",
  "location": "Southeast Oaxaca, Juquila district, extreme west lowland Chatino area, Tataltepec de Valdez and San Pedro Tututepec towns; a few in nearby Spanish centers",
  "maps": "Southern Central Mexico",
  "classification": "Otomanguean, Eastern Otomanguean, Popolocan-Zapotecan, Zapotecan, Chatino",
  "dialects": "38% intelligibility of Yaitepec dialect of Western Highland Chatino [ctp], 35% of Panixtlahuaca dialect of Western Highland Chatino [ctp], 33% of Nopala [cya], 27% of Zacatepec [ctz]",
  "typology": "VSO, long words, affixes, clitics, tonal",
  "use": "All ages. Used as L2 by Western Highland Chatino [ctp]",
  "development": "Dictionary. Grammar. NT: 1981",
  "resources": "OLAC resources in and about Chatino, Tataltepec",
  "writing": "Latin script [Latn]"
}