{
  "id": "cuj",
  "name": "Mashco Piro",
  "country": {
    "code": "PE",
    "name": "Peru",
    "area": "Americas"
  },
  "status": "6b (Threatened)",
  "alternate_names": "Cujareno, Cujareño, “Mashco” (pej.)",
  "population": "60 (1976 SIL). 60 monolinguals",
  "location": "Madre de Dios Region, Purús province; Upper Purús Region",
  "maps": "Peru",
  "classification": "Maipurean, Southern, Southern Outlier, Piro, Piro",
  "dialects": "None known. About 60% inherent intelligibility of Yine [pib]",
  "resources": "OLAC resources in and about Mashco Piro",
  "other_comments": "Highly nomadic"
}