{
  "id": "cuk",
  "name": "Kuna, San Blas",
  "country": {
    "code": "PA",
    "name": "Panama",
    "area": "Americas"
  },
  "status": "5 (Developing)",
  "alternate_names": "Cuna, San Blas Cuna",
  "population": "57,100 (2000). 10,000 in Panama City, Colón, and on banana plantations (1991 SIL)",
  "location": "East, San Blas Province; Panama Province, north Chepo district; Emberá Province, Cemarco and Sambu districts; Darien Province, San Miguel Gulf area; Colon Province, Santa Isabel districts",
  "maps": "Panama",
  "classification": "Chibchan, Chibchan B, Eastern Chibchan, Cuna",
  "dialects": "Bayano (Alto Bayano, Maje), Chuana",
  "typology": "SOV",
  "use": "Also use English [eng], Spanish [spa]",
  "development": "Bible: 2014",
  "resources": "OLAC resources in and about Kuna, San Blas",
  "writing": "Latin script [Latn]",
  "other_comments": "Christian"
}