{
  "id": "cum",
  "name": "Cumeral",
  "country": {
    "code": "CO",
    "name": "Colombia",
    "area": "Americas"
  },
  "status": "10 (Extinct)",
  "population": "No known L1 speakers",
  "location": "Guainía Department",
  "classification": "Maipurean, Unclassified",
  "resources": "OLAC resources in and about Cumeral"
}