{
  "id": "cuq",
  "name": "Cun",
  "country": {
    "code": "CN",
    "name": "China",
    "area": "Asia"
  },
  "status": "6a (Vigorous). Language of recognized nationality: Han",
  "alternate_names": "Cunhua, Cun-Hua, Ngao Fon",
  "population": "80,000 (1999 O. Jueya). 47,200 monolinguals. Mainly children, elders, and some women",
  "location": "Hainan Province, north Dongfang county, south bank of Changhua river, north bank in Changjiang county",
  "maps": "Southern China",
  "classification": "Tai-Kadai, Kra, Eastern Kra",
  "dialects": "None known. Lexical similarity: 40% with Hlai [lic]. Many loanwords from Chinese",
  "typology": "SVO; tonal, 10 tones (5 in checked syllables and 5 in unchecked syllables)",
  "use": "Vigorous. All domains. All ages. Positive attitudes. Very few also use Hlai [lic]. 41% can use Mandarin Chinese [cmn]",
  "development": "Grammar",
  "resources": "OLAC resources in and about Cun",
  "other_comments": "Traditional religion"
}