{
  "id": "dal",
  "name": "Dahalo",
  "country": {
    "code": "KE",
    "name": "Kenya",
    "area": "Africa"
  },
  "status": "8a (Moribund)",
  "alternate_names": "Guo Garimani, Sanye",
  "population": "400 (1992 M. Brenzinger). Ethnic population: 2,400 (2009 census)",
  "location": "Lamu and Tana River counties: near Tana river mouth",
  "maps": "Kenya",
  "classification": "Afro-Asiatic, Cushitic, South",
  "typology": "Has clicks, although unrelated to Khoisan languages",
  "use": "May have no remaining speakers. Shifting to Kiswahili [swh]",
  "resources": "OLAC resources in and about Dahalo",
  "other_comments": "Different from Sanye [ssn] (Waata). Traditional religion"
}