{
  "id": "dbu",
  "name": "Dogon, Bondum Dom",
  "country": {
    "code": "ML",
    "name": "Mali",
    "area": "Africa"
  },
  "status": "6a (Vigorous)",
  "alternate_names": "Bondum-Dom, Dogon, Najamba-Kindige",
  "population": "24,700 (1998 J. Durieux)",
  "location": "Mopti region: Douentza circle, south of Lake Korarou, along Douentza–Tassembe–Sangali road, Borko village",
  "maps": "Mali, Map 4",
  "classification": "Niger-Congo, Atlantic-Congo, Volta-Congo, Dogon",
  "dialects": "Kindjim, Nadjamba",
  "use": "All ages. Also use Jamsay Dogon [djm]",
  "resources": "OLAC resources in and about Dogon, Bondum Dom"
}