{
  "id": "ddd",
  "name": "Dongotono",
  "country": {
    "code": "SS",
    "name": "South Sudan",
    "area": "Africa"
  },
  "status": "6b (Threatened)",
  "population": "5,000 (2013 SIL)",
  "location": "East Equatoria state: Ikotos county, Ikotos payam; Lomohidang payam, Isoke and Chakari villages",
  "maps": "South Sudan",
  "classification": "Nilo-Saharan, Eastern Sudanic, Nilotic, Eastern, Lotuxo-Teso, Lotuxo-Maa, Lotuxo",
  "dialects": "May be a separate language or dialect of Lango [lno]. Lexical similarity: 60% with Otuho [lot]",
  "use": "Some young people, all adults. Positive attitudes",
  "resources": "OLAC resources in and about Dongotono",
  "writing": "Unwritten [Qaax]"
}