{
  "id": "ddw",
  "name": "Dawera-Daweloor",
  "country": {
    "code": "ID",
    "name": "Indonesia",
    "area": "Asia"
  },
  "status": "7 (Shifting)",
  "alternate_names": "Davelor",
  "population": "1,270 (2007 SIL)",
  "location": "Maluku Province; twin coral islands northeast of Babar island, Daweloor island, to south, Wiratan, Watuwei, and Nurnyaman villages; Dawera island, to north, Welora, Letmasa, and Ilmarang villages",
  "maps": "Indonesia, Southern Maluku",
  "classification": "Austronesian, Malayo-Polynesian, Central-Eastern Malayo-Polynesian, Babar, North",
  "dialects": "Minor dialect differences",
  "use": "Shifting to a local Malay variety. Home, gardens, village, ceremonies, religion. Also use a regional Malay variety, probably a dialect of Ambonese Malay [abs], in all domains, except for ceremonies; children are taught the Malay variety. Speakers also use Indonesian [ind] primarily in government, Christian religious domains",
  "development": "Literacy rate in L1: Below 1%",
  "resources": "OLAC resources in and about Dawera-Daweloor",
  "other_comments": "Christian"
}