{
  "id": "deh",
  "name": "Dehwari",
  "country": {
    "code": "PK",
    "name": "Pakistan",
    "area": "Asia"
  },
  "status": "6a (Vigorous)",
  "alternate_names": "Deghwari",
  "population": "13,000 (1998)",
  "location": "Central Balochistan, Kalat, and Mastung",
  "maps": "Southern Pakistan",
  "classification": "Indo-European, Indo-Iranian, Iranian, Western, Southwestern, Persian",
  "development": "Literacy rate in L1: Below 1%. Literacy rate in L2: Below 5%",
  "resources": "OLAC resources in and about Dehwari",
  "other_comments": "Influenced by Brahui [brh]"
}