{
  "id": "dem",
  "name": "Dem",
  "country": {
    "code": "ID",
    "name": "Indonesia",
    "area": "Asia"
  },
  "status": "6a (Vigorous)",
  "alternate_names": "Lem, Ndem",
  "population": "1,000 (1987 SIL)",
  "location": "Papua Province. Western highlands; along Rouffaer river headwaters; north of Ilaga town",
  "maps": "Indonesia, Eastern Papua",
  "classification": "Trans-New Guinea, Dem",
  "use": "Used as L2 by Wano [wno]",
  "resources": "OLAC resources in and about Dem",
  "other_comments": "Christian, traditional religion"
}