{
  "id": "dga",
  "name": "Dagaare, Southern",
  "country": {
    "code": "GH",
    "name": "Ghana",
    "area": "Africa"
  },
  "status": "4 (Educational). Recognized language (1951, Laws of the Gold Coast, Vernacular Literature Board Ordinance, as amended by Ordinance No. 44)",
  "alternate_names": "Dagaare, Dagara, Dagare, Dagari, Dagati, Degati, Dogaari, Southern Dagari",
  "population": "700,000 (2003), increasing. 1,000,000 including Northern Dagara in Burkina Faso (2003)",
  "location": "Upper West region. Northwest corner",
  "maps": "Ghana",
  "classification": "Niger-Congo, Atlantic-Congo, Volta-Congo, North, Gur, Central, Northern, Oti-Volta, Western, Northwest, Dagaari-Birifor, Dagaari",
  "dialects": "None known. Southern Dagaare and Southern Birifor [biv] are partially intelligible. Distinct from Northern Dagara [dgi] in Burkina Faso",
  "use": "Vigorous. All domains. All ages. Also use English [eng]",
  "development": "Literacy rate in L1: 5%–10%. Literacy rate in L2: 5%–15%. Taught in primary and secondary schools. Radio programs. Dictionary. Grammar. Bible portions: 1970",
  "resources": "OLAC resources in and about Dagaare, Southern",
  "writing": "Latin script [Latn], used since 1966",
  "other_comments": "Dagaare is more prominent politically and socially than Birifor. Different from Northern Dagara [dgi] in Burkina Faso. Christian, traditional religion"
}