{
  "id": "dgd",
  "name": "Dagaari Dioula",
  "country": {
    "code": "BF",
    "name": "Burkina Faso",
    "area": "Africa"
  },
  "status": "6a (Vigorous)",
  "alternate_names": "Dagaari Jula, Dagari Dyoula, Jari, Wala, Yari",
  "population": "21,000 (1999 SIL)",
  "location": "Centre-Ouest region: Sissili and Zuri provinces, Diébougou, To, Boromo, Soukoulaye, Silly, Pa, Dano, Leo, Gao, Dissin, Wessa, Fara, French Hamele",
  "maps": "Burkina Faso",
  "classification": "Niger-Congo, Atlantic-Congo, Volta-Congo, North, Gur, Central, Northern, Oti-Volta, Western, Northwest, Dagaari-Birifor, Dagaari",
  "dialects": "None known. Not inherently intelligible with Dagaare [dgi], Jula [dyu], or Mòoré [mos]. Lexical similarity: 65%–70% with Northern Dagaare [dgi]",
  "use": "West of Mouhoun River some men have proficiency in Jula [dyu], but women have lower proficiency. In some western locations some also speak Mòoré [mos]",
  "resources": "OLAC resources in and about Dagaari Dioula",
  "other_comments": "Muslim"
}