{
  "id": "dhi",
  "name": "Dhimal",
  "country": {
    "code": "NP",
    "name": "Nepal",
    "area": "Asia"
  },
  "status": "6b (Threatened). Language of recognized indigenous nationality: Dhimal",
  "alternate_names": "Dhemal",
  "population": "19,300 in Nepal (2011 census), decreasing. Population total all countries: 19,750. Ethnic population: 19,500. L2 users: 410 in Nepal (1991 census)",
  "location": "Mechi Zone, Jhapa district, 24 villages; Kosi Zone, Morang and Sunsari districts, 51 villages; eastern and western dialects are separated by Kankai river in Jhapa",
  "maps": "India, Map 4                      Eastern Nepal enlargements",
  "classification": "Sino-Tibetan, Tibeto-Burman, Sal, Dhimalish",
  "dialects": "Eastern Dhimal, Western Dhimal. 75%–80% intelligibility between eastern and western dialect speakers. Lexical similarity: 80%–82% with dialects",
  "typology": "SOV; postpositions; noun head final; no noun classes or genders; content q-word in situ; genitives, demonstratives, relatives before noun heads; 1 prefix, up to 3 suffixes; clause constituents indicated by case-marking; verbal affixation marks person; non-ergative; tense and aspect; passives and voice; nontonal; 31 consonant and 16 vowel phonemes (includes 5 basic vowels, 5 long vowels and 5 nasalized vowels); honorificity is marked for 1st person when speaking with in-laws",
  "use": "Home, friends, religion; mixed use: Work. Adolescents and older. Some use among children. Positive attitudes. Also use Hindi [hin], Nepali [npi], Rajbanshi [rjs]",
  "development": "Literacy rate in L2: 39% (1991 census). Poetry. Magazines. New media. Radio programs. Dictionary. Grammar. Bible portions: 2000",
  "resources": "OLAC resources in and about Dhimal",
  "writing": "Devanagari script [Deva]",
  "other_comments": "Traditional religion, Christian, Hindu"
}