{
  "id": "dhx",
  "name": "Dhungaloo",
  "country": {
    "code": "AU",
    "name": "Australia",
    "area": "Pacific"
  },
  "status": "9 (Dormant)",
  "alternate_names": "Dungaloo",
  "population": "No known L1 speakers",
  "location": "Queensland",
  "classification": "Australian, Pama-Nyungan, Maric",
  "resources": "OLAC resources in and about Dhungaloo"
}