{
  "id": "dil",
  "name": "Dilling",
  "country": {
    "code": "SD",
    "name": "Sudan",
    "area": "Africa"
  },
  "status": "8a (Moribund)",
  "alternate_names": "Delen, Warkimbe",
  "population": "5,300 (Stevenson 1984), decreasing. 0 monolinguals",
  "location": "Janub Kurdufan state: Dilling town and surrounding hills, including Kudur",
  "maps": "Sudan",
  "classification": "Nilo-Saharan, Eastern Sudanic, Eastern, Nubian, Central, Hill, Unclassified",
  "dialects": "Debri, Dilling. Lexical similarity: 94% with Dilling and Debri dialects; 93% with Kadaru [kdu]",
  "typology": "SOV",
  "use": "Few domains. Only older adults. 100% also use Sudanese Spoken Arabic [apd]. Very few use Dilling with their children",
  "development": "Some literacy materials produced",
  "resources": "OLAC resources in and about Dilling",
  "writing": "Latin script [Latn]",
  "other_comments": "The Dilling people call themselves Warki; those of Kudur call themselves Kwashe. People of Mandal Hills (Sobay (Sud), Adlan, Bade, Kule, Wulal) used to speak the Kudur dialect of Dilling, but now speak Ama [nyi] and only use Dilling for ceremonies"
}