{
  "id": "dit",
  "name": "Dirari",
  "country": {
    "code": "AU",
    "name": "Australia",
    "area": "Pacific"
  },
  "status": "10 (Extinct)",
  "alternate_names": "Dhirari",
  "population": "No known L1 speakers",
  "location": "South Australia, east of Lake Eyre North",
  "classification": "Australian, Pama-Nyungan, Karnic, Karna",
  "resources": "OLAC resources in and about Dirari"
}