{
  "id": "dja",
  "name": "Djadjawurrung",
  "country": {
    "code": "AU",
    "name": "Australia",
    "area": "Pacific"
  },
  "status": "10 (Extinct)",
  "alternate_names": "Djadja Wurrung, Djadjawurung, Dyadyawurung, Jaara, Jaja-Wurrung, Jajawurung, Le Wurrung, Lewurru, Lewurrung, Yaara, Yaura",
  "population": "No known L1 speakers. Date of the last speaker’s death unknown",
  "location": "Victoria State, Kyneton, Boort, Lake Buloke, Wallaloo creek, Navarre hill",
  "classification": "Australian, Pama-Nyungan, Kulin",
  "resources": "OLAC resources in and about Djadjawurrung",
  "writing": "Unwritten [Qaax]"
}