{
  "id": "dju",
  "name": "Kapriman",
  "country": {
    "code": "PG",
    "name": "Papua New Guinea",
    "area": "Pacific"
  },
  "status": "6a (Vigorous)",
  "alternate_names": "Mugumute, Wasare",
  "population": "1,640 (2003 SIL)",
  "location": "East Sepik Province, Blackwater and Korosameri rivers. 6 villages",
  "maps": "Papua New Guinea, Map 6",
  "classification": "Sepik, Sepik Hill, Bahinemo",
  "dialects": "Kapriman, Karambit",
  "development": "Literacy rate in L1: Below 5%. Literacy rate in L2: 5%–15%",
  "resources": "OLAC resources in and about Kapriman"
}