{
  "id": "dmr",
  "name": "Damar, East",
  "country": {
    "code": "ID",
    "name": "Indonesia",
    "area": "Asia"
  },
  "status": "6a (Vigorous)",
  "alternate_names": "South Damar",
  "population": "2,800 (1990 SIL)",
  "location": "Maluku Province, southeast, 6 villages; northeast of Timor island, east of Roma island; Damar island, east side",
  "maps": "Indonesia, Southern Maluku",
  "classification": "Austronesian, Malayo-Polynesian, Central-Eastern Malayo-Polynesian, Timor-Babar, Southwest Maluku, East Damar",
  "dialects": "None known. Not intelligible of West Damar [drn]",
  "development": "Literacy rate in L1: Below 1%",
  "resources": "OLAC resources in and about Damar, East"
}