{
  "id": "dmy",
  "name": "Sowari",
  "country": {
    "code": "ID",
    "name": "Indonesia",
    "area": "Asia"
  },
  "status": "8a (Moribund)",
  "alternate_names": "Demta, Muris",
  "population": "1,300 (2000), decreasing",
  "location": "Papua Province, north coast west of Tanahmerah bay, Muris Besar, Muris Kecil, Ambora, and Yougafsa villages",
  "maps": "Indonesia, Eastern Papua",
  "classification": "East Bird’s Head-Sentani, Sentani, Demta",
  "use": "Seldom used. Also use Indonesian [ind], Papuan Malay [pmy]",
  "resources": "OLAC resources in and about Sowari",
  "other_comments": "Traditional religion, Christian"
}