{
  "id": "dni",
  "name": "Dani, Lower Grand Valley",
  "country": {
    "code": "ID",
    "name": "Indonesia",
    "area": "Asia"
  },
  "status": "5 (Developing)",
  "alternate_names": "Grand Valley Dani",
  "population": "20,000 (1996 SIL)",
  "location": "Papua Province. Central highlands, Baliem Grand Valley; lower gorge",
  "maps": "Indonesia, Eastern Papua",
  "classification": "Trans-New Guinea, West, Dani, Dani Proper",
  "dialects": "Lower Bele, Lower Grand Valley Hitigima (Dani-Kurima, Kurima), Lower Kimbin (Kibin), Upper Bele, Upper Pyramid",
  "development": "Grammar. NT: 1988–1994",
  "resources": "OLAC resources in and about Dani, Lower Grand Valley",
  "writing": "Latin script [Latn]",
  "other_comments": "Traditional religion, Christian"
}