{
  "id": "dob",
  "name": "Dobu",
  "country": {
    "code": "PG",
    "name": "Papua New Guinea",
    "area": "Pacific"
  },
  "status": "3 (Wider communication).Lingua franca in D’Entrecasteaux Islands",
  "alternate_names": "Dobuan",
  "population": "10,000 (1998 SIL). 6,000 monolinguals. L2 users: 100,000 (1987 SIL)",
  "location": "Milne Bay Province, Esa’ala district, Sanaroa, Dobu, parts of Fergusson and Normanby islands. 500 villages",
  "maps": "Papua New Guinea, Map 17",
  "classification": "Austronesian, Malayo-Polynesian, Central-Eastern Malayo-Polynesian, Eastern Malayo-Polynesian, Oceanic, Western Oceanic, Papuan Tip, Nuclear, North Papuan Mainland-D’Entrecasteaux, Dobu-Duau",
  "dialects": "Central Dobu, Galubwa, Loboda (Dawada-Siausi, Roboda), Sanaroa, Ubuia. Lexical similarity: 56% with Molima [mox] (most similar)",
  "typology": "SOV",
  "use": "Also use English [eng], Hiri Motu [hmo]. Used as L2 by ’Auhelawa [kud], Boselewa [bwf], Bunama [bdd], Bwaidoka [bwd], Bwanabwana [tte], Duau [dva], Galeya [gar], Gumawana [gvs], Iamalele [yml], Kilivila [kij], Koluwawa [klx], Molima [mox], Muyuw [myw], Mwatebu [mwa], Sewa Bay [sew], Tawala [tbo]",
  "development": "Literacy rate in L1: 90%. Literacy rate in L2: 90%. Dictionary. Bible: 1928",
  "resources": "OLAC resources in and about Dobu",
  "writing": "Latin script [Latn]",
  "other_comments": "Many schools"
}