{
  "id": "doh",
  "name": "Dong",
  "country": {
    "code": "NG",
    "name": "Nigeria",
    "area": "Africa"
  },
  "status": "6a (Vigorous)",
  "alternate_names": "Donga",
  "population": "5,000 (1998 R. Blench)",
  "location": "Taraba state: Zing LGA; Adamawa state: Mayo Belwa LGA",
  "maps": "Nigeria, Map 5                      Nigeria, Map 8",
  "classification": "Niger-Congo, Atlantic-Congo, Volta-Congo, Benue-Congo, Bantoid, Northern, Dakoid",
  "resources": "OLAC resources in and about Dong",
  "other_comments": "Distinct from Dongo [doo] (Donga) of Democratic Republic of the Congo, which is in Amadi group of Ubangi (Adamawa-Ubangi)"
}