{
  "id": "dok",
  "name": "Dondo",
  "country": {
    "code": "ID",
    "name": "Indonesia",
    "area": "Asia"
  },
  "status": "6b (Threatened)",
  "population": "13,000 (Himmelmann 2001)",
  "location": "Sulawesi Tengah Province, Tolitoli and Buol regencies, Tolitoli Utara, Baolan, Dondo, Galang, and Dampal Utara subdistricts, at least 25 villages; Gorontalo Province, inland from Dondo bay, Pohuwato regency",
  "classification": "Austronesian, Malayo-Polynesian, Celebic, Tomini-Tolitoli, Tomini, Northern",
  "use": "Children receive their education in Indonesian [ind] (Wurm 2007)",
  "resources": "OLAC resources in and about Dondo",
  "other_comments": "Most of the hill Dondo interact socially with the Dondo coastal population which reinforces the use of Dondo in a variety of functions. Muslim"
}