{
  "id": "dor",
  "name": "Dori’o",
  "country": {
    "code": "SB",
    "name": "Solomon Islands",
    "area": "Pacific"
  },
  "status": "6a (Vigorous)",
  "alternate_names": "Kwarekwareo",
  "population": "2,410 (1999 SIL)",
  "location": "West central Malaita island",
  "maps": "Solomon Islands",
  "classification": "Austronesian, Malayo-Polynesian, Central-Eastern Malayo-Polynesian, Eastern Malayo-Polynesian, Oceanic, Central-Eastern Oceanic, Southeast Solomonic, Malaita-San Cristobal, Malaita, Southern",
  "dialects": "None known. Lexical similarity: 71% with ’Are’are [alu]",
  "typology": "SVO",
  "use": "All ages",
  "resources": "OLAC resources in and about Dori’o"
}