{
  "id": "drl",
  "name": "Paakantyi",
  "country": {
    "code": "AU",
    "name": "Australia",
    "area": "Pacific"
  },
  "status": "8b (Nearly extinct)",
  "alternate_names": "Baagandji, Darling, Kula, Paakanti, Paakintyi, Southern Baagandji",
  "population": "24 (2006 census)",
  "location": "New South Wales, Darling river basin",
  "maps": "Australia",
  "classification": "Australian, Pama-Nyungan, Baagandji",
  "dialects": "Kurnu, Marrawarra (Maruara), Milpulo, Nhaawuparlku, Paaruntyi, Pantyikali (Bandjigali), Parrintyi (Baarrundji, Barindji), Pulaali, Southern Paakantyi, Thangkaali, Wanyuparlku, Wilyaali",
  "use": "Revitalization efforts (Wurm 2007)",
  "development": "Dictionary. Grammar",
  "resources": "OLAC resources in and about Paakantyi"
}