{
  "id": "drn",
  "name": "Damar, West",
  "country": {
    "code": "ID",
    "name": "Indonesia",
    "area": "Asia"
  },
  "status": "6a (Vigorous)",
  "alternate_names": "North Damar",
  "population": "800 (1987 SIL)",
  "location": "Maluku Province, southeast, 2 villages; northeast of Timor island, east of Roma island; Damar island, north side",
  "maps": "Indonesia, Southern Maluku",
  "classification": "Austronesian, Malayo-Polynesian, Central-Eastern Malayo-Polynesian, West Damar",
  "dialects": "None known. Not intelligible of East Damar [dmr]",
  "development": "Literacy rate in L1: Below 1%",
  "resources": "OLAC resources in and about Damar, West"
}