{
  "id": "dsi",
  "name": "Disa",
  "country": {
    "code": "TD",
    "name": "Chad",
    "area": "Africa"
  },
  "status": "6a (Vigorous)",
  "population": "2,370 (2000)",
  "location": "Guéra region: Barh Signaka department, Chinguil subprefecture",
  "maps": "Southwestern Chad",
  "classification": "Nilo-Saharan, Central Sudanic, West, Bongo-Bagirmi, Sara-Bagirmi, Bagirmi",
  "resources": "OLAC resources in and about Disa",
  "other_comments": "Related to Gula [glu] (Sara Gula) of Chad"
}