{
  "id": "dsl",
  "name": "Danish Sign Language",
  "country": {
    "code": "DK",
    "name": "Denmark",
    "area": "Europe"
  },
  "status": "5 (Developing). Recognized language (2015, Law 61, amendment to Danish Language Council)",
  "alternate_names": "Dansk tegnsprog, DTS",
  "population": "5,000 in Denmark (2007). 24,500 (2014 IMB)",
  "location": "Scattered",
  "classification": "Deaf sign language",
  "dialects": "None known. Faroe Islands, Greenland (2014 J. Zachariassen; Aldersson and McEntee-Atalianis 2007). Some signs are related to French Sign Language [fsl]. Intelligible with Swedish [swl] and Norwegian [nsl] sign languages with only moderate difficulty. Not intelligible with Finnish Sign Language [fse]. Signed Danish is distinct, but used in communication with some hearing people",
  "typology": "One-handed fingerspelling",
  "use": "First deaf school began in 1807. Used in all 6 state primary schools for the deaf. Interpreters are required in court, and may be used at important public events, in job training, social services, and mental health programs",
  "development": "Films. TV. Videos. Dictionary. Grammar. Bible portions: 2013",
  "resources": "OLAC resources in and about Danish Sign Language",
  "other_comments": "Fingerspelling system similar to French Sign Language [fsl]. Organization for sign language teachers. Instruction provided for parents of deaf children and other hearing people. Christian (Protestant)"
}