{
  "id": "dsq",
  "name": "Tadaksahak",
  "country": {
    "code": "ML",
    "name": "Mali",
    "area": "Africa"
  },
  "status": "6a (Vigorous)",
  "alternate_names": "Daosahaq, Daoussahaq, Daoussak, Dausahaq, Dawsahaq",
  "population": "100,000 in Mali (2007 M. Almaki), increasing. Population total all countries: 101,800. 70,000 youth are monolingual",
  "location": "Gao region: Menaka circle; west into Ansongo circle. Menaka is principal town",
  "maps": "Mali, Map 1",
  "classification": "Nilo-Saharan, Songhai, Northern",
  "dialects": "No major dialects. Closely related to Tagdal [tda] (Niger), Tasawaq [twq] (Niger), and Korandje [kcy] (Algeria). Northern Songhay Languages share features from Songhay languages and Tamasheq [taq]",
  "typology": "SVO; stress system",
  "use": "Vigorous. All ages. Positive attitudes. Some also use Tamasheq [taq], although women and children in isolated encampments understand very little",
  "development": "Literacy rate in L1: 0% (2007 M. Almaki). Literacy rate in L2: 0% (2007 M. Almaki)",
  "resources": "OLAC resources in and about Tadaksahak",
  "writing": "Arabic script [Arab]. Latin script [Latn]",
  "other_comments": "Shares culture with Tamasheq [taq]"
}