{
  "id": "dth",
  "name": "Adithinngithigh",
  "country": {
    "code": "AU",
    "name": "Australia",
    "area": "Pacific"
  },
  "status": "10 (Extinct)",
  "alternate_names": "Adetingiti",
  "population": "No known L1 speakers",
  "location": "Queensland",
  "classification": "Australian, Pama-Nyungan, Paman, Northern Pama",
  "resources": "OLAC resources in and about Adithinngithigh",
  "writing": "Unwritten [Qaax]"
}