{
  "id": "dua",
  "name": "Duala",
  "country": {
    "code": "CM",
    "name": "Cameroon",
    "area": "Africa"
  },
  "status": "3 (Wider communication).Duala is the most widely spoken language in the largest city in Cameroon. It is used in all domains (church, market, business and media). There are a number of centers which teach Duala. It became a LWC due to its size and location. It has been used in the church for over a century",
  "alternate_names": "Diwala, Douala, Dualla, Dwala, Dwela, Sawa",
  "population": "87,700 (1982 SIL). L2 users: Used by an estimated 2,000,000 people in the city of Douala as either an L1 or an L2 (2013 SIL)",
  "location": "Littoral region: Nkam division, toward Yabassi town along Wouri river; Moungo division, Dibombari area; Wouri division, Cameroon estuary area; South West region: Fako division, both sides of Mungo river",
  "maps": "Southern Cameroon",
  "classification": "Niger-Congo, Atlantic-Congo, Volta-Congo, Benue-Congo, Bantoid, Southern, Narrow Bantu, Northwest, A, Duala (A.24)",
  "dialects": "Bodiman, Mungo (Mongo, Mungu, Muungo), Oli (Ewodi, Koli, Ouri, Uli, Wouri, Wuri), Pongo. Related to Malimba [mzd]",
  "use": "Also use French [fra]. Used as L2 by Bafaw-Balong [bwt], Bakaka [bqz], Bubia [bbx], Isu [szv], Malimba [mzd], Mokpwe [bri]",
  "development": "Literacy rate in L2: 25%–50%. Radio programs. Dictionary. Grammar. Bible: 1872–1970",
  "resources": "OLAC resources in and about Duala",
  "writing": "Latin script [Latn]",
  "other_comments": "Christian"
}