{
  "id": "dww",
  "name": "Dawawa",
  "country": {
    "code": "PG",
    "name": "Papua New Guinea",
    "area": "Pacific"
  },
  "status": "5 (Developing)",
  "alternate_names": "Dawana",
  "population": "2,500 (1994 SIL). 500 monolinguals",
  "location": "Milne Bay Province, Rabaraba district, west and inland from Wedau",
  "maps": "Papua New Guinea, Map 17",
  "classification": "Austronesian, Malayo-Polynesian, Central-Eastern Malayo-Polynesian, Eastern Malayo-Polynesian, Oceanic, Western Oceanic, Papuan Tip, Nuclear, North Papuan Mainland-D’Entrecasteaux, Kakabai",
  "dialects": "None known. Lexical similarity: 58% with Kakabai [kqf]",
  "use": "Home, village. Also use English [eng], Hiri Motu [hmo], Wedau [wed]. Used as L2 by Kakabai [kqf]",
  "development": "NT: 2002",
  "resources": "OLAC resources in and about Dawawa",
  "writing": "Latin script [Latn]"
}