{
  "id": "dym",
  "name": "Dogon, Yanda Dom",
  "country": {
    "code": "ML",
    "name": "Mali",
    "area": "Africa"
  },
  "status": "6a (Vigorous)",
  "population": "2,000 (Blench 2005)",
  "location": "Mopti region: Koro and Bandiagara circles, southwest of Bamba town",
  "maps": "Mali, Map 4",
  "classification": "Niger-Congo, Atlantic-Congo, Volta-Congo, Dogon",
  "dialects": "None known. Reporedly similar to Nanga Dama [nzz] with which it shares both lexicon and a final -m on many nouns",
  "use": "All ages. Most also use Jamsay Dogon [djm]. Most also use Tebul Ure Dogon [dtu]. Most also use Tommo So Dogon [dto]",
  "development": "Grammar",
  "resources": "OLAC resources in and about Dogon, Yanda Dom",
  "writing": "Unwritten [Qaax]"
}