{
  "id": "dzo",
  "name": "Dzongkha",
  "country": {
    "code": "BT",
    "name": "Bhutan",
    "area": "Asia"
  },
  "status": "1 (National). Statutory national language (2008, Constitution, Article 1(8))",
  "alternate_names": "Bhotia of Bhutan, Bhotia of Dukpa, Bhutanese, Drukha, Drukke, Dukpa, Jonkha, Rdzongkha, Zongkhar",
  "population": "160,000 in Bhutan (2006). Population total all countries: 171,080",
  "location": "Ha, Paru, Punakha, and Wangdue Phodrang districts",
  "maps": "Bhutan                      India, Map 4",
  "classification": "Sino-Tibetan, Tibeto-Burman, Western Tibeto-Burman, Bodish, Central Bodish, Central, Southern",
  "dialects": "Adap, Ha, Northern Thimphu, Wang-The (Thimphu-Punakha). As different from Central Tibetan [bod] as Nepali [npi] is from Hindi [hin]. Partially intelligible with Sikkimese [sip] (Denjoke). Dialects may be separate languages. Lexical similarity: 77% with Adap dialect, 48% with Tshangla [tsj], 47%–52% with Bumthangkha [kjz]",
  "use": "Also use Dzongkha [dzo]",
  "development": "Literacy rate in L1: 54%. Literacy rate in L2: Below 5%. Common school language. Radio programs. Grammar. Bible: 2010",
  "resources": "OLAC resources in and about Dzongkha",
  "writing": "Tibetan script [Tibt], official usage",
  "other_comments": "Buddhist"
}