{
  "id": "ekp",
  "name": "Ekpeye",
  "country": {
    "code": "NG",
    "name": "Nigeria",
    "area": "Africa"
  },
  "status": "6a (Vigorous)",
  "alternate_names": "Ekkpahia, Ekpabya, Ekpaffia",
  "population": "30,000 (1973 SIL)",
  "location": "Rivers state: Ahoada East and Ahoada West LGAs; Bayelsa state: Yenegoa LGA",
  "maps": "Nigeria, Map 9",
  "classification": "Niger-Congo, Atlantic-Congo, Volta-Congo, Benue-Congo, Igboid, Ekpeye",
  "dialects": "Ako, Igbuduya, Ubye, Upata. Related to Igbo [ibo]",
  "development": "Grammar",
  "resources": "OLAC resources in and about Ekpeye"
}