{
  "id": "ekr",
  "name": "Yace",
  "country": {
    "code": "NG",
    "name": "Nigeria",
    "area": "Africa"
  },
  "status": "6a (Vigorous)",
  "alternate_names": "Ekpari, Iyace, Yache, Yatye",
  "population": "50,000 (2002)",
  "location": "Cross River state: Yala LGA, Osina, Imbuor, Uchu, Aliforkpa, Wonyer, and Maa",
  "maps": "Nigeria, Map 7",
  "classification": "Niger-Congo, Atlantic-Congo, Volta-Congo, Benue-Congo, Idomoid, Yatye-Akpa",
  "dialects": "Alifokpa, Ijiegu. Lexical similarity: 84% with Akpa [akf]",
  "use": "All ages. 15,000 also use Yala [yba]. Also use Bekwarra [bkv], Igede [ige], Tiv [tiv]",
  "development": "Bible portions: 1980",
  "resources": "OLAC resources in and about Yace",
  "writing": "Latin script [Latn]"
}