{
  "id": "eli",
  "name": "Nding",
  "country": {
    "code": "SD",
    "name": "Sudan",
    "area": "Africa"
  },
  "status": "6b (Threatened)",
  "alternate_names": "Eliri",
  "population": "400 (Welmers 1971)",
  "location": "Janub Kurdufan state: East Nuba hills, south Eliri range",
  "maps": "Sudan",
  "classification": "Niger-Congo, Kordofanian, Talodi, Talodi Proper, Nding",
  "dialects": "None known. Lexical similarity: was 70% with most similar Talodi languages",
  "use": "Also use Sudanese Spoken Arabic [apd]",
  "resources": "OLAC resources in and about Nding",
  "writing": "Unwritten [Qaax]"
}