{
  "id": "elk",
  "name": "Elkei",
  "country": {
    "code": "PG",
    "name": "Papua New Guinea",
    "area": "Pacific"
  },
  "status": "6a (Vigorous)",
  "alternate_names": "Olkoi",
  "population": "1,640 (2000 census)",
  "location": "Sandaun Province",
  "maps": "Papua New Guinea, Map 3",
  "classification": "Torricelli, Wapei-Palei, Wapei",
  "dialects": "At least 3 dialects",
  "resources": "OLAC resources in and about Elkei"
}