{
  "id": "emu",
  "name": "Muria, Eastern",
  "country": {
    "code": "IN",
    "name": "India",
    "area": "Asia"
  },
  "status": "6a (Vigorous)",
  "population": "200,000 (2007)",
  "location": "Chhattisgarh, Northeast Bastar district, Keshkal and Kondagaon tahsils; Odisha, Nabarangapur district, Raigarh tahsil",
  "maps": "India, Map 7",
  "classification": "Dravidian, South-Central, Gondi-Kui, Gondi",
  "dialects": "Lanjoda, Raigarh. 95% intelligibility between dialects; 73%–83% of Western Muria [mut]; 19%–34% of Northern Gondi [gno]; 35% of Dandami Maria [daq]. Lexical similarity: 74%–77% with Western Muria [mut], 65%–75% with Far Western Muria [fmu]",
  "use": "Vigorous. Religion, work; mixed use: home, village. All ages. Positive attitudes. Also use Chhattisgarhi [hne], Halbi [hlb], Hindi [hin], Oriya [ory]",
  "development": "Majority are illiterate",
  "resources": "OLAC resources in and about Muria, Eastern",
  "other_comments": "A Scheduled Tribe. Traditional religion, Hindu"
}