{
  "id": "enf",
  "name": "Enets, Forest",
  "country": {
    "code": "RU",
    "name": "Russian Federation",
    "area": "Europe"
  },
  "status": "8b (Nearly extinct)",
  "alternate_names": "Bay Enets, Pe-Bae, Yenisei Samoyedic",
  "population": "40 (2010 census). Includes Tundra Enets [enh]. Ethnic population: 230 (2010 census). Includes Tundra Enets [enh]",
  "location": "Krasnoyarskiy Kray: Potapovo (mostly), Dudinka, and other Taimyr settlements",
  "maps": "Central Russia",
  "classification": "Uralic, Samoyed, Northern Samoyed, Enets",
  "dialects": "None known. Forest and Tundra Enets [enh] barely mutually intelligible. Transitional between Nenets [yrk] and Nganasan [nio]. Formerly officially considered part of Nenets",
  "use": "Few domains. Mainly older adults. Neutral attitudes. Also use Russian [rus]",
  "development": "Taught in primary schools in Potapovo. Dictionary. Grammar",
  "resources": "OLAC resources in and about Enets, Forest",
  "writing": "Cyrillic script [Cyrl]"
}