{
  "id": "enw",
  "name": "Enwan",
  "country": {
    "code": "NG",
    "name": "Nigeria",
    "area": "Africa"
  },
  "status": "6a (Vigorous)",
  "alternate_names": "Oron",
  "population": "15,000 (1998 B. Connell)",
  "location": "Akwa Ibom state: Mbo LGA",
  "maps": "Nigeria, Map 10",
  "classification": "Niger-Congo, Atlantic-Congo, Volta-Congo, Benue-Congo, Cross River, Delta Cross, Lower Cross, Obolo, Enwang-Uda",
  "resources": "OLAC resources in and about Enwan",
  "other_comments": "Incorrect glossonym: Oron"
}