{
  "id": "epo",
  "name": "Esperanto",
  "country": {
    "code": "PL",
    "name": "Poland",
    "area": "Europe"
  },
  "status": "5 (Developing)",
  "alternate_names": "Eo, La Lingvo Internacia",
  "population": "L2 users: 2,000,000 (Wiesenfeld 1999)",
  "location": "Scattered internationally. Most widely in central and eastern Europe; east Asia: China and other countries; areas of South America; southwest Asia",
  "classification": "Constructed language",
  "typology": "SVO, OVS; prepositions; genitives, relatives after noun heads; articles, adjectives, numerals before noun heads; question word initial; accusative -n; affixes mark tense; passive with esti + passive participle; causative -ig; comparative word; nontonal",
  "use": "All ages",
  "development": "Dictionary. Grammar. Bible: 1900–1910",
  "resources": "OLAC resources in and about Esperanto",
  "writing": "Latin script [Latn]",
  "other_comments": "Developed 1872–1885 by L. L. Zamenhof of Warsaw, Poland, for intercommunication among L1 speakers of other languages"
}