{
  "id": "ewe",
  "name": "Éwé",
  "country": {
    "code": "GH",
    "name": "Ghana",
    "area": "Africa"
  },
  "status": "3 (Wider communication). Recognized language (1951, Laws of the Gold Coast, Vernacular Literature Board Ordinance, as amended by Ordinance No. 44)",
  "alternate_names": "Ebwe, Efe, Eibe, Eue, Eve, Gbe, Krepe, Krepi, Popo, Vhe",
  "population": "2,250,000 in Ghana (2003), increasing. Population total all countries: 3,112,000. L2 users: 500,000 in Ghana",
  "location": "Volta region: easternmost Greater Accra; Eastern region: Askuma town area, west of Lake Volta. Southeast corner",
  "maps": "Ghana                      Togo",
  "classification": "Niger-Congo, Atlantic-Congo, Volta-Congo, Kwa, Left Bank, Gbe",
  "dialects": "Anglo (Anlo), Awuna, Hudu, Kotafoa. Westernmost language of the Gbe language subgroup",
  "typology": "Whistle speech reported",
  "use": "Vigorous. All domains. Also use English [eng]. Used as L2 by Akposo [kpo], Avatime [avn], Logba [lgq], Nawdm [nmz], Nkonya [nko], Nyangbo [nyb], Sekpele [lip], Selee [snw], Tafi [tcd], Tuwuli [bov]",
  "development": "Literacy rate in L1: 30%–60%. Literacy rate in L2: 75%–100%. Taught in primary and secondary schools. Newspapers. New media. Radio programs. TV. Dictionary. Grammar. Bible: 1911–2011",
  "resources": "OLAC resources in and about Éwé",
  "writing": "Braille script [Brai]. Latin script [Latn], used since 1850s, primary usage",
  "other_comments": "Christian, traditional religion"
}