{
  "id": "ext",
  "name": "Extremaduran",
  "country": {
    "code": "ES",
    "name": "Spain",
    "area": "Europe"
  },
  "status": "7 (Shifting)",
  "alternate_names": "Barranquian, Cahtúo, Cahtúö, Ehtremeñu, Extremeño",
  "population": "200,000 in Spain. 500,000 able to use it, including some monolinguals (1994 T. Erickson). Most use northern dialect. Population total all countries: 201,500. Ethnic population: 1,100,000 (1994)",
  "location": "Extremadura autonomous community: northwest Caceres province; Castille and Leon autonomous community: southwest Salamanca province",
  "maps": "Portugal and Spain",
  "classification": "Indo-European, Italic, Romance, Italo-Western, Western, Gallo-Iberian, Ibero-Romance, West Iberian, Castilian",
  "dialects": "Central Extremaduran (Meyu Ehtremeñu), Northern Extremaduran (Artu Ehtremeñu), Southern Extremaduran (Bahu Ehtremeñu). Related to the eastern dialect of Tur-Leonese",
  "typology": "SVO",
  "use": "All domains. Mainly older adults. Also use Spanish [spa]",
  "development": "Literacy rate in L2: 90%",
  "resources": "OLAC resources in and about Extremaduran",
  "writing": "Latin script [Latn]",
  "other_comments": "2 orthographies, one Castilian-like, developed early 20th century by the famous poet José María Gabriel y Galán; the other more recent and more phonetic"
}