{
  "id": "fai",
  "name": "Faiwol",
  "country": {
    "code": "PG",
    "name": "Papua New Guinea",
    "area": "Pacific"
  },
  "status": "5 (Developing)",
  "alternate_names": "Angkiyakmin, Faiwolmin, Fegolmin, Wokeimin",
  "population": "4,500 (1987 SIL)",
  "location": "Western Province, Tabubil district, Fly and Palmer rivers’ headwaters; Sandaun Province, Telefomin district, Yapsie RLLG",
  "maps": "Papua New Guinea, Map 5                      Papua New Guinea, Map 8",
  "classification": "Trans-New Guinea, Ok-Awyu, Ok, Mountain",
  "dialects": "Angkiyakmin, Faiwolmin, Wopkeimin. Many dialects",
  "typology": "SOV",
  "use": "Used as L2 by Ninggerum [nxr], Tifal [tif]",
  "development": "Literacy rate in L1: 25%–40%. Literacy rate in L2: 30%–40%. NT: 1995",
  "resources": "OLAC resources in and about Faiwol",
  "writing": "Latin script [Latn]"
}