{
  "id": "fal",
  "name": "Fali, South",
  "country": {
    "code": "CM",
    "name": "Cameroon",
    "area": "Africa"
  },
  "status": "5 (Developing)",
  "population": "20,000 (1982 SIL)",
  "location": "North region: Bénoué division, northeast of Garoua, Pitoa subdivision, south of Dembo, Hossere Bapara area, Tsolaram, Hossere Toro, and Ndoudja",
  "maps": "Northern Cameroon",
  "classification": "Niger-Congo, Atlantic-Congo, Volta-Congo, North, Adamawa-Ubangi, Adamawa, Fali",
  "dialects": "Bele (Fali du Bele-Fere, Fali-Bele, Ngoutchoumi), Fali-Tinguelin (Mango, Ndoudja, Ram, Toro), Kangou (Fali Kangou, Kaang, Kangu)",
  "development": "NT: 1975",
  "resources": "OLAC resources in and about Fali, South",
  "writing": "Latin script [Latn]",
  "other_comments": "Different from North Fali [fll], Fali of Baissa [fah], or Fali [fli] of Nigeria and Cameroon, which is Chadic"
}