{
  "id": "fkv",
  "name": "Finnish, Kven",
  "country": {
    "code": "NO",
    "name": "Norway",
    "area": "Europe"
  },
  "status": "6b (Threatened)",
  "alternate_names": "Kven, North Finnish",
  "population": "1,500 (Laakso 2013)",
  "location": "Troms and Finnmark counties: Ruija, Kveeniland; Tromso; Oteren, Skibotn, Storslett, Kvaenangsbotn, Nordreisa, Alta, Borselv, Neiden, Bygoynes, and Vadso",
  "maps": "Denmark, Finland, Norway and Sweden",
  "classification": "Uralic, Finnic",
  "dialects": "Considered Old Finnish, speakers of Tornedalen [fit] and Kven recognize the differences between the two. Standard Finnish [fin] speakers generally understand, except some vocabulary. Reportedly more similar to Tornedalen Finnish than to standard Finnish. Various dialects: northwest coast varieties differ from east. Kven integrates Norwegian [nor] loans, whereas Tornedalen has integrated Swedish [swe] loans",
  "use": "Mostly older adults. Also use Finnish [fin], Norwegian [nor]",
  "development": "Literacy rate in L2: Over 90% in Finnish. Taught in schools 3 hours a week. Newspapers",
  "resources": "OLAC resources in and about Finnish, Kven",
  "writing": "Latin script [Latn]",
  "other_comments": "Christian (Laestadian)"
}