{
  "id": "fla",
  "name": "Kalispel-Pend d’Oreille",
  "country": {
    "code": "US",
    "name": "United States",
    "area": "Americas"
  },
  "status": "8b (Nearly extinct)",
  "alternate_names": "“Flathead-Kalispel” (pej.), “Kalispel-Flathead” (pej.), Salish",
  "population": "64 (2005 T. Pete), decreasing. 58 in Salish and Pend d’Oreille; 4 in Kalispel (2000 census). Ethnic population: 6,800 (1997)",
  "location": "Northeast Washington, Kalispel Reservation; northwest Montana, Flathead Reservation",
  "maps": "Western United States of America",
  "classification": "Salish, Interior, Southern, Kalispel",
  "dialects": "Bitterroot Salish, Flathead, Kalispel, Pend D’oreille",
  "use": "Shifting to English [eng]. Flathead dialect classes in some reservation schools and at the tribal college. Language camp in the summer. Kalispel Tribe has begun documentation and revitalization program (Golla 2007). General communication among fluent elders with extensive code-switching to English [eng], prayers. Older adults only",
  "development": "Dictionary. Grammar",
  "resources": "OLAC resources in and about Kalispel-Pend d’Oreille",
  "other_comments": "Spokane [spo] is a coordinate language variety"
}