{
  "id": "fmu",
  "name": "Muria, Far Western",
  "country": {
    "code": "IN",
    "name": "India",
    "area": "Asia"
  },
  "status": "6a (Vigorous)",
  "alternate_names": "Gondi, Koitor Boli, Koitori",
  "population": "400,000 (2007)",
  "location": "Maharashtra, north Garhchiroli district, Kurkheda, Korchi, Dhanora, and Armori tahsils; Gondia district, Jamdi tahsil; Chhattisgarh, Rajnandgaon district, Manpur and Mahola tahsils",
  "maps": "India, Map 7",
  "classification": "Dravidian, South-Central, Gondi-Kui, Gondi",
  "dialects": "None known. 79%–88% intelligibility of other Muria languages; 74% of Dandami Maria [daq], 0% to 34% of Northern Gondi [gno], 6%–50% of Southern Gondi [ggo], 2%–70% of Maria [mrr]. Lexical similarity: 72%–80% with Western Muria [mut]; 65%–75% with Eastern Muria [emu]",
  "use": "Vigorous. Home, village, religion. All ages. Positive attitudes. Also use Chhattisgarhi [hne], Marathi [mar]",
  "resources": "OLAC resources in and about Muria, Far Western",
  "other_comments": "A Scheduled Tribe. Traditional religion, Hindu"
}