{
  "id": "fra",
  "name": "French",
  "country": {
    "code": "FR",
    "name": "France",
    "area": "Europe"
  },
  "status": "1 (National). Statutory national language (1958, Consitution, Article 2.1)",
  "alternate_names": "Français",
  "population": "60,000,000 in France (European Commission 2012). Population total all countries: 75,916,150. L2 users worldwide: 87,000,000 (Francophonie 2007)",
  "maps": "Andorra and France                      Belgium, Luxembourg and Netherlands                      Ireland and United Kingdom                      Liechtenstein and Switzerland",
  "classification": "Indo-European, Italic, Romance, Italo-Western, Western, Gallo-Iberian, Gallo-Romance, Gallo-Rhaetian, Oïl, French",
  "dialects": "Angevin, Berrichon, Bourbonnais, Bourguignon, Franc-Comtois, Gallo, Lorraine, Norman (Normand), Poitevin, Saintongeais, Standard French. Lexical similarity: 89% with Italian [ita], 80% with Logudorese Sardinian [src], 78% with Romansch [roh], 75% with Portuguese [por], Romanian [ron], and Spanish[spa], 29% with German [deu], 27% with English [eng]",
  "typology": "SVO",
  "use": "21,490,000 also use English [eng]. 7,760,000 also use Spanish [spa]. 4,776,000 also use Standard German [deu]",
  "development": "Fully developed. Bible: 1530–2000",
  "resources": "OLAC resources in and about French",
  "writing": "Braille script [Brai]. Latin script [Latn], primary usage",
  "other_comments": "Christian"
}