{
  "id": "fry",
  "name": "Frisian",
  "country": {
    "code": "NL",
    "name": "Netherlands",
    "area": "Europe"
  },
  "status": "2 (Provincial). Statutory provincial language in Friesland Province (1996, Ratification Act, ECRML, No. 136)",
  "alternate_names": "Fries, Frysk",
  "population": "467,000 in Netherlands (2001 census)",
  "location": "Friesland province; Groningen province: De Marne municipality",
  "maps": "Belgium, Luxembourg and Netherlands",
  "classification": "Indo-European, Germanic, West, Frisian",
  "dialects": "Klaaifrysk, Súdhoeksk, Wâldfrysk, Westerlauwers Fries. Linguistically between Dutch [nld] and English [eng]. Lexical similarity: 71% with Standard German [deu], 61% with English [eng], 74% with East Frisian Low Saxon [frs]",
  "use": "Over 70% of those in Friesland still speak Frisian. Positive attitudes. Also use Dutch [nld]",
  "development": "Literacy rate in L1: Low. New media. Radio programs. TV. Grammar. Bible: 1943–1978",
  "resources": "OLAC resources in and about Frisian",
  "writing": "Latin script [Latn]"
}