{
  "id": "fut",
  "name": "Futuna-Aniwa",
  "country": {
    "code": "VU",
    "name": "Vanuatu",
    "area": "Pacific"
  },
  "status": "5 (Developing)",
  "alternate_names": "Erronan, West Futuna-Aniwa",
  "population": "1,500 (Lynch and Crowley 2001)",
  "location": "Tafea Province, West Futuna and Aniwa islands, east of Tanna",
  "maps": "Vanuatu",
  "classification": "Austronesian, Malayo-Polynesian, Central-Eastern Malayo-Polynesian, Eastern Malayo-Polynesian, Oceanic, Central-Eastern Oceanic, Remote Oceanic, Central Pacific, East Fijian-Polynesian, Polynesian, Nuclear, Samoic-Outlier, Futunic",
  "dialects": "Aniwa (Anewa), West Futuna (Fotuna). Significant differences between West Futunan and Aniwan dialects",
  "typology": "SVO, VS",
  "use": "Also use English [eng]",
  "development": "Literacy rate in L1: 30%–60%. Literacy rate in L2: 50%–75%. Dictionary. Grammar. NT: 1898",
  "resources": "OLAC resources in and about Futuna-Aniwa",
  "writing": "Latin script [Latn]",
  "other_comments": "Distinct from (East) Futuna [fud] on Futuna Island in French Territory of Wallis and Futuna"
}