{
  "id": "fwe",
  "name": "Fwe",
  "country": {
    "code": "NA",
    "name": "Namibia",
    "area": "Africa"
  },
  "status": "6a (Vigorous)",
  "population": "10,200 in Namibia (2006)",
  "location": "Zambezi region",
  "maps": "Namibia",
  "classification": "Niger-Congo, Atlantic-Congo, Volta-Congo, Benue-Congo, Bantoid, Southern, Narrow Bantu, Central, K, Subiya-Totela (K.402)",
  "dialects": "None known. Reportedly similar to Kuhane [sbs]",
  "resources": "OLAC resources in and about Fwe",
  "other_comments": "Different from We dialect of Tonga [toi]"
}