{
  "id": "gae",
  "name": "Guarequena",
  "country": {
    "code": "VE",
    "name": "Venezuela",
    "area": "Americas"
  },
  "status": "8a (Moribund)",
  "alternate_names": "Arequena, Guarekena, Uerequema, Urequema, Warekena",
  "population": "160 in Venezuela (2001 census). Population total all countries: 650. Ethnic population: 510",
  "location": "Amazonas, San Miguel river, Guzmán Blanco village, below Maroa. Possibly in Colombia",
  "maps": "Northwestern Brazil                      Venezuela",
  "classification": "Maipurean, Northern, Upper Amazon, Western Nawiki, Warekena",
  "use": "Shifting to Spanish [spa]. Older adults 50 and older. All also use Spanish [spa]",
  "resources": "OLAC resources in and about Guarequena"
}