{
  "id": "gai",
  "name": "Mbore",
  "country": {
    "code": "PG",
    "name": "Papua New Guinea",
    "area": "Pacific"
  },
  "status": "5 (Developing)",
  "alternate_names": "Borei, Gamai, Gamei, Mborei",
  "population": "2,090 (2003 SIL)",
  "location": "Madang Province, Bogia district, Ramu river area and east. 8 villages",
  "maps": "Papua New Guinea, Map 4",
  "classification": "Ramu-Lower Sepik, Ramu, Ottilien, Borei",
  "dialects": "Borewar, Boroi, Botbot",
  "development": "Literacy rate in L1: 5%–25%. Literacy rate in L2: 50%–75%. Bible portions: 1992–2006",
  "resources": "OLAC resources in and about Mbore",
  "writing": "Latin script [Latn]"
}