{
  "id": "gaw",
  "name": "Nobonob",
  "country": {
    "code": "PG",
    "name": "Papua New Guinea",
    "area": "Pacific"
  },
  "status": "4 (Educational)",
  "alternate_names": "Butelkud-Guntabak, Garuh, Nobanob, Nobnob",
  "population": "5,000 (2005 census), increasing",
  "location": "Madang Province, Madang district",
  "maps": "Papua New Guinea, Map 7",
  "classification": "Trans-New Guinea, Madang, Croisilles, Hanseman",
  "dialects": "Ari (A’i, Ati)",
  "typology": "SOV",
  "use": "Moderately vigorous. Some older Wagi [fad] may also use Nobonob. All domains. All ages. Positive attitudes. Also use Bagupi [bpi], Gedaged [gdd], Rempi [rmp], Tok Pisin [tpi]. Used as L2 by Wagi [fad]",
  "development": "Literacy rate in L1: 16% functional literacy skills. Literacy rate in L2: 25%–75%. Many read, but understanding may be limited. Taught in primary schools. NT: 1990",
  "resources": "OLAC resources in and about Nobonob",
  "writing": "Latin script [Latn]"
}