{
  "id": "gbk",
  "name": "Gaddi",
  "country": {
    "code": "IN",
    "name": "India",
    "area": "Asia"
  },
  "status": "6a (Vigorous)",
  "alternate_names": "Bharmauri Bhadi, Gaddyali, Gadi, Gadiali, Pahari Bharmauri, Panchi Brahmauri Rajput",
  "population": "110,000 (2007)",
  "location": "Himachal Pradesh, Chamba district, Brahmaur tahsil and Holi sub-tahsils; Uttar Pradesh; Jammu and Kashmir; Madhya Pradesh; Punjab; Delhi",
  "maps": "India, Map 1",
  "classification": "Indo-European, Indo-Iranian, Indo-Aryan, Northern zone, Western Pahari",
  "dialects": "Bharmauri, Macleod Ganj. 93% intelligibility of Mandeali [mjl], 97% of Kangri [xnr], 83% of Chambeali [cdh]. Lexical similarity: 74%–80% with Palamuri Kangri [xnr], 79% with Chambeali [cdh], 67%–73% with Mandeali [mjl]",
  "typology": "SOV",
  "use": "Hindi [hin] used in school instruction, shops, cities",
  "development": "Literacy rate in L2: 37% for Jammu and Kashmir (2001 census). Radio programs",
  "resources": "OLAC resources in and about Gaddi",
  "writing": "Devanagari script [Deva]. Takri (Tankri, Takari) script [Takr], no longer in use",
  "other_comments": "A Scheduled Tribe. Gaddi is generic for all indigenous populations of Bharmaur area of Chamba District. Hindu"
}