{
  "id": "gbv",
  "name": "Gbanu",
  "country": {
    "code": "CF",
    "name": "Central African Republic",
    "area": "Africa"
  },
  "status": "5 (Developing)",
  "alternate_names": "Banu, Gbanou",
  "population": "95,000 (1996)",
  "location": "Lobaye prefecture: small areas along Ombella-M’poko border, north of Bodo town; Mambéré-Kadéï prefecture: Carnot subprefecture; Ombella-M‘poko prefecture: Yaloke-Bossembélé subprefecture, north of Bogangolo; Ouham prefecture: Bossangoa subprefecture",
  "maps": "Central African Republic",
  "classification": "Niger-Congo, Atlantic-Congo, Volta-Congo, North, Adamawa-Ubangi, Ubangi, Gbaya-Manza-Ngbaka, Central",
  "dialects": "Budigri (Bidikili), Gbagiri (Bagili, Baguili, Gbagili), Gbanu",
  "use": "Also use Sango [sag]",
  "development": "Bible portions: 1932–1939",
  "resources": "OLAC resources in and about Gbanu",
  "writing": "Latin script [Latn], no longer in use"
}