{
  "id": "gbz",
  "name": "Dari, Zoroastrian",
  "country": {
    "code": "IR",
    "name": "Iran",
    "area": "Asia"
  },
  "status": "7 (Shifting)",
  "alternate_names": "“Gabar” (pej.), “Gabri” (pej.), “Yazdi” (pej.)",
  "population": "8,000 (1999)",
  "location": "Yazd and Kerman areas",
  "classification": "Indo-European, Indo-Iranian, Iranian, Western, Northwestern, Central Iran",
  "dialects": "None known. Related to Parsi-Dari [prd] and Nâyini [nyq]",
  "use": "Used by Persian Zoroastrians in personal communications as a private language. Also use Iranian Persian [pes]",
  "resources": "OLAC resources in and about Dari, Zoroastrian",
  "other_comments": "Different from Dari dialect of Eastern Farsi [prs] of Afghanistan, though both names refer to Darius, the ancient Persian Emperor (‘dar’ is Classical Persian for court). Many Zoroastrians speak Parsi-Dari and do not know Zoroastrian Dari [gbz]. Zoroastrian"
}