{
  "id": "gdt",
  "name": "Kungardutyi",
  "country": {
    "code": "AU",
    "name": "Australia",
    "area": "Pacific"
  },
  "status": "10 (Extinct)",
  "alternate_names": "Gungadidji",
  "population": "No known L1 speakers",
  "location": "Victoria",
  "classification": "Australian, Pama-Nyungan, Karnic",
  "resources": "OLAC resources in and about Kungardutyi"
}