{
  "id": "gej",
  "name": "Gen",
  "country": {
    "code": "TG",
    "name": "Togo",
    "area": "Africa"
  },
  "status": "3 (Wider communication)",
  "alternate_names": "Ge, Gebe, Gen-Gbe, Guin, Mina, Mina-Gen, Popo",
  "population": "201,000 in Togo (1991). Population total all countries: 327,000",
  "location": "Maritime region: Lacs prefecture, east of Lomé toward Benin border",
  "maps": "Benin                      Togo",
  "classification": "Niger-Congo, Atlantic-Congo, Volta-Congo, Kwa, Left Bank, Gbe, Mina",
  "dialects": "Agoi, Anexo, Gen, Gliji",
  "use": "Used as L2 by Aguna [aug], Aja [ajg], Akebu [keu], Ginyanga [ayg], Kpessi [kef], Western Xwla Gbe [xwl]",
  "development": "Literacy rate in L1: 1%–5%. Radio programs. Grammar. Bible: 2014",
  "resources": "OLAC resources in and about Gen",
  "writing": "Latin script [Latn]",
  "other_comments": "Ethnonym: Mina"
}