{
  "id": "gew",
  "name": "Gera",
  "country": {
    "code": "NG",
    "name": "Nigeria",
    "area": "Africa"
  },
  "status": "6a (Vigorous)",
  "alternate_names": "Gerawa, Rawam",
  "population": "200,000 (1995 CAPRO)",
  "location": "Bauchi state: Bauchi and Ganjuwa LGAs, Bauchi town",
  "maps": "Nigeria, Map 3",
  "classification": "Afro-Asiatic, Chadic, West, A, A.2, Bole, Bole Proper",
  "use": "Shifting to Hausa [hau]. Used as L2 by Shiki [gua]",
  "resources": "OLAC resources in and about Gera",
  "other_comments": "Traditional religion, Muslim"
}