{
  "id": "ggl",
  "name": "Ganglau",
  "country": {
    "code": "PG",
    "name": "Papua New Guinea",
    "area": "Pacific"
  },
  "status": "6a (Vigorous)",
  "population": "470 (2003 SIL)",
  "location": "Madang Province",
  "maps": "Papua New Guinea, Map 7",
  "classification": "Trans-New Guinea, Madang, Rai Coast, Yaganon",
  "dialects": "None known. Related to Yabong [ybo], Dumun [dui], and Saep [spd]",
  "resources": "OLAC resources in and about Ganglau"
}