{
  "id": "gib",
  "name": "Gibanawa",
  "country": {
    "code": "NG",
    "name": "Nigeria",
    "area": "Africa"
  },
  "status": "6a (Vigorous)",
  "alternate_names": "Gembanawa, Gimbanawa, Jega",
  "location": "Kebbi state: Jega LGA, near Dukawa [dud] language area",
  "classification": "Pidgin, Hausa based",
  "use": "The largest group in Jega LGA. A contact language. Second language only",
  "resources": "OLAC resources in and about Gibanawa"
}