{
  "id": "gih",
  "name": "Githabul",
  "country": {
    "code": "AU",
    "name": "Australia",
    "area": "Pacific"
  },
  "status": "8b (Nearly extinct)",
  "alternate_names": "Gidabul, Gidjoobal, Kidabal, Kidjabal, Kitabool, Kita-bool, Kitapul, Kittabool, Kitta-bool, Kuttibul, Noowidal",
  "population": "20 (2006 AUSTLANG)",
  "location": "Queensland and New South Wales; Clarence river, Drake, Killarney, Logan river, Rathdowney, Richmond river, Spicer Gap, Tabulam, Tooloom, Unumgar, Urbenville, Woodenbong",
  "classification": "Australian, Pama-Nyungan, Bandjalangic",
  "resources": "OLAC resources in and about Githabul"
}