{
  "id": "giw",
  "name": "Duoluo",
  "country": {
    "code": "CN",
    "name": "China",
    "area": "Asia"
  },
  "status": "8b (Nearly extinct). Language of recognized nationality: Gelao",
  "alternate_names": "Bai Gelo, White Gelao",
  "population": "1,200 in China (1987 Z. Guo-qiao). Population total all countries: 1,220",
  "location": "North central Guizhou Province, Zunyi county, Jianshan village; Zhijin county, Agong village; Langdai county, Zhuijiao and Ruojiao villages; Guanling county, Dingyinxiao village. Also in Guangxi Province, Longlin county, Muji village. Tu’lu is spoken in Yunnan Province, Malipo",
  "maps": "Southwestern China                      Northern Viet Nam",
  "classification": "Tai-Kadai, Kra, Western Kra",
  "dialects": "Tu’lu",
  "use": "Elderly only",
  "resources": "OLAC resources in and about Duoluo"
}