{
  "id": "gji",
  "name": "Geji",
  "country": {
    "code": "NG",
    "name": "Nigeria",
    "area": "Africa"
  },
  "status": "6a (Vigorous)",
  "alternate_names": "Gejawa, Gezawa, Kayauri",
  "population": "6,000 (1995 CAPRO)",
  "location": "Bauchi state: Toro LGA",
  "maps": "Nigeria, Map 3",
  "classification": "Afro-Asiatic, Chadic, West, B, B.3, Zaar Proper",
  "dialects": "Bolu (Magang, Pelu), Geji (Gaejawa, Gezawa, Gyaazi), Zaranda (Buu). Geji dialect subgroup, in Barawa [dot] language subgroup",
  "use": "Home. All ages. Positive attitudes. Also use Hausa [hau]",
  "development": "L1 literacy in very early stages (2012). Bible portions: 2012",
  "resources": "OLAC resources in and about Geji",
  "writing": "Latin script [Latn]",
  "other_comments": "Muslim"
}