{
  "id": "glg",
  "name": "Galician",
  "country": {
    "code": "ES",
    "name": "Spain",
    "area": "Europe"
  },
  "status": "2 (Provincial). Statutory provincial language in Galicia Autonomous Community (1981, Autonomy Statute, Act 1 of 6 April, Article 5)",
  "alternate_names": "Galego, Gallego",
  "population": "2,340,000 in Spain (European Commission 2012). Population total all countries: 2,355,000",
  "location": "Galicia and western Asturias autonomous communities; Castille and Leon autonomous community, western Leon and Zamora provinces",
  "maps": "Portugal and Spain",
  "classification": "Indo-European, Italic, Romance, Italo-Western, Western, Gallo-Iberian, Ibero-Romance, West Iberian, Portuguese-Galician",
  "dialects": "Galician is reportedly between Portuguese [por] and Spanish [spa], but is more similar to Portuguese, which has about 85% intelligibility (1989 R. Hall). Many dialects",
  "use": "Also use Spanish [spa]",
  "development": "Academy of the Galician Language. Decades of development as literary language, including poetry and essays for all levels of education. Poetry. Bible: 1989–1992",
  "resources": "OLAC resources in and about Galician",
  "writing": "Latin script [Latn]",
  "other_comments": "Growing sense of ethnic identity"
}