{
  "id": "glk",
  "name": "Gilaki",
  "country": {
    "code": "IR",
    "name": "Iran",
    "area": "Asia"
  },
  "status": "4 (Educational)",
  "alternate_names": "Gelaki, Gilani, Guilaki, Guilani",
  "population": "3,270,000 (1993), decreasing. 2,000 Galeshi",
  "location": "Gilan region, coastal plain, south of Talish. Galeshi is a mountain dialect",
  "classification": "Indo-European, Indo-Iranian, Iranian, Western, Northwestern, Caspian",
  "dialects": "Bandar Anzali, Fumani, Galeshi, Lahijani, Langerudi, Rashti, Rudbari, Rudsari, Some’e Sarai. Reportedly similar to Mâzanderâni [mzn]",
  "use": "Home, market, work. All ages. Positive attitudes. Also use Iranian Persian [pes]",
  "development": "Magazines. Radio programs. TV. Dictionary. Grammar. Bible: 2012",
  "resources": "OLAC resources in and about Gilaki",
  "writing": "Arabic script [Arab]",
  "other_comments": "Heavy influence from Farsi. Muslim (Shi’a)"
}