{
  "id": "gna",
  "name": "Kaansa",
  "country": {
    "code": "BF",
    "name": "Burkina Faso",
    "area": "Africa"
  },
  "status": "5 (Developing)",
  "alternate_names": "Gã, Gan, Gane, Kaan, Kaanse, Kãasa, Kan",
  "population": "6,000 (1990 S. Showalter)",
  "location": "Sud-Ouest region: Poni province, Gaoua subdistrict, Loropéni department, bounded by Loropéni west, Derbi east, Djigoué south, and Yérifoula north; Cascades region: Comoe province; Sud-Ouest region: Bougouriba province",
  "maps": "Burkina Faso",
  "classification": "Niger-Congo, Atlantic-Congo, Volta-Congo, North, Gur, Central, Southern, Gan-Dogose",
  "dialects": "Kaansa, Kpatogo (Bodoro, Gbadogo, Kpatogoso, Padogho, Padorho, Padoro). Lexical similarity: 81% between dialects, 71% with Khisa [kqm], 68% with Dogosé [dos]",
  "use": "All ages. Also use French [fra], Jula [dyu], Lobi [lob]",
  "development": "Literacy rate in L2: 3%. Bible portions: 2003–2008",
  "resources": "OLAC resources in and about Kaansa",
  "writing": "Latin script [Latn]",
  "other_comments": "4 clans: Farma, Suwa, Khama, Thama. The Kpatogo separated politically and geographically from the Kamba. At least 7 primary schools in towns and villages serving Kaan villages. Obiré, 8 km northwest of Loropéni, is cultural center and residence of the Kaan Iya, the traditional ruler of the Kaan people. Muslim, traditional religion"
}