{
  "id": "gng",
  "name": "Ngangam",
  "country": {
    "code": "TG",
    "name": "Togo",
    "area": "Africa"
  },
  "status": "5 (Developing)",
  "alternate_names": "Dye, Gangam, Gangum, Migangam, Mijiem, Nbangam, Ngangan",
  "population": "57,400 in Togo (Gblem-Poidi 2012). Population total all countries: 77,400",
  "location": "Savanes region: Oti prefecture, Gando-Namoni, Mogou, Koumongou, and Kountouri areas; Kara region: Keran prefecture, small area",
  "maps": "Benin                      Togo",
  "classification": "Niger-Congo, Atlantic-Congo, Volta-Congo, North, Gur, Central, Northern, Oti-Volta, Gurma",
  "dialects": "Koumongou, Motiem (Mogou). Reportedly similar to Konkomba [xon], Ntcham [bud], Moba [mfq], and Gurmanchema [gux]",
  "use": "Vigorous. Home, neighborhood, work. All ages. Positive attitudes. 18,000 also use Anufo [cko]. Also use French [fra], Gourmanchéma [gux], Moba [mfq]",
  "development": "Literacy rate in L1: Below 1%. Radio programs. Grammar. NT: 2011",
  "resources": "OLAC resources in and about Ngangam",
  "writing": "Latin script [Latn]",
  "other_comments": "Anufo villages also in the area. Gando is considered the center of economic and religious life. Traditional religion, Christian, Muslim"
}