{
  "id": "gnt",
  "name": "Guntai",
  "country": {
    "code": "PG",
    "name": "Papua New Guinea",
    "area": "Pacific"
  },
  "status": "6a (Vigorous)",
  "population": "350 (2003 SIL)",
  "location": "Western Province, Morehead district",
  "maps": "Papua New Guinea, Map 14",
  "classification": "South-Central Papuan, Morehead-Upper Maro, Tonda",
  "dialects": "Kan",
  "resources": "OLAC resources in and about Guntai"
}