{
  "id": "gog",
  "name": "Gogo",
  "country": {
    "code": "TZ",
    "name": "Tanzania",
    "area": "Africa"
  },
  "status": "5 (Developing)",
  "alternate_names": "Chigogo, Cigogo, Kigogo",
  "population": "1,440,000 (2006), increasing",
  "location": "Dodoma region; Singida region: Manyoni district; Manyara and Iringa regions",
  "maps": "Tanzania",
  "classification": "Niger-Congo, Atlantic-Congo, Volta-Congo, Benue-Congo, Bantoid, Southern, Narrow Bantu, Central, G, Gogo-Kagulu (G.11)",
  "dialects": "Nyambwa (Cinyambwa, West Gogo), Nyaugogo (Central Gogo), Tumba (Citumba, East Gogo). Lexical similarity: 50% with Hehe [heh] and Sangu [sbp], 48% with Kimbu [kiv], 45% with Nilamba [nim]",
  "use": "Vigorous. Church meetings. All ages. Swahili [swh] also used in church meetings",
  "development": "Dictionary. Bible: 1962–2002",
  "resources": "OLAC resources in and about Gogo",
  "writing": "Latin script [Latn]",
  "other_comments": "Seminomadic. Traditional religion, Christian"
}