{
  "id": "gom",
  "name": "Konkani, Goan",
  "country": {
    "code": "IN",
    "name": "India",
    "area": "Asia"
  },
  "status": "5 (Developing)",
  "alternate_names": "Goan, Gomataki, Konknni, Southern Kanara",
  "population": "3,630,000 in India (2000). Population total all countries: 3,633,900",
  "location": "South coast strip of Maharashtra, Ratnagari district; Goa; Karnataka; Kerala",
  "maps": "India, Map 6                      India, Map 8",
  "classification": "Indo-European, Indo-Iranian, Indo-Aryan, Southern zone, Konkani",
  "dialects": "Bardeskari (Gomantaki), Chitpavani (Konkanasths), Daldi (Nawaits), Kudali (Malvani), Mangalore Standard Konkani (Goan), Sarasvat Brahmin. Daldi and Chitapavani [knn] are intermediate varieties between Goan Konkani [gom] and standard Konkani [knn]. A member of macrolanguage Konkani [kok]",
  "use": "Also use Konkani [knn]",
  "development": "Bible: 2006",
  "resources": "OLAC resources in and about Konkani, Goan",
  "writing": "Kannada script [Knda]. Latin script [Latn]",
  "other_comments": "Christian"
}