{
  "id": "gop",
  "name": "Yeretuar",
  "country": {
    "code": "ID",
    "name": "Indonesia",
    "area": "Asia"
  },
  "status": "7 (Shifting)",
  "alternate_names": "Goni, Umar, Umari",
  "population": "350 (2000)",
  "location": "Papua Province, lower Kwatisore bay, between 2 peninsulas; into Papua Barat Province, southern end, Wandamen peninsula",
  "maps": "Indonesia, Eastern Papua                      Indonesia, Northwestern Papua",
  "classification": "Austronesian, Malayo-Polynesian, Central-Eastern Malayo-Polynesian, Eastern Malayo-Polynesian, South Halmahera-West New Guinea, West New Guinea, Cenderawasih Bay, Yeretuar",
  "use": "Two of three villages have shifted mostly to Wandamen [wad]",
  "resources": "OLAC resources in and about Yeretuar",
  "other_comments": "Distinct from Kamoro [kgq]. Christian, traditional religion"
}