{
  "id": "gou",
  "name": "Gavar",
  "country": {
    "code": "CM",
    "name": "Cameroon",
    "area": "Africa"
  },
  "status": "6a (Vigorous)",
  "alternate_names": "Gauar, Gawar, Gouwar, Kortchi, Ma-Gavar, Rtchi",
  "population": "15,000 (2010 SIL)",
  "location": "Far North region: Mayo-Tsanaga division, Mokolo subdivision, Mogode canton, Gawar area, south of Mokolo. Some Gavar Hossere live among Gavar-Fulfulde, and some isolated in Kortchi village mountain area",
  "maps": "Northern Cameroon",
  "classification": "Afro-Asiatic, Chadic, Biu-Mandara, A, A.7",
  "dialects": "None known. Distinct phonological, grammatical and sociolinguistic differences with Buwal [bhs]. Lexical similarity: 90% with Buwal [bhs]",
  "use": "The Gavar Hossere speak Gavar; the Gavar Fulfulde speak Fulfulde [fub]. Home, village. Also use Adamawa Fulfulde [fub], Buwal [bhs], Daba [dbq], French [fra], Mafa [maf], Mofu-Gudur [mif]. Used as L2 by Buwal [bhs]",
  "resources": "OLAC resources in and about Gavar",
  "writing": "Latin script [Latn]",
  "other_comments": "Traditional religion, Christian, Muslim"
}