{
  "id": "gsl",
  "name": "Gusilay",
  "country": {
    "code": "SN",
    "name": "Senegal",
    "area": "Africa"
  },
  "status": "6a (Vigorous)",
  "alternate_names": "Gusiilaay, Gusiilay, Gusilaay, Kusiilaay, Kusilay",
  "population": "15,400 (2006)",
  "location": "Ziguinchor region: Tionk Essil village, between Tendouck and Mlomp-North",
  "maps": "Senegal and The Gambia",
  "classification": "Niger-Congo, Atlantic-Congo, Atlantic, Northern, Bak, Jola, Jola Proper, Jola Central, Gusilay",
  "use": "Those who have moved to larger urban areas no longer pass the language to their children (2013 SIL). All ages. Also use Jola-Fonyi [dyo], Mandinka [mnk], Pulaar [fuc], Wolof [wol]",
  "development": "Literacy rate in L1: Below 1%",
  "resources": "OLAC resources in and about Gusilay"
}