{
  "id": "gsp",
  "name": "Wasembo",
  "country": {
    "code": "PG",
    "name": "Papua New Guinea",
    "area": "Pacific"
  },
  "status": "6a (Vigorous)",
  "alternate_names": "Biapim, Gusap, Yankowan",
  "population": "590 (1980 census)",
  "location": "Morobe Province, west of Ufim",
  "maps": "Papua New Guinea, Map 10",
  "classification": "Trans-New Guinea, Madang, Croisilles, Pihom, Wasembo",
  "resources": "OLAC resources in and about Wasembo"
}