{
  "id": "gub",
  "name": "Guajajára",
  "country": {
    "code": "BR",
    "name": "Brazil",
    "area": "Americas"
  },
  "status": "4 (Educational)",
  "alternate_names": "Guazazzara, Tenetehar, Tenetehára",
  "population": "13,100 (Moore 2006). Ethnic population: 19,500 (2006 FUNASA)",
  "location": "Maranhão State, Pindaré, Grajaú, Mearim, and Zutiua rivers. 81 villages",
  "maps": "Eastern Central Brazil",
  "classification": "Tupian, Tupí-Guaraní, Tenetehara, Tenetehara",
  "dialects": "Mearim, Pindare, Zutiua",
  "use": "Vigorous. Most also use Portuguese [por], which is used as a lingua franca (Crevels 2007)",
  "development": "Literacy rate in L1: 30%. Literacy rate in L2: 30%. Grammar. Bible: 2007",
  "resources": "OLAC resources in and about Guajajára",
  "writing": "Latin script [Latn]"
}