{
  "id": "guo",
  "name": "Guayabero",
  "country": {
    "code": "CO",
    "name": "Colombia",
    "area": "Americas"
  },
  "status": "5 (Developing)",
  "alternate_names": "Cunimía, Jiw, Mítua, Mítus",
  "population": "1,000 (Civallero 2008). Ethnic population: 2,000 (2007 N. López)",
  "location": "Meta and Guaviare departments, Upper Guaviare River",
  "maps": "Northern Colombia",
  "classification": "Guajiboan",
  "typology": "SOV",
  "use": "Vigorous. All domains. All ages. Positive attitudes. Also use Spanish [spa]",
  "development": "Literacy rate in L1: Low. Literacy rate in L2: 15%–20% in Spanish (2007 Nadya L.). Taught in primary schools in most villages. NT: 2009",
  "resources": "OLAC resources in and about Guayabero",
  "writing": "Latin script [Latn]",
  "other_comments": "Marriage within their own community; 5% urban, 95% rural. Traditional religion"
}