{
  "id": "gvj",
  "name": "Guajá",
  "country": {
    "code": "BR",
    "name": "Brazil",
    "area": "Americas"
  },
  "status": "6a (Vigorous)",
  "alternate_names": "Awá, Awá Guajá, Ayaya, Guaxare, Wazaizara",
  "population": "280 (Moore 2006). Ethnic population: 370 (1995 AMTB)",
  "location": "Maranhão State, Terra Indígena Alto Turiaçu and Terra Indígena Caru, four settlements; also in Pará State",
  "maps": "Eastern Central Brazil",
  "classification": "Tupian, Tupí-Guaraní, Wayampí, Amanayé",
  "dialects": "None known. Related to Guajajára [gub]",
  "use": "Vigorous. Low proficiency in Portuguese [por]",
  "resources": "OLAC resources in and about Guajá"
}