{
  "id": "gwj",
  "name": "|Gwi",
  "country": {
    "code": "BW",
    "name": "Botswana",
    "area": "Africa"
  },
  "status": "6a (Vigorous)",
  "alternate_names": "Dcui, G!wikwe, G|wi, G|wikhwe, Gcwi",
  "population": "2,500 (2004 R. Cook)",
  "location": "Kweneng district: Dutlwe, Serinane, Takotokwane, Kautwane, Khekhenye, Letihakeng, Morwamosu, and Tsetseng; Ghanzi district: New Xade, East Hanahai, and Kacgae",
  "maps": "Botswana",
  "classification": "Khoe-Kwadi, Khoe, Kalahari Khoe, Southwest",
  "dialects": "Khute",
  "use": "Also use ||Gana [gnk], English [eng], Naro [nhr], Tswana [tsn]. Used as L2 by !Xóõ [nmn], ||Gana [gnk]",
  "development": "Literacy rate in L2: 15–29 years 40% Tswana [tsn], 2% English; 30–54 years 2% Tswana, 0% English; 55 and older 0%",
  "resources": "OLAC resources in and about |Gwi"
}