{
  "id": "gxx",
  "name": "Wè Southern",
  "country": {
    "code": "CI",
    "name": "Côte d’Ivoire",
    "area": "Africa"
  },
  "status": "6a (Vigorous)",
  "alternate_names": "Central Guéré, Gere, Guéré",
  "population": "293,000 (1999 SIL). 20,000 Niao (1995 SIL)",
  "location": "Central, Montagnes District, Guiglo, Duékoué, Bangolo, and Tai subprefectures; Bas-Sassandra District, Lake Buyo area",
  "maps": "Côte d’Ivoire",
  "classification": "Niger-Congo, Atlantic-Congo, Volta-Congo, Kru, Western, Wee, Guere-Krahn",
  "dialects": "Beu (Zarabaon), Fleo, Gboo (Gbobo), Niao (Neabo, Neao, Niabo), Nyeo, Zaa (Zaha), Zagna, Zagne, Zibiao. Southern Wè has 7 more consonants than Northern Wè [wob]",
  "use": "Also use French [fra], Jula [dyu]. Used as L2 by Daho-Doo [das], Nyabwa [nwb]",
  "development": "Literacy rate in L1: Below 1%. Literacy rate in L2: 25%–40%. Radio programs. TV. NT: 1982",
  "resources": "OLAC resources in and about Wè Southern",
  "writing": "Latin script [Latn]",
  "other_comments": "Ethnic autonym: Wèè. Consider Wè one language with many dialects. They are one ethnic group, together with Krahn in Liberia. Christian, traditional religion"
}