{
  "id": "gyi",
  "name": "Gyele",
  "country": {
    "code": "CM",
    "name": "Cameroon",
    "area": "Africa"
  },
  "status": "6b (Threatened)",
  "alternate_names": "Babinga, Bagiele, Bagyele, Bajele, Bajeli, Bako, Bakola, Bakuele, Bekoe, Bogyel, Bogyeli, Bondjiel, Giele, Gieli, Gyeli, Likoya",
  "population": "4,250 in Cameroon (2012 SIL). Population total all countries: 4,279",
  "location": "South region: Océan division, Bipindi, Campo, Kribi, and Lolodorf subdivisions, forested areas between Nyong and Ntem rivers, many near Campo-Maan Reserve; Centre region: Nyong-et-Kéllé division",
  "maps": "Southern Cameroon                      Equatorial Guinea, Gabon and São Tomé e Príncipe",
  "classification": "Niger-Congo, Atlantic-Congo, Volta-Congo, Benue-Congo, Bantoid, Southern, Narrow Bantu, Northwest, A, Makaa-Njem (A.801)",
  "dialects": "Bagyeli, Bakola, Likoya. Lexical similarity: high with Kwasio [nmg]. Much shared vocabulary in Bakola dialect with Basaa [bas]. Likoya is a contact variety; Gyele who live near Bulu [bum] speakers borrow from that language",
  "use": "Speakers often hide the fact that they have their own language. However, within the group, when no outsiders are present, they prefer Gyele. Home, with each other. All ages. Very few use French [fra]. Nearly all also use Kwasio [nmg]. Also use Basaa [bas], Bulu [bum], Ewondo [ewo]",
  "development": "Literacy rate in L1: 5% have some literacy in Gyele. Literacy rate in L2: Very few can read French [fra]. A Bipindi boarding school uses Gyele materials in elementary school, which produced some literacy among Bipindi area Gyele speakers. Not used in government schools, which more children are attending. Poetry. Radio programs. Films. Videos. Bible portions: 1969–1987",
  "resources": "OLAC resources in and about Gyele",
  "writing": "Latin script [Latn], used since about 1987",
  "other_comments": "Pygmies, dispersed in small groups in the forest. Probably different from Bakola (Bakoya) pygmies of Gabon. Traditional religion"
}