{
  "id": "gyr",
  "name": "Guarayu",
  "country": {
    "code": "BO",
    "name": "Bolivia",
    "area": "Americas"
  },
  "status": "6a (Vigorous)",
  "alternate_names": "“Guarayo” (pej.)",
  "population": "5,930 (Adelaar 2004). Ethnic population: 9,860 (2006 PIB)",
  "location": "Northeast Guarayos river area, Santa Cruz Department; Ascensión de Guarayos, Urubichá, Salvatierra, San Pablo, Yaguarú y Yotaú, El Puente, Nueva Jerusalén, El Verano, Santa María, Cururú, Momené, Surucusi, San José Obrero, Cerro Chico, Cerro Grande, Cachuela, Puerto Ñuflo de Chávez",
  "maps": "Bolivia",
  "classification": "Tupian, Tupí-Guaraní, Guarayú",
  "typology": "SOV",
  "use": "All ages",
  "development": "950 children in school in Urubicha. 31 of 34 teachers are Guarayu (1995). NT: 1985–2011",
  "resources": "OLAC resources in and about Guarayu",
  "writing": "Latin script [Latn]",
  "other_comments": "Different from Eastern Bolivian Guaraní (Guarayo) [gui] of Paraguay and Huarayo (Ese Ejja) [ese] of Peru and Bolivia. “Guarayo”, used for several groups, means savage. Traditional religion, Christian"
}