{
  "id": "hbu",
  "name": "Habun",
  "country": {
    "code": "TL",
    "name": "East Timor",
    "area": "Asia"
  },
  "status": "6b (Threatened)",
  "alternate_names": "Habu, Sabu",
  "population": "2,700 (2010 census)",
  "location": "Central Manatuto District, Laclubar subdistrict",
  "maps": "East Timor",
  "classification": "Austronesian, Malayo-Polynesian, Central-Eastern Malayo-Polynesian, Timor-Babar, Nuclear Timor",
  "dialects": "None known. Reportedly many loanwords from Trans-New Guinea languages similar to Makasae [mkz], but with Austronesian structure. Classification needs further investigation",
  "use": "Potentially endangered because of size and location",
  "resources": "OLAC resources in and about Habun",
  "writing": "Latin script [Latn]"
}