{
  "id": "hei",
  "name": "Heiltsuk",
  "country": {
    "code": "CA",
    "name": "Canada",
    "area": "Americas"
  },
  "status": "7 (Shifting)",
  "alternate_names": "Hailhzaqvla",
  "population": "66 (FPCC 2014). 50 semi-speakers; 6 remaining speakers of Oowekyala (FPCC 2014). Ethnic population: 2,530 (FPCC 2014). L2 users: A few fluent L2 speakers",
  "location": "Central British Columbia coast, Bella Bella and Kitasoo villages, Rivers Inlet area",
  "maps": "Southwestern Canada",
  "classification": "Wakashan, Northern Wakashan, Kwakiutlan",
  "dialects": "Bella Bella (Northern Heiltsuk), Oowekyala. Related to Haisla [has] and Kwakiutl [kwk]",
  "use": "Speakers 25 and older. Also use English [eng]",
  "development": "Local teaching program in Bella Bella. Dictionary",
  "resources": "OLAC resources in and about Heiltsuk"
}