{
  "id": "hgw",
  "name": "Haigwai",
  "country": {
    "code": "PG",
    "name": "Papua New Guinea",
    "area": "Pacific"
  },
  "status": "6a (Vigorous)",
  "alternate_names": "Garaghwaghi, Kapulika, Naura",
  "population": "1,060 (2000 census). 160 monolinguals",
  "location": "Milne Bay Province, Alotau district, Huhu local government area, inland from Milne Bay head between Hagita and Waigani estates and mountains west",
  "maps": "Papua New Guinea, Map 17",
  "classification": "Austronesian, Malayo-Polynesian, Central-Eastern Malayo-Polynesian, Eastern Malayo-Polynesian, Oceanic, Western Oceanic, Papuan Tip, Nuclear, North Papuan Mainland-D’Entrecasteaux, Are-Taupota, Taupota",
  "dialects": "Kapulika, Naura. Naura dialect and Gweda [grw] users agree that Gweda is most similar to Haigwai. Lexical similarity: 68% between the Naura dialect and Gweda, 65% between Kapulika dialect and Taupota [tpa], 52% with Wedau [wed], 48% with Maiwala [mum]",
  "use": "Positive attitudes. Also use Buhutu [bxh], English [eng], Hiri Motu [hmo], Suau [swp], Tawala [tbo], Wedau [wed]",
  "development": "1 mother tongue primary school",
  "resources": "OLAC resources in and about Haigwai"
}