{
  "id": "hlb",
  "name": "Halbi",
  "country": {
    "code": "IN",
    "name": "India",
    "area": "Asia"
  },
  "status": "3 (Wider communication)",
  "alternate_names": "Bastari, Halabi, Halba, Halvas, Halvi, Mahari, Mehari",
  "population": "593,000 (2001 census). L2 users: 200,000 (2001 C. Thomas)",
  "location": "Madhya Pradesh, Balaghat district; Chhattisgarh, Bastar district plains; Maharashtra, Gondia district; Odisha, Koraput district; Andhra Pradesh",
  "maps": "India, Map 7",
  "classification": "Indo-European, Indo-Iranian, Indo-Aryan, Eastern zone, Bengali-Assamese",
  "dialects": "Adkuri, Bastari, Bhunjia, Chandari, Gachikolo, Govari of Balaghat, Kawari, Kunbi, Mahari (Mahara, Mehari), Muri (Muria), Sundi. Bhunjia and Kawari dialects considered more divergent dialects. Reportedly a creole language. Grierson and Konow called it a dialect of Marathi [mar] for convenience, but noted similarities to Bhatri [bgw], a dialect of Oriya [ory] (Grierson and Konow 1903–1928)",
  "typology": "SOV; postpositions; genitives, articles, adjectives, numerals before noun heads; 2 or 3 affixes per word; word order distinguishes given and new information; noun affixes indicate case; verb affixes mark person, number, gender of subject; passives; causatives; comparatives; CV, CVC, CVV; nontonal",
  "use": "Educated men also use Hindi [hin], for trading and common topics. Also use Bhatri [bgw]. Used as L2 by Bhatri [bgw], Duruwa [pci], Eastern Muria [emu], Maria [mrr], Mirgan [zrg]",
  "development": "Literacy rate in L2: 74% for Chhattisgarh plains (2001 census). Government literacy program uses Hindi primers. Bible portions: 1989–1998",
  "resources": "OLAC resources in and about Halbi",
  "writing": "Devanagari script [Deva]",
  "other_comments": "A Scheduled Tribe. Traditional religion, Hindu"
}