{
  "id": "hml",
  "name": "Miao, Luopohe",
  "country": {
    "code": "CN",
    "name": "China",
    "area": "Asia"
  },
  "status": "6a (Vigorous). Language of recognized nationality: Miao. Most officially classified within Miao nationality, except for Xijia group",
  "alternate_names": "Lobohe Miao, Luobo River Miao, Luobohe Hmong, Luopohe Hmong, Xi, Xijia Miao, Ximahe Miao",
  "population": "61,000 (Wang Fushi and Mao Zhongwu 1995)",
  "location": "Central Guizhou Province east of Guiyang, Weng’an, Guiding, Longli, and Kaiyang counties, Fuquan and Kaili municipalities",
  "maps": "Southwestern China",
  "classification": "Hmong-Mien, Hmongic, Chuanqiandian",
  "dialects": "2 dialects. Not inherently intelligible of other Miao varieties. A member of macrolanguage Hmong [hmn]",
  "use": "Home, community, market. All ages",
  "resources": "OLAC resources in and about Miao, Luopohe",
  "other_comments": "Traditional religion"
}