{
  "id": "hmq",
  "name": "Miao, Eastern Qiandong",
  "country": {
    "code": "CN",
    "name": "China",
    "area": "Asia"
  },
  "status": "6a (Vigorous). Language of recognized nationality: Miao",
  "alternate_names": "Black Miao, Central Miao, Chientung Miao, Eastern East-Guizhou Miao, Eastern Hmu, Hei Miao, Hmu",
  "population": "350,000 (Wang Fushi and Mao Zhongwu 1995)",
  "location": "East Guizhou Province, Jianhe, Jinping, and Liping counties; west Hunan Province, Huitong, Jingzhou, and Tongdao counties",
  "maps": "Southern China",
  "classification": "Hmong-Mien, Hmongic, Qiandong",
  "dialects": "None known. Not intelligible of other Miao varieties. Corresponds more or less to Ma’s Central Miao and Purnell’s Eastern Miao. A member of macrolanguage Hmong [hmn]",
  "development": "Dictionary. Bible portions: 1928",
  "resources": "OLAC resources in and about Miao, Eastern Qiandong",
  "writing": "Bopomofo script [Bopo], no longer in use",
  "other_comments": "Traditional religion"
}