{
  "id": "hmw",
  "name": "Miao, Western Mashan",
  "country": {
    "code": "CN",
    "name": "China",
    "area": "Asia"
  },
  "status": "6a (Vigorous). Language of recognized nationality: Miao",
  "alternate_names": "Western Mashan Hmong",
  "population": "14,000 (Wang Fushi and Mao Zhongwu 1995)",
  "location": "South Guizhou Province, Wangmo and Ziyun counties",
  "maps": "Southwestern China",
  "classification": "Hmong-Mien, Hmongic, Chuanqiandian",
  "dialects": "None known. Inherently unintelligible of other Miao varieties. A member of macrolanguage Hmong [hmn]",
  "typology": "Tonal, 13 tones",
  "use": "Home, community, market",
  "resources": "OLAC resources in and about Miao, Western Mashan",
  "other_comments": "Traditional religion"
}