{
  "id": "hni",
  "name": "Hani",
  "country": {
    "code": "CN",
    "name": "China",
    "area": "Asia"
  },
  "status": "6a (Vigorous). Language of recognized nationality: Hani",
  "alternate_names": "Hanhi, Hani Proper, Haw",
  "population": "740,000 in China (Bradley 2007). Population total all countries: 758,620. 444,000 monolinguals",
  "location": "South Yunnan Province, Jingdong and Jinggu counties, Yuanjiang and Lancang (Mekong) river basins, Ailao mountains",
  "maps": "Southwestern China                      Laos                      Northwestern Viet Nam",
  "classification": "Sino-Tibetan, Tibeto-Burman, Ngwi-Burmese, Ngwi, Southern",
  "dialects": "Hani has numerous dialects and is reportedly fairly similar to Akha [ahk]",
  "typology": "SOV; tonal, 3 tones",
  "use": "Vigorous. Some users of nearby languages also speak Hani. Taught at Kunming Institute. All domains. All ages. Positive attitudes. 40% also use Mandarin Chinese [cmn]. Written Chinese is in common use. Also use Lipo [lpo], Lü [khb]. Used as L2 by Kucong [lkc], Lahu [lhu], Laomian [lwm], Sangkong [sgk]",
  "development": "40,000 can read and write Hani. Newspapers. Radio programs. Films. TV. Dictionary. Grammar",
  "resources": "OLAC resources in and about Hani",
  "writing": "Latin script [Latn], pinyin-based, used in 1958–1964 and from 1982, experimental, used in education, literature, and media",
  "other_comments": "Includes Hani, Akha, Biyo, Kaduo, Honi, and other groups, all speaking Southern Ngwi languages. The Hanhi ethnic group in Viet Nam and Laos speak Hani. Traditional religion"
}