{
  "id": "hom",
  "name": "Homa",
  "country": {
    "code": "SS",
    "name": "South Sudan",
    "area": "Africa"
  },
  "status": "10 (Extinct)",
  "population": "No known L1 speakers. No remaining speakers as of 1975",
  "location": "West Equatoria state: around Mopoi and Tambura towns",
  "classification": "Niger-Congo, Atlantic-Congo, Volta-Congo, Benue-Congo, Bantoid, Southern, Narrow Bantu, Central, D, Bira-Nyali (D.304)",
  "resources": "OLAC resources in and about Homa",
  "writing": "Unwritten [Qaax]"
}