{
  "id": "hoo",
  "name": "Holoholo",
  "country": {
    "code": "CD",
    "name": "Democratic Republic of the Congo",
    "area": "Africa"
  },
  "status": "6a (Vigorous)",
  "alternate_names": "Guha, Horohoro, Kalanga, Kiholoholo, Kikalanga",
  "population": "15,500 (2002)",
  "location": "Katanga province: northwest Kalemie area",
  "maps": "Southern Democratic Republic of Congo",
  "classification": "Niger-Congo, Atlantic-Congo, Volta-Congo, Benue-Congo, Bantoid, Southern, Narrow Bantu, Central, D, Lega-Holoholo (D.28)",
  "development": "Bible portions: 1948",
  "resources": "OLAC resources in and about Holoholo",
  "writing": "Latin script [Latn]",
  "other_comments": "Different from Holu [hol] (Kiholo, Holo)"
}