{
  "id": "hpo",
  "name": "Hpon",
  "country": {
    "code": "MM",
    "name": "Myanmar",
    "area": "Asia"
  },
  "status": "9 (Dormant)",
  "alternate_names": "Hpön, Megyaw, Phon, Phön, Phun, Samong",
  "population": "No known L1 speakers (Bradley 2007), decreasing. Southern dialect extinct; northern dialect moribund; some older people remember lexical items but none can speak it (Bradley 2007). Ethnic population: 1,500 (Bradley 2007)",
  "location": "Kachin State, Upper Ayeyarwady gorges, north of Bhamo",
  "maps": "Northern Myanmar",
  "classification": "Sino-Tibetan, Tibeto-Burman, Ngwi-Burmese, Burmish, Northern",
  "dialects": "North Hpon, South Hpon",
  "resources": "OLAC resources in and about Hpon",
  "writing": "Unwritten [Qaax]"
}