{
  "id": "hrc",
  "name": "Niwer Mil",
  "country": {
    "code": "PG",
    "name": "Papua New Guinea",
    "area": "Pacific"
  },
  "status": "6a (Vigorous)",
  "alternate_names": "Tanga, Tangga",
  "population": "6,300 (2000 census)",
  "location": "New Ireland Province, Tangga islands",
  "maps": "Papua New Guinea, Map 2",
  "classification": "Austronesian, Malayo-Polynesian, Central-Eastern Malayo-Polynesian, Eastern Malayo-Polynesian, Oceanic, Western Oceanic, Meso Melanesian, New Ireland, South New Ireland-Northwest Solomonic, Patpatar-Tolai",
  "development": "Dictionary",
  "resources": "OLAC resources in and about Niwer Mil"
}