{
  "id": "hub",
  "name": "Huambisa",
  "country": {
    "code": "PE",
    "name": "Peru",
    "area": "Americas"
  },
  "status": "5 (Developing)",
  "alternate_names": "Huambiza, Wambisa, Wampis",
  "population": "9,330 (2000)",
  "location": "North, Amazonas and Loreto regions; high jungle of the Andes along Morona and Santiago rivers",
  "maps": "Peru",
  "classification": "Jivaroan, Jívaro",
  "dialects": "None known. Reportedly similar to Aguaruna [agr] and Achuar-Shiwiar [acu]",
  "typology": "SOV",
  "use": "Most children acquire the language (Crevels 2007). All domains. All ages. Positive attitudes. Also use Spanish [spa]",
  "development": "Literacy rate in L1: 50%. Literacy rate in L2: 50%. Dictionary. NT: 1975–2010",
  "resources": "OLAC resources in and about Huambisa",
  "writing": "Latin script [Latn]",
  "other_comments": "Christian, traditional religion"
}