{
  "id": "huh",
  "name": "Huilliche",
  "country": {
    "code": "CL",
    "name": "Chile",
    "area": "Americas"
  },
  "status": "8a (Moribund)",
  "alternate_names": "Huiliche, Veliche",
  "population": "2,000 (1982 SIL). Ethnic population: 17,000. On the outer Island of Cholé",
  "location": "Los Lagos, Los Ríos regions; South of Mapuche, Valdivia to Chiloé",
  "maps": "Argentina and Chile",
  "classification": "Mapudungu",
  "dialects": "Tsesungún. Related to Mapudungun [arn], but barely intelligible with it",
  "use": "Most of the ethnic group speaks Spanish [spa] as L1. Some youth using the language in rap music. Few domains. Older adults",
  "resources": "OLAC resources in and about Huilliche"
}