{
  "id": "hun",
  "name": "Hungarian",
  "country": {
    "code": "HU",
    "name": "Hungary",
    "area": "Europe"
  },
  "status": "1 (National). De facto national language",
  "alternate_names": "Magyar",
  "population": "9,840,000 in Hungary (European Commission 2012). Population total all countries: 12,605,590",
  "location": "Widespread",
  "maps": "Austria                      Ukraine",
  "classification": "Uralic",
  "dialects": "Central Transdanubian, North-eastern Hungarian, Palóc, Southern Great Plains, Southern Transdanubian, Tisza–Körös, Western Transdanubian. Reportedly most similar to the Uralic language Vogul (Mansi [mns]) in Siberia. Speakers of standard Hungarian have difficulty understanding the Oberwart dialect spoken in Austria, and considerable difficulty understanding the Moldavian Csángó dialect spoken in Rumania",
  "typology": "SVO",
  "use": "2,252,000 also use English [eng]",
  "development": "Taught in primary and secondary schools. Fully developed. Bible: 1590–1991",
  "resources": "OLAC resources in and about Hungarian",
  "writing": "Braille script [Brai]. Latin script [Latn], primary usage",
  "other_comments": "Ethnic autonym: Magyar"
}