{
  "id": "hwo",
  "name": "Hwana",
  "country": {
    "code": "NG",
    "name": "Nigeria",
    "area": "Africa"
  },
  "status": "6a (Vigorous)",
  "alternate_names": "Fiterya, Hona, Hwona",
  "population": "32,000 (1992)",
  "location": "Adamawa state: Girei, Shelleng, and Song LGAs, some in Gombi LGA; Borno state: Hawul LGA",
  "maps": "Nigeria, Map 5",
  "classification": "Afro-Asiatic, Chadic, Biu-Mandara, A, A.1, Eastern",
  "use": "Also use Ga’anda [gqa], Hausa [hau], Nigerian Fulfulde [fuv], Nya Huba [hbb]",
  "resources": "OLAC resources in and about Hwana",
  "other_comments": "Ethnic autonym: Fiterya. 4 divisions: Hwana Guyaku, Hwana Tawa, Ngithambara, and Hwana Barni. Traditional religion, Christian"
}