{
  "id": "ige",
  "name": "Igede",
  "country": {
    "code": "NG",
    "name": "Nigeria",
    "area": "Africa"
  },
  "status": "6a (Vigorous)",
  "alternate_names": "Egede, Igedde",
  "population": "250,000 (1991 UBS)",
  "location": "Benue state: Oju, Otukpo, and Okpokwu LGAs; Cross River state: Ogoja LGA; Ebonyi state: Izzi LGA",
  "maps": "Nigeria, Map 7                      Nigeria, Map 10",
  "classification": "Niger-Congo, Atlantic-Congo, Volta-Congo, Benue-Congo, Idomoid, Akweya, Etulo-Idoma, Idoma",
  "dialects": "Gabu, Ito, Oju (Central Igede), Worku",
  "use": "Used as L2 by Yace [ekr]",
  "development": "Grammar. NT: 1981",
  "resources": "OLAC resources in and about Igede",
  "writing": "Latin script [Latn], used since 1989"
}