{
  "id": "igg",
  "name": "Igana",
  "country": {
    "code": "PG",
    "name": "Papua New Guinea",
    "area": "Pacific"
  },
  "status": "6b (Threatened)",
  "population": "200 (2003 SIL)",
  "location": "Madang Province, west of Josephstaal",
  "maps": "Papua New Guinea, Map 6",
  "classification": "Ramu-Lower Sepik, Ramu, Tamolan",
  "dialects": "None known. Related to Romkun [rmk], Breri [brq], Kominimung [xoi], Chini [afi], and Inapang [mzu]",
  "resources": "OLAC resources in and about Igana"
}