{
  "id": "igl",
  "name": "Igala",
  "country": {
    "code": "NG",
    "name": "Nigeria",
    "area": "Africa"
  },
  "status": "4 (Educational)",
  "alternate_names": "Igara",
  "population": "800,000 (1989 UBS)",
  "location": "Kogi state: Ibaji, Idah, Igalamela-Odolu, Bassa, Dekina, and Ofu LGAs; Enugu state: Uzo-Uwani LGA; Anambra state: Anambra West LGA; Edo state: Esan Southeast LGA",
  "maps": "Nigeria, Map 6                      Nigeria, Map 9",
  "classification": "Niger-Congo, Atlantic-Congo, Volta-Congo, Benue-Congo, Defoid, Yoruboid, Igala",
  "dialects": "Ankpa, Anyugba, Ebu, Ibaji, Idah, Ife, Ogugu",
  "use": "Agatu, Idoma, and Bassa people use Igala to attend Ika Bible School. All domains. Used as L2 by Basa [bzw]",
  "development": "Taught in primary schools. Bible: 1968",
  "resources": "OLAC resources in and about Igala",
  "writing": "Latin script [Latn]",
  "other_comments": "Traditional religion, Christian, Muslim"
}