{
  "id": "ihb",
  "name": "Iha Based Pidgin",
  "country": {
    "code": "ID",
    "name": "Indonesia",
    "area": "Asia"
  },
  "status": "9 (Second language only)",
  "population": "No known L1 speakers",
  "location": "Papua Barat Province, Bomberai peninsula",
  "classification": "Pidgin, Iha based",
  "resources": "OLAC resources in and about Iha Based Pidgin",
  "other_comments": "Muslim, Christian"
}