{
  "id": "ijc",
  "name": "Izon",
  "country": {
    "code": "NG",
    "name": "Nigeria",
    "area": "Africa"
  },
  "status": "4 (Educational)",
  "alternate_names": "Central-Western Ijo, Ijaw, Ijo, Izo, Uzo",
  "population": "1,000,000 (Williamson 1989). 100,000 Kolokuma (1991 UBS). 1,770,000 all Ijo languages",
  "location": "Bayelsa state: Yenagoa, South Ijaw, Kolokuma-Opokuma, Ekeremor, and Sagbama LGAs; Delta state: Burutu, Warri North, and Warri South West LGAs; Ondo state: Ilaje, Ese-Odo LGA; Edo state: Ovia South West and Ovia North East LGAs",
  "maps": "Nigeria, Map 9                      Nigeria: Index Map",
  "classification": "Niger-Congo, Atlantic-Congo, Ijoid, Ijo, West Ijo",
  "dialects": "Apoi, Arogbo, Basan (Bassan), Bumo (Boma), East Olodiama, East Tarakiri, Egbema, Ekpetiama, Furupagha, Gbarain, Iduwini, Ikibiri, Kabo (Kabowei), Kolokuma-Opokuma, Koluama, Kumbo (Kumbowei), Mein, Ogbe Ijo, Ogboin, Ogulagha, Operemo, Oporomo (Oporoma), Oporoza (Gbaranmatu), Oyiakiri, Tuomo, West Olodiama, West Tarakiri. The Ijo (Ijaw) subgroup includes 7 languages. Izon has about 30 inherently intelligible dialects",
  "use": "Adult education (Kolokuma dialect). Used as L2 by Biseni [ije], Epie [epi], Okodia [okd]",
  "development": "Taught in primary schools. Radio programs. TV. Dictionary. Grammar. Bible portions: 1912–1924",
  "resources": "OLAC resources in and about Izon",
  "writing": "Latin script [Latn]"
}