{
  "id": "ikx",
  "name": "Ik",
  "country": {
    "code": "UG",
    "name": "Uganda",
    "area": "Africa"
  },
  "status": "6a (Vigorous)",
  "alternate_names": "Icetod, Icietot, Ng’ateus, Ng’ateuso, Ngulak, Teus, Teuso, Teuth",
  "population": "7,500 (2011 SIL), increasing. Ethnic population: 10,000",
  "location": "Kaabong district: Dodoth county, Kamion subcounty",
  "maps": "Uganda",
  "classification": "Nilo-Saharan, Eastern Sudanic, Kuliak, Ik",
  "dialects": "None known. Very different from other Eastern Sudanic languages",
  "typology": "VSO; ejectives and implosives, Advanced Tongue Root, vowel harmony, voiceless vowels, 8 morphological cases, non-final and final forms for all stems and morphemes, lexical tone",
  "use": "All domains. All ages. Very positive attitudes. Also use English [eng], Ng’akarimojong [kdj], Swahili [swh], Turkana [tuv]",
  "development": "Literacy rate in L2: Very low. Taught in primary schools. Poetry. Films. Dictionary",
  "resources": "OLAC resources in and about Ik",
  "writing": "Latin script [Latn], used since 2009",
  "other_comments": "Christian (Roman Catholic), Christian (Protestant), traditional religion"
}