{
  "id": "imn",
  "name": "Imonda",
  "country": {
    "code": "PG",
    "name": "Papua New Guinea",
    "area": "Pacific"
  },
  "status": "6a (Vigorous)",
  "population": "250 (1994 SIL)",
  "location": "Sandaun Province, Amanab district, near Imonda airstrip",
  "maps": "Papua New Guinea, Map 3",
  "classification": "Border, Waris",
  "development": "Grammar",
  "resources": "OLAC resources in and about Imonda"
}