{
  "id": "imr",
  "name": "Imroing",
  "country": {
    "code": "ID",
    "name": "Indonesia",
    "area": "Asia"
  },
  "status": "7 (Shifting)",
  "alternate_names": "Imroin",
  "population": "560 (2007 SIL)",
  "location": "Maluku Province, south, Imroing village; Babar island, southwest",
  "maps": "Indonesia, Southern Maluku",
  "classification": "Austronesian, Malayo-Polynesian, Central-Eastern Malayo-Polynesian, Babar, South, Southwest Babar",
  "use": "Shifting to a local Malay variety. Home, gardens, village, ceremonies, religion. Also use a regional Malay variety, probably a dialect of Ambonese Malay [abs], in all domains, except for ceremonies; children are taught the Malay variety. Speakers also use Indonesian [ind] primarily in government, Christian religious domains",
  "development": "Literacy rate in L1: Below 1%",
  "resources": "OLAC resources in and about Imroing",
  "other_comments": "Christian"
}