{
  "id": "inp",
  "name": "Iñapari",
  "country": {
    "code": "PE",
    "name": "Peru",
    "area": "Americas"
  },
  "status": "8b (Nearly extinct)",
  "alternate_names": "Inamari",
  "population": "4 (1999 SIL)",
  "location": "Madre de Dios Region, Piedras River, mouth of Sabaluyo, near Puerto Maldonado",
  "maps": "Peru",
  "classification": "Maipurean, Southern, Southern Outlier, Piro",
  "use": "No children; speakers 45 and older. Also use Spanish [spa]",
  "development": "Grammar",
  "resources": "OLAC resources in and about Iñapari",
  "writing": "Latin script [Latn]"
}