{
  "id": "ito",
  "name": "Itonama",
  "country": {
    "code": "BO",
    "name": "Bolivia",
    "area": "Americas"
  },
  "status": "8b (Nearly extinct)",
  "alternate_names": "Machoto, Saramo",
  "population": "5 (Crevels 2007). Ethnic population: 2,940 (2006 PIB)",
  "location": "El Beni Department and Itonamas river, Magdalena, Chumano, San Ramón, Huaracajes, Nueva Calama, Versalles, La Selva, San Borja",
  "maps": "Bolivia",
  "classification": "Language isolate",
  "dialects": "None known. Ruhlen classifies it as Paezan",
  "use": "Speakers 80 and older. Shifting to Spanish [spa]",
  "development": "Dictionary. Bible portions: 1967–1969",
  "resources": "OLAC resources in and about Itonama",
  "writing": "Latin script [Latn]"
}