{
  "id": "itx",
  "name": "Itik",
  "country": {
    "code": "ID",
    "name": "Indonesia",
    "area": "Asia"
  },
  "status": "6b (Threatened)",
  "alternate_names": "Betef, Borto, Ittik, Ittik-Tor",
  "population": "80 (Wurm 2000). Ethnic population: 200",
  "location": "Papua Province. North coast east of Tor river, along upper Biri river",
  "maps": "Indonesia, Eastern Papua",
  "classification": "Tor-Kwerba, Orya-Tor, Tor",
  "dialects": "Ittik, Ittik-Tor",
  "use": "Potentially endangered (2000 S. Wurm). Under pressure from Indonesian [ind] (Wurm 2007)",
  "resources": "OLAC resources in and about Itik",
  "other_comments": "Ethnic group: Borto. 2005 survey data indicates this language may no longer exist or speakers moved to another location. Christian, traditional religion"
}