{
  "id": "jaa",
  "name": "Jamamadí",
  "country": {
    "code": "BR",
    "name": "Brazil",
    "area": "Americas"
  },
  "status": "4 (Educational)",
  "alternate_names": "Canamanti, Kanamanti, Madi, Yamamadí",
  "population": "800 (Moore 2006). 220 Banawa Yafi (Kitiya) mostly monolingual; 160 ethnic Jarawara, also mostly monolingual (Crevels 2007)",
  "location": "Amazonas in Jaruara, 7 villages in Lábrea municipality; Banawá river area; the rest scattered over a large area",
  "maps": "Central Brazil                      Western Central Brazil",
  "classification": "Arauan, Jamamadi",
  "dialects": "Bom Futuro, Cuchudua (Maima), Jaruára (Jarawara, Yarawara), Jurua, Kitiya (Banauá, Banavá, Banawá, Banawa Yafi, Jafí), Mamoria (Mamori), Pauini, Tukurina. Other groups called, Jamamadí, are reportedly more similar to Kulina [cul] or Dení [dny]. Tukurina dialect may be a separate language",
  "typology": "OSV",
  "use": "Vigorous. Religious services, letters. All ages. Also use Portuguese [por]",
  "development": "Literacy rate in L1: Jamamadí 60%–100%; Jaruára 50%; Kitiya 1%. Literacy rate in L2: Jamamadí 75%–100%; Jaruára 5%–15%; Kitiya 5%. Dictionary. Bible portions: 1991–2007",
  "resources": "OLAC resources in and about Jamamadí",
  "writing": "Latin script [Latn]",
  "other_comments": "People want a school. Christian, traditional religion"
}