{
  "id": "jaj",
  "name": "Zazao",
  "country": {
    "code": "SB",
    "name": "Solomon Islands",
    "area": "Pacific"
  },
  "status": "8b (Nearly extinct)",
  "alternate_names": "Jajao, Kilokaka",
  "population": "10 (1999 SIL)",
  "location": "Central Isabel island, Hograno coast, Kilokaka village",
  "maps": "Solomon Islands",
  "classification": "Austronesian, Malayo-Polynesian, Central-Eastern Malayo-Polynesian, Eastern Malayo-Polynesian, Oceanic, Western Oceanic, Meso Melanesian, New Ireland, South New Ireland-Northwest Solomonic, Santa Isabel, Central",
  "use": "Seriously endangered (2000 D. Tryon). Some domains. Mildly positive attitudes. Also use Cheke Holo [mrn] (Maringe). Also use Zabana [kji]",
  "resources": "OLAC resources in and about Zazao"
}