{
  "id": "jan",
  "name": "Jandai",
  "country": {
    "code": "AU",
    "name": "Australia",
    "area": "Pacific"
  },
  "status": "10 (Extinct)",
  "alternate_names": "Coobenpil, Djandai, Djendewal, Dsandai, Goenpul, Janday, Jendairwal, Jundai, Koenpel, Noogoon, Tchandi",
  "population": "No known L1 speakers (1996 AUSTLANG)",
  "location": "Victoria State, southern two-thirds of Stradbroke Island",
  "classification": "Australian, Pama-Nyungan, Durubulic",
  "resources": "OLAC resources in and about Jandai",
  "writing": "Unwritten [Qaax]"
}