{
  "id": "jaq",
  "name": "Yaqay",
  "country": {
    "code": "ID",
    "name": "Indonesia",
    "area": "Asia"
  },
  "status": "6b (Threatened)",
  "alternate_names": "Jakai, Jaqai, Mapi, Sohur, Yaqai",
  "population": "10,000 (1987 SIL)",
  "location": "Papua Province, south coast Obaa river area, southeast of Kayagar [kyt] and southwest of Central Awyu [awu] language areas",
  "maps": "Indonesia, Eastern Papua",
  "classification": "Trans-New Guinea, Marind, Yaqay",
  "dialects": "Bapai, Nambiomon-Mabur, Oba-Miwamon",
  "use": "Home, religious services. Also use Indonesian [ind]",
  "resources": "OLAC resources in and about Yaqay",
  "other_comments": "Traditional religion, Christian"
}