{
  "id": "jeg",
  "name": "Jeng",
  "country": {
    "code": "LA",
    "name": "Laos",
    "area": "Asia"
  },
  "status": "6a (Vigorous)",
  "alternate_names": "Cheng, Chiengceng",
  "population": "4,540 (Bradley 2007)",
  "location": "Attapu Province, Samakkhixai and Sanamxai districts, 7 villages north of Attopeu town; Xekong Province, Lamam and Dakcheung districts",
  "maps": "Laos",
  "classification": "Austro-Asiatic, Mon-Khmer, Eastern Mon-Khmer, Bahnaric, West Bahnaric, Oi-The",
  "dialects": "None known. Related to Oy [oyb], Sapuan [spu], and Sok [skk]",
  "resources": "OLAC resources in and about Jeng",
  "other_comments": "Traditional religion"
}