{
  "id": "jek",
  "name": "Jeri Kuo",
  "country": {
    "code": "CI",
    "name": "Côte d’Ivoire",
    "area": "Africa"
  },
  "status": "7 (Shifting)",
  "alternate_names": "Celle, Jeli Kuo",
  "population": "1,500 (1990 R. Kastenholz). Ethnic population: 20,000 (1990 R. Kastenholz)",
  "location": "Savanes District, Korhogo area, 3 enclaves",
  "maps": "Côte d’Ivoire",
  "classification": "Niger-Congo, Mande, Western, Central-Southwestern, Central, Manding-Jogo, Jogo-Jeri",
  "dialects": "None known. Related to Ligbi [lig] of Ghana and Tongon, an extinct blacksmith argot of the Djimini Senoufo",
  "resources": "OLAC resources in and about Jeri Kuo"
}