{
  "id": "jgb",
  "name": "Ngbee",
  "country": {
    "code": "CD",
    "name": "Democratic Republic of the Congo",
    "area": "Africa"
  },
  "status": "10 (Extinct)",
  "alternate_names": "Lingbe, Lingbee, Majuu, Mangbele",
  "population": "No known L1 speakers",
  "location": "Orientale province: scattered in Rungu, Niangara, Wamba, and Watsa territories",
  "classification": "Niger-Congo, Atlantic-Congo, Volta-Congo, Benue-Congo, Bantoid, Southern, Narrow Bantu, Central, D, Bira-Nyali (D.336)",
  "use": "Shifted to Mangbetu [mdj] or Mayogo [mdm]",
  "resources": "OLAC resources in and about Ngbee"
}