{
  "id": "jhs",
  "name": "Jhankot Sign Language",
  "country": {
    "code": "NP",
    "name": "Nepal",
    "area": "Asia"
  },
  "status": "6a (Vigorous)",
  "location": "Karnali Zone, Dolpa district, Jhankot village",
  "maps": "Central Nepal                      Western Nepal",
  "classification": "Deaf sign language",
  "use": "Reportedly used by deaf and hearing alike throughout the village",
  "resources": "OLAC resources in and about Jhankot Sign Language",
  "other_comments": "Existence attested only by a single source (Taylor 1997)"
}