{
  "id": "jjr",
  "name": "Bankal",
  "country": {
    "code": "NG",
    "name": "Nigeria",
    "area": "Africa"
  },
  "status": "6a (Vigorous)",
  "alternate_names": "Bankala, Bankalanci, Baranci, Jaranchi, Jaranci, Jarancin Kasa, Jarawa, Jarawan Kasa, Zhar",
  "population": "75,000 (2011 SIL)",
  "location": "Bauchi state: Dass LGA, Dott, Bajar, Lir; Bauchi LGA, Nyamrat, Luda, Din, and Zungur; Tafawa-Balewa LGA, Bagel; Toro LGA, Kufai and Luchi",
  "maps": "Nigeria, Map 3",
  "classification": "Niger-Congo, Atlantic-Congo, Volta-Congo, Benue-Congo, Bantoid, Southern, Jarawan, Nigerian",
  "dialects": "None known. Reportedly similar to Gwak [jgk], Duguri [dbm], and Bada [bau]",
  "use": "Also use Hausa [hau]",
  "resources": "OLAC resources in and about Bankal",
  "other_comments": "The Bankalawa people identify as Bankalawa and also as Jarawa or Jar people"
}