{
  "id": "jko",
  "name": "Kubo",
  "country": {
    "code": "PG",
    "name": "Papua New Guinea",
    "area": "Pacific"
  },
  "status": "5 (Developing)",
  "population": "1,000",
  "location": "Western Province, Lake Murray district, north half Upper Strickland census district, east of Strickland river, north of the Samo [smq] language area",
  "maps": "Papua New Guinea, Map 8",
  "classification": "Trans-New Guinea, East Strickland",
  "dialects": "None known. Related to Samo [smq] and Gobasi [goi]",
  "development": "Literacy rate in L1: 10%–15%. Literacy rate in L2: 15%–20%. 1 vernacular primary school. Bible portions: 1996–1999",
  "resources": "OLAC resources in and about Kubo",
  "writing": "Latin script [Latn]"
}