{
  "id": "jma",
  "name": "Dima",
  "country": {
    "code": "PG",
    "name": "Papua New Guinea",
    "area": "Pacific"
  },
  "status": "6a (Vigorous)",
  "alternate_names": "Dimadima, Jimajima",
  "population": "750 (2001 SIL). 115 monolinguals",
  "location": "Milne Bay Province, east of Moi bay coast almost to Posaposa Harbor; Ruaba river area",
  "maps": "Papua New Guinea, Map 17",
  "classification": "Trans-New Guinea, Southeast Papuan, Dagan",
  "dialects": "None known. Lexical similarity: 41% with Daga [dgz] (most similar)",
  "typology": "SOV",
  "use": "All domains. All ages. Also use Anuki [aui], Are [mwc], Doga [dgg], English [eng], Gapapaiwa [pwg], Hiri Motu [hmo], Maiwa [mti], Tok Pisin [tpi]. Used as L2 by Doga [dgg]",
  "resources": "OLAC resources in and about Dima",
  "other_comments": "Christian, traditional religion"
}