{
  "id": "jmn",
  "name": "Naga, Makuri",
  "country": {
    "code": "MM",
    "name": "Myanmar",
    "area": "Asia"
  },
  "status": "6a (Vigorous)",
  "alternate_names": "Makury",
  "population": "2,500 in Myanmar (2004). Population total all countries: 6,500",
  "location": "Sagain, Khamti district, Layshi, Homalin, and Lahe townships",
  "maps": "India, Map 5                      Northern Myanmar",
  "classification": "Sino-Tibetan, Tibeto-Burman, Sal, Kuki-Chin-Naga, Unclassified",
  "dialects": "Arale, Kyaungphuri (Shu), Kyile, Makhwale, Saingphule (Saingpuri), Shera (Shaera). Lexical similarity: 93% with Makuri Naga, 30%–37% with Long Phuri Naga [lpn], 17%–19% with Para Naga [pzn]",
  "use": "Vigorous. All domains. All ages. Positive attitudes. Also use Burmese [mya]. Used as L2 by Long Phuri Naga [lpn]",
  "resources": "OLAC resources in and about Naga, Makuri",
  "writing": "Latin script [Latn]",
  "other_comments": "Christian (Protestant), Buddhist, traditional religion"
}