{
  "id": "jng",
  "name": "Yangman",
  "country": {
    "code": "AU",
    "name": "Australia",
    "area": "Pacific"
  },
  "status": "9 (Dormant)",
  "alternate_names": "Dagoman, Jungman",
  "population": "No known L1 speakers. Ethnic population: 50 (Black 1983)",
  "location": "Northern Territory, Elsey creek and Katherine",
  "classification": "Australian, Gunwingguan, Yangmanic",
  "dialects": "None known. Reportedly very similar to Wardaman [wrr]",
  "use": "Shifted to English [eng] or Kriol [rop]",
  "resources": "OLAC resources in and about Yangman"
}