{
  "id": "jnl",
  "name": "Rawat",
  "country": {
    "code": "IN",
    "name": "India",
    "area": "Asia"
  },
  "status": "7 (Shifting)",
  "alternate_names": "Ban Manus, Ban Rauts, Bhulla, Dzanggali, Jangali, Janggali, Jhangar, Raji, Raut",
  "population": "670 (1998)",
  "location": "Uttarakhand, Pithoragarh district, north of Askot Maila, 9 villages",
  "maps": "India, Map 1",
  "classification": "Sino-Tibetan, Tibeto-Burman, Western Tibeto-Burman, Himalayan, Central Himalayan, Raute-Raji",
  "dialects": "None known. Extensive borrowing from areal Indo-Aryan (Kumaoni, Nepali) languages (2011 J. Fortier). Very similar to Raute [rau] and Raji [rji]",
  "typology": "SOV; postpositions; genitives, articles, adjectives, numerals before noun heads; noun heads both initial and final; no noun classes or genders; content q-word initial; maximum number of suffixes 3; affixes indicate case of noun phrases; verb affixation marks person and number; passives; causatives; comparatives; CV, CVC; nontonal",
  "use": "All speakers use a highly mixed variety. Home, religion. Negative attitudes. Due to poor socio-economic status, miniscule number of speakers, fewer domains of language use, attitude of the dominant group and lack of initiative from the state, Rawat is quickly assimilating into Kumaoni [kfy] (Rastogi 2006)",
  "development": "Literacy rate in L1: Below 1%. Younger generation taking interest in literacy",
  "resources": "OLAC resources in and about Rawat",
  "writing": "Devanagari script [Deva]",
  "other_comments": "A Scheduled Tribe. Government-given ethnonym: Raji now accepted by the people. Many Indo-Aryan loans. Raute are found in Kumaon where they are known as Raji (Gurung 1997). Traditional religion"
}