{
  "id": "jns",
  "name": "Jaunsari",
  "country": {
    "code": "IN",
    "name": "India",
    "area": "Asia"
  },
  "status": "6a (Vigorous)",
  "alternate_names": "Jansauri, Jaunsauri, Pahari",
  "population": "100,000 (2001 USCWM)",
  "location": "Uttarakhand, Dehra Dun district, Kalsi, Tiuni, and Chakrata tahsils, Jaunsar-Bawar division; Uttar Pradesh, Saharanpur district; Himachal Pradesh, Shimla district",
  "maps": "India, Map 1",
  "classification": "Indo-European, Indo-Iranian, Indo-Aryan, Northern zone, Western Pahari",
  "dialects": "Jaunsari, Jaunsari-Bawari. 97% intelligibility between dialects. Perceived by some as a Garhwali [gbm] dialect; but users perceive Garhwali as distinct and report lack of intelligibility. Lexical similarity: 70%–77% between dialects, 63%–70% with Garhwali dialects [gbm], 64% with Kumaoni [kfy], 66% with Hindi [hin], 51%–64% with Sirmauri [srx]",
  "use": "Vigorous. Home, village, private prayer. Positive attitudes. Also use Hindi [hin] with higher proficiency among the educated. Used as L2 by Gujari [gju]",
  "development": "Literacy rate in L1: Below 1%. Literacy rate in L2: 26%. Hindi preferred for education. Schools officially use Hindi as medium but Jaunsari used among children and by teachers to explain things to primary students. Bible portions: 1895–2009",
  "resources": "OLAC resources in and about Jaunsari",
  "writing": "Devanagari script [Deva]. Latin script [Latn], no longer in use. Takri (Tankri, Takari) script [Takr], no longer in use",
  "other_comments": "A Scheduled Tribe. Hindu"
}