{
  "id": "jod",
  "name": "Wojenaka",
  "country": {
    "code": "CI",
    "name": "Côte d’Ivoire",
    "area": "Africa"
  },
  "status": "6a (Vigorous)",
  "alternate_names": "Malinké, Odienné Jula, Odiennekakan",
  "population": "120,000 (1999 SIL). 15,000 Wasulu",
  "location": "Denguélé District, Odienné department; Worob District; Boundiali department possiblly; Juraba and Samofo dialects",
  "maps": "Côte d’Ivoire",
  "classification": "Niger-Congo, Mande, Western, Central-Southwestern, Central, Manding-Jogo, Manding-Vai, Manding-Mokole, Manding, Manding-East, Southeastern Manding, Maninka-Mori",
  "dialects": "Bodougouka, Juraba, Nafana, Odienneka, Samogo, Sienkoka, Toudougouka, Vandougouka, Wasulu (Wassoulounka, Wassulunka, Wassulunke). Some dialects listed may be separate languages. The Barala dialect of Mahou [mxx] may be a dialect of Wojenaka",
  "resources": "OLAC resources in and about Wojenaka",
  "other_comments": "Wasulu are ethnic Fulani who adopted a Manding language. Muslim"
}