{
  "id": "jor",
  "name": "Jorá",
  "country": {
    "code": "BO",
    "name": "Bolivia",
    "area": "Americas"
  },
  "status": "10 (Extinct)",
  "alternate_names": "Hora",
  "population": "No known L1 speakers (Crevels 2007). 5 speakers in 1955 (Crevels 2007)",
  "location": "Santa Cruz Department",
  "classification": "Tupian, Tupí-Guaraní, Guarayú, Sirionó",
  "resources": "OLAC resources in and about Jorá",
  "writing": "Unwritten [Qaax]"
}