{
  "id": "jpr",
  "name": "Dzhidi",
  "country": {
    "code": "IL",
    "name": "Israel",
    "area": "Asia"
  },
  "status": "7 (Shifting)",
  "alternate_names": "Judeo-Persian",
  "population": "60,000 in Israel (1995)",
  "location": "Jerusalem District; possibly Galilee and Negev, HaDarom and HaZafon districts",
  "classification": "Indo-European, Indo-Iranian, Iranian, Western, Southwestern, Persian",
  "dialects": "None known. Reportedly similar to Bukharic [bhh] and Iranian Persian [pes]",
  "use": "Also use Iranian Persian [pes]",
  "resources": "OLAC resources in and about Dzhidi",
  "writing": "Hebrew script [Hebr]",
  "other_comments": "Jewish"
}