{
  "id": "jru",
  "name": "Japreria",
  "country": {
    "code": "VE",
    "name": "Venezuela",
    "area": "Americas"
  },
  "status": "6b (Threatened)",
  "alternate_names": "Yapreria",
  "population": "170 (2002 census). 10 monolinguals. Ethnic population: 220",
  "location": "Zulia State, north Sierra de Perija",
  "maps": "Venezuela",
  "classification": "Cariban, Yukpa, Yucpa-Yapreria",
  "dialects": "None known. Not inherently intelligible with other Carib languages of the area (1973 M. Durbin). Lexical similarity: 60% with Yukpa [yup] (2009 W. Largo and J. Morales)",
  "use": "Threatened by exogamous marriages. Home, work. Neutral attitudes. 90% also use Spanish [spa]. Also use Yukpa [yup]",
  "development": "Literacy rate in L1: 20%. Literacy rate in L2: 0%",
  "resources": "OLAC resources in and about Japreria",
  "other_comments": "Possibly came from the Yukpas in central Colombia"
}