{
  "id": "jub",
  "name": "Wannu",
  "country": {
    "code": "NG",
    "name": "Nigeria",
    "area": "Africa"
  },
  "status": "6a (Vigorous)",
  "alternate_names": "Abinsi, Awannu, Jukun Abinsi, River Jukun",
  "population": "4,000",
  "location": "Benue state: Makurdi LGA, Iharev district, Abinsi town",
  "maps": "Nigeria, Map 7",
  "classification": "Niger-Congo, Atlantic-Congo, Volta-Congo, Benue-Congo, Jukunoid, Central, Jukun-Mbembe-Wurbo, Kororofa",
  "resources": "OLAC resources in and about Wannu",
  "other_comments": "Traditional religion"
}