{
  "id": "jus",
  "name": "Jumla Sign Language",
  "country": {
    "code": "NP",
    "name": "Nepal",
    "area": "Asia"
  },
  "status": "6b (Threatened)",
  "population": "8 (2005 INF). 8 monolinguals",
  "location": "Karnali Zone, Jumla district, Jumla town",
  "maps": "Central Nepal                      Western Nepal",
  "classification": "Deaf sign language",
  "dialects": "None known. Lexical similarity: 45%–49% with Nepalese Sign Language [nsp]",
  "resources": "OLAC resources in and about Jumla Sign Language",
  "writing": "Unwritten [Qaax]",
  "other_comments": "Deaf children in the Nepalese Sign Language school in Jumla come from 1 or 2 days walk away and do not know Jumla Sign Language"
}