{
  "id": "kac",
  "name": "Jingpho",
  "country": {
    "code": "MM",
    "name": "Myanmar",
    "area": "Asia"
  },
  "status": "3 (Wider communication).Lingua franca for Zaiwa [atb], Lashi [lsi], and Lhao Vo [mhx]",
  "alternate_names": "Chingpaw, Chingp’o, Jinghpaw, Jinghpo, Jingphaw, Kachin",
  "population": "900,000 in Myanmar (Johnstone and Mandryk 2001). Population total all countries: 940,000",
  "location": "Very large area, mainly Kachin State, except for north and southwest; Shan State, Muse and Lashio districts; Sagain, western border strip",
  "maps": "Southwestern China                      Central Myanmar                      Northern Myanmar",
  "classification": "Sino-Tibetan, Tibeto-Burman, Sal, Jingpho-Luish, Jingpho",
  "dialects": "Dulong (Dalaung, Duleng), Dzili (Jili), Hkaku (Hka-Hku), Kauri (Gauri, Guari, Hkauri). Dzili may be a separate language. Hkaku and Kauri are only slightly different. Lexical similarity: 50% with Singhpo [sgp] of India",
  "typology": "SOV; adjectives and numbers follow nouns; singular, dual, plural pronouns; tense-lax vowel distinction; 4 tones",
  "use": "Most domains. All ages. Positive attitudes. Also use Burmese [mya]. Used as L2 by Khamti [kht], Lashi [lsi], Lhao Vo [mhx], Lisu [lis], Rawang [raw], Rumai Palaung [rbb], Zaiwa [atb]",
  "development": "Literacy rate in L1: 60%–100%. Literacy rate in L2: 50%–75%. Some community literacy classes. Newspapers. Radio programs. Films. Dictionary. Bible: 1927–2009",
  "resources": "OLAC resources in and about Jingpho",
  "writing": "Latin script [Latn]",
  "other_comments": "Kachin refers to a cultural, not linguistic, group. Glossonym: Aphu or Phu by Rawang [raw] people. Christian"
}