{
  "id": "kba",
  "name": "Kalarko",
  "country": {
    "code": "AU",
    "name": "Australia",
    "area": "Pacific"
  },
  "status": "10 (Extinct)",
  "alternate_names": "Galaagu, Kalaaku, Kalako, Kalakul, Malba, Malpa",
  "population": "No known L1 speakers",
  "location": "Western Australia, Fraser and Bremer ranges area",
  "classification": "Australian, Pama-Nyungan, South-West, Mirning",
  "resources": "OLAC resources in and about Kalarko"
}