{
  "id": "kbj",
  "name": "Kari",
  "country": {
    "code": "CD",
    "name": "Democratic Republic of the Congo",
    "area": "Africa"
  },
  "status": "8b (Nearly extinct)",
  "alternate_names": "Kare, Li-Kari-Li",
  "population": "1,000. May be nearly extinct (Dimmendaal and Voeltz 2007)",
  "location": "Northwest Orientale Province scattered, north of Uele river. Scattered in Central African Republic (1996)",
  "maps": "Northern Democratic Republic of Congo",
  "classification": "Niger-Congo, Atlantic-Congo, Volta-Congo, Benue-Congo, Bantoid, Southern, Narrow Bantu, Central, D, Bira-Nyali (D.301)",
  "use": "Over 70 years of age",
  "resources": "OLAC resources in and about Kari"
}