{
  "id": "kbu",
  "name": "Kabutra",
  "country": {
    "code": "PK",
    "name": "Pakistan",
    "area": "Asia"
  },
  "status": "6a (Vigorous)",
  "alternate_names": "Nat, Natra",
  "population": "1,000 (1998)",
  "location": "Sindh Province, Umerkot, Kunri, and Nara Dhoro areas",
  "classification": "Indo-European, Indo-Iranian, Indo-Aryan, Central zone, Western Hindi, Hindustani, Sansi",
  "dialects": "Reported inherent intelligibility with Sansi [ssi] and the Sochi dialect of Sansi, and use Kabutra when speaking to them. Lexical similarity: 74% with the Sochi [ssi] language variety",
  "use": "Also use Sindhi Bhil [sbn], Urdu [urd]",
  "development": "Literacy rate in L2: 5% in Urdu",
  "resources": "OLAC resources in and about Kabutra",
  "other_comments": "Speakers say 90% of the people remain in Zal area of Marwar, India. Hindu"
}