{
  "id": "kbx",
  "name": "Ap Ma",
  "country": {
    "code": "PG",
    "name": "Papua New Guinea",
    "area": "Pacific"
  },
  "status": "5 (Developing)",
  "alternate_names": "Ap Ma Botin, Botin, Kambot, Karaube",
  "population": "10,000 (2010 PBT)",
  "location": "East Sepik Province, Angoram district",
  "maps": "Papua New Guinea, Map 4                      Papua New Guinea, Map 6",
  "classification": "Ramu-Lower Sepik, Kambot",
  "dialects": "Kambaramba",
  "development": "Bible portions: 1990–2011",
  "resources": "OLAC resources in and about Ap Ma",
  "writing": "Latin script [Latn]"
}