{
  "id": "kce",
  "name": "Kaivi",
  "country": {
    "code": "NG",
    "name": "Nigeria",
    "area": "Africa"
  },
  "status": "6a (Vigorous)",
  "alternate_names": "Kaibi",
  "population": "2,320 (2000)",
  "location": "Kaduna state: Saminaka LGA",
  "maps": "Nigeria, Map 2",
  "classification": "Niger-Congo, Atlantic-Congo, Volta-Congo, Benue-Congo, Kainji, Eastern, Northern Jos, Kauru",
  "resources": "OLAC resources in and about Kaivi"
}