{
  "id": "kdj",
  "name": "Ng’akarimojong",
  "country": {
    "code": "UG",
    "name": "Uganda",
    "area": "Africa"
  },
  "status": "5 (Developing)",
  "alternate_names": "Karamojong, Karimojong, Karimonjong, Ng’akaramojong",
  "population": "736,000 (2002 census), increasing. 260,000 Karamojong, 147,000 Jie and 329,000 Dodoth",
  "location": "Moroto, Napak, Kaabong, Nakapiripirit, Kotido, Kitgum, Abim, Kapchorwa, and Sironko districts",
  "maps": "Uganda",
  "classification": "Nilo-Saharan, Eastern Sudanic, Nilotic, Eastern, Lotuxo-Teso, Teso-Turkana, Turkana",
  "dialects": "Bokora, Dodoth (Dodoth), Jie (Jiye), Matheniko, Napore, Pian. Dialects correspond with sub-tribes of Karimojong and have very high mutual intelligibility. Lexical similarity: 83%–95% between dialects, 85% with Turkana [tuv], 75% with Teso [teo]",
  "typology": "VSO; highly inflectional; grammatical tone; vowel harmony; voiceless vowels",
  "use": "Home, market. All ages. Positive attitudes. Used as L2 by Ik [ikx], Soo [teu]",
  "development": "Taught in primary schools. Poetry. Radio programs. Films. Dictionary. Grammar. Bible: 2011",
  "resources": "OLAC resources in and about Ng’akarimojong",
  "writing": "Latin script [Latn], used since 1932",
  "other_comments": "The people are pastoralist and seminomadic but much less so recently due to disarmament and forced settlement. Christian, traditional religion"
}