{
  "id": "kdr",
  "name": "Karaim",
  "country": {
    "code": "LT",
    "name": "Lithuania",
    "area": "Europe"
  },
  "status": "8b (Nearly extinct)",
  "alternate_names": "Turkic Karaite",
  "population": "50 in Lithuania (Salminen 2007). Population total all countries: 56. Ethnic population: 270",
  "location": "Trakai and a few other places",
  "maps": "Estonia, Latvia and Lithuania",
  "classification": "Turkic, Western, Ponto-Caspian",
  "dialects": "Trakay (Trakai). Reportedly similar to Karachay [krc] and Kumyk [kum]",
  "development": "Dictionary. OT: 1842",
  "resources": "OLAC resources in and about Karaim",
  "writing": "Cyrillic script [Cyrl], used in Crimea. Latin script [Latn], used in Lithuania",
  "other_comments": "No remaining speakers in Israel. Jewish (Karaite)"
}