{
  "id": "kdw",
  "name": "Koneraw",
  "country": {
    "code": "ID",
    "name": "Indonesia",
    "area": "Asia"
  },
  "status": "7 (Shifting)",
  "alternate_names": "Konorau",
  "population": "1,200 (2001 SIL)",
  "location": "Southeast Papua Province. Kolopom island, south coast",
  "maps": "Indonesia, Eastern Papua",
  "classification": "Trans-New Guinea, Mombum",
  "use": "Potentially endangered (2000 S. Wurm). Under pressure from Kimaghima [kig] and Indonesian [ind] (Wurm 2007)",
  "resources": "OLAC resources in and about Koneraw",
  "other_comments": "Christian, traditional religion"
}