{
  "id": "kec",
  "name": "Keiga",
  "country": {
    "code": "SD",
    "name": "Sudan",
    "area": "Africa"
  },
  "status": "7 (Shifting)",
  "alternate_names": "Aigang, Demik, Keiga-Al-Kheil, Keiga-Timero, Yega",
  "population": "6,070 (Stevenson 1984)",
  "location": "Janub Kurdufan state: Jebel Demik, northwest of Kadugli; Ambong area, Ambong, Ambongadi, Kandang, Kuluwaring, Tingiragadi, Lakkadi, Taffor, Arungekkaadi, Bila Ndulang, Roofik, and Saadhing villages; Lubung area, Kuwaik, Tungunungunu, Miya Ntaarang, Miya Ntaluwa, Miya Ndumuru, and Semalili villages; Tumuro area, Koolo, Kayide, Jughuba, and Tumuro villages",
  "maps": "Sudan",
  "classification": "Nilo-Saharan, Kadugli-Krongo",
  "dialects": "Demik (Rofik), Keiga (Aigang). Lexical similarity: 60% with closest Kadugli languages",
  "use": "About half the children learn the language. Most domains. Also use Sudanese Spoken Arabic [apd]",
  "development": "Orthography and literacy materials produced",
  "resources": "OLAC resources in and about Keiga",
  "writing": "Latin script [Latn]"
}