{
  "id": "keg",
  "name": "Tese",
  "country": {
    "code": "SD",
    "name": "Sudan",
    "area": "Africa"
  },
  "status": "6b (Threatened)",
  "alternate_names": "Keiga Girru, Keiga Jirru, Teis-Umm-Danab",
  "population": "1,400 (Welmers 1971)",
  "location": "Janub Kurdufan state: Keiga Jirru, and 6 villages northeast of Kadugli",
  "maps": "Sudan",
  "classification": "Nilo-Saharan, Eastern Sudanic, Western, Temein",
  "dialects": "None known. Lexical similarity 67% with Temein [teq]",
  "use": "Also use Sudanese Spoken Arabic [apd]",
  "development": "Orthography and literacy materials developed",
  "resources": "OLAC resources in and about Tese",
  "writing": "Latin script [Latn]"
}