{
  "id": "keq",
  "name": "Kamar",
  "country": {
    "code": "IN",
    "name": "India",
    "area": "Asia"
  },
  "status": "6a (Vigorous)",
  "population": "40,000 (2003 BI)",
  "location": "Madhya Pradesh, Rewa district; Chhattisgarh, Raipur district; Maharashtra",
  "maps": "India, Map 3                      India, Map 7",
  "classification": "Indo-European, Indo-Iranian, Indo-Aryan, East Central zone",
  "dialects": "None known. Lexical similarity: 68%–72% with Bhunjia [bhu], 66%–69% with Chhattisgarhi [hne], 68% with Oriya [ory], 61% with Hindi [hin], 27% with Telugu [tel]",
  "use": "Chhattisgarhi [hne] used among themselves and Hindi [hin] with others (Singh 1994)",
  "resources": "OLAC resources in and about Kamar",
  "other_comments": "A Scheduled Tribe. No relationship between the Kamar caste of iron workers in Bengal and Chota Nagpur and this ethnic group. Traditional religion, Hindu"
}