{
  "id": "key",
  "name": "Kupia",
  "country": {
    "code": "IN",
    "name": "India",
    "area": "Asia"
  },
  "status": "6b (Threatened)",
  "alternate_names": "Valmiki",
  "population": "6,600 (2007). Ethnic population: 79,000 (2007). Valmiki",
  "location": "Andhra Pradesh, Vishakhapatnam and East Godavari districts",
  "maps": "India, Map 7",
  "classification": "Indo-European, Indo-Iranian, Indo-Aryan, Eastern zone, Oriya",
  "use": "Home. Speakers use Telegu [tel] in the market, work, travel",
  "development": "Literacy rate in L2: 40% (1991 census). NT: 1983",
  "resources": "OLAC resources in and about Kupia",
  "writing": "Telugu script [Telu]",
  "other_comments": "A Scheduled Tribe. Ethnonym: Valmiki. Ethnic Valmiki not the same as L1 Kupia speakers. Traditional religion, Christian, Hindu"
}