{
  "id": "kfe",
  "name": "Kota",
  "country": {
    "code": "IN",
    "name": "India",
    "area": "Asia"
  },
  "status": "5 (Developing)",
  "alternate_names": "Kother-Tamil, Kotta, Kowe-Adiwasi",
  "population": "930 (2001 census). Ethnic population: 1,400",
  "location": "Tamil Nadu, Sholur Kokkal, New Kotagiri, Kilkotagiri, Kollimalai, Kundah Kotagiri, Trichicady, and Gudalur settlements; a few in Ooty, Coonoor, Indunagar, Aravankavu, and Wellington; Chennai",
  "maps": "India, Map 8",
  "classification": "Dravidian, Southern, Tamil-Kannada, Tamil-Kodagu, Toda-Kota",
  "dialects": "Ko Bashai. Lexical similarity: 35% with Badaga [bfq], 38% with Tamil [tam], 36% with Malayalam [mal], 24% with Toda [tcx]",
  "use": "Tamil [tam] used in home and major domains. Language shift taking place. Positive attitudes. Also use Badaga [bfq], Kannada [kan], Tamil [tam]",
  "development": "Literacy rate in L1: Below 1%. Literacy rate in L2: 75% (2001 census). Grammar",
  "resources": "OLAC resources in and about Kota",
  "writing": "Tamil script [Taml]",
  "other_comments": "A Scheduled Tribe. Endogamous within the ethnic group. Hindu"
}