{
  "id": "kfp",
  "name": "Korwa",
  "country": {
    "code": "IN",
    "name": "India",
    "area": "Asia"
  },
  "status": "6a (Vigorous)",
  "alternate_names": "Ernga, Singli",
  "population": "34,600 (2001 census). Few monolinguals",
  "location": "Jharkhand, Palamau, Garhwa and Gumla districts; Chhattisgarh, Jashpur, Surguja, Raigarh, Korba, Bilaspur and districts; Odisha, Mayurbhanj and Sundargarh districts; Uttar Pradesh, Mirzapur district; West Bengal; Andhra Pradesh; Maharashtra",
  "maps": "India, Map 3                      India, Map 4",
  "classification": "Austro-Asiatic, Munda, North Munda, Kherwari, Mundari",
  "dialects": "Majhi-Korwa. Lexical similarity: 71%–92% between dialects, 50%–70% with Kodaku [ksz], 26%–36% with local Sadri [sck] spoken by Dihari Korwa. Lexical similarity with Sadri (an Indo-Aryan language) shows noticeable influence of Sadri on Korwa",
  "use": "Some Pahadi Korwa are shifting to Sadri [sck]. Dihari Korwa of Jashpur speak a local variety of Sadri as mother tongue. Some Korwa speak Chhattisgarhi [hne] as mother tongue",
  "development": "Literacy rate in L1: Below 1%. Literacy rate in L2: 26% for Chhattisgarh (2001 census)",
  "resources": "OLAC resources in and about Korwa",
  "other_comments": "A Scheduled Tribe in Jharkhand, Chhattisgarh, Madhya Pradesh, Bihar, West Bengal. Also a Scheduled Caste in Uttar Pradesh speaking Hindi as mother tongue (Singh 1995). Korwa divided into two groups: Pahadi (hill dwellers) and Dihari (plains dwellers). No intermarriage. Hindu, Muslim"
}