{
  "id": "kgn",
  "name": "Karingani",
  "country": {
    "code": "IR",
    "name": "Iran",
    "area": "Asia"
  },
  "status": "7 (Shifting)",
  "alternate_names": "Keringani",
  "population": "17,600 (2000)",
  "location": "Azarbayjan-e Sharqi Province, Dizmar district, Keringan village; Hasanu district, northeast of Tabriz",
  "classification": "Indo-European, Indo-Iranian, Iranian, Western, Northwestern, Talysh",
  "dialects": "Various dialects. Reportedly very similar to Harzani [hrz]",
  "resources": "OLAC resources in and about Karingani",
  "other_comments": "Muslim"
}