{
  "id": "kgq",
  "name": "Kamoro",
  "country": {
    "code": "ID",
    "name": "Indonesia",
    "area": "Asia"
  },
  "status": "6a (Vigorous)",
  "alternate_names": "Kamora, Kaokonau, Lakahia, Mimika, Mukamuga, Nafarpi, Nagramadu, Nefarpi, Neferipi, Umar, Umari",
  "population": "8,000 (1987 SIL)",
  "location": "Papua Province, south coast; Mukamuga river into Papua Barat Province, Etna bay area",
  "maps": "Indonesia, Eastern Papua                      Indonesia, Northwestern Papua",
  "classification": "Trans-New Guinea, Asmat-Kamoro, Kamoro",
  "dialects": "Nanesa, Tarya, Yamur. 4 other dialects",
  "use": "Also use Indonesian [ind]",
  "resources": "OLAC resources in and about Kamoro",
  "other_comments": "Different from Yeretuar (Umari) [gop]. Christian, traditional religion"
}