{
  "id": "kgu",
  "name": "Kobol",
  "country": {
    "code": "PG",
    "name": "Papua New Guinea",
    "area": "Pacific"
  },
  "status": "6a (Vigorous)",
  "alternate_names": "Koguman",
  "population": "720 (2000 census)",
  "location": "Madang Province",
  "maps": "Papua New Guinea, Map 7",
  "classification": "Trans-New Guinea, Madang, Croisilles, Pihom, Omosan",
  "dialects": "None known. Related to Pal [abw]",
  "resources": "OLAC resources in and about Kobol"
}