{
  "id": "kgy",
  "name": "Kyerung",
  "country": {
    "code": "CN",
    "name": "China",
    "area": "Asia"
  },
  "status": "6a (Vigorous). Language of recognized nationality: Tibetan",
  "alternate_names": "Kyerong, Kyirong",
  "population": "100 in China (2002). Population total all countries: 600",
  "location": "Xizang Tibet Autonomous Region, Western Central Tibet, Shigatse prefecture, Kyirong district, lower Kyirong (26 villages) and Lende valley (16 villages)",
  "maps": "Eastern Nepal                      China",
  "classification": "Sino-Tibetan, Tibeto-Burman, Western Tibeto-Burman, Bodish, Central Bodish, Central, gTsang",
  "dialects": "None known. Reportedly most similar with Kagate [syw]. Lexical similarity: 89% with Helambu Sherpa [scp], 83% with Tibetan [bod]",
  "typology": "SOV; postpositions; content q-word placed directly before copula and main verb; clause constituents indicated by case-marking; ergativity: Split S system; 26 consonant and 24 vowel phonemes; tonal",
  "development": "Dictionary",
  "resources": "OLAC resources in and about Kyerung",
  "writing": "Unwritten [Qaax]",
  "other_comments": "Buddhist (Lamaist)"
}