{
  "id": "khh",
  "name": "Kehu",
  "country": {
    "code": "ID",
    "name": "Indonesia",
    "area": "Asia"
  },
  "status": "6b (Threatened)",
  "population": "200 (2007 SIL)",
  "location": "Papua Province, Wapoga river between Auye [auu] and Dao [nfa] in the foothills",
  "maps": "Indonesia, Eastern Papua                      Indonesia, Sulawesi",
  "classification": "East Geelvink Bay",
  "resources": "OLAC resources in and about Kehu"
}