{
  "id": "kht",
  "name": "Khamti",
  "country": {
    "code": "MM",
    "name": "Myanmar",
    "area": "Asia"
  },
  "status": "5 (Developing)",
  "alternate_names": "Hkamti, Kam Ti, Khampti, Khampti Shan, Khamti Shan, Khandi Shan, Tai Kam Ti, Tai-Khamti",
  "population": "8,000 in Myanmar (2000). Population total all countries: 13,000",
  "location": "Kachin State, Putao district (4,500) and Myitkyina area (3,500); north Sagaing Region",
  "maps": "India, Map 5                      Northern Myanmar",
  "classification": "Tai-Kadai, Kam-Tai, Tai, Southwestern",
  "dialects": "Assam Khamti, North Burma Khamti, Sinkaling Hkamti",
  "typology": "SOV; postpositional case-marking particle",
  "use": "Vigorous. All domains. All ages. Positive attitudes. Also use Burmese [mya]. All are bilingual (Bradley 2007). Also use Jingpho [kac]",
  "development": "Dictionary",
  "resources": "OLAC resources in and about Khamti",
  "writing": "Myanmar (Burmese) script [Mymr]",
  "other_comments": "Buddhist"
}