{
  "id": "khu",
  "name": "Nkumbi",
  "country": {
    "code": "AO",
    "name": "Angola",
    "area": "Africa"
  },
  "status": "5 (Developing)",
  "alternate_names": "Khumbi, Ngumbi, Nkhumbi, Ocinkumbi, Otjingumbi",
  "population": "150,000 in Angola (1996 UBS). Population total all countries: 150,100",
  "location": "Southwest, west bank, Cunene river, Cunene and Huíla provinces; between Dhimba [dhm], Oshiwambo [kua], Nyemba [nba], and Nyaneka [nyk] language areas",
  "maps": "Angola",
  "classification": "Niger-Congo, Atlantic-Congo, Volta-Congo, Benue-Congo, Bantoid, Southern, Narrow Bantu, Central, R, Umbundu (R.14)",
  "dialects": "Nkumbi-mulondo. Part of Nyaneka [nyk] cluster, but low intelligibility with the central variants of Nyaneka. Bordering on and reportedly similar to the Nyaneka-Gambwe variant",
  "use": "All ages. Also use Oshiwambo [kua]",
  "development": "Bible portions: 1985–1987",
  "resources": "OLAC resources in and about Nkumbi",
  "writing": "Latin script [Latn]"
}