{
  "id": "kil",
  "name": "Kariya",
  "country": {
    "code": "NG",
    "name": "Nigeria",
    "area": "Africa"
  },
  "status": "6a (Vigorous)",
  "alternate_names": "Kariyu, Kauyawa, Lipkawa, Vinahe, Wihe",
  "population": "2,000 (1995 CAPRO)",
  "location": "Bauchi state: Ganjuwa LGA, Kariya village near Miya town",
  "maps": "Nigeria, Map 4",
  "classification": "Afro-Asiatic, Chadic, West, B, B.2",
  "resources": "OLAC resources in and about Kariya",
  "other_comments": "Muslim, traditional religion"
}