{
  "id": "kir",
  "name": "Kyrgyz",
  "country": {
    "code": "KG",
    "name": "Kyrgyzstan",
    "area": "Asia"
  },
  "status": "1 (National). Statutory national language (2010, Constitution, Art 10(1))",
  "alternate_names": "Kara-Kirgiz, Kirghiz, Kirgiz",
  "population": "3,830,000 in Kyrgyzstan (2009 census). Population total all countries: 4,331,020. Ethnic population: 3,800,000 (2009 census)",
  "location": "Widespread",
  "maps": "Afghanistan                      Kyrgyzstan and Tajikistan                      China",
  "classification": "Turkic, Western, Aralo-Caspian",
  "dialects": "Northern Kyrgyz, Southern Kyrgyz",
  "typology": "SOV",
  "use": "L1 for 98% of Kyrgyz. The Ichkilik are a Kyrgyz-speaking people of non-Kyrgyz origin. Also use Russian [rus]",
  "development": "Schools in Kyrghyz. Newspapers. Radio programs. Films. TV. Grammar. Bible: 1995–2004",
  "resources": "OLAC resources in and about Kyrgyz",
  "writing": "Arabic script [Arab], used in China. Cyrillic script [Cyrl], not used in Afghanistan. Latin script [Latn], used in Turkey",
  "other_comments": "The names Eastern Kyrghyz and Western Kyrghyz have been erroneously applied to Kazakh. Increasing education. Muslim (Sunni), Buddhist (Lamaist)"
}