{
  "id": "kiu",
  "name": "Zazaki, Northern",
  "country": {
    "code": "TR",
    "name": "Turkey",
    "area": "Asia"
  },
  "status": "4 (Educational)",
  "alternate_names": "Alevica, Dersimki, Dimilki, Kirmanjki, Northern Zaza, So-Bê, Zaza, Zonê Ma",
  "population": "140,000 in Turkey",
  "location": "Sivas Province, Zara, Imranli, Kangal, and Divrigi subprovinces; Tunceli Province, Tunceli merkez, Hozat, Nazmiye, Pülümür, and Ovacik subprovinces; Bingol Province, Kigi and Karkiova subprovinces; Erzurum Province, Erzincan and Cayirli subprovinces; Elazig Province, Elazig merkez and Karakoqan subprovinces; Mush Province, Varto subprovince; Malatya Province; at least 83 total villages",
  "classification": "Indo-European, Indo-Iranian, Iranian, Western, Northwestern, Zaza-Gorani",
  "dialects": "Tunceli, Varto. Lexical similarity: 70% with Southern Zazaki [diq]. A member of macrolanguage Zaza [zza]",
  "typology": "SOV; prepositions and postpositions; genitives, articles, adjectives relatives after noun heads; numerals before noun heads; question word replaces content word in content questions; 2 prefixes, 2 suffixes, word order distinguishes subject, object, indirect object; noun affixes indicate case; verb affixes indicate person, number, gender; ergativity; passives; causatives; comparatives; V, VC, VCC, CV, CVC, CVCC; nontonal",
  "use": "Abroad, they use Northern Zazaki for close relationships. Home, community. All ages. Also use Turkish [tur]. Used as L2 by Northern Kurdish [kmr]",
  "development": "Literacy rate in L2: School-age children to 40 years old, are literate in Turkish. Poetry. Magazines. Newspapers. New media. Radio programs. Films. TV. Videos. Dictionary. Grammar. Bible portions",
  "resources": "OLAC resources in and about Zazaki, Northern",
  "writing": "Latin script [Latn]",
  "other_comments": "Ethnonym for Alevi-Zaza: Kirmanj (Kirmanc), Kizilbash-Zaza. Muslim (Alevi)"
}