{
  "id": "kji",
  "name": "Zabana",
  "country": {
    "code": "SB",
    "name": "Solomon Islands",
    "area": "Pacific"
  },
  "status": "5 (Developing)",
  "alternate_names": "Kia",
  "population": "3,360 (2003 SIL)",
  "location": "Santa Isabel island, Samasodu southwest to Kia village, northeast to Baolo village",
  "maps": "Solomon Islands",
  "classification": "Austronesian, Malayo-Polynesian, Central-Eastern Malayo-Polynesian, Eastern Malayo-Polynesian, Oceanic, Western Oceanic, Meso Melanesian, New Ireland, South New Ireland-Northwest Solomonic, Santa Isabel, West",
  "dialects": "None known. Borrowings from Roviana [rug]. Reportedly most similar to Cheke Holo [mrn]",
  "use": "All ages. Also use Cheke Holo [mrn]. Used as L2 by Kokota [kkk], Zazao [jaj]",
  "development": "Literacy rate in L1: 30%–60%. Literacy rate in L2: 25%–50%. Literature could also be used for Kokota [kkk] and Zazao [jaj]. Dictionary. Grammar. Bible portions: 2009",
  "resources": "OLAC resources in and about Zabana",
  "writing": "Latin script [Latn]"
}