{
  "id": "kkf",
  "name": "Monpa, Kalaktang",
  "country": {
    "code": "IN",
    "name": "India",
    "area": "Asia"
  },
  "status": "6a (Vigorous)",
  "alternate_names": "Southern Monpa, Tsangla Monpa",
  "population": "8,000 (2005)",
  "location": "Arunachal Pradesh, West Kameng district, Kalaktang administrative center, Khalaktang, Balimu, and Tomko villages",
  "maps": "India, Map 5",
  "classification": "Sino-Tibetan, Tibeto-Burman, Western Tibeto-Burman, Bodish",
  "dialects": "Reportedly most similar to Dirang dialect of Tshangla [tsj], average 55% intelligibility of Dirang",
  "use": "Vigorous. Home, village, religion. Positive attitudes. Also use Hindi [hin]. Used as L2 by Bugun [bgg]",
  "development": "Literacy rate in L2: 62% for West Kameng District, males 71%, females 49% (2001 census)",
  "resources": "OLAC resources in and about Monpa, Kalaktang",
  "writing": "Unwritten [Qaax]",
  "other_comments": "’Monpa’ (Moinba), man of the lower country and refers to several ethnically-related peoples which may not be related linguistically. Buddhist"
}