{
  "id": "kle",
  "name": "Kulung",
  "country": {
    "code": "NP",
    "name": "Nepal",
    "area": "Asia"
  },
  "status": "6b (Threatened). Language of recognized indigenous nationality: Rai",
  "alternate_names": "Kulu Ring, Kulunge",
  "population": "33,200 in Nepal (2011 census)",
  "location": "Sagarmatha Zone, Solukhumbu district, in Hungu river valley, Bung, Pelmang, Chhemsing, Chheskam, Lucham, Chachalung, Satdi, Gudel, Namlung, Sotang, and Chekma villages; Kosi Zone, Sankhuwasabha district, Mangtewa, Yaphu, and Seduwa VDCs; Bhojpur district, Phedi, Limkhim, Khartanga, and Wasepla VDCs",
  "maps": "India, Map 4                      Eastern Nepal",
  "classification": "Sino-Tibetan, Tibeto-Burman, Western Tibeto-Burman, Himalayan, Kiranti, Eastern",
  "dialects": "Sotto Ring. 100% intelligibility between Kulung and Sotto Ring; only a few words pronounced differently. Related to Sampang [rav] and Nachering [ncd]",
  "typology": "SOV; postpositions; noun head final; no noun classes or genders; content q-word initial; 1 prefix, up to 3 suffixes; clause constituents indicated by case-marking; verbal affixation marks person and number; ergativity; tense; no passives or voice; nontonal; 22 consonant and 6 vowel phonemes",
  "use": "Home, friends, religion. Some use among children and adolescents. Almost all can understand some Nepali [npi] at a basic level. Used as L2 by Eastern Mewahang [emg], Nepali [npi], Western Mewahang [raf]",
  "development": "High motivation for literacy. Poetry. Magazines. New media. Dictionary. Grammar. Bible portions: 1976",
  "resources": "OLAC resources in and about Kulung",
  "writing": "Devanagari script [Deva]",
  "other_comments": "Exogamous clan marriage. The high number of Kulung reflect the tendency of smaller groups to consider themselves Kulung, but are not Kulung by origin. The Kulung possibly absorb smaller groups. Traditional religion"
}