{
  "id": "kls",
  "name": "Kalasha",
  "country": {
    "code": "PK",
    "name": "Pakistan",
    "area": "Asia"
  },
  "status": "6a (Vigorous)",
  "alternate_names": "Kalash, Kalashamon",
  "population": "5,000 (Heegård Petersen 2006). 3,200 in Northern Kalasha area; unknown and decreasing number in Southern Kalasha area",
  "location": "North-West Frontier, south Chitral district; Southern Kalasha dialect: Urtsun valley; Northern Kalasha: Rumbur, Bumboret, and Birir valleys",
  "maps": "Northern Pakistan",
  "classification": "Indo-European, Indo-Iranian, Indo-Aryan, Northwestern zone, Dardic, Chitral",
  "dialects": "Northern Kalasha (Birir, Bumboret, Rumbur), Southern Kalasha (Urtsun). Very little contact between northern and southern dialects of Kalasha, so there are difficulties in communication now. Lexical similarity: 75% southern dialect with northern dialects",
  "typology": "SOV",
  "use": "In the south, Kalasha is being supplanted by Khowar [khw] or Kati [bsh]. Home, in-group communication in the north. In the south Kati [bsh] sometimes used in the home for in-group communication. Speakers have proficiency in Khowar [khw]; in Birir, some men do not speak Khowar. Women are learning Khowar. In the south Khowar sometimes used in the home for in-group communication. Women are learning some Urdu [urd]",
  "development": "Poetry. Dictionary",
  "resources": "OLAC resources in and about Kalasha",
  "writing": "Arabic script, Nastaliq variant [Aran]. Latin script [Latn], used since 2000, primary usage",
  "other_comments": "Originally Kalasha was the language of most of the southern Chitral district. Now Khowar [khw] is the predominant language, with earlier languages just used in villages of the side valleys. Traditional religion, Muslim"
}