{
  "id": "kme",
  "name": "Bakole",
  "country": {
    "code": "CM",
    "name": "Cameroon",
    "area": "Africa"
  },
  "status": "8b (Nearly extinct)",
  "alternate_names": "Bakolle, Bamusso, Kole",
  "population": "300 (1982 SIL)",
  "location": "South West region: Ndian division, south of Meme estuary, Bamusso area",
  "maps": "Southern Cameroon",
  "classification": "Niger-Congo, Atlantic-Congo, Volta-Congo, Benue-Congo, Bantoid, Southern, Narrow Bantu, Northwest, A, Duala (A.231)",
  "resources": "OLAC resources in and about Bakole",
  "writing": "Unwritten [Qaax]"
}