{
  "id": "kmh",
  "name": "Kalam",
  "country": {
    "code": "PG",
    "name": "Papua New Guinea",
    "area": "Pacific"
  },
  "status": "5 (Developing)",
  "alternate_names": "Aforo, Karam",
  "population": "15,000 (1991 SIL)",
  "location": "Madang Province, Ramu district; Western Highlands Province, Hagen district, Jimi river north side into Kaironk valley",
  "maps": "Papua New Guinea, Map 6",
  "classification": "Trans-New Guinea, Madang, Kalam-Kobon",
  "dialects": "None known. Related to Gants [gao]and Kobon [kpw]",
  "typology": "SOV",
  "development": "Literacy rate in L1: Below 5%. Literacy rate in L2: 15%–25%. Dictionary. Grammar. NT: 1992–2009",
  "resources": "OLAC resources in and about Kalam",
  "writing": "Latin script [Latn]"
}