{
  "id": "kmo",
  "name": "Kwoma",
  "country": {
    "code": "PG",
    "name": "Papua New Guinea",
    "area": "Pacific"
  },
  "status": "5 (Developing)",
  "alternate_names": "Washkuk",
  "population": "3,000 (2003 SIL)",
  "location": "East Sepik Province, Ambunti district, Sepik and Sanchi river areas. 12 villages",
  "maps": "Papua New Guinea, Map 5",
  "classification": "Sepik, Nukuma",
  "dialects": "Kwoma (Washkuk), Nukuma",
  "development": "Literacy rate in L1: 5%–15%. Literacy rate in L2: 15%–25%. Dictionary. NT: 1975",
  "resources": "OLAC resources in and about Kwoma",
  "writing": "Latin script [Latn]"
}