{
  "id": "kmv",
  "name": "Karipuna Creole French",
  "country": {
    "code": "BR",
    "name": "Brazil",
    "area": "Americas"
  },
  "status": "6b (Threatened)",
  "alternate_names": "Crioulo",
  "population": "2,400 (2008 SIL)",
  "location": "Amapá State, on French Guiana border",
  "maps": "Northeastern Brazil",
  "classification": "Creole, French based",
  "dialects": "None known. Conflicting reports about difference from Guianese Creole French [gcr]. Different from Haitian [hat]",
  "typology": "SVO",
  "use": "Very weak language transmission. Also use Portuguese [por]. Used as L2 by Palikúr [plu]",
  "development": "Dictionary. Grammar",
  "resources": "OLAC resources in and about Karipuna Creole French",
  "writing": "Latin script [Latn]",
  "other_comments": "Formerly spoke Karipuna [kgm], possibly from Marajó Island at the mouth of the Amazon. Also spoken by Galibi do Wasa ethnic group (2006 FUNASA), where language use is much stronger. Traditional religion, Christian"
}