{
  "id": "knc",
  "name": "Kanuri, Central",
  "country": {
    "code": "NG",
    "name": "Nigeria",
    "area": "Africa"
  },
  "status": "3 (Wider communication)",
  "alternate_names": "Beriberi, Bornu, Kanouri, Kanoury, Yerwa Kanuri",
  "population": "3,000,000 in Nigeria (Gunnemark and Kenrick 1985). Population total all countries: 3,240,500. L2 users: 500,000 in Nigeria",
  "location": "Borno state: Kukawa, Kaga, Konduga, Maiduguri, Monguno, Ngala, Bama, and Gwoza LGAs; Yobe state: Nguru, Geidam, Damaturu, Fika, Fune, and Gujba LGAs; Gombe state: 1 enclave in each of Yamaltu-Deba, Akko, and Kwami LGAs",
  "maps": "Northern Cameroon                      Niger                      Nigeria, Map 3                      Nigeria, Map 4                      Nigeria, Map 5                      Southwestern Chad",
  "classification": "Nilo-Saharan, Saharan, Western, Kanuri",
  "dialects": "Fadawa, Guvja, Kabari (Kuvuri), Kaga (Kagama), Kwayam, Lare (Lere), Mao, Ngazar, Njesko, Temageri, Yerwa. Kwayam dialect not understood by other Kanuri (Lukas 1937). Maiduguri dialect mutually intelligible. Reportedly most similar to Manga Kanuri [kby] and Tumari Kanuri [krt]. Yerwa is central dialect. A member of macrolanguage Kanuri [kau]",
  "typology": "SOV",
  "use": "Used as L2 by Kibaku [ckl]",
  "development": "Radio programs. TV. Dictionary. Grammar. NT: 1997",
  "resources": "OLAC resources in and about Kanuri, Central",
  "writing": "Arabic script [Arab], Maghribi and Naskh styles. Latin script [Latn], used since 1949",
  "other_comments": "Muslim"
}