{
  "id": "knr",
  "name": "Kaningra",
  "country": {
    "code": "PG",
    "name": "Papua New Guinea",
    "area": "Pacific"
  },
  "status": "6b (Threatened)",
  "alternate_names": "Kaningara",
  "population": "300 (Wurm 2000). Ethnic population: 750",
  "location": "East Sepik Province, Blackwater river south of Kuvanmas lake. 2 villages",
  "maps": "Papua New Guinea, Map 6",
  "classification": "Sepik, Sepik Hill, Alamblak",
  "use": "Potentially endangered (2000 S. Wurm). Also use Tok Pisin [tpi]",
  "development": "Literacy rate in L1: Below 5%. Literacy rate in L2: Below 5%",
  "resources": "OLAC resources in and about Kaningra"
}