{
  "id": "kny",
  "name": "Kanyok",
  "country": {
    "code": "CD",
    "name": "Democratic Republic of the Congo",
    "area": "Africa"
  },
  "status": "5 (Developing)",
  "alternate_names": "Kanioka, Kanyoka",
  "population": "200,000 (1991 UBS)",
  "location": "Kasai-Oriental province: Mwene-Ditu territory, between Bushimaie and Luembe rivers",
  "maps": "Southern Democratic Republic of Congo",
  "classification": "Niger-Congo, Atlantic-Congo, Volta-Congo, Benue-Congo, Bantoid, Southern, Narrow Bantu, Central, L, Luba (L.32)",
  "development": "Grammar. Bible: 2008",
  "resources": "OLAC resources in and about Kanyok",
  "writing": "Latin script [Latn]"
}