{
  "id": "koc",
  "name": "Kpati",
  "country": {
    "code": "NG",
    "name": "Nigeria",
    "area": "Africa"
  },
  "status": "10 (Extinct)",
  "population": "No known L1 speakers",
  "location": "Taraba state: Wukari, Takum LGAs",
  "classification": "Niger-Congo, Atlantic-Congo, Volta-Congo, Benue-Congo, Bantoid, Southern, Wide Grassfields, Narrow Grassfields, Mbam-Nkam, Ngemba",
  "resources": "OLAC resources in and about Kpati"
}