{
  "id": "koo",
  "name": "Konzo",
  "country": {
    "code": "UG",
    "name": "Uganda",
    "area": "Africa"
  },
  "status": "5 (Developing)",
  "alternate_names": "Konjo, Lhukonzo, Olukonjo, Olukonzo, Rukonjo",
  "population": "609,000 in Uganda (2002 census), increasing",
  "location": "Southwest, Ruwenzori mountains, Kasese, Kabarole and Bundibugyo districts; Olhughendera dialect: Bundibugyo district",
  "maps": "Northern Democratic Republic of Congo                      Uganda",
  "classification": "Niger-Congo, Atlantic-Congo, Volta-Congo, Benue-Congo, Bantoid, Southern, Narrow Bantu, Central, J, Konzo-Ndandi (D.41)",
  "dialects": "Lusongora, Olhughendera, Rukonzo (Rukonjo), Sanza (Ekisanza). Nande [nnb] (Kinande) in Democratic Republic of the Congo and Konzo [koo] (Lukonzo) in Uganda are 2 varieties of the same language. Nande [nnb] is influenced by French [fra] and Swahili [swh]; Konzo [koo] by Tooro [ttj]. Lexical similarity: 77% with Nande [nnb]",
  "use": "Home, market. All ages. Positive attitudes",
  "development": "Taught in primary schools. Poetry. Radio programs. Dictionary. Bible portions: 1914",
  "resources": "OLAC resources in and about Konzo",
  "writing": "Latin script [Latn], used since 1914",
  "other_comments": "Konzo (Bakonzo) in Uganda and Nande (Banande) in Democratic Republic of the Congo both feel very much 1 people, ethnic autonym: Bayira. They believe they originated from the Rwenzori Mountains–the mountains belong to them and they to the mountains. This plays a very important role in their traditions and identity. Lusongora is most important dialect. Traditional religion, Christian"
}