{
  "id": "kor",
  "name": "Korean",
  "country": {
    "code": "KR",
    "name": "South Korea",
    "area": "Asia"
  },
  "status": "1 (National). De facto national language",
  "alternate_names": "Hanguk Mal, Hanguk Uh",
  "population": "48,400,000 in Korea, South (2010). Population total all countries: 77,155,030",
  "location": "Widespread",
  "maps": "Eastern Russia                      China",
  "classification": "Koreanic",
  "dialects": "Cheju Island, Chollado (North Chollado, South Chollado), Ch’ungch’ongdo (North Ch’ungch’ong, South Ch’ungch’ong), Kyongsangdo (North Kyongsangdo, South Kyongsangdo), Seoul (Kangwondo, Kyonggido). Scholars differ as to whether or not Korean is related to Japanese [jpn]. Some suggest that both languages are possibly distantly related to the Altaic group. Dialect boundaries generally correspond to provincial boundaries. Some dialects are not easily intelligible with others (Voegelin and Voegelin 1977). The suffix, -do, on dialect names means Province. Comprehension of standard Korean may be lower on Cheju Island",
  "typology": "SOV",
  "development": "Literacy rate in L1: 98% (1995). Higher adult illiteracy is reported on Cheju Island. Fully developed. Bible: 1911–1993",
  "resources": "OLAC resources in and about Korean",
  "writing": "Braille script [Brai]. Hangul and Han scripts [Kore], primary usage. Latin script [Latn], used for maps and signs",
  "other_comments": "Jeju (Cheju) has been identified as a language separate from Cheju Island dialect of Korean, but not yet assigned an ISO code (Moseley 2010). Buddhist, Christian"
}