{
  "id": "kot",
  "name": "Lagwan",
  "country": {
    "code": "CM",
    "name": "Cameroon",
    "area": "Africa"
  },
  "status": "6b (Threatened)",
  "alternate_names": "Kotoko-Logone, Lagouane, Lagwane, Logone",
  "population": "10,000 in Cameroon (Tourneux 2004). 40,000 all Kotoko languages (Tourneux 2004)",
  "location": "Far North region: Logone-and-Chari division, north of Waza National Park, Logone-Birni subdivision, Logone river bank across to Nigeria border",
  "maps": "Northern Cameroon                      Southwestern Chad",
  "classification": "Afro-Asiatic, Chadic, Biu-Mandara, B, B.1, Kotoko Proper, South",
  "dialects": "Logone-Birni, Logone-Gana (Kotoko-Gana)",
  "use": "Also use Chadian Spoken Arabic [shu]. Used as L2 by Jina [jia]",
  "development": "Radio programs",
  "resources": "OLAC resources in and about Lagwan",
  "writing": "Latin script [Latn]",
  "other_comments": "The term Mandage is used by the Kotoko to refer to either the northern group of Kotoko languages (Mpade, Afade, Maslam, Malgbe) or the Kotoko group as a whole (including Mser and Lagwan). Muslim"
}