{
  "id": "kpm",
  "name": "Koho",
  "country": {
    "code": "VN",
    "name": "Viet Nam",
    "area": "Asia"
  },
  "status": "5 (Developing). Language of recognized ethnic group: Co Ho",
  "alternate_names": "Caho, Co Ho, Coho, Kohor",
  "population": "166,000 in Viet Nam (2009 census)",
  "location": "Lam Dong, Binh Thuan, Ninh Thuan, Dak Nong, and Dong Nai provinces",
  "maps": "Southern Viet Nam",
  "classification": "Austro-Asiatic, Mon-Khmer, Eastern Mon-Khmer, Bahnaric, South Bahnaric, Sre-Mnong, Sre",
  "dialects": "Chil (Kil), Kalop, Kodu (Co-Don), Lac (Lach, Lat), Laya, Nop (Tu-Lop, Xre Nop), Pru, Rion, Sop, Sre, Tala (To La), Tring (Trinh)",
  "use": "Also use Vietnamese [vie]",
  "development": "Literacy rate in L1: 10%–30%. Literacy rate in L2: 50%–75%. Radio programs. Bible: 2009",
  "resources": "OLAC resources in and about Koho",
  "writing": "Latin script [Latn]",
  "other_comments": "Co Ho is an official ethnic community. Christian, traditional religion"
}