{
  "id": "kpn",
  "name": "Kepkiriwát",
  "country": {
    "code": "BR",
    "name": "Brazil",
    "area": "Americas"
  },
  "status": "10 (Extinct)",
  "population": "No known L1 speakers",
  "location": "Rondônia State",
  "classification": "Tupian, Tuparí",
  "resources": "OLAC resources in and about Kepkiriwát"
}