{
  "id": "kqi",
  "name": "Koitabu",
  "country": {
    "code": "PG",
    "name": "Papua New Guinea",
    "area": "Pacific"
  },
  "status": "6b (Threatened)",
  "alternate_names": "Koita",
  "population": "2,700 (Wurm 2000)",
  "location": "Central Province, Kairuku-Hiri district, Kairuku and Hiri RLLGs; National Capital District, Port Moresby and north, west and southeast",
  "maps": "Papua New Guinea, Map 16",
  "classification": "Trans-New Guinea, Southeast Papuan, Koiarian, Koiaric",
  "dialects": "East Koita, West Koita. Lexical similarity: 60%–65% with Grass Koiari [kbk] (most similar)",
  "use": "Potentially endangered (2000 S. Wurm). Young speakers tend to prefer Tok Pisin [tpi] or English [eng] (Wurm 2007). Also use English [eng], Hiri Motu [hmo], Tok Pisin [tpi]",
  "development": "Dictionary",
  "resources": "OLAC resources in and about Koitabu"
}