{
  "id": "krk",
  "name": "Kerek",
  "country": {
    "code": "RU",
    "name": "Russian Federation",
    "area": "Europe"
  },
  "status": "9 (Dormant)",
  "population": "No known L1 speakers (Salminen 2007). 3 elderly speakers in 1991 (Salminen 2007). Ethnic population: 4 (2010 census)",
  "location": "Kamchatskaya Oblast’, Cape Navarin, Chukchi villages",
  "classification": "Chukotko-Kamchatkan, Northern, Koryak-Alyutor",
  "dialects": "Khatyrka (Xatyrskij), Mainypilgino (Majna-Pil’ginskij). Formerly considered a dialect of Chukchi [ckt]",
  "use": "Shifted to Chukchi [ckt]",
  "resources": "OLAC resources in and about Kerek"
}