{
  "id": "ksh",
  "name": "Kölsch",
  "country": {
    "code": "DE",
    "name": "Germany",
    "area": "Europe"
  },
  "status": "6a (Vigorous)",
  "population": "250,000 (1997 H. Jakobs)",
  "location": "Nordrhein-Westfalen state: Cologne (Köln) area",
  "classification": "Indo-European, Germanic, West, High German, German, Middle German, West Middle German, Ripuarian Franconian",
  "use": "Theaters, literature. An academy teaches it. All ages. Also use Standard German [deu]",
  "development": "Literacy rate in L2: 99%. Bible portions: 1992",
  "resources": "OLAC resources in and about Kölsch",
  "writing": "Latin script [Latn]",
  "other_comments": "Christian"
}