{
  "id": "ksw",
  "name": "Karen, S’gaw",
  "country": {
    "code": "MM",
    "name": "Myanmar",
    "area": "Asia"
  },
  "status": "3 (Wider communication).S’gaw Karen used in the church domain for many Karen languages",
  "alternate_names": "Burmese Karen, Kanyaw, Kayinpyu, Kyetho, Paganyaw, Pchcknya, Pwakanyaw, S’gau, S’gaw, S’gaw Kayin, White Karen, Yang Khao",
  "population": "1,280,000 in Myanmar (1983 census). Population total all countries: 1,480,000. L2 users: 80,000 in Myanmar (2013 SIL)",
  "location": "Widespread, Ayeyarwaddy delta area",
  "maps": "Northern Thailand                      Central Myanmar                      Southern Myanmar",
  "classification": "Sino-Tibetan, Tibeto-Burman, Karenic, Southern",
  "dialects": "Delta dialect of S’gaw Karen, Eastern dialect of S’gaw Karen (Pa’an), Southern dialect of Western Kayah (Dawei). Reportedly similar to Paku Karen [jkp]",
  "typology": "SVO",
  "use": "Most communities vigorous; some shift toward Burmese [mya]. All domains. All ages. Positive attitudes. Also use Burmese [mya], Pwo Eastern Karen [kjp], Pwo Western Karen [pwo]. Used as L2 by Bwe Karen [bwe], Eastern Kayah [eky], Geba Karen [kvq], Geko Karen [ghk], Kayan [pdu], Kayaw [kvl], Manumanaw [kxf], Mobwa Karen [jkm], Paku Karen [jkp], Western Kayah [kyu], Yintale [kvy]",
  "development": "Some literacy classes. Magazines. Dictionary. Grammar. Bible: 1853–1995",
  "resources": "OLAC resources in and about Karen, S’gaw",
  "writing": "Latin script [Latn], no longer in use. Myanmar (Burmese) script [Mymr]",
  "other_comments": "Buddhist, Christian (Protestant), traditional religion"
}