{
  "id": "ktb",
  "name": "Kambaata",
  "country": {
    "code": "ET",
    "name": "Ethiopia",
    "area": "Africa"
  },
  "status": "4 (Educational)",
  "alternate_names": "Donga, Kambara, Kambata, Kambatta, Kemata, Kembata",
  "population": "615,000 (2007 census). 330,500 monolinguals. Includes 279,000 Kambaata, 51,600 Timbaro. Ethnic population: 764,000 (2007 census). Includes 98,600 Timbaro, 35,000 Donga (2007 census). L2 users: 79,300",
  "location": "Southern Nations, Nationalities, and Peoples’ region: southwest Gurage, Kambaata, and Hadiyya zones; Durame is main town",
  "maps": "Southwestern Ethiopia",
  "classification": "Afro-Asiatic, Cushitic, East, Highland",
  "dialects": "Tambaro, Timbaro (Timbaaro, Timbara). Lexical similarity: 95% between dialects, 81% with Alaba-Kabeena [alw], 62% with Sidamo [sid], 57% with Libido [liq], 56% with Hadiyya [hdy]",
  "typology": "SOV; passive, middle, causative verbs; subject suffixes distinguish person, number, gender",
  "use": "Positive attitudes. Also use Amharic [amh]",
  "development": "Literacy rate in L2: 44%. Taught in primary schools in grades 1–4 as the medium of instruction, in grades 5–10 as a subject. NT: 1992",
  "resources": "OLAC resources in and about Kambaata",
  "writing": "Ethiopic script [Ethi]. Latin script [Latn], primary usage",
  "other_comments": "Timbaro is now officially recognized as a seprate language in Ethiopia, although it is linguistically very close to Kambaata. Christian"
}