{
  "id": "ktg",
  "name": "Kalkutung",
  "country": {
    "code": "AU",
    "name": "Australia",
    "area": "Pacific"
  },
  "status": "10 (Extinct)",
  "alternate_names": "Galgadungu, Galgaduun, Kalkadoon, Kalkatungu, Kalkutungu",
  "population": "No known L1 speakers",
  "location": "Queensland, Mount Isa area",
  "classification": "Australian, Pama-Nyungan, Galgadungic",
  "use": "Shifted to English [eng]",
  "development": "Dictionary. Grammar",
  "resources": "OLAC resources in and about Kalkutung"
}