{
  "id": "ktl",
  "name": "Koroshi",
  "country": {
    "code": "IR",
    "name": "Iran",
    "area": "Asia"
  },
  "status": "8b (Nearly extinct)",
  "population": "160. 40–50 families",
  "location": "Fars Province",
  "classification": "Indo-European, Indo-Iranian, Iranian, Western, Northwestern, Balochi",
  "resources": "OLAC resources in and about Koroshi",
  "other_comments": "Appears to be Baluchi with some features of Farsi. They work for the Qashqa’i people"
}