{
  "id": "ktn",
  "name": "Karitiâna",
  "country": {
    "code": "BR",
    "name": "Brazil",
    "area": "Americas"
  },
  "status": "5 (Developing)",
  "alternate_names": "Caritiana",
  "population": "210 (Moore 2006). Ethnic population: 320 (2005 ISA)",
  "location": "Rondônia State, Candeias river, tributary of the upper Madeira river",
  "maps": "Western Central Brazil",
  "classification": "Tupian, Arikem",
  "typology": "SVO",
  "use": "Vigorous",
  "development": "Dictionary. Grammar. Bible portions: 1981",
  "resources": "OLAC resources in and about Karitiâna",
  "writing": "Latin script [Latn]"
}