{
  "id": "kto",
  "name": "Kuot",
  "country": {
    "code": "PG",
    "name": "Papua New Guinea",
    "area": "Pacific"
  },
  "status": "4 (Educational)",
  "alternate_names": "Kuat, Panaras",
  "population": "2,400 (2002 SIL)",
  "location": "New Ireland Province, northwest coast. 9 villages",
  "maps": "Papua New Guinea, Map 2",
  "classification": "Language isolate",
  "use": "Potentially endangered (2000 S. Wurm). Vigorous on west coast. Under pressure from Nalik [nal] and Tok Pisin [tpi]; children tend to prefer Tok Pisin (Wurm 2007). Also use Tok Pisin [tpi]",
  "development": "Literacy rate in L1: 75%–85%. Literacy rate in L2: 75%–95%. NT: 2001",
  "resources": "OLAC resources in and about Kuot",
  "writing": "Latin script [Latn]"
}