{
  "id": "ktw",
  "name": "Kato",
  "country": {
    "code": "US",
    "name": "United States",
    "area": "Americas"
  },
  "status": "9 (Dormant)",
  "alternate_names": "Batem-Da-Kai-Ee, Cahto, Kai Po-Mo, Tlokeang",
  "population": "No known L1 speakers (Golla 2007). The last speaker died in the 1960s. A few have fragmentary memories of the language (Golla 2007). Ethnic population: 92 (1982 SIL)",
  "location": "Northwest California, Laytonville Reservation",
  "classification": "Eyak-Athabaskan, Athabaskan, Pacific Coast Athabaskan, California Athabaskan",
  "use": "Some interest in revitalization",
  "resources": "OLAC resources in and about Kato"
}