{
  "id": "kuk",
  "name": "Kepo’",
  "country": {
    "code": "ID",
    "name": "Indonesia",
    "area": "Asia"
  },
  "status": "6b (Threatened)",
  "alternate_names": "Kepoq",
  "population": "6,000 (2010)",
  "location": "Nusa Tenggara Timur Province; 2 separate areas, central Flores island; between Manggarai [mqy], Rembong [reb], and Wae Rana [wrx] language areas",
  "maps": "Indonesia, Nusa Tenggara enlargements",
  "classification": "Austronesian, Malayo-Polynesian, Central-Eastern Malayo-Polynesian, Bima-Lembata",
  "resources": "OLAC resources in and about Kepo’"
}