{
  "id": "kun",
  "name": "Kunama",
  "country": {
    "code": "ER",
    "name": "Eritrea",
    "area": "Africa"
  },
  "status": "4 (Educational)",
  "alternate_names": "Baada, Baaden, Baaza, Baazayn, Baazen, Bada, Baden, Baza, Bazen, Cunama, Diila",
  "population": "187,000 in Eritrea (2006), increasing. Population total all countries: 194,430",
  "location": "Gash Barka region: mainly between Gash river and Ethiopia border; Barka south of Barentu; Marda north, northeast, and east of Barentu and in Barentu; Aimara west of Barentu",
  "maps": "Djibouti, Eritrea and Ethiopia",
  "classification": "Nilo-Saharan, Kunama",
  "dialects": "Aymasa (Aaimasa, Aimara, Odasa), Barka (Berka), Bitama (Bitaama), Ilit (Iiliit, Iilit, Iliit), Marda, Sokodasa (Sogadas, Sogodas), Takazze-Setiit (Setiit, Setit), Tigray, Tika (Lakatakura-Tika, Tiika). Bitama and Ilit are nearly unintelligible to other Kunama dialect speakers. Barka is largest and is intelligible to speakers of all others",
  "typology": "SOV; postpositions; case suffixes",
  "use": "Home. All ages. Positive attitudes. Used as L2 by Bilen [byn], Nara [nrb]",
  "development": "Literacy rate in L1: Females: 21%. Literacy rate in L2: Low. Taught in primary schools. Poetry. New media. Radio programs. Videos. Dictionary. Grammar. Bible: 2012",
  "resources": "OLAC resources in and about Kunama",
  "writing": "Latin script [Latn], used since late 1800s",
  "other_comments": "Laka-Takura and Tika have been influenced by Arab culture and by the Beni-Amer. Traditional religion, Muslim (Bitama), Muslim (Ilit)"
}