{
  "id": "kuu",
  "name": "Kuskokwim, Upper",
  "country": {
    "code": "US",
    "name": "United States",
    "area": "Americas"
  },
  "status": "8a (Moribund)",
  "alternate_names": "Kolchan, Mcgrath Ingalik",
  "population": "40 (Golla 2007). 3 households (1997). Ethnic population: 160 (Golla 2007)",
  "location": "Central Alaska, Nikolai, Telida, McGrath, and Upper Kuskokwim rivers",
  "maps": "United States of America, Alaska and Hawaii",
  "classification": "Eyak-Athabaskan, Athabaskan, Northern Athabaskan",
  "use": "Shifting to English [eng]. Mainly older adults",
  "development": "Dictionary",
  "resources": "OLAC resources in and about Kuskokwim, Upper",
  "writing": "Latin script [Latn]",
  "other_comments": "Formerly regarded as part of Degexit’an [ing]"
}