{
  "id": "kvf",
  "name": "Kabalai",
  "country": {
    "code": "TD",
    "name": "Chad",
    "area": "Africa"
  },
  "status": "6a (Vigorous)",
  "alternate_names": "Gablai, Kaba-Lai, Kabalay, Kabalaye, Keb-Kaye, Lai, Lay",
  "population": "17,900 (1993 census)",
  "location": "Tandjilé region: Lai subprefecture, Lai and south on Logone river east bank",
  "maps": "Southwestern Chad",
  "classification": "Afro-Asiatic, Chadic, East, A, A.2, 2",
  "dialects": "None known. May be intelligible with Nancere [nnc]",
  "resources": "OLAC resources in and about Kabalai",
  "other_comments": "Erroneously called Sara or Kaba of Lai"
}