{
  "id": "kvq",
  "name": "Karen, Geba",
  "country": {
    "code": "MM",
    "name": "Myanmar",
    "area": "Asia"
  },
  "status": "6a (Vigorous)",
  "alternate_names": "Daneh, Geba, Kaba, Karenbyu, Kayinbyu, Kono, Koo-ong, Northern Bwe",
  "population": "40,000 (2010 Geba Literature and Culture Committee)",
  "location": "North Kayin State, Thandaunggyi township, 140 villages; Bago Region; Mandalay Region, Pyinmana township; Shan State, Pekon and Pinlong townships; Kayah State",
  "maps": "Central Myanmar",
  "classification": "Sino-Tibetan, Tibeto-Burman, Karenic, Central",
  "dialects": "Gerkho-Geba, Sawkho, Thamitaik (Sawkeepho). May be same subgroup with Bwe Karen [bwe] and Kayaw [kvl]. Some comprehension of Bwe Karen [bwe]. Sawkho and Gerkho-Geba varieties slightly divergent. Lexical similarity: 82%–100% with Bwe Karen [bwe]",
  "use": "Vigorous. All domains. All ages. Positive attitudes. Catholics, Baptists and Anglicans also use Burmese [mya]. 10,000 also use S’gaw Karen [ksw]. Baptists and Anglicans use S’gaw Karen",
  "development": "Radio programs. Dictionary. Grammar. Bible portions: 1870–2001",
  "resources": "OLAC resources in and about Karen, Geba",
  "writing": "Latin script [Latn], used since 1870, used by Roman Catholics. Myanmar (Burmese) script [Mymr], used since 2002, used by Anglicans and Baptists",
  "other_comments": "Geko Karen [ghk] and Geba Karen are grouped together in the local Baptist Association administration and are often considered to be the same language (Geko-Geba), although they are distinct. Christian (Roman Catholic), Christian (Protestant)"
}