{
  "id": "kvt",
  "name": "Lahta",
  "country": {
    "code": "MM",
    "name": "Myanmar",
    "area": "Asia"
  },
  "status": "6a (Vigorous)",
  "alternate_names": "Kayan Lahta, Khahta, Lahta Karen, Peu, Taru, Tarulakhi, Yan Wohta",
  "population": "9,550 (2000)",
  "location": "South Shan State, Pekon and Pinlaung townships; Mandalay Region, Pyinnmana township",
  "maps": "Central Myanmar",
  "classification": "Sino-Tibetan, Tibeto-Burman, Karenic, Northern",
  "dialects": "Socially related to Kayan [pdu] but not intelligible. Zayein [kxk] may be a dialect of Lahta",
  "use": "Vigorous. All domains. All ages. Positive attitudes. Young people also use Burmese [mya]. Also use Kayan [pdu], Pa’o [blk]",
  "resources": "OLAC resources in and about Lahta",
  "writing": "Unwritten [Qaax]",
  "other_comments": "Officially recognized as part of Kayan [pdu]. Much dialect variation. Called Yan Wohta by the Shan [shn]. Buddhist, Christian, traditional religion"
}