{
  "id": "kwb",
  "name": "Kwa",
  "country": {
    "code": "NG",
    "name": "Nigeria",
    "area": "Africa"
  },
  "status": "7 (Shifting)",
  "alternate_names": "Baa, Kwah",
  "population": "7,000 (1992)",
  "location": "Adamawa state: Lamurda and Numan LGAs, Gyakan and Kwa towns, near Munga; Taraba state: Karim-Lamido LGA",
  "maps": "Nigeria, Map 5",
  "classification": "Niger-Congo, Atlantic-Congo, Volta-Congo, North, Adamawa-Ubangi, Adamawa, Kwa",
  "dialects": "Gyakan, Kwa",
  "use": "Some young people, older adults. Also use Bacama [bcy]",
  "resources": "OLAC resources in and about Kwa",
  "other_comments": "Different from Kwa’ [bko] of Cameroon in the Bamileke group. Traditional religion, Christian"
}