{
  "id": "kwo",
  "name": "Kwomtari",
  "country": {
    "code": "PG",
    "name": "Papua New Guinea",
    "area": "Pacific"
  },
  "status": "5 (Developing)",
  "population": "600 (1998 SIL)",
  "location": "Sandaun Province, Amanab district, north of Namia. 6 villages",
  "maps": "Papua New Guinea, Map 3",
  "classification": "Kwomtari, Nuclear Kwomtari",
  "dialects": "Central Kwomtari, Eastern Kwomtari, Western Kwomtari",
  "use": "Home, village. Also use Tok Pisin [tpi]",
  "development": "One school. Grammar. Bible portions: 2009",
  "resources": "OLAC resources in and about Kwomtari",
  "writing": "Latin script [Latn]",
  "other_comments": "Traditional religion, Christian"
}