{
  "id": "kwy",
  "name": "Kongo, San Salvador",
  "country": {
    "code": "CD",
    "name": "Democratic Republic of the Congo",
    "area": "Africa"
  },
  "status": "6a (Vigorous)",
  "alternate_names": "Congo, Iwoyo, Kikongo, Kikoongo, Kisikongo",
  "population": "537,000 (2000)",
  "location": "Bas-Congo province: Congo river area below Kinshasa into northern Angola",
  "maps": "Southern Democratic Republic of Congo",
  "classification": "Niger-Congo, Atlantic-Congo, Volta-Congo, Benue-Congo, Bantoid, Southern, Narrow Bantu, Central, H, Kikongo (H.16)",
  "dialects": "A member of macrolanguage Kongo [kon]",
  "development": "Dictionary. Grammar. Bible: 1916–1926",
  "resources": "OLAC resources in and about Kongo, San Salvador",
  "writing": "Latin script [Latn]"
}