{
  "id": "kxb",
  "name": "Krobu",
  "country": {
    "code": "CI",
    "name": "Côte d’Ivoire",
    "area": "Africa"
  },
  "status": "6a (Vigorous)",
  "alternate_names": "Krobou",
  "population": "9,920 (1993 SIL)",
  "location": "Lagunes District, Agboville subprefecture. 4 villages",
  "maps": "Côte d’Ivoire",
  "classification": "Niger-Congo, Atlantic-Congo, Volta-Congo, Kwa, Nyo, Potou-Tano, Tano, Krobu",
  "use": "Also use Abé [aba], Baoulé [bci]",
  "resources": "OLAC resources in and about Krobu",
  "other_comments": "Christian"
}