{
  "id": "kxu",
  "name": "Kui",
  "country": {
    "code": "IN",
    "name": "India",
    "area": "Asia"
  },
  "status": "6b (Threatened)",
  "alternate_names": "Kanda, Kandh, Khond, Khondi, Khondo, Kodu, Kodulu, Kuinga, Kuy",
  "population": "916,000 (2001 census). 410,000 ethnic Kui Khond who speak Kui plus additional ethnic groups",
  "location": "Odisha, Phulbani, Koraput, and Ganjam districts; Ganjam, Udayagiri area; Andhra Pradesh; Madhya Pradesh; Tamil Nadu",
  "maps": "India, Map 7",
  "classification": "Dravidian, South-Central, Gondi-Kui, Konda-Kui, Manda-Kui, Kui-Kuvi",
  "dialects": "Gumsai, Khondi",
  "development": "Radio programs. Grammar. Bible: 2006",
  "resources": "OLAC resources in and about Kui",
  "writing": "Oriya script [Orya]",
  "other_comments": "Different from Kuvi [kxv] and Koya [kff] (Koi). Kondh is a Scheduled Tribe. Hindu, Christian"
}