{
  "id": "kxz",
  "name": "Kerewo",
  "country": {
    "code": "PG",
    "name": "Papua New Guinea",
    "area": "Pacific"
  },
  "status": "5 (Developing)",
  "alternate_names": "Kerewa, Kerewa-Goari",
  "population": "1,090 (2011 SIL). Population represents speakers living in their language area",
  "location": "Gulf Province, Omati river west bank, east and inland to Samoa village",
  "maps": "Papua New Guinea, Map 14",
  "classification": "Trans-New Guinea, Kiwaian",
  "dialects": "Gibario (Goaribari)",
  "development": "Literacy rate in L1: 15%–25%. Literacy rate in L2: 5%–15%. Bible portions: 1926–1941",
  "resources": "OLAC resources in and about Kerewo",
  "writing": "Latin script [Latn]"
}