{
  "id": "kye",
  "name": "Krache",
  "country": {
    "code": "GH",
    "name": "Ghana",
    "area": "Africa"
  },
  "status": "5 (Developing)",
  "alternate_names": "Kaakyi, Krachi, Krakye",
  "population": "58,000 (2004 SIL), increasing",
  "location": "Volta region: central near Nchimburu, Kete Krachi area",
  "maps": "Ghana",
  "classification": "Niger-Congo, Atlantic-Congo, Volta-Congo, Kwa, Nyo, Potou-Tano, Tano, Guang, North Guang",
  "dialects": "None known. Considerable mutual intelligibility of Chumburung [ncu] and Dwang [nnu] (Guan languages); less with Guan languages of Gonja [gjn] or Gikyode [acd]",
  "use": "Vigorous. All domains. All ages. Also use Akan [aka]",
  "development": "High level of school attendance",
  "resources": "OLAC resources in and about Krache",
  "writing": "Latin script [Latn], used since 2006",
  "other_comments": "Traditional religion"
}