{
  "id": "kyn",
  "name": "Binukidnon, Northern",
  "country": {
    "code": "PH",
    "name": "Philippines",
    "area": "Asia"
  },
  "status": "6a (Vigorous)",
  "alternate_names": "Karolanos",
  "population": "15,100 (2000)",
  "location": "Negros Occidental Province, Kabankalan",
  "classification": "Austronesian, Malayo-Polynesian, Philippine, Greater Central Philippine, Central Philippine",
  "dialects": "None known. Reportedly similar to Southern Binukidnon [mtw]",
  "resources": "OLAC resources in and about Binukidnon, Northern"
}