{
  "id": "kyp",
  "name": "Kang",
  "country": {
    "code": "LA",
    "name": "Laos",
    "area": "Asia"
  },
  "status": "6a (Vigorous)",
  "alternate_names": "Tai Khang",
  "population": "47,600 in Laos (1995 census). Population total all countries: 81,700",
  "location": "Houaphan Province, Xam-Tai district; Xiangkhoang Province, Nonghet district",
  "maps": "Southwestern China",
  "classification": "Tai-Kadai, Kam-Tai, Kam-Sui",
  "resources": "OLAC resources in and about Kang"
}