{
  "id": "kyr",
  "name": "Kuruáya",
  "country": {
    "code": "BR",
    "name": "Brazil",
    "area": "Americas"
  },
  "status": "8b (Nearly extinct)",
  "alternate_names": "Caravare, Curuaia, Kuruaia",
  "population": "3 (Moore 2006). Ethnic population: 130 (2006 FUNASA). 115 (2002) in Cajueiro village (Crevels 2007)",
  "location": "Pará State, Altamira Municipality, on right bank of Curuá River, Terra Indígena Curuá, Cajueiro village; Terra Indígena Xipaia, Altamira town",
  "maps": "Eastern Central Brazil",
  "classification": "Tupian, Mundurukú",
  "use": "8 elders in the city speak either Kuruaya or Xipaya [xiy]. Shifted to Portuguese [por]. Elderly speakers. People in Cajueiro village speak Portuguese [por] and only know a few words of their mother tongue (Crevels 2007)",
  "resources": "OLAC resources in and about Kuruáya",
  "other_comments": "In Altamira, Kuruaya and Xipaya [xiy] are sometimes considered a single ethnic group due to intermarriage. This complicates a precise demographic (2007 census)"
}