{
  "id": "kyv",
  "name": "Kayort",
  "country": {
    "code": "NP",
    "name": "Nepal",
    "area": "Asia"
  },
  "status": "6a (Vigorous)",
  "population": "22,000 (2002)",
  "location": "Kosi Zone, Morang district, Dakuwa Danga, near Rajbanshi [rjs] language area",
  "classification": "Indo-European, Indo-Iranian, Indo-Aryan, Eastern zone, Bengali-Assamese",
  "dialects": "None known. Ostensibly related to Bengali [ben]",
  "resources": "OLAC resources in and about Kayort",
  "writing": "Unwritten [Qaax]",
  "other_comments": "No known published or survey-based attestation for this as a separate language variety"
}