{
  "id": "kyy",
  "name": "Kambaira",
  "country": {
    "code": "PG",
    "name": "Papua New Guinea",
    "area": "Pacific"
  },
  "status": "6b (Threatened)",
  "population": "140 (Wurm 1971)",
  "location": "Eastern Highlands Province, Kainantu district",
  "classification": "Trans-New Guinea, Kainantu-Goroka, Kainantu, Kambaira",
  "use": "Also use Binumarien [bjr], Gadsup [gaj]",
  "resources": "OLAC resources in and about Kambaira"
}