{
  "id": "kzd",
  "name": "Kadai",
  "country": {
    "code": "ID",
    "name": "Indonesia",
    "area": "Asia"
  },
  "status": "7 (Shifting)",
  "population": "350 (2000)",
  "location": "Maluku Utara Province, Sula Islands; Taliabu island, eastern interior mountains. Possible speakers in Mangole island mountains",
  "maps": "Indonesia, Central Maluku",
  "classification": "Austronesian, Malayo-Polynesian, Central-Eastern Malayo-Polynesian, Central Maluku, Sula, Taliabo",
  "dialects": "None known. May be intelligible with Taliabu [tlv]",
  "resources": "OLAC resources in and about Kadai",
  "other_comments": "The government wants to resettle them along the coast. Traditional religion"
}