{
  "id": "kzl",
  "name": "Kayeli",
  "country": {
    "code": "ID",
    "name": "Indonesia",
    "area": "Asia"
  },
  "status": "9 (Dormant)",
  "alternate_names": "Caeli, Cajeli, Gaeli, Kajeli",
  "population": "No known L1 speakers (Wurm 2007). Last speaker of Liliali dialect died in 1989 (Wurm 2007)",
  "location": "Maluku Province; North Buru island",
  "classification": "Austronesian, Malayo-Polynesian, Central-Eastern Malayo-Polynesian, Central Maluku, East, Seram, Nunusaku, Kayeli",
  "dialects": "Kayeli, Leliali (Liliali), Lumaete (Lumaiti, Lumara, Mumaite)",
  "resources": "OLAC resources in and about Kayeli",
  "other_comments": "Shifted to Ambonese Malay [abs] or Lisela [lcl] (Wurm 2007). Muslim"
}