{
  "id": "lbn",
  "name": "Lamet",
  "country": {
    "code": "LA",
    "name": "Laos",
    "area": "Asia"
  },
  "status": "6a (Vigorous)",
  "alternate_names": "Kha Lamet, Khamed, Khamet, Lemet, Rmeet",
  "population": "19,800 in Laos (2005 census). Population total all countries: 19,932",
  "location": "Northwest, Oudomxai, Luang Namtha, and Bokeo provinces",
  "maps": "Laos",
  "classification": "Austro-Asiatic, Mon-Khmer, Northern Mon-Khmer, Palaungic, Eastern Palaungic, Lametic",
  "dialects": "Lower Lamet, Upper Lamet",
  "use": "Also use Lao [lao]",
  "development": "Literacy rate in L1: Below 1%. Literacy rate in L2: 25%–50%",
  "resources": "OLAC resources in and about Lamet",
  "writing": "Lao script [Laoo]. Latin script [Latn]",
  "other_comments": "Glossonym: Lamet in Laos, Khamet in Thailand. Traditional religion"
}