{
  "id": "lbq",
  "name": "Wampar",
  "country": {
    "code": "PG",
    "name": "Papua New Guinea",
    "area": "Pacific"
  },
  "status": "5 (Developing)",
  "alternate_names": "Laewamba, Laewomba, Laiwomba",
  "population": "5,150 (1990)",
  "location": "Morobe Province, lower Markham and Wamped rivers",
  "maps": "Papua New Guinea, Map 11                      Papua New Guinea, Map 15",
  "classification": "Austronesian, Malayo-Polynesian, Central-Eastern Malayo-Polynesian, Eastern Malayo-Polynesian, Oceanic, Western Oceanic, North New Guinea, Huon Gulf, Markham, Lower, Wampar",
  "dialects": "None known. Lexical similarity: 50% with Adzera [adz]",
  "development": "NT: 1984",
  "resources": "OLAC resources in and about Wampar",
  "writing": "Latin script [Latn]",
  "other_comments": "Different from Wampur [waz] on the Wanton river"
}