{
  "id": "lbs",
  "name": "Libyan Sign Language",
  "country": {
    "code": "LY",
    "name": "Libya",
    "area": "Africa"
  },
  "status": "5 (Developing)",
  "population": "38,000 (2014 IMB)",
  "location": "Scattered",
  "classification": "Deaf sign language",
  "dialects": "None known. Unclear how similar it is to other sign languages in the region",
  "use": "Deaf associations",
  "development": "Videos. Dictionary",
  "resources": "OLAC resources in and about Libyan Sign Language",
  "other_comments": "Muslim (Sunni)"
}