{
  "id": "ldo",
  "name": "Loo",
  "country": {
    "code": "NG",
    "name": "Nigeria",
    "area": "Africa"
  },
  "status": "7 (Shifting)",
  "alternate_names": "Lo, Loh, Shungo, Shunhu",
  "population": "8,000 (Crozier and Blench 1992)",
  "location": "Gombe state: Kaltungo and Shongom LGAs; Taraba state: Lau and Karim Lamido LGAs, Bambuka to Karim-Lamido road",
  "maps": "Nigeria, Map 3",
  "classification": "Niger-Congo, Atlantic-Congo, Volta-Congo, North, Adamawa-Ubangi, Adamawa, Waja-Jen, Jen",
  "use": "Some young people, older adults",
  "resources": "OLAC resources in and about Loo",
  "other_comments": "Clan names: Fore (Kyilayo), Bene, Tamu, Bana, Talau, Tadam, Wawa. Traditional religion, Christian"
}