{
  "id": "lee",
  "name": "Lyélé",
  "country": {
    "code": "BF",
    "name": "Burkina Faso",
    "area": "Africa"
  },
  "status": "5 (Developing)",
  "alternate_names": "Lele",
  "population": "130,000 (Johnstone and Mandryk 2001)",
  "location": "Boucle du Muhoun region: Nayala province; Centre-Ouest region: North and central Sanguie province, Dassa, Didyr, Godyr, Kordie, Kyon, Réo, Tenado subdistricts, Réo principal center; Boulkiende province; Nord region: Passore province; thousands of migrants in neighboring countries, especially Côte d’Ivoire",
  "maps": "Burkina Faso",
  "classification": "Niger-Congo, Atlantic-Congo, Volta-Congo, North, Gur, Central, Southern, Grusi, Northern",
  "dialects": "Central Lyélé, Kandéré, Northern Lyélé, Southern Lyélé (Reo). Most Central and Northern Lyélé speakers have nearly 100% comprehension of Southern Lyélé dialect. Kandéré have 75% comprehension of Southern Lyélé; Southern Lyélé understand all dialects except Kandéré well. Reportedly similar to Nuni [nuv], but low mutual inherent intelligibility",
  "typology": "SVO; postpositions; genitives before noun heads; articles, adjectives, numerals, relatives after noun heads; question word initial; 1 prefix, 2 suffix; word order distinguishes subject and object; causatives; comparatives; CV, CVV; tonal",
  "use": "About 50% age 15 or under. Also use French [fra], Jula [dyu], Mòoré [mos]. Used as L2 by Northern Nuni [nuv]",
  "development": "Literacy rate in L1: Growing number in Lyélé. Literacy rate in L2: 18% mainly in French, some in Mòoré. Government coordinated literacy program, 110 classes (1998). Satellite school project. NT: 2001",
  "resources": "OLAC resources in and about Lyélé",
  "writing": "Latin script [Latn]",
  "other_comments": "Ethnic autonym: Lyela or Lela; Gurunsi is also used but applies more properly to the wider grouping. Traditional religion, Christian"
}