{
  "id": "leh",
  "name": "Lenje",
  "country": {
    "code": "ZM",
    "name": "Zambia",
    "area": "Africa"
  },
  "status": "5 (Developing)",
  "alternate_names": "Chilenje, Chinamukuni, Ciina, Ciina Mukuni, Lengi, Lenji, Mukuni",
  "population": "128,000 (2010 census)",
  "location": "Central province: Lukanga swamp area; northern Lusaka province; small border areas in south Copperbelt province",
  "maps": "Zambia",
  "classification": "Niger-Congo, Atlantic-Congo, Volta-Congo, Benue-Congo, Bantoid, Southern, Narrow Bantu, Central, M, Lenje-Tonga (M.61)",
  "dialects": "Lenje, Twa (Lukanga)",
  "use": "Home, community, traditional ceremonies. All ages. Also use Tonga [toi]",
  "development": "Bible: 2004",
  "resources": "OLAC resources in and about Lenje",
  "writing": "Latin script [Latn]"
}