{
  "id": "lej",
  "name": "Lengola",
  "country": {
    "code": "CD",
    "name": "Democratic Republic of the Congo",
    "area": "Africa"
  },
  "status": "6a (Vigorous)",
  "alternate_names": "Kilengola, Lengora",
  "population": "100,000 (1998)",
  "location": "Orientale province: Ubundu territory; Maniema province: Lubutu and Punia territories, Lualaba river area between Opienge, Lowa, and a point called ‘Km 100’ on Kisangani-Lubutu road",
  "maps": "Northern Democratic Republic of Congo",
  "classification": "Niger-Congo, Atlantic-Congo, Volta-Congo, Benue-Congo, Bantoid, Southern, Narrow Bantu, Central, D, Mbole-Enya (D.12)",
  "dialects": "2 dialects which differ in pronunciation. Lexical similarity: 40% with Enya [gey] and Mituku [zmq]; 35%–40% with Budu [buu] and Komo [kmw]; 30%–35% with Lega-Shabunda [lea], Lega-Mwenga [lgm], and Zimba [zmb]; 25%–30% with Bembe [bmb], Buyu [byi], and Bali [bcp]",
  "use": "Also use Congo Swahili [swc], Komo [kmw]",
  "resources": "OLAC resources in and about Lengola",
  "other_comments": "Christian, Muslim"
}