{
  "id": "lep",
  "name": "Lepcha",
  "country": {
    "code": "IN",
    "name": "India",
    "area": "Asia"
  },
  "status": "6a (Vigorous)",
  "alternate_names": "Lapche, Nünpa, Rong, Rongke, Rongpa",
  "population": "50,600 in India (2001 census). Population total all countries: 60,100",
  "location": "Sikkim, Dzongu district; West Bengal, Darjeeling district, Kalimpong",
  "maps": "Bhutan                      India, Map 4                      Eastern Nepal",
  "classification": "Sino-Tibetan, Tibeto-Burman, Central Tibeto-Burman, Lepcha",
  "dialects": "Ilammu, Rengjongmu, Tamsangmu. Classification uncertain; has been classified both in Himalayan and Naga groups",
  "use": "Vigorous. In Sikkim, all ages",
  "development": "Literacy rate in L2: 66% in Sikkim (2001 census). Taught in primary schools. Radio programs. Dictionary. Grammar. NT: 1989",
  "resources": "OLAC resources in and about Lepcha",
  "writing": "Lepcha (Róng) script [Lepc]. Tibetan script [Tibt]",
  "other_comments": "A Scheduled Tribe. Lepcha is both language and name of people. Buddhist, Christian, Hindu"
}