{
  "id": "leq",
  "name": "Lembena",
  "country": {
    "code": "PG",
    "name": "Papua New Guinea",
    "area": "Pacific"
  },
  "status": "5 (Developing)",
  "alternate_names": "Lembena Pii, Nanimba Pii, Uyalipa Pii, Wapi Pii",
  "population": "1,760 (2000 census), increasing. 750 monolinguals",
  "location": "Northeast Enga Province, into East Sepik Province, Eleme, Yambaitoko, Saut Isataele, Mosope, Itopeno, Pipitesa, Madawesa, and Mokosele villages",
  "maps": "Papua New Guinea, Map 6",
  "classification": "Trans-New Guinea, Engan, Enga",
  "typology": "SOV",
  "use": "Vigorous. All domains. Some oral and written use in church, oral use in local commerce. All ages. Positive attitudes. Also use Enga [enq], English [eng], Tok Pisin [tpi]",
  "development": "Literacy rate in L1: 3%. Literacy rate in L2: Below 5%. 2% can write. No vernacular schools in area",
  "resources": "OLAC resources in and about Lembena",
  "writing": "Latin script [Latn]",
  "other_comments": "Christian"
}