{
  "id": "les",
  "name": "Lese",
  "country": {
    "code": "CD",
    "name": "Democratic Republic of the Congo",
    "area": "Africa"
  },
  "status": "6a (Vigorous)",
  "alternate_names": "Balese, Lesa, Lesse, Lissi, Mbuti, Walese, Walisi",
  "population": "50,000 (1991 SIL)",
  "location": "Orientale province: Watsa, Djugu, Irumu, and Mambasa territories; Nord-Kivu province: border enclave north of Beni",
  "maps": "Northern Democratic Republic of Congo",
  "classification": "Nilo-Saharan, Central Sudanic, East, Mangbutu-Efe",
  "dialects": "Arumbi (Upstream Lese), Fare, Lese Karo, Ndese (Lese Dese), Vukutu (Obi, Vonkutu). Reportedly similar to Mamvu [mdi], Bendi [bct], Mangbutu [mdk], and Efe [efe]",
  "use": "Also use Bangala [bxg], Congo Swahili [swc]",
  "resources": "OLAC resources in and about Lese",
  "writing": "Latin script [Latn]",
  "other_comments": "Traditional religion, Christian"
}