{
  "id": "lez",
  "name": "Lezgi",
  "country": {
    "code": "RU",
    "name": "Russian Federation",
    "area": "Europe"
  },
  "status": "4 (Educational)",
  "alternate_names": "Kiurinsty, Lezghi, Lezgian, Lezgin",
  "population": "402,000 in Russian Federation (2010 census). Population total all countries: 789,520. Ethnic population: 474,000 (2010 census)",
  "location": "Dagestan Republic: west of Caspian sea coast; central Caucasus",
  "maps": "Azerbaijan                      Western Russia, Enlarged Area",
  "classification": "North Caucasian, East Caucasian, Lezgic, Nuclear Lezgic, East Lezgic",
  "dialects": "Kiuri (Gelkhen, Giliar, Güne, Qurah, Yarki), Quba (Kuba), Samur (Akhty, Dashagyl-Filfil, Doquzpara, Fiy, Jaba, Qurush)",
  "use": "Most domains. All ages. Positive attitudes. Also use Russian [rus]. Used as L2 by Rutul [rut]",
  "development": "Newspapers. Radio programs. Dictionary. Grammar. Bible portions: 2010–2014",
  "resources": "OLAC resources in and about Lezgi",
  "writing": "Cyrillic script [Cyrl]",
  "other_comments": "Muslim (Sunni), Muslim (Shi’a)"
}