{
  "id": "lgk",
  "name": "Neverver",
  "country": {
    "code": "VU",
    "name": "Vanuatu",
    "area": "Pacific"
  },
  "status": "6b (Threatened)",
  "alternate_names": "Bushman’s Bay, Lingarak, Nevwervwer",
  "population": "1,250 (Lynch and Crowley 2001)",
  "location": "Malampa Province, Malekula",
  "maps": "Vanuatu, Enlarged Area",
  "classification": "Austronesian, Malayo-Polynesian, Central-Eastern Malayo-Polynesian, Eastern Malayo-Polynesian, Oceanic, Central-Eastern Oceanic, Remote Oceanic, North and Central Vanuatu, Malekula Interior, Malekula Central",
  "dialects": "Mindu, Wuli",
  "use": "Potentially endangered (2000 D. Tryon). Most key domains. Used by 60% of children. Positive attitudes",
  "development": "Grammar",
  "resources": "OLAC resources in and about Neverver"
}