{
  "id": "lht",
  "name": "Lo-Toga",
  "country": {
    "code": "VU",
    "name": "Vanuatu",
    "area": "Pacific"
  },
  "status": "6a (Vigorous)",
  "alternate_names": "Loh-Toga",
  "population": "650 (2007 A. François)",
  "location": "Torba Province, Torres Islands",
  "maps": "Vanuatu",
  "classification": "Austronesian, Malayo-Polynesian, Central-Eastern Malayo-Polynesian, Eastern Malayo-Polynesian, Oceanic, Central-Eastern Oceanic, Remote Oceanic, North and Central Vanuatu, Northeast Vanuatu-Banks Islands, East Vanuatu",
  "dialects": "Lo, Toga",
  "use": "Potentially endangered (2000 D. Tryon). Most key domains. Used by 80% of children. Positive attitudes",
  "development": "Bible portions: 1900",
  "resources": "OLAC resources in and about Lo-Toga",
  "writing": "Latin script [Latn], no longer in use"
}