{
  "id": "liw",
  "name": "Col",
  "country": {
    "code": "ID",
    "name": "Indonesia",
    "area": "Asia"
  },
  "status": "6a (Vigorous)",
  "alternate_names": "Cul, Sindang",
  "population": "145,000 (2000 census)",
  "location": "Sumatra, Sumatera Selatan and Bengkulu provinces, Lubuklinggau and Muaraklingi areas south, east, and north generally; very small enclave just east of Bengkulu city",
  "maps": "Indonesia, Sumatra",
  "classification": "Austronesian, Malayo-Polynesian, Malayo-Chamic, Malayic, Malay",
  "dialects": "Beliti, Lembak Delapan, Lubuk Linggau, Sindang Kelingi. A member of macrolanguage Malay [msa]",
  "use": "Vigorous. Home, village. All ages. Positive attitudes. Indonesian [ind] used in civic and educational domains. Urban Palembang, a dialect of Musi [mui], used as a trade language with neighboring groups",
  "development": "Not currently a written language. Literacy valued in Indonesian. Taught in primary schools. Grammar",
  "resources": "OLAC resources in and about Col",
  "other_comments": "The Lembak Delapan dialect of Col in Bengkulu is not to be confused with the Lembak subdialect of the Belide dialect of Musi [mui]. Muslim"
}