{
  "id": "lkc",
  "name": "Kucong",
  "country": {
    "code": "VN",
    "name": "Viet Nam",
    "area": "Asia"
  },
  "status": "7 (Shifting). Language of recognized ethnic group: La Hu",
  "alternate_names": "Cosung, Lahlu",
  "population": "6,870 in Viet Nam (2007). Population total all countries: 46,870",
  "location": "Lai Chau province, Muang Te district",
  "maps": "Southwestern China                      Northwestern Viet Nam",
  "classification": "Sino-Tibetan, Tibeto-Burman, Ngwi-Burmese, Ngwi, Central",
  "dialects": "None known. Reportedly most similar to Lahu [lhu]",
  "resources": "OLAC resources in and about Kucong",
  "other_comments": "Part of the La Hu official ethnic community (9,651, 2009 census)"
}