{
  "id": "lkl",
  "name": "Laeko-Libuat",
  "country": {
    "code": "PG",
    "name": "Papua New Guinea",
    "area": "Pacific"
  },
  "status": "6a (Vigorous)",
  "alternate_names": "Laeko, Laeko-Limbuat",
  "population": "720 (2003 SIL). 520 in area; 200 outside",
  "location": "Sandaun Province, Torricelli mountains, west of Mehek",
  "maps": "Papua New Guinea, Map 3",
  "classification": "Torricelli, Maimai, Laeko-Libuat",
  "resources": "OLAC resources in and about Laeko-Libuat"
}