{
  "id": "lle",
  "name": "Lele",
  "country": {
    "code": "PG",
    "name": "Papua New Guinea",
    "area": "Pacific"
  },
  "status": "5 (Developing)",
  "alternate_names": "Elu-Kara, Hai, Lele Hai, Manus, Moanus, Usiai",
  "population": "1,300 (1982 SIL)",
  "location": "Manus Province, Manus island",
  "maps": "Papua New Guinea, Map 1",
  "classification": "Austronesian, Malayo-Polynesian, Central-Eastern Malayo-Polynesian, Eastern Malayo-Polynesian, Oceanic, Admiralty Islands, Eastern, Manus, East",
  "dialects": "Sabon",
  "typology": "SVO",
  "use": "Used as L2 by Leipon [lek], Loniu [los], Nali [nss]",
  "development": "NT: 1956",
  "resources": "OLAC resources in and about Lele",
  "writing": "Latin script [Latn]"
}