{
  "id": "lll",
  "name": "Lilau",
  "country": {
    "code": "PG",
    "name": "Papua New Guinea",
    "area": "Pacific"
  },
  "status": "6a (Vigorous)",
  "alternate_names": "Ngaimbom",
  "population": "450 (Wurm and Hattori 1981)",
  "location": "Madang Province, Bogia district",
  "maps": "Papua New Guinea, Map 4                      Papua New Guinea, Map 6",
  "classification": "Torricelli, Monumbo",
  "resources": "OLAC resources in and about Lilau"
}