{
  "id": "llu",
  "name": "Lau",
  "country": {
    "code": "SB",
    "name": "Solomon Islands",
    "area": "Pacific"
  },
  "status": "5 (Developing)",
  "population": "16,900 (1999 SIL)",
  "location": "Northeast Malaita island",
  "maps": "Solomon Islands",
  "classification": "Austronesian, Malayo-Polynesian, Central-Eastern Malayo-Polynesian, Eastern Malayo-Polynesian, Oceanic, Central-Eastern Oceanic, Southeast Solomonic, Malaita-San Cristobal, Malaita, Northern",
  "dialects": "Dai (Ndai), Lau, Suafa",
  "typology": "SVO",
  "use": "All ages. Also use English [eng]. Used as L2 by Fataleka [far]",
  "development": "Literacy rate in L1: 30%–60%. Literacy rate in L2: 25%–50%. Dictionary. Grammar. NT: 1929–1992",
  "resources": "OLAC resources in and about Lau",
  "writing": "Latin script [Latn]"
}