{
  "id": "lme",
  "name": "Pévé",
  "country": {
    "code": "TD",
    "name": "Chad",
    "area": "Africa"
  },
  "status": "6a (Vigorous)",
  "alternate_names": "“Kado” (pej.), Ka’do Pevé, Lamé, Zime",
  "population": "30,000 in Chad (1999 SIL). Population total all countries: 35,720",
  "location": "Southwest, Mayo-Kebbi Ouest region: Lamé is center",
  "maps": "Central Cameroon                      Northern Cameroon                      Southwestern Chad",
  "classification": "Afro-Asiatic, Chadic, Masa",
  "dialects": "Dari, Doe (Doué), Lamé. Related to Herdé [hed] and Ngeté [nnn] with differences in phonology, grammar, and ethnic attitudes",
  "development": "NT: 1986",
  "resources": "OLAC resources in and about Pévé",
  "writing": "Latin script [Latn]",
  "other_comments": "Different from Lame [bma] of Nigeria. Ethnonym: Zime refers to Herdé [hed], Ngeté [nnn], Pévé, and Mesmé [zim]"
}