{
  "id": "lmk",
  "name": "Lamkang",
  "country": {
    "code": "IN",
    "name": "India",
    "area": "Asia"
  },
  "status": "5 (Developing)",
  "alternate_names": "“Hiroi-Lamgang” (pej.), “Lamgang” (pej.), Lamkaang, Lamkang Naga",
  "population": "10,000 (1999 census)",
  "location": "Southeast Manipur, Chandel district, 6 villages to the west, east of Shuganu, 6 villages between Chalong and Mombi New, 18 villages between Palel, Chandel town, Palel and Sibong; Nagaland; Dimapur, Thamlakhuren",
  "maps": "India, Map 5",
  "classification": "Sino-Tibetan, Tibeto-Burman, Sal, Kuki-Chin-Naga, Kuki-Chin, Northern",
  "dialects": "None known. Reportedly most similar to Anal Naga [anm]",
  "typology": "SOV; postpositions; genitives before head nouns; adjectives and numerals after noun heads; noun prefixes mark person, number of possessor; VC, CV, CVC, CCCVC",
  "use": "Vigorous, but each successive generation not as knowledgeable about their folksongs and folktales. All ages. Understand Meitei [mni]. Also use English [eng], Hindi [hin]",
  "development": "Literacy rate in L2: 40% Meitei: 10 to 40 year olds (2000 S. Towar). Only 2% can read Latin script. NT: 2002",
  "resources": "OLAC resources in and about Lamkang",
  "writing": "Latin script [Latn]. Myanmar (Burmese) script [Mymr], used in Myanmar",
  "other_comments": "A Scheduled Tribe. Christian"
}