{
  "id": "lml",
  "name": "Hano",
  "country": {
    "code": "VU",
    "name": "Vanuatu",
    "area": "Pacific"
  },
  "status": "3 (Wider communication)",
  "alternate_names": "Bwatvenua, Lamalanga, North Raga, Qatvenua, Raga, Vunmarama",
  "population": "6,500 (Lynch and Crowley 2001)",
  "location": "Penama Province, north Pentecost (Raga), Whitsuntide, and south Maewo islands",
  "maps": "Vanuatu",
  "classification": "Austronesian, Malayo-Polynesian, Central-Eastern Malayo-Polynesian, Eastern Malayo-Polynesian, Oceanic, Central-Eastern Oceanic, Remote Oceanic, North and Central Vanuatu, Northeast Vanuatu-Banks Islands, East Vanuatu",
  "dialects": "Nggasai (Kasai). Slight dialect differences; the last Nggasai dialect speaker died 1999",
  "development": "Bible portions: 1908–1989",
  "resources": "OLAC resources in and about Hano",
  "writing": "Latin script [Latn]",
  "other_comments": "‘Hano’ is the name preferred locally"
}