{
  "id": "lmp",
  "name": "Limbum",
  "country": {
    "code": "CM",
    "name": "Cameroon",
    "area": "Africa"
  },
  "status": "5 (Developing)",
  "alternate_names": "Bojiin, Limbom, Llimbumi, Ndzungle, Ndzungli, Njungene, Nsungali, Nsungli, Nsungni, Wimbum",
  "population": "130,000 in Cameroon (2005 SIL), increasing. Based on the actual population of the subdivisions where the Limbum people are present as of the 2005 census (2014 C. Hamm)",
  "location": "North West region: Donga-Mantung division, Nkambe subdivision, Nkambe and Ndu areas",
  "maps": "Central Cameroon",
  "classification": "Niger-Congo, Atlantic-Congo, Volta-Congo, Benue-Congo, Bantoid, Southern, Wide Grassfields, Narrow Grassfields, Mbam-Nkam, Nkambe",
  "dialects": "Tang, Wat, Wiyeh",
  "use": "All ages. Also use French [fra], Lamnso’ [lns], Noone [nhu]. Used as L2 by Kemedzung [dmo], Lamnso’ [lns], Ncane [ncr], Noone [nhu], Sari [asj], Tigon Mbembe [nza]",
  "development": "Literacy rate in L2: 15%–25%. Some literacy classes. Poetry. Films. Videos. Dictionary. Grammar. NT: 2002",
  "resources": "OLAC resources in and about Limbum",
  "writing": "Latin script [Latn]"
}