{
  "id": "lnu",
  "name": "Longuda",
  "country": {
    "code": "NG",
    "name": "Nigeria",
    "area": "Africa"
  },
  "status": "6a (Vigorous)",
  "alternate_names": "Languda, Longura, Nunguda, Nungura, Nunguraba",
  "population": "32,000 (1973 SIL)",
  "location": "Gombe state: Balanga LGA; Adamawa state: Guyuk LGA",
  "maps": "Nigeria, Map 5",
  "classification": "Niger-Congo, Atlantic-Congo, Volta-Congo, North, Adamawa-Ubangi, Adamawa, Waja-Jen, Longuda",
  "dialects": "Nya Ceriya (Banjiram, Cirimba), Nya Dele (Jessu), Nya Guyuwa (Guyuk, Plain Nya Guyuwa, Turuba), Nya Gwanda (Gwandaba, Nyuwar), Nya Tariya (Taraba)",
  "use": "Also use Dera [kna], English [eng], Hausa [hau], Nigerian Fulfulde [fuv], Waja [wja]. Used as L2 by Dera [kna], Mbula-Bwazza [mbu]",
  "development": "Literacy rate in L2: 20% Hausa. NT: 1978",
  "resources": "OLAC resources in and about Longuda",
  "writing": "Latin script [Latn], used since 1975",
  "other_comments": "Traditional religion, Christian"
}