{
  "id": "lof",
  "name": "Logol",
  "country": {
    "code": "SD",
    "name": "Sudan",
    "area": "Africa"
  },
  "status": "8a (Moribund)",
  "alternate_names": "Lukha",
  "population": "2,600",
  "location": "Janub Kurdufan state: isolated hills between Talodi and the White Nile",
  "maps": "Sudan",
  "classification": "Niger-Congo, Kordofanian, Heiban, West-Central, Central, Ebang-Logol, Logol",
  "dialects": "None known. Lexical similarity: 85% with Otoro [otr] (most similar)",
  "resources": "OLAC resources in and about Logol",
  "writing": "Unwritten [Qaax]"
}