{
  "id": "loz",
  "name": "Lozi",
  "country": {
    "code": "ZM",
    "name": "Zambia",
    "area": "Africa"
  },
  "status": "4 (Educational). De facto language of provincial identity in portions of Western and Southern provinces",
  "alternate_names": "Kololo, Kolololo, Rotse, Rozi, Rutse, Silozi, Tozvi",
  "population": "612,000 in Zambia (2010 census). Population total all countries: 724,600",
  "location": "Western province: Barotseland; Southern province: Livingstone area",
  "maps": "Botswana                      Zambia                      Zimbabwe",
  "classification": "Niger-Congo, Atlantic-Congo, Volta-Congo, Benue-Congo, Bantoid, Southern, Narrow Bantu, Central, K, Lozi (K.21)",
  "use": "Home, church, community. All ages. Positive attitudes. Used as L2 by Khwe [xuu], Nkoya [nka]",
  "development": "Taught in primary and secondary schools. Newspapers. Radio programs. Dictionary. Grammar. Bible: 1951–2009",
  "resources": "OLAC resources in and about Lozi",
  "writing": "Latin script [Latn]",
  "other_comments": "Recognized for educational and administrative purposes"
}