{
  "id": "lpe",
  "name": "Lepki",
  "country": {
    "code": "ID",
    "name": "Indonesia",
    "area": "Asia"
  },
  "status": "6a (Vigorous)",
  "population": "530 (1991 SIL)",
  "location": "Papua Province, Jayawijaya regency, Okbibab subdistrict. Near middle Sogber river, north of Apmisibil town",
  "maps": "Indonesia, Eastern Papua",
  "classification": "Unclassified",
  "dialects": "None known. Possible genetic similarities with Murkim [rmh]",
  "typology": "SOV; head and dependent marking; tonal",
  "use": "Home, religious services, market. Some at Luban also use Ketengban [xte]",
  "resources": "OLAC resources in and about Lepki",
  "other_comments": "Traditional religion, Christian"
}