{
  "id": "lrn",
  "name": "Lorang",
  "country": {
    "code": "ID",
    "name": "Indonesia",
    "area": "Asia"
  },
  "status": "6a (Vigorous)",
  "population": "220 (2011 SIL)",
  "location": "Southeast Maluku Province. Central Aru island group, Koba island, northwest coast",
  "maps": "Indonesia, Southern Maluku",
  "classification": "Austronesian, Malayo-Polynesian, Central-Eastern Malayo-Polynesian, Aru",
  "dialects": "None known. Reportedly similar to Koba [kpd] and, to a lesser extent, Dobel [kvo]. Some similarities with Manombai [woo], but intelligibility is lower than might be expected",
  "use": "Vigorous. Also use Dobel [kvo]",
  "resources": "OLAC resources in and about Lorang",
  "other_comments": "Christian"
}