{
  "id": "lsa",
  "name": "Lasgerdi",
  "country": {
    "code": "IR",
    "name": "Iran",
    "area": "Asia"
  },
  "status": "6a (Vigorous)",
  "alternate_names": "Läsgerdi, Lasjerdi, Läsjerdi",
  "population": "1,000 (2006 census)",
  "location": "Semnan Province, southwest of Semnan, Lasjerd",
  "classification": "Indo-European, Indo-Iranian, Iranian, Western, Northwestern, Semnani",
  "use": "All ages. Also use Iranian Persian [pes]",
  "development": "Literacy rate in L2: 72%. Dictionary",
  "resources": "OLAC resources in and about Lasgerdi",
  "other_comments": "Muslim"
}