{
  "id": "lug",
  "name": "Ganda",
  "country": {
    "code": "UG",
    "name": "Uganda",
    "area": "Africa"
  },
  "status": "3 (Wider communication). De facto language of national identity",
  "alternate_names": "Luganda",
  "population": "4,130,000 (2002 census), increasing. L2 users: 1,000,000 (Wiesenfeld 1999). Most widely spoken L2 in Uganda besides English [eng]",
  "location": "Buganda province: Lake Victoria northwest shore to Lake Kyoga and Tanzania border",
  "maps": "Uganda",
  "classification": "Niger-Congo, Atlantic-Congo, Volta-Congo, Benue-Congo, Bantoid, Southern, Narrow Bantu, Central, J, Nyoro-Ganda (E.15)",
  "dialects": "Diopa (Ludiopa), Kooki (Olukooki), Sese (Olusese), Vuma (Luvuma). Lexical similarity: 71%–86% with Soga [xog], 68% with Gwere [gwr]",
  "typology": "SVO",
  "use": "Used in primary schools and churches especially in the south. Kooki dialect may be extinct. Home, work, church. All ages. Positive attitudes. Used as L2 by Gwere [gwr], Kenye [lke], Masaaba [myx], Nyole [nuj], Ruuli [ruc], Soga [xog]",
  "development": "Used also in tertiary institutions. Taught in primary and secondary schools. Poetry. Magazines. Newspapers. New media. Radio programs. Films. TV. Dictionary. Grammar. Bible: 1896–2006",
  "resources": "OLAC resources in and about Ganda",
  "writing": "Latin script [Latn], used since 1947",
  "other_comments": "Vuma dialect is moribund. Christian, Muslim"
}