{
  "id": "lum",
  "name": "Luimbi",
  "country": {
    "code": "AO",
    "name": "Angola",
    "area": "Africa"
  },
  "status": "6a (Vigorous)",
  "alternate_names": "Chiluimbi, Luimbe, Lwimbe, Lwimbi",
  "population": "43,900 (2000)",
  "location": "Central Angola, Cuanza river watershed, northern Bié and southern Malanje provinces",
  "maps": "Angola",
  "classification": "Niger-Congo, Atlantic-Congo, Volta-Congo, Benue-Congo, Bantoid, Southern, Narrow Bantu, Central, K, Ciokwe-Luchazi (K.12)",
  "dialects": "None known. Related to Nkangala [nkn] and Mbwela [mfu]; in Ngangela subgroup. Similar to Songo [nsx], less similar to Lucazi [lch] and Ngonzela of Ngangela cluster. Doubtful if intelligible with Mbwela [mfu], as they are not contact languages",
  "development": "Bible portions: 1935",
  "resources": "OLAC resources in and about Luimbi",
  "writing": "Latin script [Latn]"
}