{
  "id": "lzn",
  "name": "Naga, Leinong",
  "country": {
    "code": "MM",
    "name": "Myanmar",
    "area": "Asia"
  },
  "status": "6a (Vigorous)",
  "alternate_names": "Htang Ngan, Htangan, Lainong Naga, Lenaung Naga",
  "population": "7,000 (2008 SIL)",
  "location": "Sagain, Khamti district, Lahe township; about 25 villages",
  "maps": "Northern Myanmar",
  "classification": "Sino-Tibetan, Tibeto-Burman, Sal, Bodo-Garo-Northern Naga, Northern Naga",
  "dialects": "Southern Leinong, Yao Dyang (Northern Leinong, Zau Dyang). High intelligibility in Leinong villages. Lexical similarity: within Leinong Naga 89%–100%. Lexical similarity: 69%–75% with Ponyo-Gongwang Naga [npg], 62%–67%with Khiamniungan Naga [kix], 37%–41% with Lao variety of Konyak Naga [nbe]",
  "use": "Vigorous. All domains. All ages. Positive attitudes. Also use Burmese [mya]. Used as L2 by Lao Naga [nlq], Makyan Naga [umn], Ponyo-Gongwang Naga [npg]",
  "development": "Literacy rate in L1: Below 1%. Some literacy classes. Dictionary. Bible portions: 2005–2010",
  "resources": "OLAC resources in and about Naga, Leinong",
  "writing": "Latin script [Latn]",
  "other_comments": "The majority group within Lahe Township. Buddhist, Christian, traditional religion"
}