{
  "id": "mah",
  "name": "Marshallese",
  "country": {
    "code": "MH",
    "name": "Marshall Islands",
    "area": "Pacific"
  },
  "status": "1 (National). De facto national language",
  "alternate_names": "Ebon",
  "population": "43,900 in Marshall Islands (1979 B. Bender). Population total all countries: 54,600",
  "classification": "Austronesian, Malayo-Polynesian, Central-Eastern Malayo-Polynesian, Eastern Malayo-Polynesian, Oceanic, Central-Eastern Oceanic, Remote Oceanic, Micronesian, Micronesian Proper, Marshallese",
  "dialects": "Rälik, Ratak. Dialects inherently intelligible. Ujelang, the westernmost island, has slightly less homogeneous speech. Lexical similarity: 33% with Pohnapeian [pon]",
  "use": "Vigorous",
  "development": "Dictionary. Grammar. Bible: 1982",
  "resources": "OLAC resources in and about Marshallese",
  "writing": "Latin script [Latn]"
}