{
  "id": "mau",
  "name": "Mazatec, Huautla",
  "country": {
    "code": "MX",
    "name": "Mexico",
    "area": "Americas"
  },
  "status": "6a (Vigorous)",
  "alternate_names": "Highland Mazatec, Mazateco de Huautla de Jimenez, Mazateco de la Sierra, Mazateco del centro",
  "population": "74,600 (2000 INALI). Over 100,000 Mazatec speakers live outside the Mazatec homeland, mostly in major cities (2005 census). Probably at least half speak L1. 22,400 monolinguals",
  "location": "North Oaxaca, Huautla town northeast to Presa Miguel Aleman; Puebla, western border with Oaxaca",
  "maps": "Southern Central Mexico",
  "classification": "Otomanguean, Eastern Otomanguean, Popolocan-Zapotecan, Popolocan, Mazatec",
  "dialects": "Mazateco de presa alto, Mazateco del norte, San Mateo, San Miguel. 90% intelligibility of San Jerónimo Tecóatl [maa] (most similar, but less in outlying areas), 60% of Mazatlán, 35% of Jalapa [maj]. Lexical similarity: 94% with San Miguel, 93% with San Mateo, 80% with Soyaltepec, 78% with San Pedro Ixcatlán, 74% with Jalapa de Díaz",
  "typology": "Short words; tonal; whistle speech, distinguishing tones of the spoken language (Cowan 1948, 1952)",
  "use": "Vigorous. Mazatec is needed and used locally, but use Spanish [spa] for prestige. All domains. All ages. Also use Spanish [spa], increasingly in Huautla City",
  "development": "Grammar. NT: 1961",
  "resources": "OLAC resources in and about Mazatec, Huautla",
  "writing": "Latin script [Latn]",
  "other_comments": "Traditional religion, Christian"
}