{
  "id": "maz",
  "name": "Mazahua, Central",
  "country": {
    "code": "MX",
    "name": "Mexico",
    "area": "Americas"
  },
  "status": "5 (Developing)",
  "alternate_names": "Masawa, Mazahua de oriente",
  "population": "74,000 (2000 INALI)",
  "location": "West and northwest state of México; border area, northwestern Michoacán de Ocampo; extreme southern tip, Queretaro de Arteaga",
  "maps": "Western Central Mexico",
  "classification": "Otomanguean, Western Otomanguean, Oto-Pame-Chinantecan, Oto-Pamean, Mazahua",
  "dialects": "Atlacomulco-Temascalcingo, San Miguel Tenoxtitlán, Santa María Citendejé-Banos. The Atlacomulco-Temascalcingo dialect uses different kinship terms, has phonological differences, grammatical variation among towns. 85%–100% intelligibility among dialects",
  "typology": "VSO, (usually VS or VO); short words, affixes, clitics; tonal",
  "use": "All ages. Also use Spanish [spa]",
  "development": "Literacy rate in L1: Below 1%. Literacy rate in L2: 35%. Dictionary. NT: 1970–2007",
  "resources": "OLAC resources in and about Mazahua, Central",
  "writing": "Latin script [Latn]",
  "other_comments": "Traditional religion, Christian"
}