{
  "id": "mbd",
  "name": "Manobo, Dibabawon",
  "country": {
    "code": "PH",
    "name": "Philippines",
    "area": "Asia"
  },
  "status": "5 (Developing)",
  "alternate_names": "Debabaon, Dibabaon, Mandaya",
  "population": "10,000 (1978 SIL)",
  "location": "Mindanao, northern Compostela Valley Province, upper Agusan river area; Davao Oriental Province, Boston and Cateel municipalities; Davao del Norte Province, Asuncion municipality, Manguagan",
  "maps": "Southern Philippines",
  "classification": "Austronesian, Malayo-Polynesian, Philippine, Greater Central Philippine, Manobo, Central, East",
  "typology": "Prepositions; genitives after noun heads; articles, adjectives, numerals all before noun heads; relatives after noun heads; question word in sentence-initial position; maximum number of affixes: 3 prefixes, 1 suffix; word order distinguishes given and new information; affixes do not indicate case of noun phrase; non-obligatory verb affixes indicate number; passives; causatives; comparatives; CV, CVC, CVV, CVVC; nontonal",
  "use": "Used as L2 by Rajah Kabunsuwan Manobo [mqk]",
  "development": "Literacy rate in L1: 23%. Literacy rate in L2: 23%. NT: 1978",
  "resources": "OLAC resources in and about Manobo, Dibabawon",
  "writing": "Latin script [Latn]"
}