{
  "id": "mbi",
  "name": "Manobo, Ilianen",
  "country": {
    "code": "PH",
    "name": "Philippines",
    "area": "Asia"
  },
  "status": "5 (Developing)",
  "alternate_names": "Ilianen",
  "population": "14,600 (2000). Few monolinguals",
  "location": "Mindanao, North Cotabato Province, north and central watershed of Mindanao river; Bukidnon Province, Kandingilan, Kibawe, and Darnulong municipalities; Maguindanao Province, northern tips of both Northern Kambutalan and Datu Montawal municipalities",
  "maps": "Southern Philippines",
  "classification": "Austronesian, Malayo-Polynesian, Philippine, Greater Central Philippine, Manobo, Central, West",
  "dialects": "Arakan, Livunganen, Pulangiyan",
  "use": "Vigorous. All domains. Positive attitudes. Also use Cebuano [ceb], Filipino [fil], Maguindanaon [mdh]",
  "development": "Literacy rate in L1: 15%–20%. Literacy rate in L2: 15%–20%. NT: 1989",
  "resources": "OLAC resources in and about Manobo, Ilianen",
  "writing": "Latin script [Latn]",
  "other_comments": "Unable to enforce traditional land claims. Traditional religion"
}