{
  "id": "mbs",
  "name": "Manobo, Sarangani",
  "country": {
    "code": "PH",
    "name": "Philippines",
    "area": "Asia"
  },
  "status": "5 (Developing)",
  "population": "58,000 (2000 census)",
  "location": "Mindanao, Davao del Sur Province, Jose Abad Santos municipality; Davao Oriental Province, Governor Generoso municipality; Sarangani Province, Glan municipality",
  "maps": "Southern Philippines",
  "classification": "Austronesian, Malayo-Polynesian, Philippine, Greater Central Philippine, Manobo, South",
  "dialects": "Governor Generoso Manobo",
  "typology": "VSO; prepositions; genitives after noun heads; articles, adjectives, numerals all before noun heads; relatives after noun heads; question word in sentence-initial position; maximum number of affixes: 3 prefixes, 2 suffixes; word order distinguishes subject, object and direct objects, but is also determined by case marking; affixes do not indicate case of noun phrase; non-obligatory verb affixes indicate number; ergatives; passives; causatives; comparatives; CV, CVC, CCV; nontonal",
  "use": "Used as L2 by Sarangani Blaan [bps]",
  "development": "Literacy rate in L1: 44%. Literacy rate in L2: 44%. NT: 1982",
  "resources": "OLAC resources in and about Manobo, Sarangani",
  "writing": "Latin script [Latn]"
}