{
  "id": "mch",
  "name": "Maquiritari",
  "country": {
    "code": "VE",
    "name": "Venezuela",
    "area": "Americas"
  },
  "status": "6a (Vigorous)",
  "alternate_names": "Cunuana, De’cuana, De’kwana Carib, Maiongong, Maquiritai, Maquiritare, Pawana, Soto, Ye’cuana, Yekuana",
  "population": "5,520 in Venezuela (2001 census). Population total all countries: 5,950. Ethnic population: 6,520",
  "location": "Bolivar and Amazonas states, Brazilian border area on mid-Paragua, Caura, Erebato, upper Ventuari, upper Auaris, Matacuni, Cuntinamo, Padamo, and Cunucunuma rivers",
  "maps": "Northwestern Brazil                      Venezuela",
  "classification": "Cariban, Central, Makiritare",
  "use": "Children are becoming bilingual in Spanish [spa] but most adults hardly speak any Spanish (Crevels 2007). Used as L2 by Piaroa [pid], Sanumá [xsu]",
  "development": "Literacy rate in L2: 15%. NT: 1970",
  "resources": "OLAC resources in and about Maquiritari",
  "writing": "Latin script [Latn]"
}