{
  "id": "mco",
  "name": "Mixe, Coatlán",
  "country": {
    "code": "MX",
    "name": "Mexico",
    "area": "Americas"
  },
  "status": "5 (Developing)",
  "alternate_names": "Southeastern Mixe",
  "population": "5,000 (1993 SIL). All Mixe languages: 90,000 (1993 SIL)",
  "location": "East central Oaxaca, including Coatlán, Camotlán, San José, Santa Isabel, and Ixcuintepec",
  "maps": "Eastern Central Mexico",
  "classification": "Mixe-Zoquean, Mixean, Oaxaca Mixean, Lowland Mixe",
  "dialects": "Camotlán Mixe, Coatlán Mixe",
  "typology": "Long words, affixes, clitics; nontonal",
  "development": "Literacy rate in L1: 25%. Videos. Dictionary. NT: 1976",
  "resources": "OLAC resources in and about Mixe, Coatlán",
  "writing": "Latin script [Latn]"
}