{
  "id": "mcu",
  "name": "Mambila, Cameroon",
  "country": {
    "code": "CM",
    "name": "Cameroon",
    "area": "Africa"
  },
  "status": "5 (Developing)",
  "alternate_names": "Bang, Bea, Ble, Juli, Lagubi, Mambere, Mambilla, Nor, Tagbo, Tongbo, Torbi",
  "population": "30,000 (1993 UBS)",
  "location": "Adamawa region: on Nigeria border, northwest Mayo-Banyo division, Banyo and Bankim subdivisions; North West region: eastern Donga-Mantung division",
  "maps": "Central Cameroon",
  "classification": "Niger-Congo, Atlantic-Congo, Volta-Congo, Benue-Congo, Bantoid, Northern, Mambiloid, Mambila-Konja, Mambila",
  "dialects": "Ju Ba, Ju Naare (Mambila de Gembu), Langa, Sunu Torbi (Torbi). Closely related to Mvanlip [mcj] (Magu) in Nigeria. Reportedly similar to Mambila [mzk] of Nigeria. A continuum of related varieties; one end unintelligible to speakers of the other. Langa inherently intelligible to some, but not most others. At least 4 dialects in Cameroon",
  "development": "Dictionary. NT: 2001",
  "resources": "OLAC resources in and about Mambila, Cameroon",
  "writing": "Latin script [Latn]",
  "other_comments": "Traditional religion, Muslim"
}