{
  "id": "mcz",
  "name": "Mawan",
  "country": {
    "code": "PG",
    "name": "Papua New Guinea",
    "area": "Pacific"
  },
  "status": "7 (Shifting)",
  "population": "470 (2003 SIL), decreasing",
  "location": "Madang Province, Gogol river area",
  "maps": "Papua New Guinea, Map 7",
  "classification": "Trans-New Guinea, Madang, Croisilles, Hanseman",
  "use": "Older adults. Also use Tok Pisin [tpi]",
  "resources": "OLAC resources in and about Mawan"
}