{
  "id": "mfc",
  "name": "Mba",
  "country": {
    "code": "CD",
    "name": "Democratic Republic of the Congo",
    "area": "Africa"
  },
  "status": "6a (Vigorous)",
  "alternate_names": "Kimanga, Kimbanga, Manga, Mbane",
  "population": "36,100 (2000)",
  "location": "Orientale province: Banalia territory, Banjwade area",
  "maps": "Northern Democratic Republic of Congo",
  "classification": "Niger-Congo, Atlantic-Congo, Volta-Congo, North, Adamawa-Ubangi, Ubangi, Sere-Ngbaka-Mba, Ngbaka-Mba, Mba",
  "typology": "SVO, SOV",
  "use": "Vigorous. Children have difficulty with Congo Swahili [swc]",
  "resources": "OLAC resources in and about Mba",
  "other_comments": "Perhaps 45% of children are in school"
}