{
  "id": "mfd",
  "name": "Mendankwe-Nkwen",
  "country": {
    "code": "CM",
    "name": "Cameroon",
    "area": "Africa"
  },
  "status": "6b (Threatened)",
  "alternate_names": "Mandankwe, Mendankwe",
  "population": "23,100 (2001 SIL). 10,200 Mendankwe, 12,900 Nkwen",
  "location": "North West region: Mezam division, Bamenda Central subdivision, north and east of Bamenda town, either side of Ring Road, and mountainous circle of Menda Nkwe",
  "maps": "Central Cameroon",
  "classification": "Niger-Congo, Atlantic-Congo, Volta-Congo, Benue-Congo, Bantoid, Southern, Wide Grassfields, Narrow Grassfields, Mbam-Nkam, Ngemba",
  "dialects": "Mendankwe (Bamenda, Munda), Nkwen (Bafreng). The Mendankwe dialect has 74% intelligibility of the Nkwen dialect; Nkwen 79% intelligibility of Mendankwe. Socially very distinct groups. Related to Ngemba [nge], Bafut [bfd], Pinyin [pny], Awing [azo], and Bambili-Bambui [baw]",
  "use": "Also use French [fra]",
  "development": "Literacy rate in L2: 15%–25%",
  "resources": "OLAC resources in and about Mendankwe-Nkwen",
  "writing": "Unwritten [Qaax]"
}