{
  "id": "mfl",
  "name": "Putai",
  "country": {
    "code": "NG",
    "name": "Nigeria",
    "area": "Africa"
  },
  "status": "8b (Nearly extinct)",
  "alternate_names": "Marghi West",
  "population": "50",
  "location": "Borno state: Akira-Uba, Chibok, Hawul, Biu, Damboa, Konduga, and Kaga LGAs; Adamawa state: Michika and Madagali LGAs",
  "maps": "Nigeria, Map 4",
  "classification": "Afro-Asiatic, Chadic, Biu-Mandara, A, A.2, 1",
  "use": "Shifting to Kanuri [knc] but with large ethnic population",
  "resources": "OLAC resources in and about Putai"
}