{
  "id": "mfp",
  "name": "Malay, Makassar",
  "country": {
    "code": "ID",
    "name": "Indonesia",
    "area": "Asia"
  },
  "status": "3 (Wider communication)",
  "alternate_names": "Macassarese Malay, Makassarese Malay, Sulsel Indonesian, Ujung Pandang Indonesian",
  "population": "L2 users: 1,880,000 (2000)",
  "location": "Sulawesi Selatan Province, Makassar port area",
  "classification": "Austronesian, Malayo-Polynesian, Malayo-Chamic, Malayic, Malay",
  "use": "Second language only",
  "development": "Dictionary",
  "resources": "OLAC resources in and about Malay, Makassar"
}