{
  "id": "mfq",
  "name": "Moba",
  "country": {
    "code": "TG",
    "name": "Togo",
    "area": "Africa"
  },
  "status": "5 (Developing)",
  "alternate_names": "Ben, Moa, Moab, Moare",
  "population": "319,000 in Togo (Gblem-Poidi 2012). Population total all countries: 320,800",
  "location": "Northwest Savanes region: Tandjoare prefecture, into Tone and Oti prefectures, mainly Dapaong and Bombouaka towns",
  "maps": "Burkina Faso                      Togo",
  "classification": "Niger-Congo, Atlantic-Congo, Volta-Congo, North, Gur, Central, Northern, Oti-Volta, Gurma, Moba",
  "dialects": "Ben, Lok, Natchaba, Yanbann. Limited intelligibility of Bimoba [bim] in Ghana, although related. Diverse dialect situation",
  "use": "Vigorous. Home, neighborhood, market, work, church. All ages. Positive attitudes. Also use French [fra]. Used as L2 by Mampruli [maw], Ngangam [gng]",
  "development": "Literacy rate in L1: 3%–30%. Poetry. Dictionary. Grammar. NT: 2008",
  "resources": "OLAC resources in and about Moba",
  "writing": "Latin script [Latn]",
  "other_comments": "Traditional religion, Christian"
}