{
  "id": "mfv",
  "name": "Mandjak",
  "country": {
    "code": "GW",
    "name": "Guinea-Bissau",
    "area": "Africa"
  },
  "status": "5 (Developing)",
  "alternate_names": "Kanyop, Mandjaque, Mandyak, Manjaca, Manjack, Manjaco, Manjaku, Manjanku, Manjiak, Mendyako, Ndyak",
  "population": "184,000 in Guinea-Bissau (2006 World Factbook). Population total all countries: 310,600",
  "location": "Cacheu region; Oio region north; Bafata region: Gamamundo sector",
  "maps": "Guinea and Guinea-Bissau                      Senegal and The Gambia",
  "classification": "Niger-Congo, Atlantic-Congo, Atlantic, Northern, Bak, Manjaku-Papel",
  "dialects": "Bok (Babok, Sarar, Teixeira Pinto, Tsaam), Cur (Churo), Likes-Utsia (Baraa, Kalkus), Lund, Yu (Pecixe, Pulhilh, Siis). Some dialects may be separate languages",
  "typology": "Nominal prefixes, 2 plural forms; complex auxiliary verbs and aspect particles; verb suffixes; relative clauses functioning as adjectives, with nominal markers at beginning and end; pitch distinction on verbal and nominal forms; emphatic markers",
  "use": "Important politically. Thousands emigrated to France. Used as L2 by Kobiana [kcj], Mankanya [knf]",
  "development": "Films. Bible portions: 1968",
  "resources": "OLAC resources in and about Mandjak",
  "writing": "Latin script [Latn]",
  "other_comments": "Traditional religion, Christian, Muslim"
}