{
  "id": "mgw",
  "name": "Matumbi",
  "country": {
    "code": "TZ",
    "name": "Tanzania",
    "area": "Africa"
  },
  "status": "6a (Vigorous)",
  "alternate_names": "Kimatumbi, Kimatuumbi, Matuumbi",
  "population": "72,000 (1978 MARC)",
  "location": "Pwani and Lindi regions: north of Mwera [mjh] language area",
  "maps": "Tanzania",
  "classification": "Niger-Congo, Atlantic-Congo, Volta-Congo, Benue-Congo, Bantoid, Southern, Narrow Bantu, Central, P, Matuumbi (P.13)",
  "dialects": "Kuchi",
  "use": "All ages. Little comprehension of Swahili [swh] or other languages",
  "development": "Dictionary. Grammar",
  "resources": "OLAC resources in and about Matumbi",
  "writing": "Unwritten [Qaax]",
  "other_comments": "Muslim, Christian, traditional religion"
}