{
  "id": "mhl",
  "name": "Mauwake",
  "country": {
    "code": "PG",
    "name": "Papua New Guinea",
    "area": "Pacific"
  },
  "status": "5 (Developing)",
  "alternate_names": "Mawake, Ulingan",
  "population": "2,390 (2003 SIL)",
  "location": "Madang Province, Bogia district",
  "maps": "Papua New Guinea, Map 7",
  "classification": "Trans-New Guinea, Madang, Croisilles, Pihom, Kumilan",
  "development": "Literacy rate in L1: 25%–50%. Literacy rate in L2: 50%–75%. NT: 1998",
  "resources": "OLAC resources in and about Mauwake",
  "writing": "Latin script [Latn]",
  "other_comments": "Christian, traditional religion"
}