{
  "id": "mhz",
  "name": "Mor",
  "country": {
    "code": "ID",
    "name": "Indonesia",
    "area": "Asia"
  },
  "status": "7 (Shifting)",
  "alternate_names": "Austronesian Mor",
  "population": "700 (1987 SIL)",
  "location": "Papua Barat Province, Mor islands, east Cenderawasih bay near Nabire",
  "maps": "Indonesia, Eastern Papua",
  "classification": "Austronesian, Malayo-Polynesian, Central-Eastern Malayo-Polynesian, Eastern Malayo-Polynesian, South Halmahera-West New Guinea, West New Guinea, Cenderawasih Bay, Mor",
  "typology": "Tonal",
  "resources": "OLAC resources in and about Mor",
  "other_comments": "Different from Trans-New Guinea Mor [moq]. Traditional religion, Christian"
}