{
  "id": "mia",
  "name": "Miami",
  "country": {
    "code": "US",
    "name": "United States",
    "area": "Americas"
  },
  "status": "9 (Reawakening)",
  "alternate_names": "Illinois, Miami-Illinois, Miami-Myaamia, Wea",
  "population": "No known L1 speakers, but emerging L2 speakers. Ethnic population: 2,000 (1977 SIL). L2 users: A Miami language scholar has acquired L2 fluency and his 2 youngest children are acquiring it as L1",
  "location": "Miami dialect: north central Indiana; Miami and Peoria dialects: northeast Oklahoma",
  "classification": "Algic, Algonquian",
  "dialects": "Miami, Peoria",
  "use": "No fluent L1 speakers since 1962 (Golla 2007). Miami University of Ohio with support of the Miami Tribe of Oklahoma has developed the Myaamia Center for study of Miami culture and language. Courses are offered there and the Miami Tribe has been developing youth programs since 2005 (2013 D. Baldwin)",
  "development": "Dictionary",
  "resources": "OLAC resources in and about Miami"
}