{
  "id": "mib",
  "name": "Mixtec, Atatláhuca",
  "country": {
    "code": "MX",
    "name": "Mexico",
    "area": "Americas"
  },
  "status": "6a (Vigorous)",
  "alternate_names": "Mixteco de San Esteban Atatláhuca, San Esteban Atatláhuca Mixteco, South Central Tlaxiaco Mixtec",
  "population": "8,300 (1995 census). 440 monolinguals",
  "location": "West central Oaxaca, San Esteban Atatláhuca, and Santa Catarina Yosonotú towns",
  "maps": "Southern Central Mexico",
  "classification": "Otomanguean, Eastern Otomanguean, Amuzgo-Mixtecan, Mixtecan, Mixtec",
  "dialects": "None known. 68% intelligibility of Yosondúa [mpm]",
  "typology": "VSO; clitics; tonal",
  "use": "Also use Spanish [spa]",
  "development": "Grammar. NT: 1973",
  "resources": "OLAC resources in and about Mixtec, Atatláhuca",
  "writing": "Latin script [Latn]"
}