{
  "id": "mik",
  "name": "Mikasuki",
  "country": {
    "code": "US",
    "name": "United States",
    "area": "Americas"
  },
  "status": "6b (Threatened)",
  "alternate_names": "Hitchiti, Miccosukee, Mikasuki Seminole",
  "population": "190 (2010 census). Spoken by most of the 400 members of the Miccosukee Tribe as well as by many of the 2,700 members of the Seminole Tribe (Golla 2007). 35 monolinguals",
  "location": "The dominant language in 4 Seminole reservations: Big Cypress, Immokalee, Hollywood, Tampa in Florida",
  "maps": "Southeastern United States of America",
  "classification": "Muskogean, Eastern Muskogean, Central Muskogean, Hitchiti-Mikasuki",
  "dialects": "Hitchiti, Mikasuki. Not intelligible with Alabama [akz] or Koasati [cku]",
  "use": "Full range of social functions, spoken by tribal leaders, in churches, and at ceremonial groups, as well as in some schools. Monolinguals only among older adult women. Others also use English [eng]. Used as L2 by Muskogee [mus]",
  "development": "Bible portions: 1980–1985",
  "resources": "OLAC resources in and about Mikasuki",
  "writing": "Latin script [Latn]"
}