{
  "id": "mje",
  "name": "Muskum",
  "country": {
    "code": "TD",
    "name": "Chad",
    "area": "Africa"
  },
  "status": "10 (Extinct)",
  "alternate_names": "Muzgum",
  "population": "No known L1 speakers",
  "location": "Mayo-Kebbi Est region: Mayo-Boneye and Mayo-Lemie departments, Bongor subprefecture",
  "classification": "Afro-Asiatic, Chadic, Biu-Mandara, B, B.2",
  "dialects": "None known. Lexical similarity: 40% with Musgu [mug]",
  "use": "There was 1 speaker in 1976. Shifted to the Vulum dialect of Musgu [mug]",
  "resources": "OLAC resources in and about Muskum"
}