{
  "id": "mki",
  "name": "Dhatki",
  "country": {
    "code": "PK",
    "name": "Pakistan",
    "area": "Asia"
  },
  "status": "5 (Developing)",
  "alternate_names": "Dhati",
  "population": "132,000 in Pakistan (2000). 100,000 in Sind (1987). Population total all countries: 148,400",
  "location": "Lower Sindh, Tharparkar, and Sanghar districts",
  "maps": "India, Map 2                      Southern Pakistan",
  "classification": "Indo-European, Indo-Iranian, Indo-Aryan, Central zone, Rajasthani, Marwari",
  "dialects": "Barage, Central Dhatki, Eastern Dhatki, Malhi, Southern Dhatki. Varies considerably from northern Marwari [mve], though they claim to understand one another. Lexical similarity: 80%–83% with Marwari [mve] dialects, 88% with Dhatki of Rajasthan and Dhatki of Thar",
  "use": "Also use Sindhi [snd], Urdu [urd]. Used as L2 by Sindhi Bhil [sbn]",
  "development": "Literacy rate in L1: Below 5%. Literacy rate in L2: Below 5%. Radio programs. Bible portions: 1999",
  "resources": "OLAC resources in and about Dhatki",
  "writing": "Arabic script [Arab]",
  "other_comments": "Hindu, Christian, Muslim"
}