{
  "id": "mkn",
  "name": "Malay, Kupang",
  "country": {
    "code": "ID",
    "name": "Indonesia",
    "area": "Asia"
  },
  "status": "3 (Wider communication).Regional L2",
  "alternate_names": "Basa Kupang, Kupang",
  "population": "200,000 (1997 M. Jacob). L2 users: 100,000",
  "location": "Nusa Tenggara Timur Province, west end,Timor island, Kupang city area",
  "maps": "Indonesia, Nusa Tenggara and Southwestern Maluku",
  "classification": "Creole, Malay based",
  "dialects": "Air Mata, Kupang",
  "use": "Vigorous. All domains. All ages. Used as L2 by Helong [heg], Lole [llg], Termanu [twu], Tii [txq]",
  "development": "Poetry. Newspapers. Radio programs. Videos. Dictionary. NT: 2007",
  "resources": "OLAC resources in and about Malay, Kupang",
  "writing": "Latin script [Latn]",
  "other_comments": "Loanwords from several Rote and Chinese languages, Portuguese [por], Uab Meto [aoz], Sabu [hvn], Spanish [spa], Dutch [nld], English [eng]. Christian, Muslim"
}