{
  "id": "mkp",
  "name": "Moikodi",
  "country": {
    "code": "PG",
    "name": "Papua New Guinea",
    "area": "Pacific"
  },
  "status": "6a (Vigorous)",
  "alternate_names": "Doriri",
  "population": "570 (Wurm and Hattori 1981). 290 monolinguals",
  "location": "Oro (formerly Northern) Province, Owen Stanley Range north slopes, Mount Brown to Moni river",
  "maps": "Papua New Guinea, Map 16",
  "classification": "Trans-New Guinea, Southeast Papuan, Yareban",
  "dialects": "Several dialects. Lexical similarity: 65%–73% with Aneme Wake [aby] (most similar)",
  "use": "Also use Hiri Motu [hmo]. Used as L2 by Bariji [bjc]",
  "resources": "OLAC resources in and about Moikodi",
  "writing": "Latin script [Latn]"
}