{
  "id": "mkt",
  "name": "Vamale",
  "country": {
    "code": "NC",
    "name": "New Caledonia",
    "area": "Pacific"
  },
  "status": "8a (Moribund)",
  "alternate_names": "Hmwaeke, ’Moaeke, Pamale",
  "population": "100 (2009 census), decreasing. Estimated population based on census. 2009 census figures for all 6 Voh-Koné languages: 1,203",
  "location": "North province, east coast (Vamale dialect): Téganpaïk, Tiouandé, and Ouanache; West coast (Hmwaeke dialect): Voh and Tiéta",
  "maps": "New Caledonia",
  "classification": "Austronesian, Malayo-Polynesian, Central-Eastern Malayo-Polynesian, Eastern Malayo-Polynesian, Oceanic, Central-Eastern Oceanic, Remote Oceanic, New Caledonian, Northern",
  "dialects": "Hmwaeke, Vamale. Regarded as dialect of Voh-Koné (Wurm and Hattori 1981)",
  "use": "Endangered (2000 D. Tryon). Hmwaeke nearly extinct. Under pressure from Fwai [fwa], Cemuhi [cam], and French [fra] (Wurm 2007). Virtually no child speakers (Wurm 2007)",
  "resources": "OLAC resources in and about Vamale"
}