{
  "id": "mkx",
  "name": "Manobo, Kinamiging",
  "country": {
    "code": "PH",
    "name": "Philippines",
    "area": "Asia"
  },
  "status": "6b (Threatened)",
  "alternate_names": "Cinamiguin, Kamigin, Kinamigin, Kinamiguin, Manobo, Cinamiguin",
  "population": "26,700 (2000 census)",
  "location": "Camiguin Island, north of Mindanao",
  "maps": "Southern Philippines",
  "classification": "Austronesian, Malayo-Polynesian, Philippine, Greater Central Philippine, Manobo, North",
  "typology": "VOS, VSO; prepositions; genitives after noun heads; articles, adjectives, and numerals before noun heads; relatives after noun heads; question word in sentence-initial position; word order distinguishes subjects, objects and indirect objects in some structures, word order distinguishes given and new information, topic and comment; affixes do not indicate case of noun phrases; verb affixes mark number; passives; causatives; comparatives; CV, CVC, CVV, CCV; nontonal",
  "use": "Also use Cebuano [ceb]",
  "resources": "OLAC resources in and about Manobo, Kinamiging"
}