{
  "id": "mky",
  "name": "Makian, East",
  "country": {
    "code": "ID",
    "name": "Indonesia",
    "area": "Asia"
  },
  "status": "6b (Threatened)",
  "alternate_names": "Makian Dalam, Makian Timur",
  "population": "20,000. 18,000 or more in East Makian, 2,000 or more in Kayoa (1983 SIL)",
  "location": "Maluku Utara Province; South Halmahera island, west coast; nearby east Makian and south Mori islands; Kayoa, Bacan, and Obi islands. Transmigration project near Kao",
  "maps": "Indonesia, Northern Maluku",
  "classification": "Austronesian, Malayo-Polynesian, Central-Eastern Malayo-Polynesian, Eastern Malayo-Polynesian, South Halmahera-West New Guinea, South Halmahera, East Makian-Gane",
  "dialects": "East Makian, Kayoa (Kajoa). Similar to Gane [gzn]",
  "use": "Positive attitudes. Also use Indonesian [ind]",
  "development": "Literacy rate in L1: Below 1%. Literacy rate in L2: 25%–50%",
  "resources": "OLAC resources in and about Makian, East",
  "other_comments": "A volcanic eruption on Makian Island, transmigrations, speakers of other languages in the area and pressure from those languages have taken a toll on vitality. Muslim"
}