{
  "id": "mln",
  "name": "Malango",
  "country": {
    "code": "SB",
    "name": "Solomon Islands",
    "area": "Pacific"
  },
  "status": "6a (Vigorous)",
  "alternate_names": "Teha",
  "population": "4,140 (1999 SIL)",
  "location": "Central Guadalcanal Island",
  "maps": "Solomon Islands",
  "classification": "Austronesian, Malayo-Polynesian, Central-Eastern Malayo-Polynesian, Eastern Malayo-Polynesian, Oceanic, Central-Eastern Oceanic, Southeast Solomonic, Gela-Guadalcanal, Guadalcanal",
  "use": "All ages",
  "resources": "OLAC resources in and about Malango"
}