{
  "id": "mlt",
  "name": "Maltese",
  "country": {
    "code": "MT",
    "name": "Malta",
    "area": "Europe"
  },
  "status": "1 (National). Statutory national language (1964, Constitution, Article 5(2))",
  "alternate_names": "Malti",
  "population": "393,000 in Malta (European Commission 2012). Population total all countries: 522,000",
  "classification": "Afro-Asiatic, Semitic, Central, South, Arabic",
  "dialects": "Gozo, Port Maltese, Rural Central Maltese, Rural East Maltese, Rural West Maltese, Standard Maltese, Zurrieq. Descended from Moroccan Spoken Arabic [ary] with heavy borrowings from Italian [ita]; separately developed with different syntax and phonology",
  "use": "Vigorous. No diglossia with Standard Arabic [arb]. 345,000 also use English [eng]. 66,800 also use French [fra]",
  "development": "Grammar. Bible: 1932–1984",
  "resources": "OLAC resources in and about Maltese",
  "writing": "Arabic script [Arab], no longer in use, attempts at using Arabic script have failed. Braille script [Brai]. Latin script [Latn], primary usage"
}