{
  "id": "mmg",
  "name": "Ambrym, North",
  "country": {
    "code": "VU",
    "name": "Vanuatu",
    "area": "Pacific"
  },
  "status": "6a (Vigorous)",
  "population": "5,250 (2001 SIL)",
  "location": "Malampa Province, North Ambrym island",
  "maps": "Vanuatu",
  "classification": "Austronesian, Malayo-Polynesian, Central-Eastern Malayo-Polynesian, Eastern Malayo-Polynesian, Oceanic, Central-Eastern Oceanic, Remote Oceanic, North and Central Vanuatu, Northeast Vanuatu-Banks Islands, East Vanuatu",
  "dialects": "Magam, Olal",
  "resources": "OLAC resources in and about Ambrym, North",
  "other_comments": "Traditional religion"
}