{
  "id": "mmp",
  "name": "Siawi",
  "country": {
    "code": "PG",
    "name": "Papua New Guinea",
    "area": "Pacific"
  },
  "status": "6b (Threatened)",
  "alternate_names": "Musa, Musan, Musian, Siafli, Siwai",
  "population": "220 (2007 NTM), increasing",
  "location": "Sandaun Province, south of Sepik river, between Amto and Ama. 1 village",
  "maps": "Papua New Guinea, Map 5",
  "classification": "Amto-Musan",
  "dialects": "None known. Lexical similarity: 29% with Amto [amt]. Amto [amt] and Siawi 3% lexical similarity with Odiai [bhf]. Both average 7% lexical similarity with Arai (Left May) languages",
  "typology": "SOV; postpositions, genitives before noun heads; adjectives after noun heads; relatives without noun heads; question word final; maximum prefixes: 1, maximum suffixes: 3, causatives; comparatives; CV, CVV, CVVV, CCV, CCCV; nontonal",
  "use": "Endangered (2000 S. Wurm). All ages. Positive attitudes. Adult men also use Amto [amt]. Also use Tok Pisin [tpi]. Used as L2 by Amto [amt]",
  "development": "Literacy rate in L1: 50%. Literacy rate in L2: 50% in Tok pisin [tpi]. Most children literate. Bible portions: 1992–1998",
  "resources": "OLAC resources in and about Siawi",
  "writing": "Latin script [Latn]",
  "other_comments": "Christian, traditional religion"
}