{
  "id": "mnb",
  "name": "Muna",
  "country": {
    "code": "ID",
    "name": "Indonesia",
    "area": "Asia"
  },
  "status": "6b (Threatened)",
  "alternate_names": "Wuna",
  "population": "300,000 (2007 R. Van den Berg)",
  "location": "Sulawesi Tenggara Province, Muna and Buton (northwest coast) islands; several nearby islands; possible community in Ambon city",
  "classification": "Austronesian, Malayo-Polynesian, Celebic, Eastern, Southeastern, Muna-Buton, Nuclear Muna-Buton, Munan, Munic, Western",
  "dialects": "Burukene, Gu, Kadatua, Kapontori, Katobengke, Lakudo, Laompo, Mawasangka, Siompu, Standard Muna (Northern Muna), Tiworo (Eastern Muna). Subvarieties of standard Muna are: Tungkuno, Kabawo, Lawa, Katobu, Tobea Besar; of Gulamas are: Gu, Mawasangka, Lakudo, Wale-Ale, Lawama, Kadatua, Lowu-Lowu, Kalia-Lia, Katobengke, Topa, Salaa, Lawela, Laompo, and Burukene. Lexical similarity: 71% with Pancana [pnp], 62% with Cia-Cia [cia], 52% with Wolio [wlo], 50% with Lasalimu [llm], 47% with Tukang Besi [khc] or [bhq], 45% with Kamaru [kgx]",
  "use": "Vigorous. Also use Indonesian [ind]. Used as L2 by Taloki [tlk]",
  "development": "Taught in primary schools. Dictionary. Grammar. NT: 2004",
  "resources": "OLAC resources in and about Muna",
  "writing": "Latin script [Latn]",
  "other_comments": "Muslim"
}