{
  "id": "mnf",
  "name": "Mundani",
  "country": {
    "code": "CM",
    "name": "Cameroon",
    "area": "Africa"
  },
  "status": "5 (Developing)",
  "population": "34,000 (1987 SIL)",
  "location": "South West region: Manyu division, Mamfe and north Fontem subdivisions, south of Batibo town",
  "maps": "Central Cameroon",
  "classification": "Niger-Congo, Atlantic-Congo, Volta-Congo, Benue-Congo, Bantoid, Southern, Wide Grassfields, Narrow Grassfields, Momo",
  "dialects": "Bamumbo (Bamumbu), Bangang, Banti, Bechati, Besali, Folepi, Iguambo (Igumbo), Nko (Nkong)",
  "use": "All ages. Also use French [fra]",
  "development": "Literacy rate in L1: 5%–10%. Literacy rate in L2: 25%–50%. Poetry. Magazines. Radio programs. Dictionary. NT: 2006",
  "resources": "OLAC resources in and about Mundani",
  "writing": "Latin script [Latn]"
}