{
  "id": "mnm",
  "name": "Mapena",
  "country": {
    "code": "PG",
    "name": "Papua New Guinea",
    "area": "Pacific"
  },
  "status": "6a (Vigorous)",
  "population": "270 (1973 SIL)",
  "location": "Milne Bay Province, Mount Gwoira area",
  "maps": "Papua New Guinea, Map 17",
  "classification": "Trans-New Guinea, Southeast Papuan, Dagan",
  "dialects": "None known. Lexical similarity: 51% with Daga [dgz] (most similar)",
  "resources": "OLAC resources in and about Mapena"
}