{
  "id": "mnv",
  "name": "Rennell-Bellona",
  "country": {
    "code": "SB",
    "name": "Solomon Islands",
    "area": "Pacific"
  },
  "status": "5 (Developing)",
  "alternate_names": "Rennell, Rennellese, Rennellese-Bellonese",
  "population": "4,390 (1999 SIL)",
  "location": "Rennell and Bellona Province, Rennell and Bellona islands",
  "maps": "Solomon Islands",
  "classification": "Austronesian, Malayo-Polynesian, Central-Eastern Malayo-Polynesian, Eastern Malayo-Polynesian, Oceanic, Central-Eastern Oceanic, Remote Oceanic, Central Pacific, East Fijian-Polynesian, Polynesian, Nuclear, Samoic-Outlier, Futunic",
  "dialects": "Munggava (Mugaba, Rennell), Mungiki (Bellona, Bellonese, Mugiki)",
  "typology": "VSO",
  "use": "All ages. Also use English [eng]",
  "development": "Literacy rate in L1: 30%–60%. Literacy rate in L2: 25%–50%. Dictionary. Grammar. NT: 1994",
  "resources": "OLAC resources in and about Rennell-Bellona",
  "writing": "Latin script [Latn]"
}