{
  "id": "mot",
  "name": "Barí",
  "country": {
    "code": "CO",
    "name": "Colombia",
    "area": "Americas"
  },
  "status": "6a (Vigorous)",
  "alternate_names": "Barira, Cunausaya, Dobocubi, Motilón, Motilone",
  "population": "3,500 in Colombia (Civallero 2008). Population total all countries: 5,000",
  "location": "Norte de Santander Department, Serranía de los Motilones, Upper Catatumbo and Oro River region, Reserva Indígena Motilón-Barí and Resguardo Indígena Gabarra-Catalaura; also in Cesar Department, Chimichagua, La Gloria, and Pailitas municipalities",
  "maps": "Northern Colombia                      Venezuela",
  "classification": "Chibchan, Chibchan B, Eastern Chibchan, Colombian, Southern Colombian",
  "development": "Dictionary. Bible portions",
  "resources": "OLAC resources in and about Barí",
  "other_comments": "Classification as Chibchan has been questioned (1973 M. Durbin); Alternatively classified as Arawakan (Voegelin and Voegelin 1977)"
}