{
  "id": "mpa",
  "name": "Mpoto",
  "country": {
    "code": "TZ",
    "name": "Tanzania",
    "area": "Africa"
  },
  "status": "6a (Vigorous)",
  "alternate_names": "Chimpoto, Cimpoto, Kimpoto, Kinyasa, Nyasa",
  "population": "80,000 (Voegelin and Voegelin 1977)",
  "location": "Ruvuma region: Mbinga district, southwest, Lake Nyasa northeast shore",
  "maps": "Tanzania",
  "classification": "Niger-Congo, Atlantic-Congo, Volta-Congo, Benue-Congo, Bantoid, Southern, Narrow Bantu, Central, N, Manda (N.14)",
  "use": "All ages. Also use Matengo [mgv]",
  "development": "Bible portions: 1913–1924",
  "resources": "OLAC resources in and about Mpoto",
  "writing": "Latin script [Latn]",
  "other_comments": "Both Mpoto and Manda [mgs] have alternate names of Kinyasa. Christian, traditional religion"
}