{
  "id": "mpo",
  "name": "Miu",
  "country": {
    "code": "PG",
    "name": "Papua New Guinea",
    "area": "Pacific"
  },
  "status": "5 (Developing)",
  "alternate_names": "Myu",
  "population": "395 (2000 D. Tryon). Ethnic population: 1,250",
  "location": "West New Britain Province, Gimi Rauto district, southwest interior",
  "maps": "Papua New Guinea, Map 12",
  "classification": "Austronesian, Malayo-Polynesian, Central-Eastern Malayo-Polynesian, Eastern Malayo-Polynesian, Oceanic, Western Oceanic, North New Guinea, Ngero-Vitiaz, Vitiaz, Southwest New Britain, Arawe-Pasismanua, Pasismanua",
  "dialects": "Miu treated as a dialect of Kaulong [pss] by Wurm and Hattori",
  "typology": "SVO; some minor affixation",
  "use": "Not endangered (2000 D. Tryon). All ages",
  "development": "Literacy rate in L1: 20%. Literacy rate in L2: 20%. NT: 2003",
  "resources": "OLAC resources in and about Miu",
  "writing": "Latin script [Latn]",
  "other_comments": "People live in hamlets of 1 or 2 families. Traditional religion, Christian"
}