{
  "id": "mqc",
  "name": "Mangole",
  "country": {
    "code": "ID",
    "name": "Indonesia",
    "area": "Asia"
  },
  "status": "6a (Vigorous)",
  "alternate_names": "Mangoli, Sula Mangoli",
  "population": "7,280 (2000)",
  "location": "Maluku Utara Province; Sula islands; Mangole island, south coast; south to Sulabesi island, south tip",
  "maps": "Indonesia, Central Maluku",
  "classification": "Austronesian, Malayo-Polynesian, Central-Eastern Malayo-Polynesian, Central Maluku, Sula",
  "resources": "OLAC resources in and about Mangole",
  "other_comments": "Muslim"
}