{
  "id": "mqk",
  "name": "Manobo, Rajah Kabunsuwan",
  "country": {
    "code": "PH",
    "name": "Philippines",
    "area": "Asia"
  },
  "status": "6a (Vigorous)",
  "alternate_names": "Rajah Kabungsuan Manobo",
  "population": "7,560 (2000)",
  "location": "Mindanao, Davao Oriental Province, northern border; southeast corner, Agusan del Sur Province; south Surigao del Sur Province, Lingig, Rajah Cabungsuan",
  "maps": "Southern Philippines",
  "classification": "Austronesian, Malayo-Polynesian, Philippine, Greater Central Philippine, Manobo, Central, East",
  "dialects": "Intelligibility of Dibabawon Manobo [mbd] 80%, San Miguel Calatugan Agusan [msm] 81%. Lexical similarity: 82% with Dibabawon Manobo [mbd], 76% with Sagunto dialect of Agusan Manobo [msm] and San Miguel Calatugan dialect of Agusan Manobo",
  "use": "Low bilingualism in Cebuano [ceb]. Also use Agusan Manobo [msm], Dibabawon Manobo [mbd]",
  "resources": "OLAC resources in and about Manobo, Rajah Kabunsuwan",
  "other_comments": "Christian, traditional religion"
}