{
  "id": "mqu",
  "name": "Mandari",
  "country": {
    "code": "SS",
    "name": "South Sudan",
    "area": "Africa"
  },
  "status": "5 (Developing)",
  "alternate_names": "Chir, Kir, Mondari, Mundari, Shir",
  "population": "70,000 (2014 T. Stirtz)",
  "location": "Central Equatoria state: Terakeka county, both sides of the Nile",
  "maps": "South Sudan",
  "classification": "Nilo-Saharan, Eastern Sudanic, Nilotic, Eastern, Bari",
  "dialects": "Lexical similarity: 71% with Bari [bfa]. Bari dialects: 75% with Nyanggwara, 71% with Ngyepu, 70% with Pöjulu, 66% with Kuku; 61% with Kakwa [keo]",
  "use": "All domains. All ages. Positive attitudes. Also use Bari [bfa]",
  "development": "Dictionary",
  "resources": "OLAC resources in and about Mandari",
  "writing": "Latin script [Latn], used since 2009",
  "other_comments": "A different language and culture from Bari [bfa]. Ethnic groups: Mondari Boronga, Sere, Bör. L1 users prefer the name Mundari. Mundari users from the Tali area have difficulty understanding those from other areas"
}