{
  "id": "mqx",
  "name": "Mamuju",
  "country": {
    "code": "ID",
    "name": "Indonesia",
    "area": "Asia"
  },
  "status": "6b (Threatened)",
  "alternate_names": "Mamoedjoe, Mamoedjoesch, Mamudju, Udai",
  "population": "60,000 (1991 SIL). 50,000 in Mamuju dialect",
  "location": "Sulawesi Barat Province, Mamuju regency, Mamuju, Kalukku, and Budong-Budong subdistricts on Makassar strait coast",
  "maps": "Indonesia, Sulawesi",
  "classification": "Austronesian, Malayo-Polynesian, South Sulawesi, Northern, Mamuju",
  "dialects": "Mamuju, Padang, Sinyonyoi, Sumare-Rangas. Mamuju dialect is prestigious",
  "use": "Positive attitudes",
  "resources": "OLAC resources in and about Mamuju",
  "writing": "Latin script [Latn]",
  "other_comments": "Muslim"
}