{
  "id": "mqz",
  "name": "Pano",
  "country": {
    "code": "PG",
    "name": "Papua New Guinea",
    "area": "Pacific"
  },
  "status": "6a (Vigorous)",
  "alternate_names": "Malasanga",
  "population": "1,180 (2000 census). Including 433 in Singorokai Ward, 461 in Malasanga Ward and 279 in Kiari Ward",
  "location": "Morobe Province, Huon peninsula north coast, from Lepsius Point tip to Wasu, Singorokai, Bugada, Malasanga and Sigawa villages",
  "maps": "Papua New Guinea, Map 11",
  "classification": "Austronesian, Malayo-Polynesian, Central-Eastern Malayo-Polynesian, Eastern Malayo-Polynesian, Oceanic, Western Oceanic, North New Guinea, Ngero-Vitiaz, Vitiaz, Korap",
  "dialects": "Malasanga, Singorokai. Intelligibility: 88% between dialects. Lexical similarity (based on Pano dialect): 76% with Karnai [bbv], 71% with Arop-Lokep [apr], 36% with Ronji [roe], 32% with Malalamai [mmt], 29% with Mato [met], 22% with Gitua [ggt]",
  "typology": "SVO",
  "use": "All ages",
  "resources": "OLAC resources in and about Pano",
  "other_comments": "Different from Mur Pano (Pano) [tkv]. Christian, traditional religion"
}