{
  "id": "mrc",
  "name": "Maricopa",
  "country": {
    "code": "US",
    "name": "United States",
    "area": "Americas"
  },
  "status": "7 (Shifting)",
  "alternate_names": "Cocomaricopa, Piipaash",
  "population": "100 (Golla 2007), decreasing. Ethnic population: 800 (Golla 2007). 160 in Arizona (2000 census)",
  "location": "Near Phoenix, Arizona, associated with Pima [ood] language speakers on Gila River and Salt River reservations",
  "maps": "Western United States of America",
  "classification": "Cochimí-Yuman, Yuman, River, Mojave",
  "dialects": "None known. Lexical similarity: 85% with Mohave [mov], 58% with Havasupai [yuf], 57% with Walapai [yuf] and Yavapai [yuf]",
  "use": "Language program at Lehi on the Salt River Reservation (Golla 2007). Older adults. Also use English [eng]",
  "resources": "OLAC resources in and about Maricopa"
}