{
  "id": "msg",
  "name": "Moraid",
  "country": {
    "code": "ID",
    "name": "Indonesia",
    "area": "Asia"
  },
  "status": "6a (Vigorous)",
  "population": "1,000 (1988 SIL)",
  "location": "Papua Barat Province, West Bird’s Head inland, from Mata to Worbo generally",
  "maps": "Indonesia, Northwestern Papua",
  "classification": "West Papuan, West Bird’s Head",
  "use": "Religious services",
  "resources": "OLAC resources in and about Moraid",
  "other_comments": "Christian, traditional religion"
}