{
  "id": "msh",
  "name": "Malagasy, Masikoro",
  "country": {
    "code": "MG",
    "name": "Madagascar",
    "area": "Africa"
  },
  "status": "6a (Vigorous)",
  "population": "550,000 (2006). Ethnic population: A quarter are Masikoro; the rest are Masikoro speakers from other ethnic groups",
  "location": "Atsimo-Andrefana region: Moromba south to Tollara; coastal Menabe region: near Mangoky river; inland near Mozambique Channel",
  "maps": "Comoros, Madagascar and Mayotte",
  "classification": "Austronesian, Malayo-Polynesian, Greater Barito, East, Malagasy",
  "dialects": "Lexical similarity: 72% with the Merina dialect of Plateau Malagasy [plt]. A member of macrolanguage Malagasy [mlg]",
  "development": "Bible portions: 2008–2015",
  "resources": "OLAC resources in and about Malagasy, Masikoro",
  "writing": "Latin script [Latn]"
}