{
  "id": "msv",
  "name": "Maslam",
  "country": {
    "code": "CM",
    "name": "Cameroon",
    "area": "Africa"
  },
  "status": "8a (Moribund)",
  "population": "250 in Cameroon (Tourneux 2004). 40,000 all Kotoko languages (Tourneux 2004)",
  "location": "Far North region: Logone-and-Chari division, Makari subdivision, northwest of Kousséri, Maltam, and Saho",
  "maps": "Northern Cameroon                      Southwestern Chad",
  "classification": "Afro-Asiatic, Chadic, Biu-Mandara, B, B.1, Kotoko Proper, North",
  "dialects": "Maslam (Maltam), Sao (Sahu). Related to Afade [aal], Mpade [mpi], Malgbe [mxf], Mser [kqx], and Lagwan [kot]. Speakers may be able to use literature in one of these languages",
  "use": "In rapid decline (Tourneux 2004). Also use Chadian Spoken Arabic [shu]",
  "resources": "OLAC resources in and about Maslam",
  "writing": "Latin script [Latn], developed in 1997, experimental use",
  "other_comments": "‘Mandage’ is used by the Kotoko to refer to either the northern group of Kotoko languages (Mpade, Afade, Maslam [msv], Malgbe) or the Kotoko group as a whole (including Mser and Lagwan). Muslim"
}