{
  "id": "msy",
  "name": "Aruamu",
  "country": {
    "code": "PG",
    "name": "Papua New Guinea",
    "area": "Pacific"
  },
  "status": "5 (Developing)",
  "alternate_names": "Ariawiai, Makarub, Makarup, Mikarew, Mikarew-Ariaw, Mikarup",
  "population": "8,000 (1990 UBS)",
  "location": "Madang Province, Bogia district, between Ramu river and Bogia town",
  "maps": "Papua New Guinea, Map 4                      Papua New Guinea, Map 6",
  "classification": "Ramu-Lower Sepik, Ramu, Mikarew",
  "development": "Literacy rate in L1: 5%–25%. Literacy rate in L2: 50%–75%. NT: 2005",
  "resources": "OLAC resources in and about Aruamu",
  "writing": "Latin script [Latn]"
}