{
  "id": "msz",
  "name": "Momare",
  "country": {
    "code": "PG",
    "name": "Papua New Guinea",
    "area": "Pacific"
  },
  "status": "8b (Nearly extinct)",
  "alternate_names": "Momale, Momole, Mumare",
  "population": "10. Ethnic population: 800",
  "location": "Morobe Province, north of Masaweng river",
  "classification": "Trans-New Guinea, Finisterre-Huon, Huon, Eastern",
  "use": "Not used in daily life. Shifted to Kâte [kmg]",
  "resources": "OLAC resources in and about Momare"
}