{
  "id": "mtb",
  "name": "Anyin Morofo",
  "country": {
    "code": "CI",
    "name": "Côte d’Ivoire",
    "area": "Africa"
  },
  "status": "6a (Vigorous)",
  "alternate_names": "Morofo",
  "population": "300,000 (2002 SIL)",
  "location": "Lagunes District, Southern, Eastern, and Central departments; Lacs District, Moronou area",
  "maps": "Côte d’Ivoire",
  "classification": "Niger-Congo, Atlantic-Congo, Volta-Congo, Kwa, Nyo, Potou-Tano, Tano, Central, Bia, Northern",
  "dialects": "Anyin Alangua (Alangua)",
  "resources": "OLAC resources in and about Anyin Morofo",
  "other_comments": "‘Morofue’ refers to a Morofo speaker"
}