{
  "id": "mtg",
  "name": "Una",
  "country": {
    "code": "ID",
    "name": "Indonesia",
    "area": "Asia"
  },
  "status": "4 (Educational)",
  "alternate_names": "Goliath, Langda, Mt. Goliath, Oranje-Gebergte",
  "population": "5,600 (2006 SIL), increasing",
  "location": "Papua Province, east highlands on south slopes of main ranges east of Sela valley, west of Ngalum, Bidabuh, east Weip valley, Yay valley, around Langda, Bomela, and Sumtamon",
  "maps": "Indonesia, Eastern Papua",
  "classification": "Trans-New Guinea, Mek, Eastern",
  "dialects": "None known. Lexical similarity: 75% with Eipomek [eip], 69% with Ketengban [xte]",
  "typology": "SOV; clause chaining; switch reference; split ergative",
  "use": "All domains. All ages",
  "development": "Literacy rate in L1: 40%. Dictionary. NT: 2007",
  "resources": "OLAC resources in and about Una",
  "writing": "Latin script [Latn]",
  "other_comments": "Christian, traditional religion"
}