{
  "id": "mto",
  "name": "Mixe, Totontepec",
  "country": {
    "code": "MX",
    "name": "Mexico",
    "area": "Americas"
  },
  "status": "5 (Developing)",
  "alternate_names": "Ayuk, Mixe alto del norte, Northwestern Mixe",
  "population": "5,470 (2000 INALI). 870 monolinguals",
  "location": "Northeast Oaxaca, north of Zacatepec. 10 towns",
  "maps": "Southern Central Mexico",
  "classification": "Mixe-Zoquean, Mixean, Oaxaca Mixean",
  "dialects": "Most distinct Mixe variety. 89% intelligibility of Acatepec Me’phaa [tpx], 79% of Olotepec dialect of North Central Mixe [neq], 72% of Tlahuitoltepec [mxp], 70% of Mixistlán dialect of North Central Mixe [neq]",
  "typology": "SOV; long words, affixes, clitics; nontonal",
  "use": "Vigorous. All domains. All ages. Positive attitudes. Some also speak a Zapotec or Chinantec variety in Chinantequilla",
  "development": "Literacy rate in L1: Below 1%. Literacy rate in L2: 50%. Dictionary. NT: 1989–2009",
  "resources": "OLAC resources in and about Mixe, Totontepec",
  "writing": "Latin script [Latn]",
  "other_comments": "Christian"
}