{
  "id": "mtp",
  "name": "Wichí Lhamtés Nocten",
  "country": {
    "code": "BO",
    "name": "Bolivia",
    "area": "Americas"
  },
  "status": "5 (Developing)",
  "alternate_names": "Bolivian, “Mataco” (pej.), “Mataco Nocten” (pej.), Noctén, Noctenes, Oktenai, Weenhayek",
  "population": "1,810 in Bolivia (1994). Population total all countries: 1,910. Ethnic population: 2,020 (1994)",
  "location": "North central Tarija Department, southwest of Pilcomayo river, Cordillera de Pirapo",
  "maps": "Argentina and Chile                      Bolivia",
  "classification": "Matacoan, Mataco",
  "use": "The 1994 Indigenous census shows an increase in language use among younger people compared to the elders (Crevels 2007). The majority also use Spanish [spa]",
  "development": "NT: 2006",
  "resources": "OLAC resources in and about Wichí Lhamtés Nocten",
  "writing": "Latin script [Latn]"
}