{
  "id": "mtt",
  "name": "Mota",
  "country": {
    "code": "VU",
    "name": "Vanuatu",
    "area": "Pacific"
  },
  "status": "6b (Threatened)",
  "population": "900 (Lynch and Crowley 2001). Ethnic population: 1,300",
  "location": "Torba Province, Banks Group, Mota (Sugarloaf) island",
  "maps": "Vanuatu",
  "classification": "Austronesian, Malayo-Polynesian, Central-Eastern Malayo-Polynesian, Eastern Malayo-Polynesian, Oceanic, Central-Eastern Oceanic, Remote Oceanic, North and Central Vanuatu, Northeast Vanuatu-Banks Islands, East Vanuatu",
  "use": "Potentially endangered (2000 D. Tryon). Formerly lingua franca. Most key domains. Used by 60% of children. Positive attitudes",
  "development": "Literacy rate in L1: 30%–60%. Literacy rate in L2: 75%–100%. Dictionary. Grammar. Bible: 1912",
  "resources": "OLAC resources in and about Mota",
  "writing": "Latin script [Latn]"
}