{
  "id": "mva",
  "name": "Manam",
  "country": {
    "code": "PG",
    "name": "Papua New Guinea",
    "area": "Pacific"
  },
  "status": "5 (Developing)",
  "alternate_names": "Manum",
  "population": "7,950 (2003 SIL)",
  "location": "Madang Province, Bogia district, Manam and Boesa islands, Sepa and Wanami on adjacent mainland",
  "maps": "Papua New Guinea, Map 4",
  "classification": "Austronesian, Malayo-Polynesian, Central-Eastern Malayo-Polynesian, Eastern Malayo-Polynesian, Oceanic, Western Oceanic, North New Guinea, Schouten, Kairiru-Manam, Manam",
  "dialects": "Wanami. Related to Wogeo [woc], Biem [bmc], Sepa [spe], and Medebur [mjm]",
  "typology": "SOV",
  "use": "Used as L2 by Kaiep [kbw]",
  "development": "Grammar. NT: 1996",
  "resources": "OLAC resources in and about Manam",
  "writing": "Latin script [Latn]",
  "other_comments": "Distinct from Manem [jet]"
}