{
  "id": "mvl",
  "name": "Mbara",
  "country": {
    "code": "AU",
    "name": "Australia",
    "area": "Pacific"
  },
  "status": "10 (Extinct)",
  "population": "No known L1 speakers",
  "location": "Queensland",
  "classification": "Australian, Pama-Nyungan, Mbara",
  "resources": "OLAC resources in and about Mbara"
}