{
  "id": "mvz",
  "name": "Mesqan",
  "country": {
    "code": "ET",
    "name": "Ethiopia",
    "area": "Africa"
  },
  "status": "6a (Vigorous)",
  "alternate_names": "Masqan, Meskan",
  "population": "195,000 (2007 SIL). Ethnic population: 205,000 ( Woreda Farmers’ Cooperatives Office)",
  "location": "Southern Nations, Nationalities, and Peoples’ region: west Gurage zone, Mesqan woreda, principal villages: Mikayelo, Mesqan, Butajira and Hudat",
  "maps": "Southwestern Ethiopia",
  "classification": "Afro-Asiatic, Semitic, South, Ethiopian, South, Outer, tt-Group",
  "resources": "OLAC resources in and about Mesqan",
  "writing": "Unwritten [Qaax]"
}