{
  "id": "mwh",
  "name": "Mouk-Aria",
  "country": {
    "code": "PG",
    "name": "Papua New Guinea",
    "area": "Pacific"
  },
  "status": "5 (Developing)",
  "alternate_names": "Aria-Mouk",
  "population": "630 (1982 SIL)",
  "location": "West New Britain Province, southeast coast to northwest coast, Kandrian district",
  "maps": "Papua New Guinea, Map 12",
  "classification": "Austronesian, Malayo-Polynesian, Central-Eastern Malayo-Polynesian, Eastern Malayo-Polynesian, Oceanic, Western Oceanic, North New Guinea, Ngero-Vitiaz, Vitiaz, Southwest New Britain, Bibling",
  "dialects": "Mouk (Mok), Tourai",
  "use": "Used as L2 by Anem [anz]",
  "development": "NT: 1994",
  "resources": "OLAC resources in and about Mouk-Aria",
  "writing": "Latin script [Latn]"
}