{
  "id": "mwl",
  "name": "Mirandese",
  "country": {
    "code": "PT",
    "name": "Portugal",
    "area": "Europe"
  },
  "status": "2 (Provincial). Statutory language of provincial identity in 4 municipalities, northeast Portugal (1999, Law No. 7-99 of 29 January)",
  "alternate_names": "Mirandês",
  "population": "15,000 (2000). 10,000 use it regularly, 5,000 when they return to the area. 2,000 Sendinese in Sendim Vila",
  "location": "Bragança district: Miranda do Douro and Vimioso municipalities, Miranda city; Spain border",
  "maps": "Portugal and Spain",
  "classification": "Indo-European, Italic, Romance, Italo-Western, Western, Gallo-Iberian, Ibero-Romance, West Iberian, Asturo-Leonese",
  "dialects": "Mirandés Meridional (Mirandés Sendinês, Sendinês), Mirandés Setentrional (Mirandés Raiano), Mirandese Central (Miranadese Normal)",
  "use": "Officially recognized since 1999, has gained some presence in education, media and public life since then (2007). Children 6 to 16 required to study it in school; voluntary for ages 16 to 19",
  "resources": "OLAC resources in and about Mirandese",
  "writing": "Latin script [Latn]",
  "other_comments": "Have different dress style from their neighbors (black, handwoven cloth)"
}