{
  "id": "mxv",
  "name": "Mixtec, Metlatónoc",
  "country": {
    "code": "MX",
    "name": "Mexico",
    "area": "Americas"
  },
  "status": "6a (Vigorous)",
  "population": "46,600 (2000). Many monolinguals",
  "location": "Tlacoachistlahuaca and Cochoapa municipalities, East Guerrero, Metlatónoc, San Rafael, and towns south",
  "maps": "Western Central Mexico",
  "classification": "Otomanguean, Eastern Otomanguean, Amuzgo-Mixtecan, Mixtecan, Mixtec",
  "dialects": "None known. 90% or higher intelligibility of nearby varieties, but only 50% of most Alacatlatzala [mim]. Alcozauca Mixtec [xta] is separate language",
  "use": "Home, friends, work. All ages",
  "development": "Bible portions: 1959–2011",
  "resources": "OLAC resources in and about Mixtec, Metlatónoc",
  "writing": "Latin script [Latn]"
}