{
  "id": "mxx",
  "name": "Mahou",
  "country": {
    "code": "CI",
    "name": "Côte d’Ivoire",
    "area": "Africa"
  },
  "status": "6a (Vigorous)",
  "alternate_names": "Mahu, Maou, Mau, Mauka, Mauke",
  "population": "300,000 (2012 V. Vydrin)",
  "location": "Woroba District, Touba department; northeast Montagnes District; Denguélé District south of Bako",
  "maps": "Côte d’Ivoire",
  "classification": "Niger-Congo, Mande, Western, Central-Southwestern, Central, Manding-Jogo, Manding-Vai, Manding-Mokole, Manding, Manding-East, Southeastern Manding, Maninka-Mori",
  "dialects": "Baralaka (Barala), Finanga, Koroka, Mahouka, Tenenga. Some listed dialect speakers may not be able to use Mahou literature. Barala may be dialect of Wojenaka [jod]",
  "use": "Also use French [fra]",
  "development": "Literacy rate in L1: Below 1%. Literacy rate in L2: 5%–15%. Grammar",
  "resources": "OLAC resources in and about Mahou",
  "other_comments": "Mauka is the indigenous ethnonym; Mawu is the indigenous toponym and should not be confused with Mawu, the autoglottonym for Siwu [akp]. Muslim"
}