{
  "id": "mys",
  "name": "Mesmes",
  "country": {
    "code": "ET",
    "name": "Ethiopia",
    "area": "Africa"
  },
  "status": "10 (Extinct)",
  "population": "No known L1 speakers",
  "location": "Southern Nations, Nationalities, and Peoples’ region: Gurage, Hadiyya, and Kambaata zones",
  "classification": "Afro-Asiatic, Semitic, South, Ethiopian, South, Outer, tt-Group",
  "dialects": "None known. Related to Sebat Bet Gurage [sgw]",
  "typology": "SOV",
  "resources": "OLAC resources in and about Mesmes",
  "writing": "Unwritten [Qaax]"
}