{
  "id": "mzx",
  "name": "Mawayana",
  "country": {
    "code": "GY",
    "name": "Guyana",
    "area": "Americas"
  },
  "status": "8b (Nearly extinct)",
  "alternate_names": "Mahuayana",
  "population": "50 in Guyana (1986 C. Howard). Population total all countries: 60",
  "location": "Upper Takutu-Upper Essequibo region: Southwest Guyana, living with the Waiwai [waw] language group",
  "maps": "Guyana",
  "classification": "Maipurean, Unclassified",
  "dialects": "None known. No semantic similarity with and not related to Wapishana [wap], Atorada [aox], or Mapidian [mpw] (2002 R. Hicks)",
  "use": "Also use Waiwai [waw]",
  "resources": "OLAC resources in and about Mawayana",
  "other_comments": "Traditional religion, Christian"
}