{
  "id": "nac",
  "name": "Narak",
  "country": {
    "code": "PG",
    "name": "Papua New Guinea",
    "area": "Pacific"
  },
  "status": "5 (Developing)",
  "alternate_names": "Ganja",
  "population": "6,220 (2000 census). 4,350 monolinguals",
  "location": "Western Highlands Province, Hagen district, middle Jimi river valley near Tabibuga; Madang Province, Usino-Bundi district",
  "maps": "Papua New Guinea, Map 9",
  "classification": "Trans-New Guinea, Chimbu-Wahgi, Jimi",
  "dialects": "None known. Reportedly similar to Maring [mbw], North Wahgi [whg], and Kandawo [gam]",
  "typology": "SOV; Whistle speech reported",
  "use": "Vigorous. All domains. All ages. Positive attitudes. Also use English [eng], Tok Pisin [tpi]",
  "development": "Literacy rate in L1: 15%. Literacy rate in L2: 5%–15%. Transfer primer from Tok Pisin. 10% can write Narak. NT: 1981",
  "resources": "OLAC resources in and about Narak",
  "writing": "Latin script [Latn]",
  "other_comments": "Christian"
}