{
  "id": "nav",
  "name": "Navajo",
  "country": {
    "code": "US",
    "name": "United States",
    "area": "Americas"
  },
  "status": "6b (Threatened)",
  "alternate_names": "Navaho",
  "population": "171,000 (2010 census). 7,600 monolinguals. Ethnic population: 266,000 (Ichihashi-Nakayama 2007)",
  "location": "Northeast Arizona, northwest New Mexico, southeast Utah; a few in Colorado",
  "maps": "Western United States of America",
  "classification": "Eyak-Athabaskan, Athabaskan, Apachean",
  "use": "Vigorous in some families. L1 speakers among first graders are 30% versus 90% in 1968 (1998). Immersion program in several schools; formally taught at several universities (Golla 2007). Wide range of functions",
  "development": "High literacy. New media. Dictionary. Bible: 1985–2000",
  "resources": "OLAC resources in and about Navajo",
  "writing": "Latin script [Latn]",
  "other_comments": "Ethnonym: Diné, preferred"
}