{
  "id": "nbn",
  "name": "Kuri",
  "country": {
    "code": "ID",
    "name": "Indonesia",
    "area": "Asia"
  },
  "status": "7 (Shifting)",
  "alternate_names": "Modan, Nabi",
  "population": "500 (1982 SIL)",
  "location": "Papua Barat Province, 16 villages. Southwest Bomberai peninsula; area south of Bituni bay, northeast of Arguni bay",
  "maps": "Indonesia, Northwestern Papua                      Indonesia, Sulawesi",
  "classification": "Austronesian, Malayo-Polynesian, Central-Eastern Malayo-Polynesian, Unclassified",
  "dialects": "None known. Lexical similarity: 90% with Irarutu [irh]",
  "use": "Home",
  "resources": "OLAC resources in and about Kuri",
  "other_comments": "Traditional religion, Christian"
}