{
  "id": "nbu",
  "name": "Naga, Rongmei",
  "country": {
    "code": "IN",
    "name": "India",
    "area": "Asia"
  },
  "status": "4 (Educational)",
  "alternate_names": "Kabui, Maruongmai, Nruanghmei, Rongmai, Rongmei",
  "population": "61,200 (2001 census)",
  "location": "Northwest Manipur; Nagaland; Assam, Cachar district. 35 villages",
  "maps": "India, Map 5",
  "classification": "Sino-Tibetan, Tibeto-Burman, Sal, Kuki-Chin-Naga, Zeme",
  "dialects": "Songbu",
  "use": "Used as L2 by Inpui Naga [nkf]",
  "development": "Literacy rate in L1: High. Magazines. Radio programs. Bible: 1989",
  "resources": "OLAC resources in and about Naga, Rongmei",
  "writing": "Latin script [Latn]",
  "other_comments": "Songbu is principal Division of Rongmei. Merged with Zeme and Liangmai Naga to form the Zeliang community. Inpui and Rongmei ethnonym: Kabui by government. Christian, traditional religion"
}