{
  "id": "ncl",
  "name": "Nahuatl, Michoacán",
  "country": {
    "code": "MX",
    "name": "Mexico",
    "area": "Americas"
  },
  "status": "6b (Threatened)",
  "alternate_names": "Mexicano, Michoacan Aztec, Nahual de Michoacán",
  "population": "3,000 (1990 census)",
  "location": "Michoacán de Ocampo State, Maruata Pómaro coastal settlement, Pacific ocean",
  "maps": "Mexico",
  "classification": "Uto-Aztecan, Southern Uto-Aztecan, Corachol-Aztecan, Core Nahua, Nahuatl",
  "typology": "SVO, VSO; long words, affixes, agglutinative, 4 possible prefixes for verbs, 7 possible suffixes, 2 causatives, 1 having 2 forms; little-used passive, plural forms for nouns, depending on the noun class, adjectives follow nouns, some adjectives are verb forms, device for making Spanish infinitives into Aztec 3rd person present indicative",
  "use": "All ages. Mixed attitudes. Also use Spanish [spa]",
  "development": "Literacy rate in L1: 5%–10% (mainly children). Literacy rate in L2: 35%. Not preferred for written communication. Secondary school, teachers encourage the reading of Nahuatl. Dictionary. Grammar. NT: 1998",
  "resources": "OLAC resources in and about Nahuatl, Michoacán",
  "writing": "Latin script [Latn]"
}