{
  "id": "nda",
  "name": "Ndasa",
  "country": {
    "code": "CG",
    "name": "Congo",
    "area": "Africa"
  },
  "status": "6a (Vigorous)",
  "alternate_names": "Andasa",
  "population": "4,530 in Congo (2000). Population total all countries: 5,530",
  "location": "Lékoumou department: west of Zanaga",
  "maps": "Congo                      Equatorial Guinea, Gabon and São Tomé e Príncipe",
  "classification": "Niger-Congo, Atlantic-Congo, Volta-Congo, Benue-Congo, Bantoid, Southern, Narrow Bantu, Northwest, B, Kele (B.201)",
  "resources": "OLAC resources in and about Ndasa",
  "writing": "Unwritten [Qaax]"
}