{
  "id": "nec",
  "name": "Nedebang",
  "country": {
    "code": "ID",
    "name": "Indonesia",
    "area": "Asia"
  },
  "status": "6a (Vigorous)",
  "alternate_names": "Balungada, Klamu, Nédebang",
  "population": "1,500",
  "location": "Nusa Tenggara Timur Province; Banda sea; north central Pantar island, south, southwest of Kabir town",
  "maps": "Indonesia, Nusa Tenggara enlargements",
  "classification": "Trans-New Guinea, West, Timor-Alor-Pantar, Alor-Pantar, Pantar",
  "resources": "OLAC resources in and about Nedebang"
}