{
  "id": "nef",
  "name": "Nefamese",
  "country": {
    "code": "IN",
    "name": "India",
    "area": "Asia"
  },
  "status": "8b (Nearly extinct)",
  "alternate_names": "Arunamese",
  "population": "Population unknown. May be replaced by Hindi [hin] (2006 Y. Modi)",
  "location": "Arunachal Pradesh",
  "maps": "India, Map 5",
  "classification": "Pidgin, Assamese based",
  "use": "Formerly a lingua franca of Arunachal Pradesh. Used as L2 by Apatani [apt], Bugun [bgg], Zakhring [zkr]",
  "resources": "OLAC resources in and about Nefamese"
}