{
  "id": "ngc",
  "name": "Ngombe",
  "country": {
    "code": "CD",
    "name": "Democratic Republic of the Congo",
    "area": "Africa"
  },
  "status": "6a (Vigorous)",
  "alternate_names": "Lingombe",
  "population": "150,000 (Welmers 1971)",
  "location": "Equateur province: widespread along both sides of the Congo River, Mongala district and adjacent parts of Sud Ubangi and Equateur districts",
  "maps": "Northern Democratic Republic of Congo",
  "classification": "Niger-Congo, Atlantic-Congo, Volta-Congo, Benue-Congo, Bantoid, Southern, Narrow Bantu, Northwest, C, Ngombe (C.41)",
  "dialects": "Doko, Libale (Bale, Wiindza-Baali). Reportedly similar to Bwela [bwl] (Lingi). Lexical similarity: 78% with the Benza (Binja) dialect of Ligenza [lgz]; 40% with Lingala [lin], Pagibete [pae], and Ngelima [agh]; 37% with Bwa [bww]",
  "use": "Some use Pagibete [pae] for trading. Used as L2 by Pagibete [pae]",
  "development": "New media. Radio programs. Videos. Grammar. NT: 1915–1956",
  "resources": "OLAC resources in and about Ngombe",
  "writing": "Latin script [Latn]",
  "other_comments": "Different from Ngombe [nmj] in Central African Republic"
}