{
  "id": "ngs",
  "name": "Gvoko",
  "country": {
    "code": "NG",
    "name": "Nigeria",
    "area": "Africa"
  },
  "status": "6a (Vigorous)",
  "alternate_names": "Gavoko, Gevoko, Ghboko, Kuvoko, Nggweshe, Ngoshe Sama, Ngoshe-Ndhang, Ngoshi, Ngossi, Ngweshe-Ndaghan",
  "population": "20,000 in Nigeria (1990). Population total all countries: 21,000",
  "location": "Borno state: Gwoza LGA; Adamawa state: Michika LGA",
  "maps": "Northern Cameroon                      Nigeria, Map 4",
  "classification": "Afro-Asiatic, Chadic, Biu-Mandara, A, A.4, Mandara Proper, Glavda",
  "dialects": "None known. Related to Glavda [glw] and Guduf [gdf]. High level of intelligibility with Hdi [xed] as a result of contact",
  "resources": "OLAC resources in and about Gvoko"
}