{
  "id": "nhp",
  "name": "Nahuatl, Isthmus-Pajapan",
  "country": {
    "code": "MX",
    "name": "Mexico",
    "area": "Americas"
  },
  "status": "6b (Threatened)",
  "alternate_names": "Náhuat de Pajapan",
  "population": "7,000 (1990 census). 500 monolinguals",
  "location": "Veracruz-Llave, south coast, Gulf of Mexico, Pajapan area; also in San Juan Volador, Santanón, Sayultepec, and Jicacal towns",
  "maps": "Eastern Central Mexico",
  "classification": "Uto-Aztecan, Southern Uto-Aztecan, Corachol-Aztecan, Core Nahua, Nahuatl",
  "dialects": "None known. 83% intelligibility of Mecayapan (Isthmus Nahuatl) [nhx], 94% of Oteapan (Cosoleacaque) [nhk]",
  "use": "Some young families use Nahuatl, others do not teach it to their children. All domains for older speakers. All ages. Negative attitudes. Some also use Spanish [spa]; a few also speak a Popoluca language",
  "development": "Taught in primary schools. Bible portions: 1990–2009",
  "resources": "OLAC resources in and about Nahuatl, Isthmus-Pajapan",
  "writing": "Latin script [Latn]",
  "other_comments": "People leave the area for better jobs or trade"
}