{
  "id": "nie",
  "name": "Niellim",
  "country": {
    "code": "TD",
    "name": "Chad",
    "area": "Africa"
  },
  "status": "6a (Vigorous)",
  "alternate_names": "Lua, Mjillem, Nielim, Nyilem",
  "population": "5,160 (1993 census). 1,000 in Sarh City; 400 in Niou dialect",
  "location": "Moyen-Chari region: Barh Kôh department, Niellim town area, Chari river southwest bank. Niou dialect: Niou on the northeast bank",
  "maps": "Southwestern Chad",
  "classification": "Niger-Congo, Atlantic-Congo, Volta-Congo, North, Adamawa-Ubangi, Adamawa, Mbum-Day, Bua",
  "dialects": "Niellim, Niou, Tchini (Cini, Cuni)",
  "use": "Tchini dialect is extinct. Used as L2 by Tunia [tug]",
  "development": "Grammar",
  "resources": "OLAC resources in and about Niellim",
  "other_comments": "Ethnonym: Niellim by government. Ethnic autonym: Lua. Traditional religion"
}