{
  "id": "nix",
  "name": "Hema",
  "country": {
    "code": "CD",
    "name": "Democratic Republic of the Congo",
    "area": "Africa"
  },
  "status": "6a (Vigorous)",
  "alternate_names": "Congo Nyoro, Hema-Sud, Kihema, Nyoro, Oruhuma, Runyoro, Southern Hema",
  "population": "125,000 (2000)",
  "location": "Orientale province: Ituri district, Irumu and Djugu territories",
  "maps": "Northern Democratic Republic of Congo",
  "classification": "Niger-Congo, Atlantic-Congo, Volta-Congo, Benue-Congo, Bantoid, Southern, Narrow Bantu, Central, J, Nyoro-Ganda (E.121)",
  "resources": "OLAC resources in and about Hema",
  "other_comments": "Hema is spoken by the Southern Hema people, of the same ethnic stock as the Northern Hema (who speak Lendu [led]) and the speakers of the Hima dialect of Nyankore [nyn] in Uganda"
}