{
  "id": "njl",
  "name": "Njalgulgule",
  "country": {
    "code": "SS",
    "name": "South Sudan",
    "area": "Africa"
  },
  "status": "8a (Moribund)",
  "alternate_names": "Bege, Begi, Beko, Ngulgule, Njangulgule, Nyolge, Nyoolne",
  "population": "900 (Voegelin and Voegelin 1977)",
  "location": "West Bahr el Ghazal state: northwest of Raga, Gossinga and Boro villages",
  "maps": "South Sudan",
  "classification": "Nilo-Saharan, Eastern Sudanic, Western, Daju, Western Daju",
  "use": "100% also use Sudanese Spoken Arabic [apd]",
  "resources": "OLAC resources in and about Njalgulgule",
  "writing": "Unwritten [Qaax]",
  "other_comments": "May be the same as Baygo [byg]"
}