{
  "id": "njo",
  "name": "Naga, Ao",
  "country": {
    "code": "IN",
    "name": "India",
    "area": "Asia"
  },
  "status": "4 (Educational)",
  "alternate_names": "Ao, Aorr, Cholimi, Hatigoria, Nowgong, Paimi, Uri",
  "population": "261,000 (2001 census)",
  "location": "Northeast Nagaland, central Mokokchung district; Assam",
  "maps": "India, Map 5",
  "classification": "Sino-Tibetan, Tibeto-Burman, Sal, Kuki-Chin-Naga, Ao",
  "dialects": "Changki, Chongli (Chungli), Dordar (Yacham), Longla, Mongsen Khari. Chongli and Mongsen border on mutual unintelligibility (Burling 2003)",
  "use": "Also use Assamese [asm], English [eng], Hindi [hin]. Used as L2 by Chang Naga [nbc], Sangtam Naga [nsa], Sumi Naga [nsm]",
  "development": "Literacy rate in L1: 86% (2001 census). Literacy rate in L2: 86% (2001 census). Taught in primary schools. Radio programs. Dictionary. Grammar. Bible: 1964–2004",
  "resources": "OLAC resources in and about Naga, Ao",
  "writing": "Latin script [Latn]",
  "other_comments": "A Scheduled Tribe. Christian"
}