{
  "id": "njr",
  "name": "Njerep",
  "country": {
    "code": "NG",
    "name": "Nigeria",
    "area": "Africa"
  },
  "status": "8b (Nearly extinct)",
  "alternate_names": "Njerup",
  "population": "6 (2000 B. Connell)",
  "location": "Taraba state: near Mambila [mzk] language area",
  "classification": "Niger-Congo, Atlantic-Congo, Volta-Congo, Benue-Congo, Bantoid, Northern, Mambiloid, Mambila-Konja, Njerup",
  "use": "Shifted to Mambila [mzk]. Older adults only",
  "resources": "OLAC resources in and about Njerep"
}