{
  "id": "njz",
  "name": "Nyishi",
  "country": {
    "code": "IN",
    "name": "India",
    "area": "Asia"
  },
  "status": "5 (Developing)",
  "alternate_names": "Bangni, Dafla, Daphla, Lel, Nil, Nishi, Nisi, Nissi, Nyising",
  "population": "230,000 (2001 census). 23,000 speakers of Bangni dialect (Van Driem 2007)",
  "location": "Arunachal Pradesh, lower Subansiri district",
  "maps": "India, Map 5",
  "classification": "Sino-Tibetan, Tibeto-Burman, Central Tibeto-Burman, Tani",
  "dialects": "Aka Lel, Bangni, Nishang. Reportedly similar to Tagin [tgj]. Apatani [apt] may be a dialect",
  "use": "All domains. Also use Miji [sjl]. Used as L2 by Miji [sjl], Puroik [suv]",
  "development": "Literacy rate in L2: 37%—46% (2001 census). NT: 2002",
  "resources": "OLAC resources in and about Nyishi",
  "writing": "Bengali script [Beng]. Latin script [Latn]",
  "other_comments": "Nisi is a Scheduled Tribe. Nisi has been used as a cover term for western Tani languages. Traditional religion, Christian, Hindu"
}