{
  "id": "nll",
  "name": "Nihali",
  "country": {
    "code": "IN",
    "name": "India",
    "area": "Asia"
  },
  "status": "6b (Threatened)",
  "alternate_names": "Nihal",
  "population": "2,000 (Parkin 1991). Ethnic population: 5,000 (1987)",
  "location": "Maharashtra, Buldana district, Jamod Jalgaon tahsil; Madhya Pradesh, Burhanpur",
  "maps": "India, Map 6",
  "classification": "Language isolate",
  "dialects": "None known. Lexical similarity: 25% between Nihal in Chikaldara taluk and Akola District and Korku [kfq] (Munda)",
  "use": "Also use Hindi [hin], Korku [kfq], Marathi [mar]",
  "resources": "OLAC resources in and about Nihali",
  "other_comments": "They live in or near Korku villages in a position of subordination to the Korku people. Possibly belonged to a now extinct speech family of India. Influenced significantly by Munda and Dravidian languages. 60%–70% of vocabulary borrowed. Nihali and Nahali [nlx] are different languages"
}