{
  "id": "nlw",
  "name": "Walangama",
  "country": {
    "code": "AU",
    "name": "Australia",
    "area": "Pacific"
  },
  "status": "10 (Extinct)",
  "alternate_names": "Boogoolmurra, Bugulmara, Karan, Wahlongman, Wallan-kammer, Wallenkammer, Wollangama, Wollongurmee",
  "population": "No known L1 speakers",
  "location": "Queensland; Croydon, Gregory range",
  "classification": "Australian, Pama-Nyungan, South-West",
  "resources": "OLAC resources in and about Walangama"
}