{
  "id": "nlx",
  "name": "Nahali",
  "country": {
    "code": "IN",
    "name": "India",
    "area": "Asia"
  },
  "status": "6a (Vigorous)",
  "alternate_names": "Kalto, Nahal, Nahale, Nahalia",
  "population": "15,000 (2003)",
  "location": "Maharashtra, Nandurbar district, Dhadgaon tahsil, 12 villages near Toranmal, Jalgaon district, Chopda tahsil, north of Amalwadi, Dhule district; Madhya Pradesh, Barwani district",
  "maps": "India, Map 6",
  "classification": "Indo-European, Indo-Iranian, Indo-Aryan, Central zone, Bhil",
  "dialects": "None known. 96% intelligibility of Bareli Pauri [bfb]. This may be acquired rather than inherent (1988 S. Watters). Lexical similarity: 58%–68% with Noiri [noi] varieties, 60%–61% with Dungra Bhil [duh], 69%–73% with Bareli Pauri [bfb]",
  "resources": "OLAC resources in and about Nahali",
  "other_comments": "A Scheduled Tribe. Reported to speak Nimadi [noe] as L1. (Singh 1994). Nihali [nll] and Nahali are different languages"
}