{
  "id": "nmi",
  "name": "Nyam",
  "country": {
    "code": "NG",
    "name": "Nigeria",
    "area": "Africa"
  },
  "status": "6b (Threatened)",
  "alternate_names": "Nyambolo",
  "population": "100 (2006)",
  "location": "Taraba state: Karim Lamido LGA, Ndallang, northeast of Andamin village",
  "maps": "Nigeria, Map 3",
  "classification": "Afro-Asiatic, Chadic, West, A, A.2, Bole, Bole Proper",
  "resources": "OLAC resources in and about Nyam"
}