{
  "id": "nmn",
  "name": "!Xóõ",
  "country": {
    "code": "BW",
    "name": "Botswana",
    "area": "Africa"
  },
  "status": "6a (Vigorous)",
  "alternate_names": "Ng|amani, Tsasi",
  "population": "2,000 in Botswana (2011 C. Naumann). Population total all countries: 2,500",
  "location": "South Ghanzi district; north Kgalagadi district; west Southern and Kweneng districts",
  "maps": "Botswana                      Namibia",
  "classification": "Tuu, Taa",
  "dialects": "!Kwi, Auni (|Auni, |Auo), Kakia (Masarwa), Ki|hazi, Ng|u||en (||U||en, |Nu||en, |U||en, Ng|u|ei, Nu||en), Nusan (Ng|usan, Noosan, Nu-San), Xatia (|Eikusi, |Kusi, Katia, Kattea, Khatia, Vaalpens)",
  "typology": "SVO; prepositions; genitives, adjectives, numerals, relatives after noun heads; question word initial; 2 prefixes, 3 suffixes; word order distinguishes subjects, objects, indirect objects; verb affixes mark number, gender of subject and object, and is obligatory; passives; reduplication on periphrastics for causatives; periphrastic comparatives; CV, CVV, CVCV; tonal",
  "use": "Also use |Gwi [gwj], Herero [her], Kgalagadi [xkv], Naro [nhr], Tswana [tsn]. Second languages used by people older than 10 who have been to school or have lived with speakers of the other languages",
  "development": "Dictionary. Grammar",
  "resources": "OLAC resources in and about !Xóõ",
  "other_comments": "Nusan are in Botswana. Nu||en dialect is extinct. Traditional religion, Christian"
}