{
  "id": "nms",
  "name": "Letemboi",
  "country": {
    "code": "VU",
    "name": "Vanuatu",
    "area": "Pacific"
  },
  "status": "6b (Threatened)",
  "alternate_names": "Small Nambas",
  "population": "800 (Lynch and Crowley 2001). Ethnic population: 1,100 (2001)",
  "location": "Malampa Province, south Malekula",
  "maps": "Vanuatu, Enlarged Area",
  "classification": "Austronesian, Malayo-Polynesian, Central-Eastern Malayo-Polynesian, Eastern Malayo-Polynesian, Oceanic, Central-Eastern Oceanic, Remote Oceanic, North and Central Vanuatu, Malekula Interior, Small Nambas",
  "use": "Seriously endangered (2000 D. Tryon). Most key domains. Used by 60% of children. Positive attitudes",
  "resources": "OLAC resources in and about Letemboi"
}