{
  "id": "nnd",
  "name": "Ambae, West",
  "country": {
    "code": "VU",
    "name": "Vanuatu",
    "area": "Pacific"
  },
  "status": "5 (Developing)",
  "alternate_names": "Duidui, Opa",
  "population": "8,700 (Lynch and Crowley 2001)",
  "location": "Penama Province, West Ambae (Aoba, Leper’s) island",
  "maps": "Vanuatu",
  "classification": "Austronesian, Malayo-Polynesian, Central-Eastern Malayo-Polynesian, Eastern Malayo-Polynesian, Oceanic, Central-Eastern Oceanic, Remote Oceanic, North and Central Vanuatu, Northeast Vanuatu-Banks Islands, East Vanuatu",
  "dialects": "Nduindui (Duindui), Walaha. Many dialects",
  "development": "NT: 1984",
  "resources": "OLAC resources in and about Ambae, West",
  "writing": "Latin script [Latn]"
}