{
  "id": "nnh",
  "name": "Ngiemboon",
  "country": {
    "code": "CM",
    "name": "Cameroon",
    "area": "Africa"
  },
  "status": "5 (Developing)",
  "alternate_names": "Bamileke-Ngiemboon, Bamileke-Ngyemboon, Nguemba, Ngyemboon",
  "population": "250,000 (2000 CABTAL), increasing. 80,000 monolinguals",
  "location": "West region: Bamboutos division, Batcham subdivision and west Mbouda subdivision in Balatchi; Menoua division, north of Penka-Michel",
  "maps": "Central Cameroon",
  "classification": "Niger-Congo, Atlantic-Congo, Volta-Congo, Benue-Congo, Bantoid, Southern, Wide Grassfields, Narrow Grassfields, Mbam-Nkam, Bamileke",
  "dialects": "Balatchi, Balessing, Bamougong, Bangang, Batang, Batcham",
  "use": "Vigorous. All domains. All ages. Positive attitudes. 65% also use French [fra]. Also use English [eng], Nigerian Fulfulde [fuv]. Used as L2 by Ngomba [jgo], Ngombale [nla]",
  "development": "Literacy rate in L1: 8%. Literacy rate in L2: 25%–50%. Functional literacy started. New media. Radio programs. Films. Videos. Dictionary. Grammar. NT: 2007",
  "resources": "OLAC resources in and about Ngiemboon",
  "writing": "Latin script [Latn]",
  "other_comments": "Distinct from Ngemba [nge]. Christian, traditional religion"
}