{
  "id": "nnw",
  "name": "Nuni, Southern",
  "country": {
    "code": "BF",
    "name": "Burkina Faso",
    "area": "Africa"
  },
  "status": "5 (Developing)",
  "alternate_names": "Nibulu, Nouni, Nounouma, Nuna, Nune, Nunuma, Nuruma",
  "population": "168,000 (2000)",
  "location": "Boucle du Muhoun region: Bale province, east Mouhoun province; Centre-Ouest region: Sissili and Zuri provinces, Sanguie province; Centre-Sud region: west Narhouri. Over 100 villages",
  "maps": "Burkina Faso",
  "classification": "Niger-Congo, Atlantic-Congo, Volta-Congo, North, Gur, Central, Southern, Grusi, Northern",
  "dialects": "Basinyari (Sundoni), Bwana, Gori, Micari, Sankura, Yatini. Reportedly similar to Kasem [xsm] and Lyélé [lee]",
  "typology": "SVO; postpositions; genitives before noun heads; articles, adjectives, numerals, relatives after noun heads; question word initial; 1 prefix, 1 suffix; word order distinguishes subject and object; causatives; comparatives; CV, CVV, CVCV; tonal",
  "use": "All ages. Also use French [fra], Mòoré [mos]",
  "development": "Literacy rate in L1: 10%. Literacy rate in L2: 5% in French. NT: 1999",
  "resources": "OLAC resources in and about Nuni, Southern",
  "writing": "Latin script [Latn]",
  "other_comments": "Traditional religion, Christian (Protestant), Muslim"
}