{
  "id": "nop",
  "name": "Numanggang",
  "country": {
    "code": "PG",
    "name": "Papua New Guinea",
    "area": "Pacific"
  },
  "status": "4 (Educational)",
  "alternate_names": "Boana, Kai, Manggang, Ngain, Numangan, Numangang, Sugu",
  "population": "2,300 (2000 census). Few monolinguals. Ethnic population: 2,800",
  "location": "Morobe Province, Lae district, north of Nadzab. 10 villages; Lae, Mount Hagen, and Rabaul",
  "maps": "Papua New Guinea, Map 11",
  "classification": "Trans-New Guinea, Finisterre-Huon, Finisterre, Erap",
  "dialects": "East Numanggang, West Numanggang",
  "typology": "SOV",
  "use": "Vigorous. Tok Pisin [tpi] used more in towns. All domains. All ages. Positive attitudes. 1% also use English [eng]. 15% also use Kâte [kmg]. Mostly older generation. 35% also use Tok Pisin [tpi]. Mostly youth. Also use Nabak [naf], Nakame [nib], Standard German [deu]",
  "development": "Literacy rate in L1: 35%–50%. Literacy rate in L2: 35%–50% Tok Pisin [tpi] or Kâte [kmg]. Taught in primary schools. NT: 2006",
  "resources": "OLAC resources in and about Numanggang",
  "writing": "Latin script [Latn]",
  "other_comments": "Used in village court and believed to have significant influence on proceedings. Tok Pisin [tpi] or other trade language used for insults, at which point an elder will insist that discussion be limited to Numanggang due to its calming and peaceful power. Christian"
}