{
  "id": "not",
  "name": "Nomatsiguenga",
  "country": {
    "code": "PE",
    "name": "Peru",
    "area": "Americas"
  },
  "status": "5 (Developing). Recognized language (1993, Constitution, Article 48)",
  "alternate_names": "“Nomatsiguenga Campa” (pej.)",
  "population": "6,500 (2003 SIL). 5,500 monolinguals. Ethnic population: Ethnic population about the same as the L1 population (Crevels 2007)",
  "location": "Junin Region, between Ene and Perené rivers; Anapati river system in the foothills",
  "maps": "Peru",
  "classification": "Maipurean, Southern, Campa, Ashéninga",
  "dialects": "None known. Reportedly most similar to Machiguenga [mcb]",
  "typology": "VSO",
  "use": "All children acquire the language. All ages. Also use Asháninka [cni], Spanish [spa]",
  "development": "Literacy rate in L1: 50%. Literacy rate in L2: 35%–40%. Videos. Dictionary. Grammar. NT: 1980–2008",
  "resources": "OLAC resources in and about Nomatsiguenga",
  "writing": "Latin script [Latn]",
  "other_comments": "Bilingual education program (Crevels 2007). Traditional religion, Christian"
}