{
  "id": "npb",
  "name": "Nupbikha",
  "country": {
    "code": "BT",
    "name": "Bhutan",
    "area": "Asia"
  },
  "status": "6a (Vigorous)",
  "alternate_names": "Trongsakha",
  "population": "2,200 (2006)",
  "location": "Trongsa district: enclave south of Tongsa Dzong",
  "maps": "Bhutan",
  "classification": "Sino-Tibetan, Tibeto-Burman, Western Tibeto-Burman, Bodish, East Bodish, Bumthang",
  "dialects": "None known. Phonological similarities to Khengkha [xkf]",
  "resources": "OLAC resources in and about Nupbikha",
  "writing": "Unwritten [Qaax]",
  "other_comments": "View their language as different from Bumthangkha [kjz]"
}