{
  "id": "npy",
  "name": "Napu",
  "country": {
    "code": "ID",
    "name": "Indonesia",
    "area": "Asia"
  },
  "status": "6b (Threatened)",
  "alternate_names": "Pekurehua",
  "population": "6,100 (2000 R. Hanna), increasing",
  "location": "Sulawesi Tengah Province, Lore Utara subdistrict, 10 villages. Napu valley",
  "maps": "Indonesia, Sulawesi",
  "classification": "Austronesian, Malayo-Polynesian, Celebic, Kaili-Pamona, Southern, Badaic",
  "dialects": "None known. Reportedly most similar to Behoa [bep]",
  "use": "60% of parents pass it on to the children. Young people tend to use Indonesian [ind] (Wurm 2007). Some domains, hymns, work announcements. Mildly positive attitudes. Nearly all also use Indonesian [ind]",
  "development": "High interest in Napu literature. Dictionary. NT: 2000",
  "resources": "OLAC resources in and about Napu",
  "writing": "Latin script [Latn]",
  "other_comments": "Christian"
}