{
  "id": "nqy",
  "name": "Naga, Akyaung Ari",
  "country": {
    "code": "MM",
    "name": "Myanmar",
    "area": "Asia"
  },
  "status": "6a (Vigorous)",
  "alternate_names": "Ngachan",
  "population": "1,000 (2004 SIL)",
  "location": "Sagain, south Layshi township, Heinkut, Jagram, and Ngachan villages",
  "maps": "Northern Myanmar",
  "classification": "Sino-Tibetan, Tibeto-Burman, Sal, Kuki-Chin-Naga, Unclassified",
  "dialects": "Very little (if any) dialect variation within Akyaung Ari Naga. Lexical similarity: 52% with Tanghkul Naga of Somra [ntx], 23% with Tangkhul Naga of Ukhrul in India [nmf], 23% with Koki Naga [nxk]",
  "use": "Vigorous. All domains. All ages. Positive attitudes. Also use Tangkhul Naga [ntx]",
  "resources": "OLAC resources in and about Naga, Akyaung Ari",
  "writing": "Unwritten [Qaax]",
  "other_comments": "Tribally, the Akyaung Ari are included as part of Tangkhul Naga, but their language is very distinct. Christian"
}