{
  "id": "nsw",
  "name": "Navut",
  "country": {
    "code": "VU",
    "name": "Vanuatu",
    "area": "Pacific"
  },
  "status": "6a (Vigorous)",
  "population": "520 (1983 SIL)",
  "location": "Sanma Province, west central Santo",
  "maps": "Vanuatu, Enlarged Area",
  "classification": "Austronesian, Malayo-Polynesian, Central-Eastern Malayo-Polynesian, Eastern Malayo-Polynesian, Oceanic, Central-Eastern Oceanic, Remote Oceanic, North and Central Vanuatu, Northeast Vanuatu-Banks Islands, West Santo",
  "dialects": "None known. Reportedly similar to Tiale [mnl]",
  "resources": "OLAC resources in and about Navut"
}