{
  "id": "ntg",
  "name": "Ngantangarra",
  "country": {
    "code": "AU",
    "name": "Australia",
    "area": "Pacific"
  },
  "status": "10 (Extinct)",
  "alternate_names": "Ngandangara",
  "population": "No known L1 speakers",
  "location": "Victoria; on upper Wilson river, north to Eromanga and beyond toward Thylungra and Ray, south to Nockatunga",
  "classification": "Australian, Pama-Nyungan, Karnic",
  "resources": "OLAC resources in and about Ngantangarra"
}