{
  "id": "nto",
  "name": "Ntomba",
  "country": {
    "code": "CD",
    "name": "Democratic Republic of the Congo",
    "area": "Africa"
  },
  "status": "6a (Vigorous)",
  "alternate_names": "Lontomba, Luntumba, Ntomba-Bolia, Ntumba",
  "population": "100,000 (1980 UBS)",
  "location": "Bandundu province: Lake Mai-Ndombe area; Equateur province near Lake Tumba",
  "maps": "Northern Democratic Republic of Congo",
  "classification": "Niger-Congo, Atlantic-Congo, Volta-Congo, Benue-Congo, Bantoid, Southern, Narrow Bantu, Northwest, C, Bangi-Ntomba (C.35)",
  "dialects": "Imona, Mpongo, Nkole, Ntomba, Sakanyi (Lotsakani), Saw, Soko. Reportedly similar to Bolia [bli] (Bokoki)",
  "development": "Bible portions: 1916–1947",
  "resources": "OLAC resources in and about Ntomba",
  "writing": "Latin script [Latn]"
}