{
  "id": "nuj",
  "name": "Nyole",
  "country": {
    "code": "UG",
    "name": "Uganda",
    "area": "Africa"
  },
  "status": "5 (Developing)",
  "alternate_names": "Lunyole, Nyule, Nyuli",
  "population": "341,000 (2002 census), increasing",
  "location": "Butaleja, Budaka, Mbale, Tororo, Bugiri, Namutumba, and Pallisa districts",
  "maps": "Uganda",
  "classification": "Niger-Congo, Atlantic-Congo, Volta-Congo, Benue-Congo, Bantoid, Southern, Narrow Bantu, Central, J, Masaba-Luhya (E.35)",
  "dialects": "Hadyo (Luhadyo), Menya (Lumenya), Sabi (Lusabi), Wesa (Luwesa). Lexical similarity: 70%–80% with Saamia [lsm], 82% with the Lugwe dialect of Saamia, 67% with Ganda [lug], 61% with Nyore [nyd] of Kenya",
  "typology": "SVO",
  "use": "Vigorous. Home, market, work, church. All ages. Postive attitudes. Speakers also have low proficiency in Ganda [lug], used in church",
  "development": "Taught in primary schools. Poetry. Radio programs. Dictionary. Bible portions: 2006–2009",
  "resources": "OLAC resources in and about Nyole",
  "writing": "Latin script [Latn], used since 2003"
}