{
  "id": "nuo",
  "name": "Nguôn",
  "country": {
    "code": "VN",
    "name": "Viet Nam",
    "area": "Asia"
  },
  "status": "6b (Threatened)",
  "alternate_names": "Ngouan",
  "population": "1,000 (1995 census). Ethnic population: 2,000 (Bradley 2007)",
  "location": "Western Quang Binh Province, 11 villages: Kwi-dat, An Duk, Ba nuong, Than long, Tan kieu; Ko liem, Bok tho (An tho), Kim bang, Tan li, and An lak",
  "maps": "Southern Viet Nam",
  "classification": "Austro-Asiatic, Mon-Khmer, Viet-Muong, Muong",
  "dialects": "None known. Diffloth (1992) groups Nguôn as a separate language similar to Vietnamese [vie], but Tran (1996) and Ferlus (1996) group it with Muong [mtq]",
  "resources": "OLAC resources in and about Nguôn"
}