{
  "id": "nup",
  "name": "Nupe-Nupe-Tako",
  "country": {
    "code": "NG",
    "name": "Nigeria",
    "area": "Africa"
  },
  "status": "3 (Wider communication)",
  "alternate_names": "Nufawa, Nupe, Nupeci, Nupecidji, Nupenchi, Nupencizi",
  "population": "800,000 (1990). L2 users: 200,000 (Wiesenfeld 1999)",
  "location": "Niger state: Mariga, Gbako, Agaie, and Lapai LGAs; Kwara state: Edu LGA; Kogi state: Kogi LGA; possibly Abuja Capital Territory",
  "maps": "Nigeria, Map 1                      Nigeria, Map 6",
  "classification": "Niger-Congo, Atlantic-Congo, Volta-Congo, Benue-Congo, Nupoid, Nupe-Gbagyi, Nupe",
  "dialects": "Nupe Central (Ampeyi, Anupe, Anupecwayi, Anuperi, Nife, Nupecizi, Nupencizi, Takpa, Tapa, Tappah), Nupe Tako (Bassa Nge). Nupe Central is literary norm",
  "use": "Regionally important language. Also use English [eng]. Used as L2 by Asu [aum], Basa [bzw]",
  "development": "Literacy rate in L2: 60%. Dictionary. Grammar. Bible: 1953–1989",
  "resources": "OLAC resources in and about Nupe-Nupe-Tako",
  "writing": "Latin script [Latn]",
  "other_comments": "Muslim, traditional religion"
}