{
  "id": "nxl",
  "name": "Nuaulu, South",
  "country": {
    "code": "ID",
    "name": "Indonesia",
    "area": "Asia"
  },
  "status": "6a (Vigorous)",
  "alternate_names": "Fatakai, Nuaulu, Patakai",
  "population": "1,500 (1995 SIL)",
  "location": "Maluku Province, Amahai district, 6 villages. Seram island, upland from south coast",
  "maps": "Indonesia, Central Maluku",
  "classification": "Austronesian, Malayo-Polynesian, Central-Eastern Malayo-Polynesian, Central Maluku, East, Seram, Sawai-Nuaulu",
  "dialects": "None known. Lexical similarity: 67% with North Nuaulu [nni]; 50% with South Wemale [weo], Hulung [huk], and Naka’ela [nae]; 48% with Saleman [sau]",
  "use": "Vigorous. Also use Indonesian [ind], Sepa [spb]",
  "development": "Literacy rate in L1: Below 1%. Literacy rate in L2: 5%–15%. Dictionary. Bible portions: 1991–2004",
  "resources": "OLAC resources in and about Nuaulu, South",
  "writing": "Latin script [Latn]",
  "other_comments": "Different from Huaulu [hud]. Christian, traditional religion"
}