{
  "id": "nxr",
  "name": "Ninggerum",
  "country": {
    "code": "PG",
    "name": "Papua New Guinea",
    "area": "Pacific"
  },
  "status": "5 (Developing)",
  "alternate_names": "Kasiwa, Kativa, Ningerum, Ninggirum, Ninggrum, Niyium, Obgwo, Tedi, Tidi",
  "population": "5,150 in Papua New Guinea (2000 census). Population total all countries: 6,150. 2,060 monolinguals",
  "location": "Western Province between Ok Birim and Ok Tedi rivers, east of Ok Tedi to main road linking Kiunga and Tabubil, and north to the main mountain range",
  "maps": "Indonesia, Eastern Papua                      Papua New Guinea, Map 5                      Papua New Guinea, Map 8",
  "classification": "Trans-New Guinea, Ok-Awyu, Ok, Lowland",
  "dialects": "Daupka, Kasuwa",
  "use": "Vigorous. All domains. All ages. Positive attitudes. 5% also use English [eng]. 10% also use Hiri Motu [hmo]. 50% also use Tok Pisin [tpi]. Also use Faiwol [fai], Telefol [tlf], Yongkom [yon]",
  "development": "Literacy rate in L1: 5%. Literacy rate in L2: 5%–15%. Taught in primary schools",
  "resources": "OLAC resources in and about Ninggerum",
  "writing": "Latin script [Latn]",
  "other_comments": "About half the population died 1950–1975 from western diseases. Traditional religion, Christian"
}