{
  "id": "nyi",
  "name": "Ama",
  "country": {
    "code": "SD",
    "name": "Sudan",
    "area": "Africa"
  },
  "status": "5 (Developing)",
  "alternate_names": "Inyimang, Nyima, Nyiman, Nyimang, Nyuwing",
  "population": "70,000 (1982 SIL). Elderly and young children are monolingual",
  "location": "Janub Kurdufan state: Jebel Nyimang hills area, Mandal hills, Kalara, Koromiti, Nitil, Al Fous, Kakara, Hajar Sultan, Salara, Tundia, Fuony, and other villages",
  "maps": "Sudan",
  "classification": "Nilo-Saharan, Eastern Sudanic, Western, Nyimang",
  "dialects": "Ama, Mandal (Male). 80% similarity between Ama and Mandal dialects. Lexical similarity: 59% with Afitti [aft]",
  "use": "L1 widely used, even by children. All domains. All ages. Education is in Arabic [arb]",
  "development": "Ama orthography and literacy materials developed. Grammar. Bible portions: 1950",
  "resources": "OLAC resources in and about Ama",
  "writing": "Latin script [Latn]",
  "other_comments": "Called Nyuwing by some Hill Nubian languages; people on the Mandal Hills (Sobay (Sud), Adlan, Bade, Kule, Wulal) used to speak the Kudur dialect of Dilling [dil], but now only speak Ama"
}