{
  "id": "nys",
  "name": "Nyunga",
  "country": {
    "code": "AU",
    "name": "Australia",
    "area": "Pacific"
  },
  "status": "6b (Threatened)",
  "alternate_names": "Neo-Nyunga, Nyungar",
  "population": "240 (2006 census)",
  "location": "South, Western Australia",
  "classification": "Australian, Pama-Nyungan, South-West, Nyungar",
  "development": "Dictionary",
  "resources": "OLAC resources in and about Nyunga",
  "other_comments": "Former Nyungar languages: Tjapanmay, Karlamay, Pipelman (Pipalman), Ngatjumay, Kwetjman, Mirnong, Kaniyang Pindjarup, and Whadjuk. There are about 8,000 people who are descended from the Nyunga who speak a mixture of English and Nyunga, included as a dialect of English [eng] in Australia. They are sometimes called Noonga, Noongar, or Noogar, and their speech Neo-Nyunga"
}