{
  "id": "nyu",
  "name": "Nyungwe",
  "country": {
    "code": "MZ",
    "name": "Mozambique",
    "area": "Africa"
  },
  "status": "3 (Wider communication)",
  "alternate_names": "Chinyungwe, Chinyungwi, Cinyungwe, Nyongwe, Teta, Tete, Yungwe",
  "population": "439,000 (2006)",
  "location": "Tete province: Zambezi river banks north of Sena [seh] language area; Manica province: east bank, Luenha river, east from Changara",
  "maps": "Mozambique",
  "classification": "Niger-Congo, Atlantic-Congo, Volta-Congo, Benue-Congo, Bantoid, Southern, Narrow Bantu, Central, N, Senga-Sena (N.43)",
  "dialects": "None known. Reportedly similar to Sena [seh]",
  "use": "Used as L2 by Phimbi [phm]",
  "development": "Dictionary. Grammar. Bible portions: 1897–2010",
  "resources": "OLAC resources in and about Nyungwe",
  "writing": "Latin script [Latn]"
}