{
  "id": "nzz",
  "name": "Dogon, Nanga Dama",
  "country": {
    "code": "ML",
    "name": "Mali",
    "area": "Africa"
  },
  "status": "6a (Vigorous)",
  "alternate_names": "Nanga Dogon",
  "population": "3,000 (2009 SIL)",
  "location": "Mopti region: Douentza circle, northeast of Bamba town, southwest of Debere town. 9 villages",
  "maps": "Mali, Map 4",
  "classification": "Niger-Congo, Atlantic-Congo, Volta-Congo, Dogon",
  "dialects": "None known. Reportedly similar to Bankan Tey [dbw] and Ben Tey [dbt]",
  "use": "All ages. Most also use Jamsay Dogon [djm]. Most also use Tommo So Dogon [dto]",
  "development": "Dictionary. Grammar",
  "resources": "OLAC resources in and about Dogon, Nanga Dama",
  "writing": "Unwritten [Qaax]"
}