{
  "id": "okj",
  "name": "Oko-Juwoi",
  "country": {
    "code": "IN",
    "name": "India",
    "area": "Asia"
  },
  "status": "10 (Extinct)",
  "alternate_names": "Junoi, Juwoi, Oku-Juwoi",
  "population": "No known L1 speakers",
  "location": "Andaman and Nicobar Islands, west central and southwest interior Middle Andaman island",
  "classification": "Andamanese, Great Andamanese, Central",
  "resources": "OLAC resources in and about Oko-Juwoi"
}