{
  "id": "okx",
  "name": "Okpe",
  "country": {
    "code": "NG",
    "name": "Nigeria",
    "area": "Africa"
  },
  "status": "6a (Vigorous)",
  "population": "8,700 (2004)",
  "location": "Edo state: Akoko-Edo LGA",
  "maps": "Nigeria, Map 6",
  "classification": "Niger-Congo, Atlantic-Congo, Volta-Congo, Benue-Congo, Edoid, Northwestern, Southern",
  "resources": "OLAC resources in and about Okpe",
  "other_comments": "Distinct from Okpe [oke], which is Southwestern Edoid"
}