{
  "id": "old",
  "name": "Mochi",
  "country": {
    "code": "TZ",
    "name": "Tanzania",
    "area": "Africa"
  },
  "status": "6a (Vigorous)",
  "alternate_names": "Chaga, Chagga, Kimochi, Kimoshi, Moshi, Mosi, Old Moshi",
  "population": "597,000 (2000)",
  "location": "Kilimanjaro and Manyara regions: Chaga area",
  "maps": "Tanzania",
  "classification": "Niger-Congo, Atlantic-Congo, Volta-Congo, Benue-Congo, Bantoid, Southern, Narrow Bantu, Central, E, Chaga (E.622)",
  "dialects": "Mbokomu, Uru. Chaga dialect continuum member which includes Rombo [rof], Machame [jmc], and Vunjo [vun]",
  "use": "All ages",
  "development": "NT: 1939",
  "resources": "OLAC resources in and about Mochi",
  "writing": "Latin script [Latn]"
}