{
  "id": "olr",
  "name": "Olrat",
  "country": {
    "code": "VU",
    "name": "Vanuatu",
    "area": "Pacific"
  },
  "status": "8b (Nearly extinct)",
  "population": "5 (2008)",
  "location": "Torba Province, Gaua island, west coast, mainly Dolap village",
  "classification": "Austronesian, Malayo-Polynesian, Central-Eastern Malayo-Polynesian, Eastern Malayo-Polynesian, Oceanic, Central-Eastern Oceanic, Remote Oceanic, North and Central Vanuatu, Northeast Vanuatu-Banks Islands, East Vanuatu",
  "dialects": "None known. Reportedly similar to Koro [krf] and Lakon [lkn]",
  "use": "Active use probably ceased around 1950s",
  "resources": "OLAC resources in and about Olrat",
  "other_comments": "In the 20th century the Olrat moved from their mountain village to Gaua west coast villages and adopted the dominant language Lakon [lkn]"
}