{
  "id": "omb",
  "name": "Ambae, East",
  "country": {
    "code": "VU",
    "name": "Vanuatu",
    "area": "Pacific"
  },
  "status": "5 (Developing)",
  "alternate_names": "Aoba, Northeast Ambae, Northeast Aoba, Oba, Omba, Walurigi",
  "population": "5,000 (Lynch and Crowley 2001)",
  "location": "Penama Province, Ambae (Leper’s) island",
  "maps": "Vanuatu",
  "classification": "Austronesian, Malayo-Polynesian, Central-Eastern Malayo-Polynesian, Eastern Malayo-Polynesian, Oceanic, Central-Eastern Oceanic, Remote Oceanic, North and Central Vanuatu, Northeast Vanuatu-Banks Islands, East Vanuatu",
  "dialects": "Lolokaro (Lolokara, Lolsiwoi), Lolovoli, Lombaha (Lobaha), Longana. About 15 dialects",
  "typology": "SVO",
  "development": "Bible portions: 1971–1986",
  "resources": "OLAC resources in and about Ambae, East",
  "writing": "Latin script [Latn]",
  "other_comments": "Christian"
}