{
  "id": "ong",
  "name": "Olo",
  "country": {
    "code": "PG",
    "name": "Papua New Guinea",
    "area": "Pacific"
  },
  "status": "5 (Developing)",
  "alternate_names": "Orlei",
  "population": "13,700 (2003 SIL)",
  "location": "Sandaun Province, Lumi district. 55 villages",
  "maps": "Papua New Guinea, Map 3",
  "classification": "Torricelli, Wapei-Palei, Wapei",
  "dialects": "Payi (North Olo, Pay), Wapi (South Olo, Wape)",
  "typology": "SVO",
  "development": "NT: 1997",
  "resources": "OLAC resources in and about Olo",
  "writing": "Latin script [Latn]",
  "other_comments": "Different from Wapi [enq] in Enga Province"
}