{
  "id": "onk",
  "name": "One, Kabore",
  "country": {
    "code": "PG",
    "name": "Papua New Guinea",
    "area": "Pacific"
  },
  "status": "6a (Vigorous)",
  "alternate_names": "Aunalei, Kabore, Onele, Oni",
  "population": "300 (2000 M. Crowther). Ethnic population: 300",
  "location": "Sandaun Province, Lumi district, West Waipei division, between East Bewani and West Torricelli ranges, Abore, Sapin, Kara, and Wamtip villages, Kabore Station",
  "maps": "Papua New Guinea, Map 3",
  "classification": "Torricelli, West Wapei, One",
  "dialects": "None known. Reportedly similar to Inebu One [oin], Northern One [onr], Southern One [osu], Kwamtim One [okk], Molmo One [aun]",
  "use": "All domains except church. All ages. Also use Tok Pisin [tpi]",
  "resources": "OLAC resources in and about One, Kabore",
  "other_comments": "Christian"
}