{
  "id": "ont",
  "name": "Ontenu",
  "country": {
    "code": "PG",
    "name": "Papua New Guinea",
    "area": "Pacific"
  },
  "status": "6a (Vigorous)",
  "alternate_names": "Ontena",
  "population": "3,000 (1996 SIL)",
  "location": "Eastern Highlands Province, Kainantu district",
  "maps": "Papua New Guinea, Map 10",
  "classification": "Trans-New Guinea, Kainantu-Goroka, Kainantu, Gadsup-Auyana-Awa",
  "typology": "SOV",
  "resources": "OLAC resources in and about Ontenu"
}