{
  "id": "onx",
  "name": "Onin Based Pidgin",
  "country": {
    "code": "ID",
    "name": "Indonesia",
    "area": "Asia"
  },
  "status": "9 (Second language only)",
  "population": "No known L1 speakers",
  "location": "Papua Province, Onin peninsula",
  "classification": "Pidgin, Onin based",
  "resources": "OLAC resources in and about Onin Based Pidgin"
}