{
  "id": "oon",
  "name": "Öñge",
  "country": {
    "code": "IN",
    "name": "India",
    "area": "Asia"
  },
  "status": "6b (Threatened)",
  "alternate_names": "Ong",
  "population": "94 (Abbi 2006). Mainly monolingual. Ethnic population: 110 (1999)",
  "location": "Andaman and Nicobar Islands state: Andaman and Nicobar Islands, south Andaman islands, Dugong Creek and South Bay islands",
  "maps": "India, Map 9",
  "classification": "Andamanese, South Andamanese",
  "dialects": "None known. Reportedly distinct from Sentinel [std]",
  "development": "Grammar",
  "resources": "OLAC resources in and about Öñge",
  "other_comments": "A Scheduled Tribe. Reserved toward outsiders. Traditional religion"
}