{
  "id": "opm",
  "name": "Oksapmin",
  "country": {
    "code": "PG",
    "name": "Papua New Guinea",
    "area": "Pacific"
  },
  "status": "5 (Developing)",
  "population": "8,000 (1991 SIL)",
  "location": "Sandaun Province, Telefomin district, southwest Sepik Hill languages border; Southern Highlands Province, area between north bank, Strickland river, and Sandaun border; Western Province, Olsobip RLLG",
  "maps": "Papua New Guinea, Map 5                      Papua New Guinea, Map 8",
  "classification": "Trans-New Guinea, Oksapmin",
  "dialects": "Several dialects. Not closely related to other languages",
  "typology": "SOV",
  "use": "Used as L2 by Hewa [ham]",
  "development": "Literacy rate in L1: 25%–50%. Literacy rate in L2: 25%–50%. Dictionary. Grammar. NT: 1992",
  "resources": "OLAC resources in and about Oksapmin",
  "writing": "Latin script [Latn]"
}