{
  "id": "opy",
  "name": "Ofayé",
  "country": {
    "code": "BR",
    "name": "Brazil",
    "area": "Americas"
  },
  "status": "8a (Moribund)",
  "alternate_names": "Ofaié-Xavante, Ofayé-Xavante, Opaié-Shavante, Opayé",
  "population": "2 (2005 S. Anonby). Ethnic population: 60 (2006 FUNASA)",
  "location": "Mato Grosso do Sul, along Verde, Vacaris, and Ivinhema rivers, around Brasilândia",
  "maps": "Southern Brazil",
  "classification": "Language isolate",
  "use": "Language revival effort underway. Shifted to Portuguese [por] mainly or Kaiwá [kgk]. Also use Kaiwá [kgk], Portuguese [por]",
  "development": "Literacy rate in L2: 30%",
  "resources": "OLAC resources in and about Ofayé",
  "other_comments": "Christian"
}