{
  "id": "org",
  "name": "Oring",
  "country": {
    "code": "NG",
    "name": "Nigeria",
    "area": "Africa"
  },
  "status": "6a (Vigorous)",
  "alternate_names": "Koring, Orri, Orrin, Orringorrin",
  "population": "75,000 (1989)",
  "location": "Benue state: Okpokwu LGA; Ebonyi state: Ishielu LGA",
  "maps": "Nigeria, Map 7                      Nigeria, Map 10",
  "classification": "Niger-Congo, Atlantic-Congo, Volta-Congo, Benue-Congo, Cross River, Delta Cross, Upper Cross, Central, North-South, Koring-Kukele, Koring",
  "dialects": "Okpoto, Ufia (Utonkon), Ufiom (Effium)",
  "resources": "OLAC resources in and about Oring"
}