{
  "id": "orr",
  "name": "Oruma",
  "country": {
    "code": "NG",
    "name": "Nigeria",
    "area": "Africa"
  },
  "status": "6a (Vigorous)",
  "population": "5,000 (1995)",
  "location": "Bayelsa state: Ogbia LGA, Oruma and Ibelebiri towns",
  "maps": "Nigeria, Map 9",
  "classification": "Niger-Congo, Atlantic-Congo, Ijoid, Ijo, West, Inland Ijo",
  "resources": "OLAC resources in and about Oruma"
}