{
  "id": "osu",
  "name": "One, Southern",
  "country": {
    "code": "PG",
    "name": "Papua New Guinea",
    "area": "Pacific"
  },
  "status": "6b (Threatened)",
  "alternate_names": "Aunalei, Onele, Oni",
  "population": "200 (2000 M. Crowther). Ethnic population: 200",
  "location": "Sandaun Province, Lumi district, West Waipei division, between East Bewani and West Torricelli ranges, Romei, Parara, Wolwale, Koiniri, and Karantu villages",
  "maps": "Papua New Guinea, Map 3",
  "classification": "Torricelli, West Wapei, One",
  "dialects": "None known. Reportedly similar to Kabore One [onk], Inebu One [oin], Northern One [onr], Kwamtim One [okk], Molmo One [aun]",
  "use": "All domains except church. All ages. Also use Tok Pisin [tpi]",
  "resources": "OLAC resources in and about One, Southern",
  "other_comments": "Christian"
}