{
  "id": "oue",
  "name": "Oune",
  "country": {
    "code": "PG",
    "name": "Papua New Guinea",
    "area": "Pacific"
  },
  "status": "6a (Vigorous)",
  "alternate_names": "Dapera, Eivo 3, Ounge",
  "population": "1,000 (2007 SIL)",
  "location": "Southern Bougainville Province, Crown Prince Range, Asiamana river headwaters southeast to Karewong river",
  "maps": "Papua New Guinea, Map 13",
  "classification": "South Bougainville, Nasioi",
  "dialects": "None known. Most closely related to Naasioi [nas]",
  "resources": "OLAC resources in and about Oune"
}