{
  "id": "oyy",
  "name": "Oya’oya",
  "country": {
    "code": "PG",
    "name": "Papua New Guinea",
    "area": "Pacific"
  },
  "status": "6a (Vigorous)",
  "alternate_names": "Daiomuni, Kuiaro, Loani, Simagahi",
  "population": "370 (1990 census)",
  "location": "Milne Bay Province, Samarai-Murua district, Bwanabwana local government area, southeast tip of Papuan mainland facing China strait",
  "maps": "Papua New Guinea, Map 17",
  "classification": "Austronesian, Malayo-Polynesian, Central-Eastern Malayo-Polynesian, Eastern Malayo-Polynesian, Oceanic, Western Oceanic, Papuan Tip, Nuclear, Suauic",
  "dialects": "Dialect subgroup. Reportedly similar to Unubahe [unu]. Lexical similarity: 61% with Wagawaga [wgb], 46% with Saliba [sbe], 31% with Tawala [tbo], 48% with Buhutu [bxh]",
  "resources": "OLAC resources in and about Oya’oya",
  "other_comments": "No schools. Children travel by boat to various offshore islands for school"
}