{
  "id": "pam",
  "name": "Pampangan",
  "country": {
    "code": "PH",
    "name": "Philippines",
    "area": "Asia"
  },
  "status": "3 (Wider communication). Statutory language of provincial identity in Pampanga and 2 other Luzon provinces (1991, ACFLC Section 3(f))",
  "alternate_names": "Kapampangan, Pampango, Pampangueño",
  "population": "1,900,000 in Philippines (1990 census). Population total all countries: 1,905,430",
  "location": "Luzon, southern half, Tarlac Province; most of Pampanga Province west of Pampanga river; southwest Nueva Ecija Province; and Zambales Province, scattered areas along eastern border",
  "maps": "Northern Philippines",
  "classification": "Austronesian, Malayo-Polynesian, Philippine, Central Luzon, Pampangan",
  "use": "Dominant language in Pampanga Province. Used as L2 by Mag-Indi Ayta [blx]",
  "development": "New media. Bible: 1917–1994",
  "resources": "OLAC resources in and about Pampangan",
  "writing": "Braille script [Brai]. Latin script [Latn], primary usage"
}