{
  "id": "pbr",
  "name": "Pangwa",
  "country": {
    "code": "TZ",
    "name": "Tanzania",
    "area": "Africa"
  },
  "status": "6a (Vigorous)",
  "alternate_names": "Ekipangwa, Kipangwa",
  "population": "95,000 (2002)",
  "location": "Iringa region: Ludewa district; Livingstone mountains, Lake Nyasa east shore",
  "maps": "Tanzania",
  "classification": "Niger-Congo, Atlantic-Congo, Volta-Congo, Benue-Congo, Bantoid, Southern, Narrow Bantu, Central, G, Bena-Kinga (G.64)",
  "dialects": "Kimwela. Kimwela has a distinctly different accent and the people consider themselves a separate ethnic group, but it is completely intelligible with Pangwa; intelligibility with Bena [bez] not demonstrated in preliminary tests. Lexical similarity: 71% with Bena [bez], 62% with Kisi [kiz], 61% with Kinga [zga], 59% with Hehe [heh], 58% with Sangu [sbp], 55% with Vwanji [wbi]",
  "use": "Vigorous. Low domains and often to discuss high domains. Swahili [swh] used in high domains. All ages. Positive attitudes. Use little Swahili [swh]",
  "development": "Literacy rate in L1: 0%. Grammar",
  "resources": "OLAC resources in and about Pangwa",
  "writing": "Unwritten [Qaax]",
  "other_comments": "Christian"
}