{
  "id": "pbu",
  "name": "Pashto, Northern",
  "country": {
    "code": "PK",
    "name": "Pakistan",
    "area": "Asia"
  },
  "status": "4 (Educational)",
  "alternate_names": "Pakhto, Pashtu, Pushto, Yousafzai Pashto, Yusufzai Pashto",
  "population": "18,700,000 in Pakistan (2013 SIL). Population total all countries: 21,038,000. Ethnic population: Possibly 49,600,000 Pashto in all countries",
  "location": "Afghanistan border; most of North-West Frontier Province, Peshawar district and Yusufzai area; Federally Administered Tribal Areas, mainly central and northern areas; into Punjab Province, Mianwali district",
  "maps": "India, Map 1                      Northern Pakistan                      Southern Pakistan",
  "classification": "Indo-European, Indo-Iranian, Iranian, Eastern, Southeastern, Pashto",
  "dialects": "Eastern Afghan Pashto, Ningraharian Pashto, Northeastern Pashto. Much similarity with Northwestern Pashto in Afghanistan. Subdialects of Northeastern Pashto are Kohat (Khatak), Yusufzai (Peshawar), Afridi, Shinwari, Mohmand, Shilmani. Lexical similarity: 80% between Northeastern and Southwestern Pashto. A member of macrolanguage Pushto [pus]",
  "use": "Rich literary tradition. The Powinda are a nomadic Pashto-speaking group. Used as L2 by Badeshi [bdz], Gawar-Bati [gwt], Palula [phl], Southern Hindko [hnd]",
  "development": "Literacy rate in L2: Low. Taught in primary schools. Poetry. Magazines. Newspapers. New media. Radio programs. Films. TV. Videos. Dictionary. Grammar. Bible: 1895",
  "resources": "OLAC resources in and about Pashto, Northern",
  "writing": "Arabic script [Arab], Naskh style. Arabic script, Nastaliq variant [Aran]",
  "other_comments": "Muslim (Sunni), Muslim (Shi’a)"
}