{
  "id": "pbv",
  "name": "Pnar",
  "country": {
    "code": "IN",
    "name": "India",
    "area": "Asia"
  },
  "status": "6a (Vigorous)",
  "population": "243,000 in India (2001 census). Population total all countries: 247,000",
  "location": "Meghalaya, Khasi and Jaintia hills, north of War Jaintia; Mizoram, north Aizawl district; Assam, North Cachar hills, Jatinga, Borolokha, and Dibruchera; Karbi Anglong district, Ulukunchi",
  "maps": "Northeastern Bangladesh                      India, Map 5",
  "classification": "Austro-Asiatic, Mon-Khmer, Northern Mon-Khmer, Khasian",
  "dialects": "Jaintia (Synteng), Nongtung. Formerly considered a dialect of Khasi [kha]. Jaintia dialect has 12 spoken forms: Jowai, Shangpung, Batau, Raliang, Sutnga, Sumer, Nartiang, Barato, Rymbai, Lakadong, Mynso, and Nongtalang. All are intelligible, except for Nongtalang, which is akin to Central Khmer [khm]. Jowai is standard spoken form. Lexical similarity: 68% with standard Khasi",
  "use": "Also use Bengali [ben], English [eng], Hindi [hin], Mizo [lus]",
  "development": "Literacy rate in L2: 62% for Synteng dialect in Meghalaya (2001 census). Radio programs",
  "resources": "OLAC resources in and about Pnar",
  "writing": "Latin script [Latn]",
  "other_comments": "A Scheduled Tribe. Christian"
}