{
  "id": "pcf",
  "name": "Paliyan",
  "country": {
    "code": "IN",
    "name": "India",
    "area": "Asia"
  },
  "status": "6a (Vigorous)",
  "alternate_names": "Makkal, Malai Paliyar, Palani, Palaya, Palayan, Paliyar, Palleyan, Palliyar, Poliyar, Seramar, Tamil",
  "population": "9,520 (2001 census)",
  "location": "Kerala, Idukki district, Pirmed tahsil, Kumily, Vandanmedu, and Chakkupallam panchayats; Ernakulam and Kottayam districts; Tamil Nadu, Dindigul, Madurai, Ramanathapuram, Thanjavur, Pudukkottai, Tirunelveli, and Coimbatore districts; Karnataka",
  "maps": "India, Map 8",
  "classification": "Dravidian, Southern, Tamil-Kannada, Tamil-Kodagu, Tamil-Malayalam, Malayalam",
  "dialects": "Mala Pulayan (Hill Pulaya, Karavazhi). Lexical similarity: 71%–75% with Tamil [tam], 62%–65% with Malayalam [mal], 79%–85% with Mala Pulayan [pcf]",
  "use": "Speakers have high proficiency in Tamil [tam]. Also use Malayalam [mal]",
  "development": "Literacy rate in L2: 44%–62% in Kerala, 50% for Hill Pulaya (2001 census)",
  "resources": "OLAC resources in and about Paliyan",
  "other_comments": "A Scheduled Tribe. Paliya and Mala Pulaya refer to L1 as Tamil [tam], though it differs from standard Tamil. Traditional religion, Christian, Hindu"
}