{
  "id": "pcp",
  "name": "Pacahuara",
  "country": {
    "code": "BO",
    "name": "Bolivia",
    "area": "Americas"
  },
  "status": "8a (Moribund)",
  "alternate_names": "Pacawara",
  "population": "17 (Adelaar 2004). Ethnic population: 18 (Adelaar 2004). Possibly 50 Pacahuara in 8 families scattered between Río Negro and Río Pacahuaras, Federico Román Province, Pando Department (Crevels 2007)",
  "location": "El Beni Department, Vaca Díez province, near the Chácobo community of Alto Ivon",
  "maps": "Bolivia",
  "classification": "Panoan, Bolivian Panoan",
  "resources": "OLAC resources in and about Pacahuara",
  "writing": "Unwritten [Qaax]",
  "other_comments": "Integrated into the Chácobo [cao]"
}