{
  "id": "pek",
  "name": "Penchal",
  "country": {
    "code": "PG",
    "name": "Papua New Guinea",
    "area": "Pacific"
  },
  "status": "6a (Vigorous)",
  "population": "550 (1982 SIL)",
  "location": "Manus Province, Rambutyo island",
  "maps": "Papua New Guinea, Map 1",
  "classification": "Austronesian, Malayo-Polynesian, Central-Eastern Malayo-Polynesian, Eastern Malayo-Polynesian, Oceanic, Admiralty Islands, Eastern, Southeast Islands",
  "typology": "SVO",
  "use": "Also use Titan [ttv]. Used as L2 by Lenkau [ler]",
  "resources": "OLAC resources in and about Penchal"
}