{
  "id": "peq",
  "name": "Pomo, Southern",
  "country": {
    "code": "US",
    "name": "United States",
    "area": "Americas"
  },
  "status": "8b (Nearly extinct)",
  "alternate_names": "Gallinoméro",
  "population": "Speakers in the Cloverdale and Geyserville areas",
  "location": "California, Cloverdale and Geyserville",
  "classification": "Pomoan, Western, Southern",
  "use": "Shifted to English [eng]. Speakers 60 and older",
  "resources": "OLAC resources in and about Pomo, Southern"
}