{
  "id": "phr",
  "name": "Pahari-Potwari",
  "country": {
    "code": "PK",
    "name": "Pakistan",
    "area": "Asia"
  },
  "status": "6a (Vigorous)",
  "alternate_names": "Chibhali, Dhundi-Kairali, Pothohari, Potohari, Potwari",
  "population": "2,500,000 in Pakistan (Lothers and Lothers 2007)",
  "location": "All but far north in Azad Kashmir; Punjab Province, Rawalpindi, Gujarat, and Jhelum districts; Islamabad; North-West Frontier, Abbottabad district",
  "maps": "Northern Pakistan                      Southern Pakistan",
  "classification": "Indo-European, Indo-Iranian, Indo-Aryan, Northwestern zone, Lahnda",
  "dialects": "Chibhali, Mirpuri, Pahari (Dhundi-Kairali), Pothwari (Potwari), Punchhi (Poonchi). ’Pahari’, hill language; Potwari is the language of the Pothwar Plateau. A chain of related varieties with Punjabi [pnb], Hindko [hno], [hnd], and Saraiki [skr], also called Greater Punjabi. Degree of similarity to Western Pahari varieties in India unknown. Lexical similarity: 76%–84% among varieties called, Pahari, Potwari, and some called Hindko in Mansehra, Muzzaffarabad, and Mirpuri in Jammu. A member of macrolanguage Lahnda [lah]",
  "development": "Radio programs",
  "resources": "OLAC resources in and about Pahari-Potwari",
  "writing": "Arabic script, Nastaliq variant [Aran]",
  "other_comments": "Muslim"
}