{
  "id": "phv",
  "name": "Pahlavani",
  "country": {
    "code": "AF",
    "name": "Afghanistan",
    "area": "Asia"
  },
  "status": "9 (Dormant)",
  "population": "No known L1 speakers",
  "location": "Nimruz Province, Chakhansur district",
  "classification": "Indo-European, Indo-Iranian, Iranian, Western, Southwestern, Persian",
  "dialects": "None known. Reportedly similar to Dari [prs]",
  "resources": "OLAC resources in and about Pahlavani",
  "other_comments": "Muslim"
}