{
  "id": "pic",
  "name": "Pinji",
  "country": {
    "code": "GA",
    "name": "Gabon",
    "area": "Africa"
  },
  "status": "6b (Threatened)",
  "alternate_names": "Apindje, Apindji, Apindzi, Apinji, Gapinji, Ghepinzi, Pinzi",
  "population": "1,000 (Idiata 2007)",
  "location": "Ngounié province: east of Mouila, between Eléké and Fougamou",
  "maps": "Equatorial Guinea, Gabon and São Tomé e Príncipe",
  "classification": "Niger-Congo, Atlantic-Congo, Volta-Congo, Benue-Congo, Bantoid, Southern, Narrow Bantu, Northwest, B, Tsogo (B.304)",
  "dialects": "None known. Very similar to Tsogo [tsv] (Idiata 2007)",
  "use": "Also use Tsogo [tsv]",
  "resources": "OLAC resources in and about Pinji",
  "writing": "Unwritten [Qaax]",
  "other_comments": "Different from Phende [pem] of Democratic Republic of the Congo. Traditional religion"
}