{
  "id": "pih",
  "name": "Pitcairn-Norfolk",
  "country": {
    "code": "NF",
    "name": "Norfolk Island",
    "area": "Pacific"
  },
  "status": "6a (Vigorous). Statutory language of national identity (2004, Norfolk Island Language (Norf’k) Act No. 25, Section 4), restrictions in Sec. 5 of Act No. 25 of 2004 bar meaningful official use",
  "alternate_names": "Norfolkese, Pitcairn English",
  "population": "430 in Norfolk Island (2011 census). Population total all countries: 532",
  "location": "Norfolk Island",
  "classification": "Creole, English based, Pacific",
  "dialects": "Norfolk English",
  "use": "Valued for identity preservation. It is in a diglossic relationship with standard British English [eng] (Wurm 2007). Also use English [eng]",
  "resources": "OLAC resources in and about Pitcairn-Norfolk",
  "other_comments": "Developed from mutineers who settled on Pitcairn in 1790. All were removed to Norfolk in 1859, after which a few returned. Some descendants of Pitcairn Islanders now in Australia and New Zealand"
}