{
  "id": "pil",
  "name": "Yom",
  "country": {
    "code": "BJ",
    "name": "Benin",
    "area": "Africa"
  },
  "status": "5 (Developing)",
  "alternate_names": "Kpilakpila, Pila, Pilapila",
  "population": "300,000 (2006 SIL). Almost no monolinguals. Ethnic population: 300,000. 230,000 Yowa; 70,000 Tangma. L2 users: 150,000",
  "location": "Donga department: Djougou, Copargo communes, south into Bassila commune; north into Atakora department: Kouande, Natingou, and Pehonko communes; Borgou department: N’Dali commune",
  "maps": "Benin",
  "classification": "Niger-Congo, Atlantic-Congo, Volta-Congo, North, Gur, Central, Northern, Oti-Volta, Yom-Nawdm",
  "dialects": "Tangerem (Taneka), Yom. Yom and Tangerem dialects are very similar",
  "use": "Vigorous. Home, neighborhood, work, market. All ages. Positive attitudes. Also use Baatonum [bba], Dendi [ddn], French [fra], Lukpa [dop], Yoruba [yor]. Used as L2 by Dendi [ddn], Ditammari [tbz], Lukpa [dop]",
  "development": "Literacy rate in L1: 35%. Literacy rate in L2: 25% in French [fra]. Rate higher among youth and women. Taught in primary schools in small-scale multilingual education program since 2014. Newspapers. Radio programs. Dictionary. NT: 1985",
  "resources": "OLAC resources in and about Yom",
  "writing": "Latin script [Latn]",
  "other_comments": "Yom dialect users are called Yowa; Tangerem users are Tangma. Traditional religion, Muslim"
}