{
  "id": "pir",
  "name": "Piratapuyo",
  "country": {
    "code": "BR",
    "name": "Brazil",
    "area": "Americas"
  },
  "status": "6b (Threatened)",
  "alternate_names": "Pira-Tapuya, Uaiana, Uaicana, Uaikena, Uainana, Waikhara, Waikino, Waina",
  "population": "1,430 in Brazil (2005 FOIRN). Population total all countries: 1,880",
  "location": "Northwestern Amazonas, Terra Indígena Rio Negro, Terra Indígena Médio Rio Negro I, Terra Indígena Médio Rio Negro II, Terra Indígena Rio Téa",
  "maps": "Northwestern Brazil                      Southern Colombia",
  "classification": "Tucanoan, Eastern Tucanoan",
  "dialects": "None known. Reportedly similar to Guanano [gvc] but ethnically distinct. The two groups do not intermarry. 75% intelligibility of Guanano (1992 N. Waltz)",
  "use": "Strong use in home. Also use Tucano [tuo]",
  "development": "A non-governmental organization s working in literacy. NT: 1991–2011",
  "resources": "OLAC resources in and about Piratapuyo",
  "writing": "Latin script [Latn]"
}