{
  "id": "piy",
  "name": "Piya-Kwonci",
  "country": {
    "code": "NG",
    "name": "Nigeria",
    "area": "Africa"
  },
  "status": "5 (Developing)",
  "alternate_names": "Ambandi, Pia, Pitiko, Piya, Wurkum",
  "population": "5,000 (1992)",
  "location": "Taraba state: Karim Lamido LGA; Bauchi state. 21 villages or more",
  "maps": "Nigeria, Map 3",
  "classification": "Afro-Asiatic, Chadic, West, A, A.2, Tangale, Tangale Proper",
  "dialects": "Kwonci, Piya",
  "use": "Also use English [eng], Hausa [hau], Kulung [bbu], Tangale [tan]",
  "development": "Bible portions: 1950",
  "resources": "OLAC resources in and about Piya-Kwonci",
  "writing": "Latin script [Latn]",
  "other_comments": "Similar in culture to the Kulung [bbu], and Pero [pip]. Ethnic autonym: Ambandi is their self-name. Christian, Muslim"
}