{
  "id": "pkr",
  "name": "Kurumba, Attapady",
  "country": {
    "code": "IN",
    "name": "India",
    "area": "Asia"
  },
  "status": "6a (Vigorous)",
  "alternate_names": "Kurumba, Pal Kurumba",
  "population": "1,370 (1991 census)",
  "location": "Kerala State, Palakkad district, Attapady block",
  "maps": "India, Map 8",
  "classification": "Dravidian, Southern",
  "dialects": "None known. Separate from Alu Kurumba [xua] and Kurumba Kannada [kfi]. Lexical similarity: 82% with Muduga [udg]; 61%–70% with Irula [iru], 50% with Alu Kurumba [xua], 52% with Kurumba Kannada, 55% with Malayalam [mal], 58% with Tamil [tam]",
  "use": "Vigorous. Home, village, religion. All ages. Positive attitudes. Despite dissimilarity between Kurumba, Muduga [udg], and Irula, each group uses their mother tongue to communicate with each other. Many use Muduga [udg]. Despite dissimilarity between Kurumba, Muduga, and Irula [iru], each group uses their mother tongue to communicate with each other. Also use Malayalam [mal], Tamil [tam]",
  "development": "Literacy rate in L2: 32% in Attapady; or 23% (27% men, 15% women), including other Kurumba in Wayanad District (1991 census)",
  "resources": "OLAC resources in and about Kurumba, Attapady",
  "other_comments": "The least developed language group in Attapady. Thudukki variety is reportedly most pure. Hindu, traditional religion"
}