{
  "id": "plv",
  "name": "Palawano, Southwest",
  "country": {
    "code": "PH",
    "name": "Philippines",
    "area": "Asia"
  },
  "status": "6a (Vigorous)",
  "population": "12,000 (2005 W. Davis)",
  "location": "Southwest Palawan Island, north of Rizal to the south tip, east side from Bataraza south, mostly along upland rivers, some along the coast",
  "maps": "Southern Philippines",
  "classification": "Austronesian, Malayo-Polynesian, Philippine, Greater Central Philippine, Palawanic",
  "dialects": "None known. Intelligibility of Central Palawano [plc] 75%, of Brooke’s Point Palawano [plw] 76%. Lexical similarity: 85% with Brooke’s Point Palawano [plw], 78% with Central Palawano [plc]",
  "use": "Low comprehension of Filipino [fil]",
  "development": "NT: 2014",
  "resources": "OLAC resources in and about Palawano, Southwest",
  "writing": "Latin script [Latn]"
}