{
  "id": "pmd",
  "name": "Pallanganmiddang",
  "country": {
    "code": "AU",
    "name": "Australia",
    "area": "Pacific"
  },
  "status": "10 (Extinct)",
  "alternate_names": "Pallangahmiddang, Wavaroo, Wave Veroo, Waveroo, Way.you.rong, Way.you.roo, Wayerroo, Waywurru, Wee.er.roo, Wee.her.roo",
  "population": "No known L1 speakers. Date of last speaker’s death unknown",
  "location": "Northern Victoria State, east of Albury",
  "classification": "Australian, Pama-Nyungan, Pallanganmiddang",
  "resources": "OLAC resources in and about Pallanganmiddang",
  "writing": "Unwritten [Qaax]"
}