{
  "id": "pml",
  "name": "Lingua Franca",
  "country": {
    "code": "TN",
    "name": "Tunisia",
    "area": "Africa"
  },
  "status": "10 (Extinct)",
  "alternate_names": "’Ajnabi, Aljamia, Ferenghi, Petit Mauresque, Sabir",
  "population": "No known L1 speakers",
  "location": "Tunisia; Dodecanese islands west bank, Greece; Cyprus; other major Mediterranean ports",
  "classification": "Pidgin, Romance based",
  "dialects": "None known. Lexicon from Italian [ita] and Occitan [oci]. Reportedly a present-day variety on Aegean Islands, used as pidgin in southeast Mediterranean region, has mainly Arabic syntax and vocabulary which is 65%–70% Italian [ita], 10% Spanish [spa], and other Catalan [cat], French [fra], Ladino [lad], and Turkish [tur] words",
  "development": "Dictionary",
  "resources": "OLAC resources in and about Lingua Franca",
  "other_comments": "Documented in Jerba, Tunisia in 1353"
}