{
  "id": "pmr",
  "name": "Paynamar",
  "country": {
    "code": "PG",
    "name": "Papua New Guinea",
    "area": "Pacific"
  },
  "status": "6b (Threatened)",
  "population": "150 (Z’Graggen 1975)",
  "location": "Madang Province",
  "maps": "Papua New Guinea, Map 6",
  "classification": "Trans-New Guinea, Madang, South Adelbert Range, Wanang, Paynamar",
  "resources": "OLAC resources in and about Paynamar"
}