{
  "id": "pnu",
  "name": "Bunu, Jiongnai",
  "country": {
    "code": "CN",
    "name": "China",
    "area": "Asia"
  },
  "status": "6b (Threatened). Language of recognized nationality: Yao",
  "alternate_names": "Hualan Yao, Jiongnai, Jiongnaihua, Kiong Nai, Punu, Qiungnai",
  "population": "1,080 (1999 Mao Zongwu). 270 monolinguals. Ethnic population: 1,500 (Bradley 2007)",
  "location": "East Guangxi Zhuang Autonomous Region, Jinxiu Yao autonomous county",
  "maps": "Southern China",
  "classification": "Hmong-Mien, Hmongic, Bunu",
  "dialects": "None known. Very different from and unintelligible to surrounding Yao and other Bunu speakers. Lexical similarity: 52% with Bu-Nao Bunu [bwx]",
  "use": "Vigorous in most families. All domains. All ages. Neutral attitudes. Also use Hmong Njua [hnj], Iu Mien [ium], Lakkia [lbc], Mandarin Chinese [cmn]",
  "development": "Grammar",
  "resources": "OLAC resources in and about Bunu, Jiongnai",
  "other_comments": "Ethnonym: Hualan Yao by Han Chinese, Patterned Blue Yao (from womens’ traditional dress). Bunu is a cover term for separate languages. Daoist, traditional religion"
}