{
  "id": "poo",
  "name": "Pomo, Central",
  "country": {
    "code": "US",
    "name": "United States",
    "area": "Americas"
  },
  "status": "8b (Nearly extinct)",
  "alternate_names": "Ballo-Kai-Pomo, Cabanapo, Habenapo, H’hana, Kábinapek, Khabenapo, Khana, Kulanapan, Kulanapo, Venaambakaia, Venambakaiia, Yokaia",
  "population": "2 (1997 M. Mithun). Several speakers in the Hopland area and at Manchester and Point Areana on the coast (Golla 2007). Ethnic population: 4,770 (1997 M. Mithun)",
  "location": "Northern California, Clear Lake area",
  "maps": "Western United States of America",
  "classification": "Pomoan, Western, Southern",
  "dialects": "Hopland, Point Arena, Ukiah",
  "use": "Shifted to English [eng]. Intermittent teaching at Hopland. 60 and older",
  "resources": "OLAC resources in and about Pomo, Central"
}