{
  "id": "por",
  "name": "Portuguese",
  "country": {
    "code": "PT",
    "name": "Portugal",
    "area": "Europe"
  },
  "status": "1 (National). Statutory national language (2005, Constitution, Article 11(3))",
  "alternate_names": "Português",
  "population": "10,000,000 in Portugal (European Commission 2012). Population total all countries: 203,352,100",
  "location": "Widespread; also, Azores and Madeira autonomous regions",
  "maps": "Portugal and Spain",
  "classification": "Indo-European, Italic, Romance, Italo-Western, Western, Gallo-Iberian, Ibero-Romance, West Iberian, Portuguese-Galician",
  "dialects": "Alentejan (Alentejano), Algarvian (Algarvio), Azorean (Açoriano), Beiran (Beirão), Brazilian Portuguese, Estremenho, Madeirese (Madeirense), Minhotan (Minhoto), Transmontan (Transmontano). Standard Portuguese of Portugal based on Estremenho dialect (Lisbon and Coimbra)",
  "typology": "SVO",
  "use": "3,392,000 also use English [eng]. 2,544,000 also use French [fra]. 954,000 also use Spanish [spa]",
  "development": "Literacy rate in L2: 83%–84%. Fully developed. Bible: 1751–1995",
  "resources": "OLAC resources in and about Portuguese",
  "writing": "Braille script [Brai]. Latin script [Latn], primary usage",
  "other_comments": "Christian"
}