{
  "id": "ppa",
  "name": "Pao",
  "country": {
    "code": "IN",
    "name": "India",
    "area": "Asia"
  },
  "status": "6a (Vigorous)",
  "alternate_names": "Pabra",
  "population": "53,000 (2000)",
  "location": "Madhya Pradesh, Satna, Chhatarpur, Datia, Panna, Rewa, Shahdol, Sidhi, and Tikamgarh districts",
  "maps": "India, Map 3",
  "classification": "Sino-Tibetan, Tibeto-Burman, Unclassified",
  "dialects": "None known. May not be Tibeto-Burman",
  "use": "Also use Hindi [hin]",
  "resources": "OLAC resources in and about Pao",
  "other_comments": "A Scheduled Tribe. Reported to speak Bagheli [bfy] as L1 (Singh 1994). Hindu"
}