{
  "id": "ppi",
  "name": "Paipai",
  "country": {
    "code": "MX",
    "name": "Mexico",
    "area": "Americas"
  },
  "status": "8a (Moribund)",
  "alternate_names": "Akwa’ala",
  "population": "100 (Golla 2007)",
  "location": "Santa Catarina, Los Pocitos in Valle de la Trinidad, Estado Valle de la Trinidad, Rancho Aguascalientes and La Palmita; Baja California Norte, Ensenada, south of the Diegueño [dih] language area",
  "maps": "Mexico",
  "classification": "Cochimí-Yuman, Yuman, Pai",
  "use": "Shifting to Spanish [spa]. Kiliwa [klb] sample understood Paipai at 87%, but Paipai understood no Kiliwa. Used as L2 by Kiliwa [klb]",
  "resources": "OLAC resources in and about Paipai",
  "writing": "Unwritten [Qaax]"
}