{
  "id": "ppp",
  "name": "Pelende",
  "country": {
    "code": "CD",
    "name": "Democratic Republic of the Congo",
    "area": "Africa"
  },
  "status": "6a (Vigorous)",
  "population": "8,400 (2002)",
  "location": "Bandundu province: Kenge territory",
  "maps": "Southern Democratic Republic of Congo",
  "classification": "Niger-Congo, Atlantic-Congo, Volta-Congo, Benue-Congo, Bantoid, Southern, Narrow Bantu, Central, H, Yaka (H.31)",
  "dialects": "None known. Reportedly similar to Lonzo [lnz] and Ngongo [noq]",
  "resources": "OLAC resources in and about Pelende"
}