{
  "id": "prm",
  "name": "Kibiri",
  "country": {
    "code": "PG",
    "name": "Papua New Guinea",
    "area": "Pacific"
  },
  "status": "6a (Vigorous)",
  "alternate_names": "Gibiri, Polome, Porome",
  "population": "1,180 (2011 SIL). 900 Porome, 280 Kibiri",
  "location": "Gulf Province, Kikori district, near Aird Hills, Kikori river tributaries, Tipeowo, Doibo, Paile, Babaguina, Ero, and Wowa villages",
  "maps": "Papua New Guinea, Map 14",
  "classification": "Trans-New Guinea, Kiwaian",
  "dialects": "Aird Hills (Kibiri), Porome. Unrelated to other Gulf Province languages",
  "development": "Literacy rate in L1: 15%–25%. Literacy rate in L2: 5%–15%. Grammar",
  "resources": "OLAC resources in and about Kibiri",
  "writing": "Latin script [Latn]",
  "other_comments": "Different from Rumu [klq], which is also called Kibiri"
}