{
  "id": "prr",
  "name": "Puri",
  "country": {
    "code": "BR",
    "name": "Brazil",
    "area": "Americas"
  },
  "status": "10 (Extinct)",
  "alternate_names": "Coroado",
  "population": "No known L1 speakers",
  "location": "Espírito Santo and Minas Gerais states",
  "classification": "Purian",
  "resources": "OLAC resources in and about Puri"
}