{
  "id": "psl",
  "name": "Puerto Rican Sign Language",
  "country": {
    "code": "PR",
    "name": "Puerto Rico",
    "area": "Americas"
  },
  "status": "6b (Threatened)",
  "alternate_names": "PRSL",
  "population": "8,000–40,000 deaf persons (Van Cleve 1986)",
  "location": "Scattered",
  "classification": "Deaf sign language",
  "dialects": "None known. Related to American Sign Language [ase]",
  "use": "Signs introduced in 1907 by Catholic nuns. Some home signs also used",
  "resources": "OLAC resources in and about Puerto Rican Sign Language",
  "other_comments": "Although some form of PRSL may still be used in the lower populated areas in the western and central parts of the country, it appears that ASL [ase] is becoming the sole sign language of the Puerto Rican deaf community"
}