{
  "id": "psw",
  "name": "Port Sandwich",
  "country": {
    "code": "VU",
    "name": "Vanuatu",
    "area": "Pacific"
  },
  "status": "8b (Nearly extinct)",
  "alternate_names": "Lamap",
  "population": "1,200 (Lynch and Crowley 2001)",
  "location": "Malampa Province, southeast Malekula",
  "maps": "Vanuatu, Enlarged Area",
  "classification": "Austronesian, Malayo-Polynesian, Central-Eastern Malayo-Polynesian, Eastern Malayo-Polynesian, Oceanic, Central-Eastern Oceanic, Remote Oceanic, North and Central Vanuatu, Northeast Vanuatu-Banks Islands, Malekula Coastal",
  "dialects": "Several dialects",
  "resources": "OLAC resources in and about Port Sandwich"
}