{
  "id": "ptr",
  "name": "Piamatsina",
  "country": {
    "code": "VU",
    "name": "Vanuatu",
    "area": "Pacific"
  },
  "status": "6b (Threatened)",
  "population": "150 (Wurm and Hattori 1981). Ethnic population: 210",
  "location": "Sanma Province, northwest Santo Island",
  "maps": "Vanuatu, Enlarged Area",
  "classification": "Austronesian, Malayo-Polynesian, Central-Eastern Malayo-Polynesian, Eastern Malayo-Polynesian, Oceanic, Central-Eastern Oceanic, Remote Oceanic, North and Central Vanuatu, Northeast Vanuatu-Banks Islands, West Santo",
  "dialects": "None known. Reportedly similar to Vunapu [vnp]",
  "use": "Potentially endangered (2000 D. Tryon). Most key domains. Used by 60% of children. Positive attitudes",
  "resources": "OLAC resources in and about Piamatsina"
}