{
  "id": "puj",
  "name": "Punan Tubu",
  "country": {
    "code": "ID",
    "name": "Indonesia",
    "area": "Asia"
  },
  "status": "6a (Vigorous)",
  "population": "2,000 (Wurm and Hattori 1981)",
  "location": "Kalimantan Timur Province; Malinau, Mentarang, and Sembakung river areas",
  "maps": "Indonesia, Kalimantan",
  "classification": "Austronesian, Malayo-Polynesian, North Borneo, North Sarawakan, Punan Tubu",
  "resources": "OLAC resources in and about Punan Tubu",
  "other_comments": "Not a Kenyah language (2003 A. Soriente). Penan is generic, nonagricultural peoples (Blust 1974). There are no Penan languages as a distinguishable subgroup"
}