{
  "id": "pwa",
  "name": "Pawaia",
  "country": {
    "code": "PG",
    "name": "Papua New Guinea",
    "area": "Pacific"
  },
  "status": "5 (Developing)",
  "alternate_names": "Aurama, Pavaia, Pawaian, Sira, Tudahwe, Yasa",
  "population": "4,000 (1991 SIL)",
  "location": "Gulf Province, Baimuru RLLG, Purari river near Oroi; Chimbu Province, Karimui district; Eastern Highlands Province, Lufa and Okapa districts, Lamari river",
  "maps": "Papua New Guinea, Map 9                      Papua New Guinea, Map 10                      Papua New Guinea, Map 14                      Papua New Guinea, Map 15",
  "classification": "Trans-New Guinea, Pawaian",
  "dialects": "Aurama (Turoha, Uri), Hauruha",
  "development": "Literacy rate in L1: Below 5%. Literacy rate in L2: Below 5%. Grammar. NT: 2000",
  "resources": "OLAC resources in and about Pawaia",
  "writing": "Latin script [Latn]",
  "other_comments": "Traditional religion, Christian"
}