{
  "id": "pyu",
  "name": "Puyuma",
  "country": {
    "code": "TW",
    "name": "China–Taiwan",
    "area": "Asia"
  },
  "status": "7 (Shifting)",
  "alternate_names": "Kadas, Panapanayan, Pelam, Pilam, Piyuma, Pyuma, Tipun",
  "population": "8,490 (CIP-EY 2002). Ethnic population: 8,490",
  "location": "East coast area south of Taitung and inland",
  "maps": "Taiwan",
  "classification": "Austronesian, Puyuma",
  "dialects": "Nanwang, Pinan",
  "use": "All domains. Mostly older adults. Used as L2 by Rukai [dru]",
  "development": "Dictionary. Grammar. Bible portions: 1990",
  "resources": "OLAC resources in and about Puyuma"
}