{
  "id": "qud",
  "name": "Quichua, Calderón Highland",
  "country": {
    "code": "EC",
    "name": "Ecuador",
    "area": "Americas"
  },
  "status": "6b (Threatened)",
  "alternate_names": "Calderón Quichua, Cayambe Quichua, Pichincha Quichua",
  "population": "25,000 (1987 SIL). Ethnic population: 35,000 (2000)",
  "location": "Pichincha Province, Quito, Calderon and Cayambe areas; northern third, Napo Province; northeast Cotopaxi Province",
  "maps": "Ecuador",
  "classification": "Quechuan, Peripheral Quechua, Chinchay, Northern Chinchay",
  "dialects": "None known. Distinct from Chimborazo [qug], Imbabura [qvi], and Salasaca [qxl]. A member of macrolanguage Quechua [que]",
  "typology": "SOV",
  "use": "Shifting to Spanish [spa]. Home. All ages",
  "resources": "OLAC resources in and about Quichua, Calderón Highland",
  "writing": "Latin script [Latn]"
}