{
  "id": "quh",
  "name": "Quechua, South Bolivian",
  "country": {
    "code": "BO",
    "name": "Bolivia",
    "area": "Americas"
  },
  "status": "5 (Developing). Recognized language (2009, Constitution, Article 5(1))",
  "alternate_names": "Central Bolivian Quechua, Quechua Boliviano",
  "population": "2,780,000 in Bolivia (1987). Population total all countries: 2,785,120",
  "location": "Mainly Potosí Department; Cochabamba, Oruro, Chuquisaca, La Paz, and Tarija departments; highland and lowland except around Apolo",
  "maps": "Argentina and Chile                      Bolivia",
  "classification": "Quechuan, Peripheral Quechua, Chinchay, Southern Chinchay",
  "dialects": "Chuquisaca, Cochabamba, Northwest Jujuy, Oruro, Potosí, Sucre. May be intelligible of Chilean Quechua [cqu]. A member of macrolanguage Quechua [que]",
  "typology": "SOV",
  "development": "Dictionary. Bible: 1986–1993",
  "resources": "OLAC resources in and about Quechua, South Bolivian",
  "writing": "Latin script [Latn]",
  "other_comments": "Traditional religion, Christian"
}