{
  "id": "qup",
  "name": "Quechua, Southern Pastaza",
  "country": {
    "code": "PE",
    "name": "Peru",
    "area": "Americas"
  },
  "status": "5 (Developing). Recognized language (1993, Constitution, Article 48)",
  "alternate_names": "Inga",
  "population": "1,550 (2000). 310 monolinguals",
  "location": "Loreto Region, Anatico lake, Pastaza and Huasaga rivers; Ñucuray River and Manchari",
  "maps": "Peru",
  "classification": "Quechuan, Peripheral Quechua, Chinchay, Northern Chinchay",
  "dialects": "A member of macrolanguage Quechua [que]",
  "typology": "SOV",
  "use": "Home, work, play, church. All ages. 10% also use Spanish [spa]",
  "development": "Literacy rate in L1: Below 1%. Literacy rate in L2: 5%–15%. Dictionary. Grammar. NT: 1997–2008",
  "resources": "OLAC resources in and about Quechua, Southern Pastaza",
  "writing": "Latin script [Latn]",
  "other_comments": "Distinct from Northern Pastaza Quechua [qvz] of Peru and Ecuador"
}