{
  "id": "raf",
  "name": "Mewahang, Western",
  "country": {
    "code": "NP",
    "name": "Nepal",
    "area": "Asia"
  },
  "status": "6b (Threatened). Language of recognized indigenous nationality: Rai",
  "alternate_names": "Mewahang, Newahang, Newahang Jimi, Newang, Newange Rai, Western Meohang",
  "population": "4,650 all Mewahang (2011 census). Few monolinguals. Ethnic population: 3,000",
  "location": "Kosi Zone, Sankhuwasabha district, upper Arun valley west of Arun river, Bala, Yamdang, Tamku, and Sisuwa. Bala dialect: Bala village, Sankhuwasabha VDC; Bumdemba dialect: Sishuwakhola VDC",
  "maps": "Eastern Nepal",
  "classification": "Sino-Tibetan, Tibeto-Burman, Western Tibeto-Burman, Himalayan, Kiranti, Eastern",
  "dialects": "Bala (Balali), Bumdemba. Structurally different from Eastern Mewahang [emg]",
  "typology": "SOV; postpositions; 24 consonant and 14 vowel phonemes",
  "use": "The language is nearly extinct in the village of Tamku, the largest settlement in the area, where many ex-Gurkha pensioners live. Home; mixed use: Friends, religion, work. Young adults and older. Some use among children and adolescents. Positive attitudes. Also use Kulung [kle], Lohorung [lbr], Nepali [npi]",
  "development": "Poetry. Dictionary",
  "resources": "OLAC resources in and about Mewahang, Western",
  "writing": "Devanagari script [Deva]",
  "other_comments": "Traditional religion, Hindu"
}