{
  "id": "rap",
  "name": "Rapa Nui",
  "country": {
    "code": "CL",
    "name": "Chile",
    "area": "Americas"
  },
  "status": "6b (Threatened)",
  "alternate_names": "Easter Island, Pascuense, Rapanui",
  "population": "2,400 in Chile (Wurm 2007). Population total all countries: 2,700",
  "location": "Valparaíso Region; Easter Island, 3,800 km from Chile, 4,000 km from Tahiti",
  "maps": "Argentina and Chile",
  "classification": "Austronesian, Malayo-Polynesian, Central-Eastern Malayo-Polynesian, Eastern Malayo-Polynesian, Oceanic, Central-Eastern Oceanic, Remote Oceanic, Central Pacific, East Fijian-Polynesian, Polynesian, Nuclear, East, Rapanui",
  "dialects": "None known. Lexical similarity: 64% with Hawaiian [haw], Mangareva [mrv], and Rarotongan [rar]; 63% with Marquesan [mrq]; 62% with Tahitian [tah] and Tuamotuan [pmt]",
  "typology": "VSO",
  "use": "Was vigorous, but now declining. Young generation losing interest in the language. Revival efforts are in progress (Wurm 2007). Home, education. Also use Spanish [spa]",
  "development": "Literacy rate in L1: Below 1%. Literacy rate in L2: 25%–50%. Radio programs. Dictionary. Grammar. Bible portions: 2003",
  "resources": "OLAC resources in and about Rapa Nui",
  "writing": "Latin script [Latn]"
}