{
  "id": "rbk",
  "name": "Bontok, Northern",
  "country": {
    "code": "PH",
    "name": "Philippines",
    "area": "Asia"
  },
  "status": "8a (Moribund)",
  "alternate_names": "Bontoc, Bontoc, Central, Bontoc, Northern",
  "population": "9,700 (2007 census)",
  "location": "Luzon, northern Mountain Province, Sadanga municipality, Anabel, Bekigan, Belwang, Betwagan, Demang, Sacasacan, Saclit, and the municipal center, Sadanga Poblacion",
  "maps": "Northern Philippines",
  "classification": "Austronesian, Malayo-Polynesian, Philippine, Northern Luzon, Meso-Cordilleran, South-Central Cordilleran, Central Cordilleran, North Central Cordilleran, Nuclear Cordilleran, Bontok-Kankanay, Bontok",
  "dialects": "None known. Reportedly similar to Central Bontok [lbk], Eastern Bontok [ebk], Southwestern Bontok [vbk], and Southern Bontok [obk]. A member of macrolanguage Bontok [bnc]",
  "use": "Mostly older speakers. Also use Ilocano [ilo]. Young, educated people use Ilocano. Young, educated people use Tagalog [tgl]. Also use Central Bontok [lbk]",
  "resources": "OLAC resources in and about Bontok, Northern",
  "other_comments": "Various Sadanga municipality residents do not identify their language as Bontok. They identify with their community dialect, and label it distinctively"
}