{
  "id": "res",
  "name": "Reshe",
  "country": {
    "code": "NG",
    "name": "Nigeria",
    "area": "Africa"
  },
  "status": "6a (Vigorous)",
  "alternate_names": "Bareshe, Gunga, Gunganchi, Gungawa, Tsureja, Tsureshe, Yaurawa",
  "population": "44,000 (1993 SIL)",
  "location": "Kebbi state: Yauri LGA; Niger state: Borgu LGA; Niger river banks, north of Busa",
  "maps": "Nigeria, Map 1",
  "classification": "Niger-Congo, Atlantic-Congo, Volta-Congo, Benue-Congo, Kainji, Western, Reshe",
  "dialects": "None known. Most divergent of Western Kainji languages (Blench 1988). Lexical similarity: 43% with Lopa [lop], 33% with Laru [lan], 20% with Hun-Saare [dud], 11% with Tsishingini [tsw] (Salka)",
  "use": "Shifting to Hausa [hau]. All ages",
  "development": "Bible portions: 1970–2009",
  "resources": "OLAC resources in and about Reshe",
  "writing": "Latin script [Latn], used since 2007",
  "other_comments": "Ethnic autonym: Bareshe, glossonym: Reshe or Tsureshe. Ethnic subgroups: Gungawa, Yaurawa (Yauri). Strong association between wrestling, the traditional religion, and ethnic identity. Muslim, traditional religion"
}