{
  "id": "rge",
  "name": "Romano-Greek",
  "country": {
    "code": "GR",
    "name": "Greece",
    "area": "Europe"
  },
  "status": "8b (Nearly extinct)",
  "alternate_names": "Hellenoromani",
  "population": "30 (2000)",
  "location": "Secret language, itinerant builders, especially in Evrytania and Fthiotis regional units",
  "classification": "Mixed language, Greek-Romani",
  "dialects": "None known. Structured on Greek [ell] with heavy Romani lexicon",
  "use": "Used only as a secret language",
  "resources": "OLAC resources in and about Romano-Greek",
  "other_comments": "Related variants are Dortika, a secret language spoken by wandering builders from Eurytania Prefecture, and Kaliarda, spoken in Athens. Both may no longer be anyone’s L1"
}