{
  "id": "ril",
  "name": "Riang",
  "country": {
    "code": "MM",
    "name": "Myanmar",
    "area": "Asia"
  },
  "status": "6b (Threatened)",
  "alternate_names": "Black Karen, Black Riang, Black Yang, Liang Sek, Riang-Lang, Yang, Yang Wan Kun, Yanglam, Yin, Yin Kya, Yin Net, Yinnet",
  "population": "12,500 in Myanmar (2008). Population total all countries: 15,500",
  "location": "Northeast, Shan State, Hopang district, near southern Shan town of Pang Long",
  "maps": "Southwestern China",
  "classification": "Austro-Asiatic, Mon-Khmer, Northern Mon-Khmer, Palaungic, Western Palaungic, Riang",
  "dialects": "Black Riang, Red Riang, Yinja. Not related to Kok Borok [trp]-speaking Riang of India and Bangladesh or to Pa’o [blk], which is Sino-Tibetan. Red and Black Riang difference unknown but these have been treated as separate languages; traditionally, the two groups occupy different social and geographic space, and wear different traditional clothing styles. May be the same language as Shwe Palaung [pll]",
  "typology": "SVO",
  "use": "Endangered. Also use Shan [shn]",
  "development": "Literacy rate in L1: Below 1%. Bible portions: 1950",
  "resources": "OLAC resources in and about Riang",
  "writing": "Latin script [Latn]",
  "other_comments": "Different from Riang [ria] of India, a Tibeto-Burman language. Buddhist, traditional religion"
}