{
  "id": "rkm",
  "name": "Marka",
  "country": {
    "code": "BF",
    "name": "Burkina Faso",
    "area": "Africa"
  },
  "status": "6a (Vigorous)",
  "alternate_names": "Marka Dafing",
  "population": "200,000 in Burkina Faso (1992 CMA). Population total all countries: 225,000",
  "location": "Boucle du Muhoun region: Bale, Banwa, Nayala, and Sourou provinces; Kossi and Mouhoun provinces: Nouna and Dedougou areas",
  "maps": "Burkina Faso                      Mali, Map 3                      Mali, Map 4",
  "classification": "Niger-Congo, Mande, Western, Central-Southwestern, Central, Manding-Jogo, Manding-Vai, Manding-Mokole, Manding, Manding-East, Marka-Dafin",
  "dialects": "Gassan, Nouna, Safané. More than 80% inherent intelligibility of southeastern dialect around Safané; however, northwestern dialect region is 70%. The central dialect around Dembo village is well understood. Reportedly similar to Bambara [bam] or a variant of Jula [dyu]",
  "typology": "SOV; postpositions; genitives, articles, adjectives, numerals, relatives after noun heads; question word final; word order distinguishes subject, object, indirect object; CV",
  "use": "All ages. Men who travel also speak Jula [dyu], but women and children do not. Comprehension of Jula ranges from 45% in a southeastern village to 85% in the northwest. Also use French [fra]. Used as L2 by Pana [pnq]",
  "development": "Literacy rate in L2: 5% haltingly in French, some in Jula. Radio programs. Grammar. Bible portions: 1987",
  "resources": "OLAC resources in and about Marka",
  "writing": "Latin script [Latn]",
  "other_comments": "Marka is used for followers of the traditional religion, Dafing for Muslim speakers. Different from the Marka dialect of Soninke. Muslim, traditional religion"
}