{
  "id": "rmc",
  "name": "Romani, Carpathian",
  "country": {
    "code": "CZ",
    "name": "Czech Republic",
    "area": "Europe"
  },
  "status": "5 (Developing)",
  "alternate_names": "Bashaldo, Hungarian-Slovak Romani, Romungro",
  "population": "40,400 in Czech Republic (2011 census). Population total all countries: 151,500",
  "location": "Scattered",
  "maps": "Ukraine",
  "classification": "Indo-European, Indo-Iranian, Indo-Aryan, Central zone, Romani, Northern",
  "dialects": "East Slovakian Romani, Moravian Romani, West Slovakian Romani. Not intelligible of Vlax Romani [rmy] or Angloromani [rme]. A member of macrolanguage Romany [rom]",
  "use": "Neutral attitudes",
  "development": "Dictionary. Grammar. Bible portions: 1936–1996",
  "resources": "OLAC resources in and about Romani, Carpathian",
  "writing": "Latin script [Latn]",
  "other_comments": "Ethnic groups: Sárvika Romá (north and east Slovakia), Ungrike Romá (southSlovakia). Ethnonym: Karpacki Roma. Christian"
}