{
  "id": "rmd",
  "name": "Traveller Danish",
  "country": {
    "code": "DK",
    "name": "Denmark",
    "area": "Europe"
  },
  "status": "10 (Extinct)",
  "alternate_names": "Rodi, Rotwelsch",
  "population": "No known L1 speakers",
  "classification": "Mixed language, Danish-Romani",
  "dialects": "None known. An independent language based on Danish [dan] with heavy lexical borrowing from Romani. Not inherently intelligible of Angloromani [rme]. May be intelligible of Traveller Norwegian [rmg] and Traveller Swedish [rmu]",
  "resources": "OLAC resources in and about Traveller Danish",
  "other_comments": "Romani people transported to Denmark by James IV of Scotland in July 1505"
}