{
  "id": "rmp",
  "name": "Rempi",
  "country": {
    "code": "PG",
    "name": "Papua New Guinea",
    "area": "Pacific"
  },
  "status": "6a (Vigorous)",
  "alternate_names": "A’e, Erempi, Rempin",
  "population": "1,590 (2003 SIL)",
  "location": "Madang Province, north coast",
  "maps": "Papua New Guinea, Map 7",
  "classification": "Trans-New Guinea, Madang, Croisilles, Hanseman",
  "use": "Used as L2 by Ngaing [nnf], Nobonob [gaw]",
  "resources": "OLAC resources in and about Rempi",
  "writing": "Latin script [Latn], used since 1999"
}