{
  "id": "rmy",
  "name": "Romani, Vlax",
  "country": {
    "code": "RO",
    "name": "Romania",
    "area": "Europe"
  },
  "status": "6b (Threatened). Recognized language (2001, Local Public Administration Law No. 215, Article 40(7), others)",
  "alternate_names": "Danubian, Gypsy, Romanese, Tsigene, Vlax Romany",
  "population": "242,000 in Romania (2002 census). 6,000,000 to 11,000,000 Gypsies in the world (1987 I. Hancock). Population total all countries: 484,780",
  "location": "Scattered",
  "classification": "Indo-European, Indo-Iranian, Indo-Aryan, Central zone, Romani, Vlax",
  "dialects": "Churari (Churarícko, Sievemakers), Eastern Vlax Romani (Bisa), Gabor, Ghagar, Grekurja (Greco), Kalderash (Coppersmith, Kelderashícko), Lovari (Lovarícko), Machvano (Machvanmcko), North Albanian, Sedentary Bulgarian, Sedentary Romanian, Serbo-Bosnian, South Albanian, Ukraine-Moldavia, Zagundzi. Kalderash, Ursari, and Churari are occupational ethnonyms; Machvano is a geographical one. Other names are ‘Argintari’, silversmith and ‘Lingurari’, spoonmakers. Machvano and Serbian Kalderash have south Slavic superstratum; Russian Kalderash influenced by east Slavic, mainly Russian [rus]; Lovari influenced by Hungarian [hun]; Grekurja is probably Turkish [tur] influenced, distinct from Greek Romani dialect of Balkan Romani [rmn]. All 20 or more Vlax dialects are inherently intelligible; differences are mainly lexical and sociolinguistic (I. Hancock). A member of macrolanguage Romany [rom]",
  "use": "Some children are not learning the language",
  "development": "Grammar. NT: 1984–1995",
  "resources": "OLAC resources in and about Romani, Vlax",
  "writing": "Cyrillic script [Cyrl], used for Kalderash dialect. Latin script [Latn]",
  "other_comments": "Ethnic groups: Chache, Kalderari, Lovári. Ethnonym: Roma. Christian"
}