{
  "id": "rob",
  "name": "Tae’",
  "country": {
    "code": "ID",
    "name": "Indonesia",
    "area": "Asia"
  },
  "status": "5 (Developing)",
  "alternate_names": "East Toraja, Luwu’, Luwu-Rongkong, Rongkong, Rongkong-Luwu, Tae’ Tae’, Taeq, “Toala’”, Toraja Timur, Toware",
  "population": "340,000 (2000 census), increasing",
  "location": "Sulawesi Selatan Province, Luwu and North Luwu regencies. Main area along the northwest coast; Bone bay; west in Bastem subdistrict, along Rongkong river valley past Salutallang village; Seko Lemo subdialect spoken in its own enclave in Uro valley, northwest of Sallutallang; enclave of Rongkong speakers in East Luwu regency, Nuha subdistrict near Soroako",
  "classification": "Austronesian, Malayo-Polynesian, South Sulawesi, Northern, Toraja-Sa’dan",
  "dialects": "Bua, Northeast Luwu (Bone-Bone, Masamba), Rongkong, South Luwu. Dialect chain throughout Tae’ area east into Toraja-Sa’dan [sda]. Lexical similarity: 82% or greater among dialects, 82% with Toraja-Sa’dan [sda]",
  "use": "Vigorous. Written use for ancestral stories. All domains. Positive attitudes. Also use Indonesian [ind]. Used as L2 by Lemolang [ley]",
  "development": "Literacy rate in L1: 20%–30%. About 10%–20% write",
  "resources": "OLAC resources in and about Tae’",
  "writing": "Latin script [Latn]",
  "other_comments": "Different from Toraja-Sa’dan (Tae’) [sda]. Different from the Bugis-Luwu dialect of Bugis [bug]. Different from the Bugis-speaking “Toala” identified by P. and F. Sarasin (1903). “Toala’” is a pejorative Bugis exonym meaning forest people. Rongkong dialect has Seko Lemo, Rongkong Atas (Rongkong-Kanandede) and Rongkong Bawah (Sabbang) subdialects. Bua dialect has Bajo (Palili’) and Bastem (“Toala’”) subdialects. Muslim"
}