{
  "id": "rol",
  "name": "Romblomanon",
  "country": {
    "code": "PH",
    "name": "Philippines",
    "area": "Asia"
  },
  "status": "5 (Developing)",
  "alternate_names": "Romblon",
  "population": "94,000 (2011 SIL)",
  "location": "Romblon and Sibuyan Islands, northeast of Tablas Island (San Agustin), north of Panay",
  "maps": "Southern Philippines",
  "classification": "Austronesian, Malayo-Polynesian, Philippine, Greater Central Philippine, Central Philippine, Bisayan, Central, Romblon",
  "dialects": "Bisaya’, Romblon, Sibuyanon. Sibuyan Island has 70% intelligibility of Inakeanon [akl], 73% of Hiligaynon [hil], 94% of the Romblon dialect",
  "use": "Positive attitudes. Also use Filipino [fil]. Used as L2 by Bantoanon [bno]",
  "development": "New media. Dictionary. Grammar. Bible portions: 1992–2011",
  "resources": "OLAC resources in and about Romblomanon",
  "writing": "Latin script [Latn]"
}