{
  "id": "ruf",
  "name": "Luguru",
  "country": {
    "code": "TZ",
    "name": "Tanzania",
    "area": "Africa"
  },
  "status": "6a (Vigorous)",
  "alternate_names": "Cilugulu, Guru, Ikiruguru, Kiluguru, Kiruguru, Lughuru, Lugulu, Ruguru",
  "population": "692,000 (Johnstone and Mandryk 2001)",
  "location": "Morogoro region: Morogoro and Kilosa districts; Pwani region: Bagamoyo district, Luguru mountains, and Dar es Salaam; central Zanzibar",
  "maps": "Tanzania",
  "classification": "Niger-Congo, Atlantic-Congo, Volta-Congo, Benue-Congo, Bantoid, Southern, Narrow Bantu, Central, G, Zigula-Zaramo (G.35)",
  "dialects": "None known. Lexical similarity: 54% with Kami [kcu]",
  "use": "Vigorous. All ages. Also use English [eng]",
  "development": "Bible portions: 2007–2012",
  "resources": "OLAC resources in and about Luguru",
  "writing": "Latin script [Latn]",
  "other_comments": "Matrilineal. Muslim"
}