{
  "id": "rup",
  "name": "Aromanian",
  "country": {
    "code": "GR",
    "name": "Greece",
    "area": "Europe"
  },
  "status": "6b (Threatened)",
  "alternate_names": "Armina, Arumanian, Macedo Romanian, Macedo-Rumanian, Vlach",
  "population": "50,000 in Greece (Salminen 1993). Population total all countries: 114,340. Ethnic population: 700,000 ( Association of French Aromanians)",
  "location": "Epirus and Western Macedonia, Macedonia and Thrace administrative units; Pindus mountains, western Ioannina, southwest Trikala, southwest corner, Grevena; Pella area, southeast of Lake Vegoritis and into Imathia; central zone, Kastoria into Florina and Kozani",
  "maps": "Greece and The Former Yugoslav Republic of Macedonia",
  "classification": "Indo-European, Italic, Romance, Eastern",
  "dialects": "Structurally a distinct language from Megleno Romanian [ruq] (Agard 1984). It split from the other 3 Romanian languages between 500 and 1000 A.D. Many dialects",
  "use": "Rapid assimilation to Greek culture; children attend Greek schools. 20% live traditionally. No legal status in Greece. Not taught in school except for one course at the University of Salonica. Some revival of the culture in progress since the 1980s. Rapid language shift in Greece. People over 50 are fluent, many between 25 to 50 are passive speakers with limited knowledge of vocabulary and grammar. Known by some youth. Many shifting to Greek [ell]",
  "development": "Newspapers. Radio programs. TV. Dictionary. Bible portions: 1881–1889",
  "resources": "OLAC resources in and about Aromanian",
  "writing": "Greek script [Grek]. Latin script [Latn]",
  "other_comments": "Ethnonym: Armini. Christian"
}