{
  "id": "ruy",
  "name": "Mala",
  "country": {
    "code": "NG",
    "name": "Nigeria",
    "area": "Africa"
  },
  "status": "6a (Vigorous)",
  "alternate_names": "Amala, Rumaiya, Rumaya, Tumala",
  "population": "6,630 (2000)",
  "location": "Kaduna state: Saminaka LGA",
  "maps": "Nigeria, Map 2",
  "classification": "Niger-Congo, Atlantic-Congo, Volta-Congo, Benue-Congo, Kainji, Eastern, Northern Jos, Kauru",
  "resources": "OLAC resources in and about Mala"
}