{
  "id": "saf",
  "name": "Safaliba",
  "country": {
    "code": "GH",
    "name": "Ghana",
    "area": "Africa"
  },
  "status": "5 (Developing)",
  "alternate_names": "Safalaba, Safalba, Safali",
  "population": "4,000 (2003), increasing",
  "location": "Northern region: Mandari, Tanyire, Manfuli, and Gbenfu villages; Bote, Sawla, Kalba town areas",
  "maps": "Ghana",
  "classification": "Niger-Congo, Atlantic-Congo, Volta-Congo, North, Gur, Central, Northern, Oti-Volta, Western, Northwest",
  "dialects": "None known. Lexical similarity: 79% with Southern Dagaari [dga]",
  "use": "Vigorous. All domains. All ages. Also use Gonja [gjn]. Used as L2 by Kamara [jmr]",
  "development": "Literacy rate in L1: Below 1%. Literacy rate in L2: 8% English, Gonja. Bible portions: 2003–2013",
  "resources": "OLAC resources in and about Safaliba",
  "writing": "Latin script [Latn], used since 2003",
  "other_comments": "Speakers also reported in Vonkoro and Bouna, Côte d’Ivoire. Traditional religion, Muslim"
}