{
  "id": "sah",
  "name": "Yakut",
  "country": {
    "code": "RU",
    "name": "Russian Federation",
    "area": "Europe"
  },
  "status": "2 (Provincial). Statutory provincial language in Sakha Republic (1993, Constitution, Article 68(2))",
  "alternate_names": "Sakha, Yakut-Sakha",
  "population": "450,000 (2010 census). Ethnic population: 478,000 (2010 census)",
  "location": "Near Arctic Sea, middle Lena river, Aldan and Kolyma rivers, 3,220 km; Sakha (Yakutiya), Magadanskaya Oblast’, Irkutskaya Oblast’, Khabarovskiy Kray, and Krasnoyarskiy Kray",
  "maps": "Central Russia                      Eastern Russia",
  "classification": "Turkic, Northern",
  "dialects": "Dolgan, Middlekolymskyi, Olemkinskyi, Vilyiskyi",
  "use": "All ages. Positive attitudes. Also use Russian [rus]. Used as L2 by Chukchi [ckt], Even [eve], Evenki [evn], Northern Yukaghir [ykg], Southern Yukaghir [yux]",
  "development": "Russian used in higher education. Grammar. NT: 1858–2004",
  "resources": "OLAC resources in and about Yakut",
  "writing": "Cyrillic script [Cyrl]",
  "other_comments": "Christian, traditional religion"
}