{
  "id": "sbp",
  "name": "Sangu",
  "country": {
    "code": "TZ",
    "name": "Tanzania",
    "area": "Africa"
  },
  "status": "6b (Threatened)",
  "alternate_names": "Eshisango, Kisangu, Lori, Rori, Sangi, Sango, Shisango",
  "population": "75,000 (1987), decreasing",
  "location": "Mbeya region: Mbarale district, Usangu plains; west central Iringa region",
  "maps": "Tanzania",
  "classification": "Niger-Congo, Atlantic-Congo, Volta-Congo, Benue-Congo, Bantoid, Southern, Narrow Bantu, Central, G, Bena-Kinga (G.61)",
  "dialects": "Central Sangu, Eastern Sangu (Mahango), Northern Sangu, South-Central Sangu (Kapunga), Western Sangu (Kilambo)",
  "typology": "SVO; Prepositions; Noun Head Initial; Noun classes; Verbal affixation for subject, object, tense, aspect, mood, and derivation; 29 consonant phonemes; 10 vowel phonemes; tonal",
  "use": "Vigorous. All ages. Positive attitudes. Also use Swahili [swh]",
  "development": "Literacy rate in L1: 0%. Literacy rate in L2: Lower than average (Swahili). SIL has transition literacy work (Swahili to Sangu). Bible portions: 2010–2013",
  "resources": "OLAC resources in and about Sangu",
  "writing": "Latin script [Latn]",
  "other_comments": "Different from Sango [sag] of Central African Republic, from Sanga [sng] of Democratic Republic of the Congo, and from Sangu [snq] of Gabon. Muslim, traditional religion"
}