{
  "id": "sbu",
  "name": "Stod Bhoti",
  "country": {
    "code": "IN",
    "name": "India",
    "area": "Asia"
  },
  "status": "6a (Vigorous)",
  "alternate_names": "Lahul Bhoti, Stod, Stod-Kad, Tod, Tod-Kad",
  "population": "2,500 (1996)",
  "location": "Himachal Pradesh, Lahul region, Stod, Khoksar, and upper Mayar valleys",
  "maps": "India, Map 1",
  "classification": "Sino-Tibetan, Tibeto-Burman, Western Tibeto-Burman, Bodish, Central Bodish, Central, Western",
  "dialects": "Khoksar (Khoksar Bhoti), Mayar (Mayar Bhoti, Mayari), Stod (Kolong). 85% intelligibility of Stod Bhoti by Khoksar, 75% by Mayar, 62% of Khoksar by Mayar, 95% of Khoksar by Stod Bhoti. Lexical similarity: 74% with Spiti Bhoti [spt]",
  "use": "Home, community, religion. Positive attitudes toward dialects and Ladakhi [lbj]. Many also use Hindi [hin] for trade, education. Many speak Hindi but are less proficient than those in other Lahul communities",
  "development": "Desire for literacy in Stod Bhoti",
  "resources": "OLAC resources in and about Stod Bhoti",
  "writing": "Devanagari script [Deva]. Tibetan script [Tibt]",
  "other_comments": "Buddhist"
}