{
  "id": "sbz",
  "name": "Sara Kaba",
  "country": {
    "code": "CF",
    "name": "Central African Republic",
    "area": "Africa"
  },
  "status": "6a (Vigorous)",
  "alternate_names": "Ta Sara",
  "population": "13,600 (1996)",
  "location": "Bamingui-Bangoran prefecture: Ndélé subprefecture; Vakaga prefecture: Birao subprefecture",
  "maps": "Central African Republic",
  "classification": "Nilo-Saharan, Central Sudanic, West, Bongo-Bagirmi, Sara-Bagirmi, Sara, Sara Proper, Sara Kaba",
  "dialects": "None known. May be intelligible of Sara Kaba Náà [kwv]",
  "resources": "OLAC resources in and about Sara Kaba",
  "writing": "Unwritten [Qaax]"
}