{
  "id": "sdz",
  "name": "Sallands",
  "country": {
    "code": "NL",
    "name": "Netherlands",
    "area": "Europe"
  },
  "status": "6a (Vigorous)",
  "alternate_names": "Sallan, Salland",
  "location": "Overijssels province: Sallands",
  "maps": "Belgium, Luxembourg and Netherlands",
  "classification": "Indo-European, Germanic, West, Low Saxon-Low Franconian, Low Saxon",
  "use": "Also use Dutch [nld]",
  "resources": "OLAC resources in and about Sallands",
  "other_comments": "Identified by the government as variant of Low Saxon [nds] (1996)"
}