{
  "id": "set",
  "name": "Sentani",
  "country": {
    "code": "ID",
    "name": "Indonesia",
    "area": "Asia"
  },
  "status": "5 (Developing)",
  "alternate_names": "Buyaka",
  "population": "30,000 (1996 SIL), increasing. Few monolinguals",
  "location": "Papua Province, Lake Sentani area, about 30 villages. Scattered in Papua and other parts of Indonesia",
  "maps": "Indonesia, Eastern Papua",
  "classification": "East Bird’s Head-Sentani, Sentani, Sentani Proper",
  "dialects": "Central Sentani, East Sentani, West Sentani. Lexical similarity: 30% with Tabla [tnm]",
  "use": "Vigorous use in most families. All domains. Positive attitudes. Also use Indonesian [ind]",
  "development": "Literacy rate in L1: 16%. Literacy rate in L2: 50%–75%. About 5,000. Schools are beginning to use Sentani grades 1 to 6. Dictionary. Grammar. NT: 1997",
  "resources": "OLAC resources in and about Sentani",
  "writing": "Latin script [Latn]",
  "other_comments": "Ethnic autonym: Buyaka. Traditional religion, Christian"
}