{
  "id": "sgi",
  "name": "Suga",
  "country": {
    "code": "CM",
    "name": "Cameroon",
    "area": "Africa"
  },
  "status": "6a (Vigorous)",
  "alternate_names": "Galim, “Jemjem” (pej.), Nizaa, “Njemnjem” (pej.), “Nyamnyam” (pej.), “Nyemnyem” (pej.), Ssuga",
  "population": "10,000 (1985)",
  "location": "Adamawa region: Faro-and-Déo division, Galim area southwest of Tignère; Mayo-Banyo division, north Banyo subdivision, Sambolabbo area",
  "maps": "Central Cameroon",
  "classification": "Niger-Congo, Atlantic-Congo, Volta-Congo, Benue-Congo, Bantoid, Northern, Mambiloid, Suga-Vute, Suga",
  "use": "Also use Adamawa Fulfulde [fub]",
  "development": "Literacy rate in L2: A few adults literate in Fulfulde. Few can read Roman script. Dictionary. Grammar",
  "resources": "OLAC resources in and about Suga",
  "other_comments": "Different from Nimbari [nmr] (Nyamnyam) of Cameroon. Sewe may be an alternate name. Ethnic autonym: Baghap. Muslim, Christian, traditional religion"
}