{
  "id": "sgr",
  "name": "Sangisari",
  "country": {
    "code": "IR",
    "name": "Iran",
    "area": "Asia"
  },
  "status": "6a (Vigorous)",
  "alternate_names": "Mahdi Shahri, Mehdishahri, Sangesari, Sängesäri, Sangsari, Sängsari, Sängsäri, Sengiseri, Sengsari",
  "population": "36,000 (2006 census)",
  "location": "Semnan Province. Shahmirzadi dialect: Shamirzad north of Mehdi",
  "classification": "Indo-European, Indo-Iranian, Iranian, Western, Northwestern, Semnani",
  "dialects": "Shahmirzadi",
  "use": "All ages. Positive attitudes. Also use Iranian Persian [pes]",
  "development": "Literacy rate in L2: 89%. Dictionary. Grammar",
  "resources": "OLAC resources in and about Sangisari",
  "other_comments": "Muslim, Baha’i"
}