{
  "id": "sgu",
  "name": "Salas",
  "country": {
    "code": "ID",
    "name": "Indonesia",
    "area": "Asia"
  },
  "status": "8b (Nearly extinct)",
  "alternate_names": "Lenkaitahe, Liambata, Salas Gunung",
  "population": "50 (1989 SIL). Likely less than the 50 reported in 1989 (Wurm 2007)",
  "location": "Maluku Province, central area, Seram island, Gunung village",
  "maps": "Indonesia, Central Maluku",
  "classification": "Austronesian, Malayo-Polynesian, Central-Eastern Malayo-Polynesian, Central Maluku, East, Seram, Manusela-Seti",
  "dialects": "None known. Lexical similarity: 48%–58% with Liana-Seti [ste], 46%–50% with Benggoi [bgy], 35%–46% with Manusela [wha]",
  "use": "Shifting to Masiwang [bnf] (Wurm 2007). Also use Masiwang [bnf]",
  "resources": "OLAC resources in and about Salas",
  "other_comments": "Christian"
}