{
  "id": "shm",
  "name": "Shahrudi",
  "country": {
    "code": "IR",
    "name": "Iran",
    "area": "Asia"
  },
  "status": "7 (Shifting)",
  "alternate_names": "Koluri",
  "location": "Azarbayjan-e Sharqi Province, Khalkhal district, Shahrud district, Shal, Kolur, Lerd",
  "classification": "Indo-European, Indo-Iranian, Iranian, Western, Northwestern, Talysh",
  "dialects": "Reportedly similar to Kajali [kjf] and Koresh-e Rostam [okh]. Different from Sharudi, an Iranian Persian [pes] dialect",
  "resources": "OLAC resources in and about Shahrudi",
  "other_comments": "Muslim"
}