{
  "id": "sim",
  "name": "Mende",
  "country": {
    "code": "PG",
    "name": "Papua New Guinea",
    "area": "Pacific"
  },
  "status": "4 (Educational)",
  "alternate_names": "Seim",
  "population": "5,700 (2003 SIL)",
  "location": "Sandaun Province, Nuku district, Torricelli range hills sloping south toward Sepik river plains. 15 villages east of Mehek",
  "maps": "Papua New Guinea, Map 3",
  "classification": "Sepik, Nukuma",
  "dialects": "None known. Lexical similarity: 49% with nearest Kwanga [kwj] village",
  "use": "Vigorous. All domains. All ages. Positive attitudes",
  "development": "Taught in primary schools. Dictionary. Grammar. NT: 2005",
  "resources": "OLAC resources in and about Mende",
  "writing": "Latin script [Latn]",
  "other_comments": "Traditional religion, Christian"
}