{
  "id": "skk",
  "name": "Sok",
  "country": {
    "code": "LA",
    "name": "Laos",
    "area": "Asia"
  },
  "status": "6a (Vigorous)",
  "alternate_names": "Sawk, Sork",
  "population": "1,600 (1981)",
  "location": "Xekong, Champasak, and Attapu provinces",
  "maps": "Laos",
  "classification": "Austro-Asiatic, Mon-Khmer, Eastern Mon-Khmer, Bahnaric, West Bahnaric, Oi-The",
  "resources": "OLAC resources in and about Sok"
}