{
  "id": "sls",
  "name": "Singapore Sign Language",
  "country": {
    "code": "SG",
    "name": "Singapore",
    "area": "Asia"
  },
  "status": "6a (Vigorous)",
  "population": "3,000 (2007 SIL). Very few monolinguals. Ethnic population: 4,000 (2007 SIL)",
  "location": "Scattered",
  "classification": "Deaf sign language",
  "dialects": "Contact Signing (Pidgin Signed English), Natural Sign Language",
  "use": "Home, church, commerce. Positive attitudes. 3,000 also use English [eng]",
  "development": "Literacy rate in L1: 0%. Literacy rate in L2: 70% estimated in English and (or) Chinese. It is difficult for the deaf to learn to read and maintain their reading skills. Dictionary",
  "resources": "OLAC resources in and about Singapore Sign Language"
}