{
  "id": "sly",
  "name": "Selayar",
  "country": {
    "code": "ID",
    "name": "Indonesia",
    "area": "Asia"
  },
  "status": "6a (Vigorous)",
  "alternate_names": "Salajar, Salayar, Salayer, Saleier, Siladja, Silajara",
  "population": "128,000 (2000 census)",
  "location": "Sulawesi Selatan Province; Selayar island",
  "classification": "Austronesian, Malayo-Polynesian, South Sulawesi, Makassar",
  "dialects": "None known. Lexical similarity: 69% with Makassar [mak]",
  "use": "Vigorous. All ages. Positive attitudes. Also use Bugis [bug], Indonesian [ind]. Used as L2 by Laiyolo [lji]",
  "resources": "OLAC resources in and about Selayar",
  "other_comments": "Muslim, Christian"
}