{
  "id": "smc",
  "name": "Som",
  "country": {
    "code": "PG",
    "name": "Papua New Guinea",
    "area": "Pacific"
  },
  "status": "7 (Shifting)",
  "alternate_names": "Dinanget, Somm",
  "population": "80 (Wurm 2000)",
  "location": "Morobe Province, northwest Huon peninsula, on middle Som river, a tributary of the Uruwa river, east of Wantoat [wnc] lanugage area",
  "maps": "Papua New Guinea, Map 11",
  "classification": "Trans-New Guinea, Finisterre-Huon, Finisterre, Uruwa",
  "dialects": "None known. Reportedly most similar to Nukna [klt]",
  "use": "Endangered (2000 S. Wurm). Under pressure from Wantoat [wnc] and Tok Pisin [tpi] (Wurm 2007)",
  "resources": "OLAC resources in and about Som"
}