{
  "id": "sme",
  "name": "Saami, North",
  "country": {
    "code": "NO",
    "name": "Norway",
    "area": "Europe"
  },
  "status": "2 (Provincial). Statutory provincial language in Sami Administrative District (1987, Sami Act, No. 12, Article 3)",
  "alternate_names": "“Lapp” (pej.), North Sámi, “Northern Lappish” (pej.), Northern Saami, “Norwegian Lapp” (pej.), Saami, Same, Sámegiella, Samic",
  "population": "20,000 in Norway (Laakso 2013). Population total all countries: 25,700. Ethnic population: 30,000 (1995 M. Krauss). 30,000–40,000",
  "location": "Finnmark, Troms counties; Nordland county: Ofoten",
  "maps": "Denmark, Finland, Norway and Sweden",
  "classification": "Uralic, Sami, Western, Northern",
  "dialects": "Ruija, Sea Lappish, Torne. Two-thirds of all Saami speak Ruija dialect",
  "use": "In central Finnmark Province, where North Saami has an official status, many children learn the language and are likely to continue to use it in adulthood (Salminen 2007). All ages. Also use Norwegian [nor]",
  "development": "Literacy rate in L1: 30%–60%. Literacy rate in L2: 75%–100%. Taught in primary schools. New media. Bible: 1895",
  "resources": "OLAC resources in and about Saami, North",
  "writing": "Cyrillic script [Cyrl]. Latin script [Latn], primary usage",
  "other_comments": "Formerly called “Finns” which they consider derogatory"
}