{
  "id": "snc",
  "name": "Sinaugoro",
  "country": {
    "code": "PG",
    "name": "Papua New Guinea",
    "area": "Pacific"
  },
  "status": "5 (Developing)",
  "alternate_names": "Sinagoro",
  "population": "18,000 (2000 census)",
  "location": "Central Province, Rigo district, south of Kwikila",
  "maps": "Papua New Guinea, Map 16",
  "classification": "Austronesian, Malayo-Polynesian, Central-Eastern Malayo-Polynesian, Eastern Malayo-Polynesian, Oceanic, Western Oceanic, Papuan Tip, Peripheral, Central Papuan, Sinagoro-Keapara",
  "dialects": "Alepa, Babagarupu, Balawaia, Boku, Buaga, Ikega, Ikolu, Kubuli, Kwaibida, Kwaibo, Omene, Oruone, Saroa, Taboro, Tubulamo, Vora, Wiga. Saroa dialect may be most central for intelligibility. Lexical similarity: 70%–75% with Kalo [khz] (most similar), 65%–70% with Hula [hul]",
  "use": "Also use Hiri Motu [hmo], Motu [meu]",
  "development": "Literacy rate in L2: 50%–75%. Dictionary. Grammar. NT: 1995",
  "resources": "OLAC resources in and about Sinaugoro",
  "writing": "Latin script [Latn]"
}