{
  "id": "sni",
  "name": "Sensi",
  "country": {
    "code": "PE",
    "name": "Peru",
    "area": "Americas"
  },
  "status": "10 (Extinct)",
  "alternate_names": "Mananahua, Senti, Tenti",
  "population": "No known L1 speakers",
  "location": "Ucayali Region, Ucayali river right bank",
  "classification": "Panoan",
  "resources": "OLAC resources in and about Sensi",
  "other_comments": "In 1925 there were 100. Subgroups: Ynubu (Inubu), Runubu, and Casca"
}