{
  "id": "snl",
  "name": "Sangil",
  "country": {
    "code": "PH",
    "name": "Philippines",
    "area": "Asia"
  },
  "status": "5 (Developing)",
  "alternate_names": "Sanggil, Sangiré",
  "population": "15,000 (1996 SIL)",
  "location": "Mindanao, Davao del Sur Province, off of extreme southern tip, Balut island",
  "maps": "Southern Philippines",
  "classification": "Austronesian, Malayo-Polynesian, Philippine, Sangiric, Northern",
  "dialects": "Mindanao, Sarangani. Lexical similarity: 90% with Sangir [sxn]",
  "typology": "VSO; prepositions; genitives after noun heads; articles, adjectives, numerals all before noun heads; adjectives and numerals tend to follow noun heads; relatives are implied, so have no position in the clause; 4 prefixes, 4 suffixes; aspect; passives; nontonal; 18 consonants, 6 vowels",
  "use": "All ages. Proficiency in Cebuano [ceb]. Used as L2 by Sarangani Blaan [bps]",
  "development": "Literacy rate in L1: 50%. Literacy rate in L2: 50%. Bible portions: 1981–2007",
  "resources": "OLAC resources in and about Sangil",
  "writing": "Latin script [Latn]",
  "other_comments": "Muslim"
}