{
  "id": "sns",
  "name": "Nahavaq",
  "country": {
    "code": "VU",
    "name": "Vanuatu",
    "area": "Pacific"
  },
  "status": "6b (Threatened)",
  "alternate_names": "Labo, Lamangkau, Na’ahai, Nahapa, Seniang, Sinesip",
  "population": "600 (Lynch and Crowley 2001). Ethnic population: 860",
  "location": "Malampa Province, southwest Malekula",
  "maps": "Vanuatu, Enlarged Area",
  "classification": "Austronesian, Malayo-Polynesian, Central-Eastern Malayo-Polynesian, Eastern Malayo-Polynesian, Oceanic, Central-Eastern Oceanic, Remote Oceanic, North and Central Vanuatu, Northeast Vanuatu-Banks Islands, Malekula Coastal",
  "use": "Potentially endangered (2000 D. Tryon). Some children not learning the language. Most key domains. Used by 60% of children. Positive attitudes",
  "development": "Grammar. Bible portions: 1905",
  "resources": "OLAC resources in and about Nahavaq",
  "writing": "Latin script [Latn]"
}