{
  "id": "sob",
  "name": "Sobei",
  "country": {
    "code": "ID",
    "name": "Indonesia",
    "area": "Asia"
  },
  "status": "7 (Shifting)",
  "alternate_names": "Biga, Imasi, Liki",
  "population": "1,000 (Wurm 2000). Ethnic population: 1,850 (2000 D. Tryon)",
  "location": "Papua Province, Sarmi regency, Sarmi subdistrict, north coast area east of Sarmi",
  "maps": "Indonesia, Eastern Papua",
  "classification": "Austronesian, Malayo-Polynesian, Central-Eastern Malayo-Polynesian, Eastern Malayo-Polynesian, Oceanic, Western Oceanic, North New Guinea, Sarmi-Jayapura Bay, Sarmi",
  "dialects": "None known. Reportedly comprehension of Liki [lio]",
  "use": "Endangered (2000 D. Tryon; 2000 S. Wurm). Sobei speakers are beginning to shift to Papuan Malay [pmy]. Children are bilingual in Indonesian [ind] and tend to prefer it. Also use Papuan Malay [pmy] with people of other language areas",
  "development": "Dictionary. Grammar",
  "resources": "OLAC resources in and about Sobei",
  "writing": "Latin script [Latn]",
  "other_comments": "Government schools through entire area. Increasing intermarriage with other groups. Christian"
}