{
  "id": "sow",
  "name": "Sowanda",
  "country": {
    "code": "PG",
    "name": "Papua New Guinea",
    "area": "Pacific"
  },
  "status": "6a (Vigorous)",
  "alternate_names": "Waina, Wanja, Wanya, Wina",
  "population": "970 in Papua New Guinea (2000 census). Population total all countries: 1,180",
  "location": "Sandaun Province, Amanab district",
  "maps": "Indonesia, Eastern Papua                      Papua New Guinea, Map 3",
  "classification": "Border, Waris",
  "dialects": "Punda-Umeda (Umada), Waina. May be 2 languages",
  "use": "Also use Tok Pisin [tpi]",
  "resources": "OLAC resources in and about Sowanda"
}