{
  "id": "spa",
  "name": "Spanish",
  "country": {
    "code": "ES",
    "name": "Spain",
    "area": "Europe"
  },
  "status": "1 (National). Statutory national language (1978, Constitution, Art 3(1)), recognized statutory language in all autonomous cities and communities under various local laws",
  "alternate_names": "Castellano, Castilian, Español",
  "population": "38,400,000 in Spain (European Commission 2012). Population total all countries: 398,931,840. L2 users: 7,490,000 in Spain (European Commission 2006). L2 users worldwide: 89,500,000",
  "location": "Widespread",
  "maps": "Portugal and Spain                      Andorra and France                      Belize",
  "classification": "Indo-European, Italic, Romance, Italo-Western, Western, Gallo-Iberian, Ibero-Romance, West Iberian, Castilian",
  "dialects": "American Spanish (Chicano), Andalusian (Andalú, Andalusí, Andaluz), Aragonese, Canary Islands Spanish (Isleño), Castilian, Murcian, Navarrese, Silbo Gomero. Lexical similarity: 89% with Portuguese [por], 85% with Catalan [cat], 82% with Italian [ita], 76% with Sardinian [src], 75% with French [fra], 74% with Ladin [lld], 71% with Romanian [ron]",
  "typology": "SVO; prepositions; genitives, relatives after noun heads; articles, numerals before noun heads; adjectives before or after noun heads depending on whether it is evaluative or descriptive; question word initial; (C(C))V(C); nontonal. Silbo Gomero whistled variety of Spanish used in Canary Islands",
  "use": "9,800,000 also use English [eng]. 4,368,000 also use French [fra]",
  "development": "Fully developed. Bible: 1553–2012",
  "resources": "OLAC resources in and about Spanish",
  "writing": "Braille script [Brai]. Latin script [Latn], primary usage",
  "other_comments": "The Aragonese dialect of Spanish is different from Aragonese language [arg]. Christian"
}