{
  "id": "spc",
  "name": "Sapé",
  "country": {
    "code": "VE",
    "name": "Venezuela",
    "area": "Americas"
  },
  "status": "8b (Nearly extinct)",
  "alternate_names": "Caliana, Chirichano, Kaliána, Kariana",
  "population": "5 (Crevels 2007). Ethnic population: 28 (1992)",
  "location": "Bolivar State, 3 small settlements on the Paragua and Karuna rivers",
  "maps": "Venezuela",
  "classification": "Language isolate",
  "dialects": "None known. Some lexical correspondences with Warao [wba]. Greenberg classified it provisionally as Macro-Tucanoan",
  "use": "Much intermarriage. Also use Arutani [atx], Ninam [shb], Pemon [aoc]",
  "development": "Bible portions",
  "resources": "OLAC resources in and about Sapé"
}