{
  "id": "spe",
  "name": "Sepa",
  "country": {
    "code": "PG",
    "name": "Papua New Guinea",
    "area": "Pacific"
  },
  "status": "6b (Threatened)",
  "population": "700 (2003 SIL)",
  "location": "Madang Province, Manam island south coast, Bogia area",
  "maps": "Papua New Guinea, Map 4",
  "classification": "Austronesian, Malayo-Polynesian, Central-Eastern Malayo-Polynesian, Eastern Malayo-Polynesian, Oceanic, Western Oceanic, North New Guinea, Schouten, Kairiru-Manam, Manam",
  "use": "Potentially endangered (2000 D. Tryon). Under pressure from Manam [mva] (Wurm 2007)",
  "resources": "OLAC resources in and about Sepa"
}