{
  "id": "spl",
  "name": "Selepet",
  "country": {
    "code": "PG",
    "name": "Papua New Guinea",
    "area": "Pacific"
  },
  "status": "5 (Developing)",
  "alternate_names": "Selepe",
  "population": "7,000 (1988 SIL). Ethnic population: 7,500",
  "location": "Morobe Province, Kabwum district, Pumune and Kiari river valleys",
  "maps": "Papua New Guinea, Map 11",
  "classification": "Trans-New Guinea, Finisterre-Huon, Huon, Western",
  "dialects": "North Selepet, South Selepet",
  "development": "Literacy rate in L1: 25%–50%. Literacy rate in L2: 25%–50%. Dictionary. Grammar. NT: 1986",
  "resources": "OLAC resources in and about Selepet",
  "writing": "Latin script [Latn]",
  "other_comments": "Christian, traditional religion"
}