{
  "id": "srp",
  "name": "Serbian",
  "country": {
    "code": "RS",
    "name": "Serbia",
    "area": "Europe"
  },
  "status": "1 (National). Statutory national language (2006, Constitution, Article 10(1))",
  "alternate_names": "Montenegrin",
  "population": "6,620,000 in Serbia (2002 census). Population total all countries: 8,638,906",
  "maps": "Greece and The Former Yugoslav Republic of Macedonia",
  "classification": "Indo-European, Balto-Slavic, Slavic, South, Western",
  "dialects": "Shtokavski (Stokavian), Torlakian. A member of macrolanguage Serbo-Croatian [hbs]",
  "typology": "SVO; postpositions; genitives, articles, adjectives, numerals, relatives after noun heads; question word initial; 1 suffix; case determines subject, object; obligatory verb affixes mark person, number, gender of subject, object, other noun phrase; passive for each tense, not commonly used today; causatives marked by separate words; comparatives marked by prefix; CCVCVC; nontonal",
  "development": "Fully developed. Bible: 1804–1868",
  "resources": "OLAC resources in and about Serbian",
  "writing": "Braille script [Brai]. Cyrillic script [Cyrl], primary usage. Latin script [Latn]",
  "other_comments": "Previously considered a Serbo-Croat language. Torlakian spoken in south and east. Influence from Bulgarian [bul]. Some linguists consider it transitional between Shtokavski and Macedonian [mkd]. Christian (Orthodox)"
}