{
  "id": "ssd",
  "name": "Siroi",
  "country": {
    "code": "PG",
    "name": "Papua New Guinea",
    "area": "Pacific"
  },
  "status": "5 (Developing)",
  "alternate_names": "Suroi",
  "population": "1,310 (2003 SIL)",
  "location": "Madang Province, Saidor district, Kumisanger village. 5 villages",
  "maps": "Papua New Guinea, Map 7",
  "classification": "Trans-New Guinea, Madang, Rai Coast, Kabenau",
  "use": "Vigorous. All domains, including local commerce. All ages. Positive attitudes. English [eng] used in schools. Some know Gedaged [gdd], the former church language. Also use Tok Pisin [tpi] and neighboring languages. Tok Pisin used in schools",
  "development": "Literacy rate in L1: 50%. Grammar. NT: 1975–2000",
  "resources": "OLAC resources in and about Siroi",
  "writing": "Latin script [Latn]",
  "other_comments": "Christian"
}