{
  "id": "ssf",
  "name": "Thao",
  "country": {
    "code": "TW",
    "name": "China–Taiwan",
    "area": "Asia"
  },
  "status": "8b (Nearly extinct)",
  "alternate_names": "Chui-Huan, Chuihwan, Sao, Sau, Shao, Suihwan, Vulung",
  "population": "5 (Wurm 2000). Ethnic population: 300 (Tsukida 2007)",
  "location": "Central, Sun Moon Lake southeast shore, Te-hua village, and Ta-p’ing-lin 14 km away",
  "maps": "Taiwan",
  "classification": "Austronesian, Western Plains, Thao",
  "dialects": "Brawbaw, Shtafari",
  "use": "Most have shifted to Min Nan Chinese [nan] (Wurm 2007). Home. Elderly. Negative attitudes",
  "development": "Dictionary. Grammar",
  "resources": "OLAC resources in and about Thao",
  "writing": "Latin script [Latn]",
  "other_comments": "Cooperation with the Bunun [bnn], intermarriage with Bunun women, loanwords from Bunun"
}