{
  "id": "ssz",
  "name": "Sengseng",
  "country": {
    "code": "PG",
    "name": "Papua New Guinea",
    "area": "Pacific"
  },
  "status": "6b (Threatened)",
  "alternate_names": "Asengseng",
  "population": "1,750 (2003 SIL)",
  "location": "West New Britain Province, southwest interior",
  "maps": "Papua New Guinea, Map 12",
  "classification": "Austronesian, Malayo-Polynesian, Central-Eastern Malayo-Polynesian, Eastern Malayo-Polynesian, Oceanic, Western Oceanic, North New Guinea, Ngero-Vitiaz, Vitiaz, Southwest New Britain, Arawe-Pasismanua, Pasismanua",
  "dialects": "Senseng treated as a dialect of Kaulong [pss] by Wurm and Hattori",
  "use": "Not endangered (2000 D. Tryon). Just over half the children learning the language",
  "development": "Literacy rate in L2: 30%. Bible portions: 1992",
  "resources": "OLAC resources in and about Sengseng",
  "writing": "Latin script [Latn]"
}