{
  "id": "ste",
  "name": "Liana-Seti",
  "country": {
    "code": "ID",
    "name": "Indonesia",
    "area": "Asia"
  },
  "status": "6b (Threatened)",
  "alternate_names": "Liambata-Kobi, Liana, Lianan, Teula, Uhei Kachlakan, Uhei Kaclakin, Uhei Kahlakim",
  "population": "3,000 (1989 SIL)",
  "location": "Maluku Province, Bula, Werinama, and Tehoru districts, 8 villages. Seram island, from east Teluti bay north to Seram Sea coast",
  "maps": "Indonesia, Central Maluku",
  "classification": "Austronesian, Malayo-Polynesian, Central-Eastern Malayo-Polynesian, Central Maluku, East, Seram, Manusela-Seti",
  "dialects": "Kobi, Seti, Wahakaim. Lexical similarity: 66%–74% between Seti (westernmost and interior) and Wahakaim (near coast) dialects, 69%–78% between Kobi and Seti, 70% between Kobi and Wahakaim, 42%–61% between Kobi and Manusela [wha], 54%–66% between Kobi and Benggoi [bgy], 48%–58% between Kobi and Salas [sgu]",
  "use": "Vigorous. Seti also use Teluti [tlt]",
  "development": "Literacy rate in L1: Below 1%. Literacy rate in L2: 25%–50%",
  "resources": "OLAC resources in and about Liana-Seti",
  "writing": "Latin script [Latn]",
  "other_comments": "Speakers use Liana. Christian"
}