{
  "id": "stj",
  "name": "Samo, Matya",
  "country": {
    "code": "BF",
    "name": "Burkina Faso",
    "area": "Africa"
  },
  "status": "6a (Vigorous)",
  "alternate_names": "Northwestern Samo, San, Sane, Tougan, West Central Goe",
  "population": "105,000 in Burkina Faso (1995 R. Jones). Population total all countries: 106,000",
  "location": "Boucle du Muhoun region: Sourou province, Mouna and Solenzo areas; Kossi province; Ouagadougou, Bobo-Diolaso, Dedougou, and Koudougou cities",
  "maps": "Burkina Faso                      Mali, Map 4",
  "classification": "Niger-Congo, Mande, Eastern, Eastern, Samo",
  "use": "Positive attitudes. Also use Jula [dyu], Mòoré [mos]",
  "development": "Motivation to read French is high. A literacy center near Tougan teaches Jula",
  "resources": "OLAC resources in and about Samo, Matya",
  "other_comments": "The Rimaïbé are Samo who were former Fula slaves, now also speak Fulfulde [fuh]. Traditional religion, Christian"
}