{
  "id": "sto",
  "name": "Stoney",
  "country": {
    "code": "CA",
    "name": "Canada",
    "area": "Americas"
  },
  "status": "6b (Threatened)",
  "alternate_names": "Nakoda, Stony",
  "population": "3,160 (2011 census). Ethnic population: 3,200 (Golla 2007)",
  "location": "Southern Alberta, west and northwest of Calgary, central Alberta, west of Edmonton, on Alexis, Paul, Bighorn, Morley, Eden Valley reserves",
  "maps": "Southern Central Canada",
  "classification": "Siouan-Catawban, Siouan, Mississippi Valley-Ohio Valley Siouan, Mississippi Valley Siouan, Dakota",
  "dialects": "Northern Stoney, Southern Stoney. Dialects nearly 100% mutually intelligible. Northern dialect is spoken at Duffield (Paul Band) and Lac St. Anne (Alexis Band). Lexical similarity: 89% with Assiniboine [asb], 86% with Dakota [dak] of Manitoba, 85% with Dakota [dak] of North Dakota, 83% with Lakota [lkt]",
  "use": "Adults. Also use English [eng]",
  "development": "Literacy rate in L1: Below 1%. Literacy rate in L2: 75%–100%. Bible portions: 1970–1973",
  "resources": "OLAC resources in and about Stoney",
  "writing": "Latin script [Latn]"
}