{
  "id": "stw",
  "name": "Satawalese",
  "country": {
    "code": "FM",
    "name": "Micronesia",
    "area": "Pacific"
  },
  "status": "5 (Developing)",
  "population": "460 (1987 census)",
  "location": "Satawal island, Caroline Islands",
  "maps": "Federated States of Micronesia",
  "classification": "Austronesian, Malayo-Polynesian, Central-Eastern Malayo-Polynesian, Eastern Malayo-Polynesian, Oceanic, Central-Eastern Oceanic, Remote Oceanic, Micronesian, Micronesian Proper, Ponapeic-Trukic, Trukic",
  "dialects": "None known. 60% intelligibility of Ulithian [uli] and Woleaian [woe]. Lexical similarity: 95% with Carolinian [cal], 88% with Woleaian [woe] and Puluwatese [puw], 82% with Mortlockese [mrl], 79% with Chuukese [chk], 77% with Ulithian [uli]",
  "use": "Vigorous",
  "resources": "OLAC resources in and about Satawalese",
  "writing": "Latin script [Latn]"
}