{
  "id": "sua",
  "name": "Sulka",
  "country": {
    "code": "PG",
    "name": "Papua New Guinea",
    "area": "Pacific"
  },
  "status": "4 (Educational)",
  "population": "2,500 (1991 SIL)",
  "location": "East New Britain Province, East Pomio district, Wide Bay coast",
  "maps": "Papua New Guinea, Map 12",
  "classification": "Language isolate",
  "dialects": "A dialect chain",
  "development": "Literacy rate in L1: 25%–50%. Literacy rate in L2: 75%–100%. Several primary schools. NT: 1997",
  "resources": "OLAC resources in and about Sulka",
  "writing": "Latin script [Latn]"
}