{
  "id": "sui",
  "name": "Suki",
  "country": {
    "code": "PG",
    "name": "Papua New Guinea",
    "area": "Pacific"
  },
  "status": "5 (Developing)",
  "alternate_names": "Wiram",
  "population": "3,510 (2003 SIL)",
  "location": "Western Province, Lake Suki",
  "maps": "Papua New Guinea, Map 14",
  "classification": "Trans-New Guinea, Gogodala-Suki, Suki",
  "use": "Youth also use English [eng]. Also use Hiri Motu [hmo]",
  "development": "Literacy rate in L1: 5%–15%. Literacy rate in L2: 15%–25%. NT: 1982",
  "resources": "OLAC resources in and about Suki",
  "writing": "Latin script [Latn]"
}