{
  "id": "suv",
  "name": "Puroik",
  "country": {
    "code": "IN",
    "name": "India",
    "area": "Asia"
  },
  "status": "6a (Vigorous)",
  "alternate_names": "“Sulung” (pej.)",
  "population": "20,000 (2011 SIL)",
  "location": "Arunachal Pradesh, East Kameng, Papumpare, Kurung Kumey, and Lower Subansiri districts, along Par river, 53 villages. Possibly in China",
  "maps": "India, Map 5",
  "classification": "Sino-Tibetan, Tibeto-Burman, Central Tibeto-Burman, Kho-Bwa",
  "dialects": "None known. A divergent language which may not be Sino-Tibetan but possibly Austro-Asiatic. Intelligible of Bugun [bgg] (Chowdhury 1996). Burling (2003) groups it with Sherdukpen [sdp] and Bugun; possibly also with Lish [lsh] and Sartang [onp]. Lexical similarity: 54%–67% between varieties; 57%–68% with Chug [cvg]; less than 15% with Bugun [bgg] and Nyishi [njz]",
  "use": "Home, village. Positive attitudes. Everyone uses at least some Nyishi [njz]. Also use Assamese [asm], Hindi [hin]",
  "development": "Literacy rate in L2: 2%. Dictionary",
  "resources": "OLAC resources in and about Puroik",
  "writing": "Bengali script [Beng]. Devanagari script [Deva]. Latin script [Latn]",
  "other_comments": "A satellite relationship to Nyishi and Bangni peoples, bonded economically. A Scheduled Tribe in India. Claim kinship with the Khoa or Bugun. Traditional religion, Christian, Hindu"
}