{
  "id": "swn",
  "name": "Sawknah",
  "country": {
    "code": "LY",
    "name": "Libya",
    "area": "Africa"
  },
  "status": "10 (Extinct)",
  "alternate_names": "Sokna, Sokni",
  "population": "No known L1 speakers",
  "location": "Al Jafrah district: Tripolitania",
  "classification": "Afro-Asiatic, Berber, Eastern, Awjila-Sokna",
  "resources": "OLAC resources in and about Sawknah"
}