{
  "id": "swo",
  "name": "Shanenawa",
  "country": {
    "code": "BR",
    "name": "Brazil",
    "area": "Americas"
  },
  "status": "8b (Nearly extinct)",
  "population": "9 (Moore 2006). Ethnic population: 360 (2002 FUNAI)",
  "location": "Amazonas State, near the city of Feijó",
  "maps": "Western Central Brazil",
  "classification": "Unclassified",
  "dialects": "None known. Reportedly similar to Yawanawa [ywn] and Sharanawa [mcd]",
  "use": "Over 50 years old. Shifting to Portuguese [por]",
  "resources": "OLAC resources in and about Shanenawa"
}