{
  "id": "swr",
  "name": "Saweru",
  "country": {
    "code": "ID",
    "name": "Indonesia",
    "area": "Asia"
  },
  "status": "6b (Threatened)",
  "alternate_names": "Sarwar Use",
  "population": "300 (1991 SIL)",
  "location": "Papua Province, Serui Waropen regency, Yapen Selatan subdistrict, central Serui island, an island south of Yapen island near Serui",
  "maps": "Indonesia, Eastern Papua",
  "classification": "West Papuan, Yapen",
  "resources": "OLAC resources in and about Saweru",
  "other_comments": "Christian, traditional religion"
}