{
  "id": "sxu",
  "name": "Saxon, Upper",
  "country": {
    "code": "DE",
    "name": "Germany",
    "area": "Europe"
  },
  "status": "6a (Vigorous)",
  "population": "2,000,000 (1998 A. Thomsen)",
  "location": "Sachsen state: Dresden, Leipzig, Chemnitz; Sachsen-Anhalt state: Halle",
  "classification": "Indo-European, Germanic, West, High German, German, Middle German, East Middle German",
  "dialects": "Erzgebirgisch, Hessian (Hessisch)",
  "use": "Also use Standard German [deu]",
  "development": "Bible portions: 1996",
  "resources": "OLAC resources in and about Saxon, Upper",
  "writing": "Latin script [Latn]"
}