{
  "id": "sya",
  "name": "Siang",
  "country": {
    "code": "ID",
    "name": "Indonesia",
    "area": "Asia"
  },
  "status": "6a (Vigorous)",
  "alternate_names": "Ot Siang",
  "population": "60,000 (Wurm and Hattori 1981)",
  "location": "Kalimantan Tengah Province, Murung Raya regency. Northern bend area, Barito river, north along tributary",
  "maps": "Indonesia, Kalimantan",
  "classification": "Austronesian, Malayo-Polynesian, Greater Barito, West, North",
  "dialects": "Murung 2, Siang",
  "resources": "OLAC resources in and about Siang"
}