{
  "id": "syc",
  "name": "Syriac",
  "country": {
    "code": "TR",
    "name": "Turkey",
    "area": "Asia"
  },
  "status": "9 (Dormant)",
  "alternate_names": "Ancient Syriac, Classical Syriac, Lishana Atiga, Suryaya, Suryoyo",
  "population": "No known L1 speakers",
  "location": "Southeast, Sanliurfa Province",
  "classification": "Afro-Asiatic, Semitic, Central, Aramaic, Eastern",
  "dialects": "Eastern Syriac, Western Syriac. Syrian churches: Eastern (Nestorian), Syrian Orthodox (Jacobite), and Syrian Catholic (Melkite, Maronite) developed a vast literature based on the Edessa (currently Sanliurfa, southeastern Turkey) variety of the Syrian dialect. Assyrian group (see Assyrian Neo-Aramaic in Iraq and elsewhere) separated denominationally from Chaldean (see Chaldean Neo-Aramaic in Iraq) and Jacobite (see Turoyo in Turkey and Syria) in the Middle Ages. Neo-Eastern Aramaic languages spoken by Christians are often dubbed Neo-Syriac although not directly descended from Syriac",
  "use": "Was used in Turkey, Iraq, and Syria. Became extinct in the 10th to 12th centuries. Still used, but rarely, as a secular literary language among followers of the churches listed",
  "development": "Bible: 1645–1891",
  "resources": "OLAC resources in and about Syriac",
  "writing": "Syriac script [Syrc]",
  "other_comments": "Christian"
}