{
  "id": "tab",
  "name": "Tabassaran",
  "country": {
    "code": "RU",
    "name": "Russian Federation",
    "area": "Europe"
  },
  "status": "4 (Educational)",
  "alternate_names": "Ghumghum, Tabasaran, Tabasarantsy",
  "population": "126,000 in Russian Federation (2010 census). Population total all countries: 126,900. Ethnic population: 146,000 (2010 census)",
  "location": "Dagestan Republic",
  "maps": "Western Russia, Enlarged Area",
  "classification": "North Caucasian, East Caucasian, Lezgic, Nuclear Lezgic, East Lezgic",
  "dialects": "North Tabasaran (Khanag), South Tabasaran",
  "development": "Magazines. Newspapers. Dictionary. Grammar. NT: 2010",
  "resources": "OLAC resources in and about Tabassaran",
  "writing": "Cyrillic script [Cyrl]",
  "other_comments": "Muslim (Sunni)"
}