{
  "id": "tac",
  "name": "Tarahumara, Western",
  "country": {
    "code": "MX",
    "name": "Mexico",
    "area": "Americas"
  },
  "status": "5 (Developing)",
  "alternate_names": "Baja Tarahumara, Lowland Tarahumara, Ralámuli de la Baja Tarahumara, Rarámuri, Rocoroibo, Tarahumara del oeste, Tarahumara del Poniente",
  "population": "10,000 (2000 INALI)",
  "location": "Chihuahua, Guazapares, Urique, and Uruachi towns",
  "maps": "Mexico",
  "classification": "Uto-Aztecan, Southern Uto-Aztecan, Taracahitic, Tarahumaran, Tarahumara",
  "typology": "SOV; long words, affixes; nontonal",
  "use": "All ages. Also use Spanish [spa]",
  "development": "NT: 2008",
  "resources": "OLAC resources in and about Tarahumara, Western",
  "writing": "Latin script [Latn]"
}