{
  "id": "tam",
  "name": "Tamil",
  "country": {
    "code": "IN",
    "name": "India",
    "area": "Asia"
  },
  "status": "2 (Provincial). Statutory provincial language in Tamil Nadu State; union territories Puducherry, Andaman and Nicobar Islands (1950, Constitution, Schedule VIII)",
  "alternate_names": "Damulian, Tamal, Tamalsan, Tambul, Tamili",
  "population": "60,700,000 in India (2001 census). Population total all countries: 68,776,460. L2 users: 8,000,000 in India",
  "location": "Tamil Nadu; Karnataka, Chamarajana district; Andhra Pradesh, Chittoor and Sri Potti Sriramulu Nellore districts; eastern Puducherry enclaves; south Kerala, assorted border areas",
  "maps": "India: Index Map                      Sri Lanka",
  "classification": "Dravidian, Southern, Tamil-Kannada, Tamil-Kodagu, Tamil-Malayalam, Tamil",
  "dialects": "Adi Dravida, Aiyangar, Aiyar, Arava, Burgandi, Burma Tamil, Harijan, Hebbar, Kongar, Madrasi, Madurai, Malaya Tamil, Mandyam Brahmin, Pattapu Bhasha, Sanketi, Secunderabad Brahmin, South Africa Tamil, Sri Lanka Tamil, Tamil, Tigalu. Burgandi are nomadic. Aiyar and Aiyangar are Brahmin dialects. Southern dialect around Madurai is literary standard. Eastern dialect is colloquial standard (Zvelebil 1998). Sanketi dialect in Karnataka used by immigrants from Madurai and Shenkotta in Tamil Nadu. Lexicon greatly influenced by Kannada",
  "typology": "SOV",
  "use": "Most also use Kannada [kan]. All are bilingual. (Gowda 1976). Used as L2 by Alu Kurumba [xua], Attapady Kurumba [pkr], Eravallan [era], Irula [iru], Jennu Kurumba [xuj], Kadar [kej], Kanikkaran [kev], Kannada Kurumba [kfi], Kota [kfe], Malankuravan [mjo], Malasar [ymr], Muthuvan [muv], Paliyan [pcf], Paniya [pcg], Saurashtra [saz], Toda [tcx], Vaagri Booli [vaa]",
  "development": "Taught in primary and secondary schools. Fully developed. Bible: 1727–2002",
  "resources": "OLAC resources in and about Tamil",
  "writing": "Braille script [Brai]. Tamil script [Taml], primary usage",
  "other_comments": "Officially recognized language. Hindu, Muslim"
}