{
  "id": "tav",
  "name": "Tatuyo",
  "country": {
    "code": "CO",
    "name": "Colombia",
    "area": "Americas"
  },
  "status": "5 (Developing)",
  "alternate_names": "Juna, Oa, Pamoa, Sina, Sura, Tatutapuyo",
  "population": "400 (2007 SIL). Ethnic population: 400 (Crevels 2007)",
  "location": "Vaupés Department, Pira-Paraná headwaters and upper Papurí",
  "maps": "Southern Colombia",
  "classification": "Tucanoan, Eastern Tucanoan, Carapano",
  "use": "All use at least one other Tucanoan language. Used as L2 by Waimaha [bao]",
  "development": "Literacy rate in L1: 1%–5%. Literacy rate in L2: Below 5%. NT: 1987–2009",
  "resources": "OLAC resources in and about Tatuyo",
  "writing": "Latin script [Latn]",
  "other_comments": "Majority marry Carapana, Northern Barasano, or Barasana women"
}