{
  "id": "tbb",
  "name": "Tapeba",
  "country": {
    "code": "BR",
    "name": "Brazil",
    "area": "Americas"
  },
  "status": "9 (Dormant)",
  "alternate_names": "Tabeba",
  "population": "No known L1 speakers. Ethnic population: 2,490",
  "location": "Ceara State, Caucaia municipality, Ceará river",
  "classification": "Unclassified",
  "use": "Shifted to Portuguese [por]",
  "resources": "OLAC resources in and about Tapeba"
}