{
  "id": "tbl",
  "name": "Tboli",
  "country": {
    "code": "PH",
    "name": "Philippines",
    "area": "Asia"
  },
  "status": "4 (Educational)",
  "alternate_names": "“Tagabili” (pej.), T’boli, Tiboli",
  "population": "95,300 (2000). 10,000 monolinguals. Ethnic population: 100,000",
  "location": "Southwest Mindanao, South Cotabato Province, Mount Busa area and west; Sarangani Province, Celebes seacoast, Katabau west to provincial border; Sultan Kudarat Province, Kraun area and Bagumbayan minicipality",
  "maps": "Southern Philippines",
  "classification": "Austronesian, Malayo-Polynesian, Philippine, Bilic, Tboli",
  "dialects": "Central Tboli, Southern Tboli, Western Tboli",
  "typology": "VSO; articles, adjectives, numerals all before and after noun heads; question word in sentence-initial position; maximum number of affixes: 1 prefix, 1 suffix; word order distinguishes subject, object and direct objects, given and new information, topic and comment; affixes indicate case of noun phrase; passives; causatives; comparatives; CV, CVC, CCV, CCVC; nontonal",
  "use": "Speak Tboli to each other freely in buses, surrounding towns, etc. All ages. Positive attitudes. Also use English [eng], Filipino [fil], Hiligaynon [hil]. Used as L2 by Koronadal Blaan [bpr], Sarangani Blaan [bps]",
  "development": "Literacy rate in L1: Perhaps 50%–60%. Literacy rate in L2: Perhaps 50%–60%. Literacy program in previously unreached coastal mountain range. They operate their own government school. Poetry. Dictionary. Grammar. Bible: 2007",
  "resources": "OLAC resources in and about Tboli",
  "writing": "Latin script [Latn]",
  "other_comments": "Christian, traditional religion"
}