{
  "id": "tby",
  "name": "Tabaru",
  "country": {
    "code": "ID",
    "name": "Indonesia",
    "area": "Asia"
  },
  "status": "5 (Developing)",
  "alternate_names": "Tobaru",
  "population": "15,000 (1991 SIL)",
  "location": "Maluku Utara Province, Ibu, Jailolo, and Oba districts. North Halmahera island",
  "maps": "Indonesia, Northern Maluku",
  "classification": "West Papuan, North Halmahera, Galela-Loloda",
  "dialects": "Adu, Nyeku. Northern dialect is the main one. Dialects mutually inherently intelligible",
  "use": "Also use Indonesian [ind], North Moluccan Malay [max]",
  "development": "Literacy rate in L1: Below 1%. Literacy rate in L2: 25%–50%. NT: 2008",
  "resources": "OLAC resources in and about Tabaru",
  "writing": "Latin script [Latn]",
  "other_comments": "Christian"
}