{
  "id": "tct",
  "name": "T’en",
  "country": {
    "code": "CN",
    "name": "China",
    "area": "Asia"
  },
  "status": "6b (Threatened). Language of recognized nationality: Bouyei",
  "alternate_names": "Rao, Rau, Then, Yang Hwang, Yanghuang",
  "population": "20,000 (Bradley 2007). Ethnic population: 25,000 (2000 D. Bradley)",
  "location": "Guizhou Province, east Pingtang county; Dushan county; Huishui, just south of Guiyang; some in Guangxi Zhuang Autonomous Region",
  "maps": "Southwestern China",
  "classification": "Tai-Kadai, Kam-Tai, Kam-Sui",
  "dialects": "Hedong, Hexi, Huishui. Reportedly similar to Sui [swi], some scholars consider T’en to be a dialect of Sui (Shearer and Sun 2002)",
  "use": "Moderately vigorous. Chinese and Bouyei [pcc] in the area also speak T’en. Religion. All ages. Not used by children and young people as often as adults. Also use local Chinese or Bouyei [pcc]",
  "development": "Dictionary. Grammar",
  "resources": "OLAC resources in and about T’en",
  "other_comments": "Traditional religion"
}