{
  "id": "tec",
  "name": "Terik",
  "country": {
    "code": "KE",
    "name": "Kenya",
    "area": "Africa"
  },
  "status": "6a (Vigorous)",
  "alternate_names": "Nyang’ori",
  "population": "301,000 (2009 census), increasing",
  "location": "Nandi and Uasin Gishu counties: west of Eldoret",
  "maps": "Kenya",
  "classification": "Nilo-Saharan, Eastern Sudanic, Nilotic, Southern, Kalenjin, Nandi-Markweta, Nandi",
  "dialects": "None known. Reportedly similar to Nandi [niq]. A member of macrolanguage Kalenjin [kln]",
  "use": "All domains. All ages. Positive attitudes. Also use Nandi [niq], Swahili [swh]",
  "development": "Radio programs",
  "resources": "OLAC resources in and about Terik"
}