{
  "id": "teh",
  "name": "Tehuelche",
  "country": {
    "code": "AR",
    "name": "Argentina",
    "area": "Americas"
  },
  "status": "9 (Dormant)",
  "alternate_names": "Aoniken, Gunua-Kena, Gününa Küne, Gününa Yajich, Gununa-Kena, Inaquen",
  "population": "No known L1 speakers. Last speaker died in the 1960s or 1970s (Crevels 2007). Ethnic population: 10,600 (2004 INDEC)",
  "location": "Chubut Province, central zone",
  "classification": "Chon",
  "use": "Have assimilated with the Mapuche [arn] (Mapudungun)",
  "development": "Dictionary",
  "resources": "OLAC resources in and about Tehuelche",
  "other_comments": "From Chile"
}