{
  "id": "tft",
  "name": "Ternate",
  "country": {
    "code": "ID",
    "name": "Indonesia",
    "area": "Asia"
  },
  "status": "6b (Threatened)",
  "population": "42,000 (Wurm and Hattori 1981). L2 users: 20,000. North and northeast Halmahera",
  "location": "Maluku Utara Province; Ternate island. Kayoa islands on north end of Lapan bay; islands between Bacan and Kasiruta islands. Halmahera island; Damar, Yoronge islands off of southeasternmost point, some communities on western north coast",
  "maps": "Indonesia, Northern Maluku",
  "classification": "West Papuan, North Halmahera, Ternate-Tidore",
  "dialects": "None known. Reportedly similar to Tidore [tvo]",
  "use": "Former trade language, now shifting to North Moluccan Malay [max]; weaker in core area, stronger in periphery (2012 J. Bowden). Also use Indonesian [ind]. Used as L2 by Sawai [szw]",
  "development": "Literacy rate in L1: 1%–5%. Literacy rate in L2: 25%–50%",
  "resources": "OLAC resources in and about Ternate",
  "other_comments": "Muslim"
}