{
  "id": "tgo",
  "name": "Sudest",
  "country": {
    "code": "PG",
    "name": "Papua New Guinea",
    "area": "Pacific"
  },
  "status": "5 (Developing)",
  "alternate_names": "Sud-Est, Tagula, Vanatina, Vanga",
  "population": "2,000 (1987 SIL), increasing. 400 monolinguals",
  "location": "Milne Bay Province, Yama-Yele district, Tagula island, west of Rossel island, end of Calvados chain. 17 villages or hamlets",
  "maps": "Papua New Guinea, Map 17",
  "classification": "Austronesian, Malayo-Polynesian, Central-Eastern Malayo-Polynesian, Eastern Malayo-Polynesian, Oceanic, Western Oceanic, Papuan Tip, Peripheral, Kilivila-Louisiades, Nimoa-Sudest",
  "dialects": "Central Sudest (Araetha, Pamela), Eastern Point, Eastern Sudest (Rambuso, Rehuwo), Rambuso (Rewa), Western Sudest (Dtelha, Griffin Point, Jelewaga). Lexical similarity: 44% with Rifao [nmw] (most similar)",
  "use": "Vigorous. All domains. All ages. Positive attitudes. 70% also use English [eng]. Also use Misima-Panaeati [mpx], Rifao [nmw]",
  "development": "Literacy rate in L1: 50%–70%. Literacy rate in L2: 75%–90% (Misima [mpx], Rifao [nmw], or English [eng]). When possible, used by community schools. Primary schools becoming bilingual. Poetry. Dictionary. Grammar. Bible portions: 2009",
  "resources": "OLAC resources in and about Sudest",
  "writing": "Latin script [Latn]",
  "other_comments": "Most children go to school. Christian"
}