{
  "id": "tgu",
  "name": "Tanggu",
  "country": {
    "code": "PG",
    "name": "Papua New Guinea",
    "area": "Pacific"
  },
  "status": "5 (Developing)",
  "alternate_names": "Tanggum, Tangu",
  "population": "3,000 (1991 SIL)",
  "location": "Madang Province, Bogia district",
  "maps": "Papua New Guinea, Map 6",
  "classification": "Ramu-Lower Sepik, Ramu, Tanggu",
  "development": "Bible portions: 1993–2011",
  "resources": "OLAC resources in and about Tanggu",
  "writing": "Latin script [Latn]"
}