{
  "id": "tgy",
  "name": "Togoyo",
  "country": {
    "code": "SS",
    "name": "South Sudan",
    "area": "Africa"
  },
  "status": "10 (Extinct)",
  "alternate_names": "Togoy",
  "population": "No known L1 speakers",
  "location": "West Bahr el Ghazal state: Raga area",
  "classification": "Niger-Congo, Atlantic-Congo, Volta-Congo, North, Adamawa-Ubangi, Ubangi, Sere-Ngbaka-Mba, Sere, Indri-Togoyo",
  "resources": "OLAC resources in and about Togoyo",
  "writing": "Unwritten [Qaax]"
}