{
  "id": "the",
  "name": "Tharu, Chitwania",
  "country": {
    "code": "NP",
    "name": "Nepal",
    "area": "Asia"
  },
  "status": "5 (Developing). Language of recognized indigenous nationality: Tharu",
  "alternate_names": "Chitoniya Tharu, Chitwan Tharu, Chitwaniya",
  "population": "285,000 in Nepal (2001 census), increasing. Population for all Tharu varieties: 1,530,000 (2011 census). L2 users: 46,600 L2 speakers for all Tharu languages (1991 census)",
  "location": "Narayani Zone, Chitwan, Bara, Parsa, Rautahat, and Makwanpur districts; Lumbini Zone, Nawalparasi district; Gandaki Zone, Tanahu district",
  "maps": "India, Map 3                      India, Map 4                      Central Nepal",
  "classification": "Indo-European, Indo-Iranian, Indo-Aryan, Eastern zone, Unclassified",
  "dialects": "Nawalpuriya Tharu (Laulpuriya Tharu)",
  "typology": "SOV; postpositions; noun head final; 2 genders; content q-word in situ; up to 3 suffixes; clause constituents indicated by case-marking; verbal affixation marks person and number; tense and aspect; no passive or voice; nontonal; 34 consonant and 6 vowel phonemes (5 of the vowels can be nasalized)",
  "use": "Vigorous within the language community. Home, friends, religion; mixed use: Work, education. All ages. Neutral or negative attitudes. Also use Bhojpuri [bho], Hindi [hin], Nepali [npi]",
  "development": "Literacy rate in L1: Below 1%. Taught in primary schools, in 2 schools in Chitwan District only. Poetry. Magazines. Newspapers. New media. Radio programs. Films. Videos. Bible portions: 1977",
  "resources": "OLAC resources in and about Tharu, Chitwania",
  "writing": "Devanagari script [Deva]",
  "other_comments": "Traditional religion"
}