{
  "id": "thi",
  "name": "Tai Long",
  "country": {
    "code": "LA",
    "name": "Laos",
    "area": "Asia"
  },
  "status": "6a (Vigorous)",
  "population": "4,800 (2004)",
  "location": "Louangphabang Province",
  "classification": "Tai-Kadai, Kam-Tai, Tai, Southwestern",
  "resources": "OLAC resources in and about Tai Long"
}