{
  "id": "tia",
  "name": "Tamazight, Tidikelt",
  "country": {
    "code": "DZ",
    "name": "Algeria",
    "area": "Africa"
  },
  "status": "8b (Nearly extinct)",
  "population": "1,000 (2011), decreasing",
  "location": "Tamanrasset province: Tidikelt, Salah area, and Tit south",
  "maps": "Algeria, Morocco, Tunisia and Western Sahara",
  "classification": "Afro-Asiatic, Berber, Northern, Zenati, Tidikelt",
  "dialects": "Tidikelt, Tit",
  "use": "Shifting to Arabic [arq]. Only used by older generation",
  "resources": "OLAC resources in and about Tamazight, Tidikelt",
  "other_comments": "Muslim"
}