{
  "id": "tik",
  "name": "Tikar",
  "country": {
    "code": "CM",
    "name": "Cameroon",
    "area": "Africa"
  },
  "status": "5 (Developing)",
  "alternate_names": "Ndob, Ndome, Tikali, Tikar-East, Tikari, Tingkala",
  "population": "110,000 (2005 SIL). Based on the actual population of the subdivisions where the Tikar people are present, as of the official 2005 census (2014 C. Hamm)",
  "location": "Adamawa region: Mayo-Banyo division, Bankim subdivision; Centre region: Mbam-and-Kim division, Ngambe-Tikar subdivision, scattered over northwest Yoko and northeast of Foumban; West region: Noun division, Magba subdivision; North West region: Donga-Mantung division, small border area",
  "maps": "Central Cameroon                      Southern Cameroon",
  "classification": "Niger-Congo, Atlantic-Congo, Volta-Congo, Benue-Congo, Bantoid, Southern, Tikar",
  "dialects": "Bandobo, Gambai, Kong, Mankim, Nditam, Tige (Tikar de Ngambe), Twumwu (Tikar de Bankim, Tumu). Bandobo may be a separate language. The Bankim call their dialect Twumwu, the Ngambe call theirs Tige",
  "use": "All ages. Also use French [fra]",
  "development": "Literacy rate in L2: 25%–50%. Dictionary. NT: 1989",
  "resources": "OLAC resources in and about Tikar",
  "writing": "Latin script [Latn]"
}