{
  "id": "tio",
  "name": "Teop",
  "country": {
    "code": "PG",
    "name": "Papua New Guinea",
    "area": "Pacific"
  },
  "status": "5 (Developing). Statutory language of provincial identity in Bougainville Autonomous Region (2007, Education Plan, Section 1.1.3), not yet implemented (2012)",
  "alternate_names": "Teapu",
  "population": "5,000 (1991 SIL). L2 users: Some who intermarry with Teop",
  "location": "Bougainville Province, Tinputz district, northeast",
  "maps": "Papua New Guinea, Map 13",
  "classification": "Austronesian, Malayo-Polynesian, Central-Eastern Malayo-Polynesian, Eastern Malayo-Polynesian, Oceanic, Western Oceanic, Meso Melanesian, New Ireland, South New Ireland-Northwest Solomonic, Nehan-North Bougainville, Saposa-Tinputz",
  "dialects": "Coastal Teop, Kosina Mohina, Manava, Rausara (Rausiara), Taunita. Coastal Teop speakers understand other dialects, and vice versa. Coastal Teop is 84% cognate with Rausara, 73% with Taunita dialects",
  "typology": "SVO; 3 noun classes",
  "use": "Some dislike borrowed words entering Teop. Daily life, village meetings, some in church, market. All ages. Positive attitudes. 90% also use Tok Pisin [tpi]",
  "development": "Literacy rate in L1: 75%–100%. Literacy rate in L2: 75%–100%. Taught in primary schools, 3 years in some schools. Poetry. Dictionary. Bible portions: 1958–1966",
  "resources": "OLAC resources in and about Teop",
  "writing": "Latin script [Latn]",
  "other_comments": "Christian"
}