{
  "id": "tip",
  "name": "Trimuris",
  "country": {
    "code": "ID",
    "name": "Indonesia",
    "area": "Asia"
  },
  "status": "6a (Vigorous)",
  "population": "300 (1999 SIL)",
  "location": "Papua Province, Jayapura regency, Mamberamo Tengah subdistrict, Mamberamo river east bank, between Kauwera [xau] and Bagusa [bqb] language areas",
  "maps": "Indonesia, Eastern Papua",
  "classification": "Tor-Kwerba, Greater Kwerba, Kwerba, Nuclear",
  "dialects": "None known. Low intelligibility of Kwerba [kwe]. Lexical similarity: 70% with Kauwera [xau] and 60% with Kwerba [kwe]",
  "use": "Vigorous. All ages",
  "resources": "OLAC resources in and about Trimuris",
  "other_comments": "Traditional religion, Christian"
}