{
  "id": "tix",
  "name": "Tiwa, Southern",
  "country": {
    "code": "US",
    "name": "United States",
    "area": "Americas"
  },
  "status": "6b (Threatened)",
  "population": "1,600 (Golla 2007), decreasing. 1,500 Isleta, 100 Sandia speakers (Golla 2007). Ethnic population: 4,500 (Golla 2007). Including 4,000 Isleta and 500 Sandia (Golla 2007)",
  "location": "New Mexico, Isleta and Sandia pueblos, north and south of Albuquerque",
  "maps": "Western United States of America",
  "classification": "Kiowa-Tanoan, Tanoan",
  "dialects": "Isleta (Isleta Pueblo), Sandia",
  "use": "Vigorous in a few families. Diminishing vigor at Isleta except among older adults. Commerce on tribal land, traditional ceremonial life. Only middle-aged or elderly are fluent but some younger people use the language and at least a few children acquire it (Golla 2007). Positive attitudes. Regret apparent demise of the language. People are apprehensive about losing their culture if the language is not revived. Range from being fluent in English [eng] to low proficiency",
  "development": "Attempt to reestablish use of Southern Tiwa at Sandia Pueblo and Ysleta del Sur, El Paso, Texas. Bible portions: 1981–1987",
  "resources": "OLAC resources in and about Tiwa, Southern",
  "writing": "Latin script [Latn]",
  "other_comments": "Christian, traditional religion"
}