{
  "id": "tjl",
  "name": "Tai Laing",
  "country": {
    "code": "MM",
    "name": "Myanmar",
    "area": "Asia"
  },
  "status": "6b (Threatened)",
  "alternate_names": "Red Tai, Shan Bamar, Shan Kalee, Shan Ni, Tai Laeng, Tai Lai, Tai Lang, Tai Nai, Tai Naing",
  "population": "100,000 (2010 SIL)",
  "location": "Kachin State, from Myitkyina to Bamaw township; Sagaing Region, Homalin township, along the Irrawaddy, Chindwin, and Uru rivers",
  "maps": "Northern Myanmar",
  "classification": "Tai-Kadai, Kam-Tai, Tai, Southwestern",
  "dialects": "Tai Lai, Tai Nai. Two subgroups: Those who live along the railway line between Myitkyina and Mandalay and call themselves Tai Nai; Those who live along the river south of Myitkyina who call themselves Tai Lai. However, apart from the sound shift l to n among the first group, there do not seem to be any major differences in language between these 2 subgroups. Reportedly similar to Khamti [kht]",
  "use": "Shifting to Burmese [mya] in some areas",
  "resources": "OLAC resources in and about Tai Laing",
  "writing": "Myanmar (Burmese) script [Mymr], historical usage with some recent revival of the script",
  "other_comments": "The name Tai Laing means Red Tai. Buddhist"
}