{
  "id": "tjn",
  "name": "Tonjon",
  "country": {
    "code": "CI",
    "name": "Côte d’Ivoire",
    "area": "Africa"
  },
  "status": "10 (Extinct)",
  "population": "No known L1 speakers",
  "location": "Vallée du Bandama District",
  "classification": "Niger-Congo, Mande, Western, Central-Southwestern, Central, Manding-Jogo, Jogo-Jeri, Jogo",
  "use": "Shifted to Jula [dyu] and Djimini Senoufo [dyi]",
  "resources": "OLAC resources in and about Tonjon",
  "other_comments": "Formerly spoken by blacksmiths"
}