{
  "id": "tkd",
  "name": "Tukudede",
  "country": {
    "code": "TL",
    "name": "East Timor",
    "area": "Asia"
  },
  "status": "6a (Vigorous)",
  "alternate_names": "Tocod, Tokodé, Tokodede, Tukude",
  "population": "39,500 (2010 census)",
  "location": "Timor island, north coast, Bobonaro, Ermera, and Liquiçá districts from Lois river to jt west of Ponta Acoilo, near Dili",
  "maps": "East Timor",
  "classification": "Austronesian, Malayo-Polynesian, Central-Eastern Malayo-Polynesian, Timor-Babar, Nuclear Timor",
  "dialects": "Keha (Keia), Tukudede",
  "resources": "OLAC resources in and about Tukudede",
  "writing": "Latin script [Latn]",
  "other_comments": "Christian"
}