{
  "id": "tkg",
  "name": "Malagasy, Tesaka",
  "country": {
    "code": "MG",
    "name": "Madagascar",
    "area": "Africa"
  },
  "status": "6a (Vigorous)",
  "alternate_names": "Antaisaka, Antesaka, Atesaka",
  "population": "1,130,000 (2010 T. Bergman)",
  "location": "Atsimo-Atsinanana, Ihorombe, and Anosy regions; migrating to other areas of Madagascar, particularly western deltas",
  "maps": "Comoros, Madagascar and Mayotte",
  "classification": "Austronesian, Malayo-Polynesian, Greater Barito, East, Malagasy",
  "dialects": "A member of macrolanguage Malagasy [mlg]",
  "use": "All domains, except education, religion, and government. Positive attitudes",
  "development": "Bible portions: 2014",
  "resources": "OLAC resources in and about Malagasy, Tesaka",
  "writing": "Latin script [Latn]",
  "other_comments": "Traditional religion"
}