{
  "id": "tkv",
  "name": "Mur Pano",
  "country": {
    "code": "PG",
    "name": "Papua New Guinea",
    "area": "Pacific"
  },
  "status": "6a (Vigorous)",
  "alternate_names": "Pano",
  "population": "1,000 (2012 SIL)",
  "location": "Madang Province, Mur village",
  "maps": "Papua New Guinea, Map 11",
  "classification": "Austronesian, Malayo-Polynesian, Central-Eastern Malayo-Polynesian, Eastern Malayo-Polynesian, Oceanic, Western Oceanic, North New Guinea, Ngero-Vitiaz, Vitiaz, Korap",
  "dialects": "Lexical similarity: 63% with Karnai [bbv], 63% with Pano [mqz (Singorokai dialect), 59% with Pano (Malasanga dialect), 58% with Arop-Lokep [apr]",
  "use": "All domains. Also use Tok Pisin [tpi]",
  "development": "Taught in primary schools, in Mur elementary school",
  "resources": "OLAC resources in and about Mur Pano",
  "writing": "Unwritten [Qaax]",
  "other_comments": "Different from Pano [mqz]"
}