{
  "id": "tlc",
  "name": "Totonac, Yecuatla",
  "country": {
    "code": "MX",
    "name": "Mexico",
    "area": "Americas"
  },
  "status": "7 (Shifting)",
  "population": "500 (1994 SIL)",
  "location": "Near south coast, Veracruz-Llave, lower section of Naulta river, San Rafael area; possibly some inland in Yecuatla and Misantla to the south",
  "maps": "Western Central Mexico",
  "classification": "Totonacan, Totonac",
  "use": "Mainly older adults. Also use Spanish [spa]",
  "resources": "OLAC resources in and about Totonac, Yecuatla",
  "writing": "Unwritten [Qaax]"
}