{
  "id": "tlr",
  "name": "Talise",
  "country": {
    "code": "SB",
    "name": "Solomon Islands",
    "area": "Pacific"
  },
  "status": "6a (Vigorous)",
  "alternate_names": "Talisi, Tolo",
  "population": "12,500 (1999 SIL). 5,940 in Talise, 2,090 in Moli, 4,490 in Koo",
  "location": "Guadalcanal, southeast to southwest coast",
  "maps": "Solomon Islands",
  "classification": "Austronesian, Malayo-Polynesian, Central-Eastern Malayo-Polynesian, Eastern Malayo-Polynesian, Oceanic, Central-Eastern Oceanic, Southeast Solomonic, Gela-Guadalcanal, Guadalcanal",
  "dialects": "Koo (Inakona), Malagheti, Moli, Poleo, Talise, Tolo",
  "use": "All ages",
  "development": "Dictionary. Grammar",
  "resources": "OLAC resources in and about Talise"
}