{
  "id": "tmo",
  "name": "Temoq",
  "country": {
    "code": "MY",
    "name": "Malaysia",
    "area": "Asia"
  },
  "status": "8b (Nearly extinct)",
  "location": "Peninsular, southeast Pahang State, Jeram river",
  "maps": "Malaysia - Peninsular",
  "classification": "Austro-Asiatic, Mon-Khmer, Aslian, South Aslian",
  "resources": "OLAC resources in and about Temoq",
  "writing": "Unwritten [Qaax]"
}