{
  "id": "tmy",
  "name": "Tami",
  "country": {
    "code": "PG",
    "name": "Papua New Guinea",
    "area": "Pacific"
  },
  "status": "5 (Developing)",
  "population": "2,100 (2010 SIL), increasing. 1,000 in each dialect",
  "location": "Morobe Province, Tami Islands and mainland villages south of Finschhafen",
  "maps": "Papua New Guinea, Map 11",
  "classification": "Austronesian, Malayo-Polynesian, Central-Eastern Malayo-Polynesian, Eastern Malayo-Polynesian, Oceanic, Western Oceanic, North New Guinea, Ngero-Vitiaz, Vitiaz, Tami",
  "dialects": "Taemi, Wanam",
  "typology": "SVO",
  "use": "10% also use Yabem [jae]. Mostly older generation",
  "development": "Literacy rate in L1: More than 10%. Literacy rate in L2: Less than 10%. Poetry. Bible portions: 2000",
  "resources": "OLAC resources in and about Tami",
  "writing": "Latin script [Latn]"
}