{
  "id": "tnm",
  "name": "Tabla",
  "country": {
    "code": "ID",
    "name": "Indonesia",
    "area": "Asia"
  },
  "status": "8a (Moribund)",
  "alternate_names": "Jakari, Tabi, Tanah Merah, Tanahmerah 2, Tepera",
  "population": "3,750 (1990 UBS)",
  "location": "Papua Province, Jayapura, Demta, Depapre, 13 villages on north coast east and west of Tanahmerah bay",
  "maps": "Indonesia, Eastern Papua",
  "classification": "East Bird’s Head-Sentani, Sentani, Sentani Proper",
  "dialects": "Tepera, Yewena-Yongsu, Yokari. Yokari dialect understood by other dialects at 80% to 95%, others have 95%–100% mutual intelligibility. Lexical similarity: 30% with Sentani [set]",
  "use": "Also use Indonesian [ind]",
  "development": "Bible portions: 1986–1991",
  "resources": "OLAC resources in and about Tabla",
  "writing": "Latin script [Latn]",
  "other_comments": "Distinct from Tanahmerah [tcm] (Sumeri) of Bomberai Peninsula. Ethnic autonym: Tepera. Christian, traditional religion"
}