{
  "id": "tnr",
  "name": "Ménik",
  "country": {
    "code": "SN",
    "name": "Senegal",
    "area": "Africa"
  },
  "status": "5 (Developing). Recognized language (2005, Decree No. 985 of 21 October)",
  "alternate_names": "Bande, Basari du Bandemba, Bedik, Budik, Tandanke, Tenda, Tendanke",
  "population": "3,380 (2002 NTM)",
  "location": "Kedougou region: Gambia river headwaters and Guinea border",
  "maps": "Senegal and The Gambia",
  "classification": "Niger-Congo, Atlantic-Congo, Atlantic, Northern, Eastern Senegal-Guinea, Tenda",
  "dialects": "None known. Reportedly similar to Oniyan [bsc]",
  "use": "Home, village, work, church. All ages",
  "development": "Literacy rate in L1: Below 1%. Dictionary. Bible portions: 1997",
  "resources": "OLAC resources in and about Ménik",
  "writing": "Latin script [Latn]",
  "other_comments": "Ménik is the traditional language name. Reportedly a creole with elements from Oniyan [bsc], Peul [fuc], and other languages. Traditional religion, Christian"
}