{
  "id": "tnw",
  "name": "Tonsawang",
  "country": {
    "code": "ID",
    "name": "Indonesia",
    "area": "Asia"
  },
  "status": "7 (Shifting)",
  "alternate_names": "Tombatu",
  "population": "20,000 (Wurm and Hattori 1981), decreasing",
  "location": "Sulawesi Utara Province; landlocked area southwest of Lake Manado; near Tombatu town",
  "classification": "Austronesian, Malayo-Polynesian, Philippine, Minahasan",
  "use": "Under pressure from Manado Malay [xmm]",
  "resources": "OLAC resources in and about Tonsawang",
  "other_comments": "Christian"
}