{
  "id": "tos",
  "name": "Totonac, Highland",
  "country": {
    "code": "MX",
    "name": "Mexico",
    "area": "Americas"
  },
  "status": "5 (Developing)",
  "alternate_names": "Sierra Totonac, Totonaco de la Sierra",
  "population": "120,000 (1982 SIL)",
  "location": "Veracruz-Llave, Acatlán municipality, southwest of Pozo Rico; Puebla, Francisco Z. Mena municipaliy",
  "maps": "Western Central Mexico",
  "classification": "Totonacan, Totonac",
  "typology": "SVO; long words, affixes, clitics; nontonal",
  "use": "Some also use a Nahuatl language",
  "development": "Dictionary. NT: 1959–2000",
  "resources": "OLAC resources in and about Totonac, Highland",
  "writing": "Latin script [Latn]"
}