{
  "id": "tou",
  "name": "Tho",
  "country": {
    "code": "VN",
    "name": "Viet Nam",
    "area": "Asia"
  },
  "status": "6a (Vigorous). Language of recognized ethnic group: Tho",
  "alternate_names": "Cuoi, Cuoi Cham, Ho Muong Meridional, Keo",
  "population": "68,400 (1999 census). Ethnic population: 75,000 (2009 census)",
  "location": "North Nghe An province, highland areas, Cuoi Cham dialect in Tan Ky district, Tan Hop commune; also in Thanh Hoa province",
  "maps": "Northern Viet Nam",
  "classification": "Austro-Asiatic, Mon-Khmer, Viet-Muong, Cuoi",
  "dialects": "Cuoi Cham (Uy Lo), Mon",
  "development": "Dictionary",
  "resources": "OLAC resources in and about Tho",
  "writing": "Unwritten [Qaax]",
  "other_comments": "Tho is an official ethnic community. Associated culturally with other principal local ethnonyms Keo, Mon, Cuoi, Ho, Dan, Lai-Ly Ha, and Tay Poong"
}