{
  "id": "tpk",
  "name": "Tupinikin",
  "country": {
    "code": "BR",
    "name": "Brazil",
    "area": "Americas"
  },
  "status": "9 (Dormant)",
  "alternate_names": "Tupinaki, Tupinikim, Tupiniquim",
  "population": "No known L1 speakers. Ethnic population: 1,390",
  "location": "Espírito Santo State",
  "classification": "Tupian, Tupí-Guaraní, Tupí, Tupí",
  "use": "Shifted to Portuguese [por]",
  "resources": "OLAC resources in and about Tupinikin"
}