{
  "id": "tpq",
  "name": "Tukpa",
  "country": {
    "code": "IN",
    "name": "India",
    "area": "Asia"
  },
  "status": "6a (Vigorous)",
  "alternate_names": "Nesang, Nyam-kat",
  "population": "610 (2000)",
  "location": "Himachal Pradesh, Kinnaur district, Nesang, Charang, and Kunnu villages",
  "maps": "India, Map 1",
  "classification": "Sino-Tibetan, Tibeto-Burman, Western Tibeto-Burman, Bodish, West Himalayish, Kinauri",
  "resources": "OLAC resources in and about Tukpa",
  "writing": "Unwritten [Qaax]",
  "other_comments": "Buddhist"
}