{
  "id": "trg",
  "name": "Lishán Didán",
  "country": {
    "code": "IL",
    "name": "Israel",
    "area": "Asia"
  },
  "status": "7 (Shifting)",
  "alternate_names": "Galihalu, Lakhlokhi, Lishanán, Lishanid Nash Didán, Persian Azerbaijan Jewish Aramaic",
  "population": "4,230 in Israel (2001). Population total all countries: 4,450",
  "location": "Jerusalem and HaMerkaz districts, Jerusalem city, Tel-Aviv areas",
  "classification": "Afro-Asiatic, Semitic, Central, Aramaic, Eastern, Central, Northeastern",
  "dialects": "Northern Cluster Lishán Didán (Anatolia, Salmas, Urmi), Southern Cluster Lishán Didán (Mahabad, Naghada, Ushno). 60%–70% intelligibility of Hulaulá [huy] and Lishanid Noshan [aij], but not of other Aramaic languages. The Urmi variety of Lishán Didán is different from the Urmi variety of Assyrian Neo-Aramaic",
  "use": "Older adults. Hebrew [heb] is L2. Some multilingual; many married nonspeakers",
  "development": "OT",
  "resources": "OLAC resources in and about Lishán Didán",
  "writing": "Hebrew script [Hebr]",
  "other_comments": "Many loanwords from Kurdish, Turkish [tur], Arabic, Eastern Farsi [prs] or Western Farsi [pes], Hebrew [heb], and several European languages. Glossonym: Judeo-Kurdish or Azerbaijani Kurdish, both erroneous. Originally from Iranian Azerbaijan and southeast Turkey. Jewish"
}