{
  "id": "trp",
  "name": "Kok Borok",
  "country": {
    "code": "IN",
    "name": "India",
    "area": "Asia"
  },
  "status": "4 (Educational). Statutory language of provincial identity in Tripura State (1964, Official Languages Act No. 19 (as amended)), not a Schedule VIII language",
  "alternate_names": "Kakbarak, Kokbarak, Kokborok, Tipura, Tripura, Tripuri, Usipi Mrung",
  "population": "778,000 in India (2001 census). Population total all countries: 783,000",
  "location": "Tripura; Assam",
  "maps": "Northeastern Bangladesh                      Southeastern Bangladesh                      India, Map 5",
  "classification": "Sino-Tibetan, Tibeto-Burman, Sal, Bodo-Garo-Northern Naga, Bodo-Koch, Bodo-Garo, Bodo",
  "dialects": "Debbarma, Jamatia, Noatia (Tipra). Debbarma is spoken by the royal family and is medium of communication with the other dialects; understood by all, but not vice versa",
  "development": "Literacy rate in L1: 74% (2001 census). Taught in primary and secondary schools. Newspapers. Radio programs. Dictionary. Grammar. Bible: 1998",
  "resources": "OLAC resources in and about Kok Borok",
  "writing": "Bengali script [Beng]. Latin script [Latn]",
  "other_comments": "Traditional religion, Muslim"
}