{
  "id": "trs",
  "name": "Triqui, Chicahuaxtla",
  "country": {
    "code": "MX",
    "name": "Mexico",
    "area": "Americas"
  },
  "status": "6a (Vigorous)",
  "alternate_names": "Chicahuaxtla Trique, Triqui Alto, Triqui de San Andrés Chicahuaxtla",
  "population": "4,060 (Adelaar 2007)",
  "location": "Oaxaca, Tlaxiaco district, San José Xochistlán; Putla district, Santo Domingo del Estado",
  "maps": "Southern Central Mexico",
  "classification": "Otomanguean, Eastern Otomanguean, Amuzgo-Mixtecan, Mixtecan, Trique",
  "dialects": "Laguna, San José Xochistlá, Santo Domingo del Estado. 74% intelligibility of Copala [trc]. Lexical similarity: 87% with Itunyoso [trq], 78% with San Juan Copala [trc]",
  "typology": "VSO; short words, affixes, clitics; tonal",
  "development": "Dictionary. Grammar. NT: 1968",
  "resources": "OLAC resources in and about Triqui, Chicahuaxtla",
  "writing": "Latin script [Latn]"
}