{
  "id": "trv",
  "name": "Taroko",
  "country": {
    "code": "TW",
    "name": "China–Taiwan",
    "area": "Asia"
  },
  "status": "4 (Educational)",
  "alternate_names": "Bu-Hwan, Che-Hwan, Daiya-Ataiyal, Hogo, Iboho, Paran, Saediq, Sazek, Sedek, Sedeq, Sediakk, Sedik, Seedek, Seedeq, Seedik, Seediq, Sejiq, Shedekka, Taruku, Toda, Toroko, Truku",
  "population": "20,000 (2008 R. Covell)",
  "location": "Central, east, and coast; mountains north, Puli area; coast south of Hualien, south of the Atayal [tay]",
  "maps": "Taiwan",
  "classification": "Austronesian, Atayalic",
  "dialects": "Tekedaya (Paran, Tkdaya), Teruku (Truku), Te’uda (Tuuda). Dialects differ mainly in phonology and lexicon, some in grammar",
  "use": "Elderly also use Japanese [jpn]",
  "development": "Used as requested in special classes in schools. Dictionary. Grammar. Bible: 2005",
  "resources": "OLAC resources in and about Taroko",
  "writing": "Latin script [Latn]",
  "other_comments": "‘Taroko’, person, used by the coastals; ‘Sediq’, person, used by those in the mountains"
}