{
  "id": "trz",
  "name": "Torá",
  "country": {
    "code": "BR",
    "name": "Brazil",
    "area": "Americas"
  },
  "status": "9 (Dormant)",
  "alternate_names": "Toraz",
  "population": "No known L1 speakers. Ethnic population: 51 (1999)",
  "location": "Amazonas State, lower Rio Marmelos, tributary of Rio Madeira",
  "classification": "Chapacuran, Itene",
  "resources": "OLAC resources in and about Torá"
}