{
  "id": "tsa",
  "name": "Tsaangi",
  "country": {
    "code": "CG",
    "name": "Congo",
    "area": "Africa"
  },
  "status": "6a (Vigorous)",
  "alternate_names": "Icaangi, Itsangi, Tcengui, Tchangui, Tsengi",
  "population": "13,600 in Congo (2000). Population total all countries: 22,210",
  "location": "Niari department: north and northwest of Mossendjo; Lékoumou department",
  "maps": "Congo                      Equatorial Guinea, Gabon and São Tomé e Príncipe",
  "classification": "Niger-Congo, Atlantic-Congo, Volta-Congo, Benue-Congo, Bantoid, Southern, Narrow Bantu, Northwest, B, Nzebi (B.53)",
  "use": "Also use Kituba [mkw]",
  "resources": "OLAC resources in and about Tsaangi",
  "writing": "Unwritten [Qaax]"
}