{
  "id": "tsd",
  "name": "Tsakonian",
  "country": {
    "code": "GR",
    "name": "Greece",
    "area": "Europe"
  },
  "status": "8a (Moribund)",
  "alternate_names": "Tsakonia",
  "population": "200 (Salminen 2007)",
  "location": "Peloponnese, Western Greece and the Ionian Islands administrative unit: Arkadia regional unit, Kastanitsa, Sitena, Prastos, Leonidi, Pramatefti, Sapounakeika, Tyros, and Melana towns, possibly Korakovunio, Peloponnesos east coast; isolated in summer in east Peloponnesus in mountains west of Leonidi, in winter Leonidi town area",
  "maps": "Greece and The Former Yugoslav Republic of Macedonia",
  "classification": "Indo-European, Greek, Doric",
  "dialects": "Northern Tsakonian (Kastanista-Sitena), Propontis Tsakonian (Vatka-Havoutsi), Southern Tsakonian (Leonidio-Prastos). Derived from the Doric dialect spoken in Lakonia by ancient Spartans. Northern and Southern are reportedly mutually intelligible, but Propontis was more distinct, and more similar to standard Greek [ell]. Not inherently intelligible with modern Greek (Voegelin and Voegelin 1977). Lexical similarity: 70% or less with standard Greek [ell]",
  "use": "Monolinguals existed in 1927. Few use Northern dialect. Most use Southern Tsakonian. Propontis Tsakonian has had no remaining speakers since 1970. Mostly elderly (Salminen 2007). Also use Greek [ell]",
  "development": "Dictionary. Grammar",
  "resources": "OLAC resources in and about Tsakonian",
  "other_comments": "Christian"
}