{
  "id": "tsl",
  "name": "Ts’ün-Lao",
  "country": {
    "code": "VN",
    "name": "Viet Nam",
    "area": "Asia"
  },
  "status": "6a (Vigorous). Language of recognized ethnic group: Lao",
  "alternate_names": "Lao",
  "population": "10,000 (1993 D. Van)",
  "location": "Northwest, scattered, Lai Chau, Dien Bien, and Son La provinces",
  "maps": "Northern Viet Nam                      Northwestern Viet Nam",
  "classification": "Tai-Kadai, Kam-Tai, Tai, Central",
  "resources": "OLAC resources in and about Ts’ün-Lao",
  "other_comments": "Lao is an official ethnic community (14,928, 2009 census), with associated names Lào Bóc and Lào Noi. Traditional religion"
}