{
  "id": "ttw",
  "name": "Long Wat",
  "country": {
    "code": "MY",
    "name": "Malaysia",
    "area": "Asia"
  },
  "status": "6b (Threatened)",
  "alternate_names": "Tutoh Kenya, Tutoh Kenyah",
  "population": "600 (Wurm and Hattori 1981)",
  "location": "Northeast Sarawak, Tutoh river",
  "maps": "Brunei and Malaysia - Sarawak",
  "classification": "Austronesian, Malayo-Polynesian, North Borneo, North Sarawakan, Kayan-Kenyah, Kenyah, Kayanic Kenyah",
  "dialects": "Long Labid, Long Wat, Lugat. Not closely related to other languages",
  "resources": "OLAC resources in and about Long Wat",
  "writing": "Unwritten [Qaax]"
}