{
  "id": "tue",
  "name": "Tuyuca",
  "country": {
    "code": "CO",
    "name": "Colombia",
    "area": "Americas"
  },
  "status": "6b (Threatened)",
  "alternate_names": "Dochkafuara, Tejuca, Tuyuka",
  "population": "350 in Colombia (1995 SIL). Population total all countries: 940. Ethnic population: 570 (Crevels 2007)",
  "location": "Southeast, Vaupés Department, on the Upper Tiquié, Papurí, and Inambú along headwaters of the Comeyaca",
  "maps": "Northwestern Brazil                      Southern Colombia",
  "classification": "Tucanoan, Eastern Tucanoan, Bará-Tuyuka",
  "use": "100% also use Spanish [spa]. Spanish used in schools. 100% also use Tucano [tuo]. 100% also use Waimaha [bao]. Used as L2 by Waimaha [bao]",
  "development": "Literacy rate in L1: 10%. Literacy rate in L2: 60%. Dictionary. Grammar. NT: 2004–2011",
  "resources": "OLAC resources in and about Tuyuca",
  "writing": "Latin script [Latn]"
}