{
  "id": "two",
  "name": "Tswapong",
  "country": {
    "code": "BW",
    "name": "Botswana",
    "area": "Africa"
  },
  "status": "6a (Vigorous)",
  "alternate_names": "Setswapong",
  "population": "2,000 (Andersson and Janson 1997)",
  "location": "Central district: Mahalapye subdistrict; all villages east of Mahalapye; Kgatleng district northeast corner",
  "maps": "Botswana",
  "classification": "Niger-Congo, Atlantic-Congo, Volta-Congo, Benue-Congo, Bantoid, Southern, Narrow Bantu, Central, S, Sotho-Tswana (S.32)",
  "dialects": "Reportedly some similarities to Northern Sotho [nso] and Tswana [tsn], but not clearly a dialect of either. Some intelligibility of northern dialect speakers of Tswana (Sengwato and Setawana), and of a northwestern dialect of Northern Sotho. Some Birwa [brl] and Tswapong [two] say their varieties are more similar to one another than to Tswana or Northern Sotho",
  "resources": "OLAC resources in and about Tswapong",
  "other_comments": "Several groups: the Ramokgonami, Maifela, Chadibe, Sefbare, Tupsa"
}