{
  "id": "twy",
  "name": "Tawoyan",
  "country": {
    "code": "ID",
    "name": "Indonesia",
    "area": "Asia"
  },
  "status": "5 (Developing)",
  "alternate_names": "Tabojan, Tabojan Tongka, Taboyan, Tabuyan, Tawoyan Dayak, Tewoyan",
  "population": "20,000 (Wurm and Hattori 1981)",
  "location": "Eastern area, Kalimantan Tengah Province, east of Barito river, area around Palori town; border area, southeast Kalimantan Timur Province",
  "maps": "Indonesia, Kalimantan",
  "classification": "Austronesian, Malayo-Polynesian, Greater Barito, East, North",
  "dialects": "None known. Lexical similarity: 77% with Lawangan [lbx], 52% with Dusun Deyah [dun]",
  "development": "Grammar. Bible portions: 1985",
  "resources": "OLAC resources in and about Tawoyan",
  "writing": "Latin script [Latn]"
}