{
  "id": "tyl",
  "name": "Thu Lao",
  "country": {
    "code": "VN",
    "name": "Viet Nam",
    "area": "Asia"
  },
  "status": "6b (Threatened)",
  "population": "200 (2002 J. Edmondson)",
  "location": "Near China border, Lao Cai Province; possibly in Laos",
  "maps": "Northern Viet Nam                      Northwestern Viet Nam",
  "classification": "Tai-Kadai, Kam-Tai, Tai, Southwestern",
  "resources": "OLAC resources in and about Thu Lao",
  "other_comments": "Traditional religion, Christian"
}