{
  "id": "uam",
  "name": "Uamué",
  "country": {
    "code": "BR",
    "name": "Brazil",
    "area": "Americas"
  },
  "status": "9 (Dormant)",
  "alternate_names": "Aticum, Atikum, Huamuê",
  "population": "No known L1 speakers. Ethnic population: 2,740 (Crevels 2007)",
  "location": "Pernambuco State, vicinity of Floresta",
  "classification": "Language isolate",
  "use": "Shifted to Portuguese [por]",
  "resources": "OLAC resources in and about Uamué"
}