{
  "id": "uan",
  "name": "Kuan",
  "country": {
    "code": "LA",
    "name": "Laos",
    "area": "Asia"
  },
  "status": "6a (Vigorous)",
  "population": "2,500 (1995 census)",
  "location": "Bolikhamxai Province, Viangthong district, near Muang river",
  "classification": "Tai-Kadai, Kam-Tai, Tai",
  "dialects": "None known. Not easily classified, possibly due to migration",
  "resources": "OLAC resources in and about Kuan",
  "other_comments": "Traditional religion"
}