{
  "id": "ubu",
  "name": "Umbu-Ungu",
  "country": {
    "code": "PG",
    "name": "Papua New Guinea",
    "area": "Pacific"
  },
  "status": "5 (Developing)",
  "alternate_names": "Gawigl, Gawil, Imbo-Ungu, Kakoli, Kaugel, Kauil, Ubu Ugu, Umbongu, Umbu Ungu",
  "population": "34,200 (2000 census). 14,300 Andelale, 13,500 Kala, and 6,360 No-penge (2000 census)",
  "location": "Western Highlands Province. No-Penge dialect: Tambul district; Kala dialect: lower Kaugel district; Andelale dialect: Southern Highlands Province",
  "maps": "Papua New Guinea, Map 9",
  "classification": "Trans-New Guinea, Chimbu-Wahgi, Hagen, Kaugel",
  "dialects": "Andelale, Kala (Mendo-Kala), No-Penge",
  "typology": "SOV",
  "use": "Also use Melpa [med]",
  "development": "NT: 1995–1998",
  "resources": "OLAC resources in and about Umbu-Ungu",
  "writing": "Latin script [Latn]"
}