{
  "id": "uji",
  "name": "Tanjijili",
  "country": {
    "code": "NG",
    "name": "Nigeria",
    "area": "Africa"
  },
  "status": "6a (Vigorous)",
  "alternate_names": "Jijili, Koro, Koro Funtu of Kafin Koro, Koro Funtu of Minna, Koro Funtu of Shakoyi, Ujijili",
  "population": "8,540 (2000)",
  "location": "Niger state: Chanchaga and Suleija LGAs, Kafin Koro on Minna to Abuja road. About 10 villages",
  "maps": "Nigeria, Map 1",
  "classification": "Niger-Congo, Atlantic-Congo, Volta-Congo, Benue-Congo, Plateau, Southern",
  "resources": "OLAC resources in and about Tanjijili",
  "other_comments": "All alternate names listed, except Tanjijili, are names of the people"
}