{
  "id": "ukp",
  "name": "Ukpe-Bayobiri",
  "country": {
    "code": "NG",
    "name": "Nigeria",
    "area": "Africa"
  },
  "status": "6a (Vigorous)",
  "population": "21,500 (2013 SIL)",
  "location": "Cross River state: Obudu and Ikom LGAs",
  "maps": "Nigeria, Map 10",
  "classification": "Niger-Congo, Atlantic-Congo, Volta-Congo, Benue-Congo, Cross River, Bendi",
  "dialects": "Bayobiri, Ukpe. Dialect cluster (Crozier and Blench 1992)",
  "use": "All ages",
  "resources": "OLAC resources in and about Ukpe-Bayobiri"
}