{
  "id": "ukq",
  "name": "Ukwa",
  "country": {
    "code": "NG",
    "name": "Nigeria",
    "area": "Africa"
  },
  "status": "6b (Threatened)",
  "population": "100 (2004)",
  "location": "Cross River state: Akampka LGA",
  "maps": "Nigeria, Map 10",
  "classification": "Niger-Congo, Atlantic-Congo, Volta-Congo, Benue-Congo, Cross River, Delta Cross, Lower Cross, Obolo, Efik",
  "resources": "OLAC resources in and about Ukwa"
}