{
  "id": "unr",
  "name": "Mundari",
  "country": {
    "code": "IN",
    "name": "India",
    "area": "Asia"
  },
  "status": "5 (Developing)",
  "alternate_names": "Colh, Horo, Mandari, Mondari, Munari",
  "population": "1,110,000 in India (2001 census). 1,060,000 Mundari, 47,400 Bhumij. Population total all countries: 1,120,280",
  "location": "Jharkhand, south and west Ranchi district; Odisha; Madhya Pradesh; West Bengal; Himachal Pradesh; Assam; Tripura; Andaman and Nicobar Islands",
  "maps": "Northwestern Bangladesh                      India, Map 4                      Eastern Nepal enlargements",
  "classification": "Austro-Asiatic, Munda, North Munda, Kherwari, Mundari",
  "dialects": "Bhumij (Bhumij Munda, Bhumij Thar, Sadar Bhumij), Hasada’, Kera’, Latar, Naguri. 75% intelligibility of Ho [hoc]. Lexical similarity: 70%–84% with the Bhumij dialect",
  "use": "Used as L2 by Birhor [biy], Mahali [mjx]",
  "development": "Literacy rate in L1: 10%–30%. Literacy rate in L2: 50%–75%. Poetry. Magazines. Radio programs. Dictionary. Grammar. Bible: 1910–2002",
  "resources": "OLAC resources in and about Mundari",
  "writing": "Bengali script [Beng]. Devanagari script [Deva]. Latin script [Latn]. Oriya script [Orya]",
  "other_comments": "A Scheduled Tribe. There is Bhumij literature. Traditional religion, Hindu"
}