{
  "id": "unu",
  "name": "Unubahe",
  "country": {
    "code": "PG",
    "name": "Papua New Guinea",
    "area": "Pacific"
  },
  "status": "8b (Nearly extinct)",
  "alternate_names": "Unoba’i",
  "population": "7 (2012 SIL). Ethnic population: 59",
  "location": "Milne Bay Province, Gumini village",
  "maps": "Papua New Guinea, Map 17",
  "classification": "Austronesian, Malayo-Polynesian, Central-Eastern Malayo-Polynesian, Eastern Malayo-Polynesian, Oceanic, Western Oceanic, Papuan Tip, Nuclear, Suauic",
  "dialects": "None known. Reportedly similar to Buhutu [bxh] and Oya’oya [oyy]",
  "resources": "OLAC resources in and about Unubahe"
}