{
  "id": "unz",
  "name": "Kaili, Unde",
  "country": {
    "code": "ID",
    "name": "Indonesia",
    "area": "Asia"
  },
  "status": "6a (Vigorous)",
  "alternate_names": "Banava, Banawa",
  "population": "25,000 (2007 SIL), increasing",
  "location": "Sulawesi Tengah Province, Banawa, Palu, and Tawaeli subdistricts; from Pulu bay west to Makassar strait shore; also Sulawesi Barat Province, Pasangkayu subdistrict",
  "classification": "Austronesian, Malayo-Polynesian, Celebic, Kaili-Pamona, Northern, Kaili",
  "dialects": "Ganti, Lole",
  "resources": "OLAC resources in and about Kaili, Unde",
  "other_comments": "Lole has negative term, unde. Ganti has negative term, ndepuu. Muslim"
}