{
  "id": "urc",
  "name": "Urningangg",
  "country": {
    "code": "AU",
    "name": "Australia",
    "area": "Pacific"
  },
  "status": "10 (Extinct)",
  "alternate_names": "Uningangk, Wuningak",
  "population": "No known L1 speakers",
  "location": "Northern Territory; Arnhem Land, northwest, upper reaches of Alligator river",
  "classification": "Australian, Giimbiyu",
  "dialects": "None known. Reportedly similar to Mangerr [zme]",
  "development": "Dictionary. Grammar",
  "resources": "OLAC resources in and about Urningangg",
  "other_comments": "May be same language as Mangerr [zme]"
}