{
  "id": "urh",
  "name": "Urhobo",
  "country": {
    "code": "NG",
    "name": "Nigeria",
    "area": "Africa"
  },
  "status": "5 (Developing)",
  "alternate_names": "“Sobo” (pej.)",
  "population": "546,000 (Johnstone 1993)",
  "location": "Delta state: Ethiope East, Ughelli North and Ughelli South LGAs, Sapele and Warri areas; Edo state: Orhiomwon and Ikpoba-Okha LGAs",
  "maps": "Nigeria, Map 9",
  "classification": "Niger-Congo, Atlantic-Congo, Volta-Congo, Benue-Congo, Edoid, Southwestern",
  "dialects": "Agbarho, Agbon, Udu, Ujevwe",
  "development": "Taught in primary schools. Bible: 1977",
  "resources": "OLAC resources in and about Urhobo",
  "writing": "Latin script [Latn]"
}