{
  "id": "utr",
  "name": "Etulo",
  "country": {
    "code": "NG",
    "name": "Nigeria",
    "area": "Africa"
  },
  "status": "6a (Vigorous)",
  "alternate_names": "Eturo, Turumawa, Utur",
  "population": "10,000 (1988 R. Shain)",
  "location": "Benue state: Gboko LGA; Taraba state: Wukari LGA",
  "maps": "Nigeria, Map 7",
  "classification": "Niger-Congo, Atlantic-Congo, Volta-Congo, Benue-Congo, Idomoid, Akweya, Etulo-Idoma, Etulo",
  "resources": "OLAC resources in and about Etulo",
  "writing": "Latin script [Latn], used since 1974",
  "other_comments": "Traditional religion, Christian"
}