{
  "id": "uur",
  "name": "Ura",
  "country": {
    "code": "VU",
    "name": "Vanuatu",
    "area": "Pacific"
  },
  "status": "8b (Nearly extinct)",
  "population": "6 (1998 T. Crowley)",
  "location": "Southern Vanuatu, Tafea Province, north Erromanga island",
  "maps": "Vanuatu",
  "classification": "Austronesian, Malayo-Polynesian, Central-Eastern Malayo-Polynesian, Eastern Malayo-Polynesian, Oceanic, Central-Eastern Oceanic, South Vanuatu, Erromanga",
  "use": "Moribund (2000 D. Tryon). Mostly shifted to Sie [erg] (Wurm 2007). Older adults",
  "development": "Dictionary. Grammar",
  "resources": "OLAC resources in and about Ura"
}