{
  "id": "vkm",
  "name": "Kamakan",
  "country": {
    "code": "BR",
    "name": "Brazil",
    "area": "Americas"
  },
  "status": "10 (Extinct)",
  "alternate_names": "Ezeshio",
  "population": "No known L1 speakers",
  "location": "Bahia State",
  "classification": "Kamakanan, Kamakán",
  "resources": "OLAC resources in and about Kamakan"
}