{
  "id": "vkt",
  "name": "Malay, Tenggarong Kutai",
  "country": {
    "code": "ID",
    "name": "Indonesia",
    "area": "Asia"
  },
  "status": "6a (Vigorous)",
  "alternate_names": "Kutai, Tenggarong",
  "population": "210,000 (Wurm and Hattori 1981). 100,000 in Tenggarong, 60,000 in Ancalong, 50,000 in Northern Kutai",
  "location": "Kalimantan Timur Province; east central coastal area, from Mahakam river basin east to Celebes Sea coast, north from Cape Pandan along coast south to Samarinda city area",
  "maps": "Indonesia, Kalimantan                      Indonesia, Sulawesi",
  "classification": "Austronesian, Malayo-Polynesian, Malayo-Chamic, Malayic, Malay",
  "dialects": "Ancalong Kutai, Northern Kutai, Tenggarong Kutai. Many dialects. Tenggarong and Kota Bangun (Malay, Kota Bangun Kutai [mqg]) are not inherently intelligible. Shares phonological innovations with Berau Malay [bve], Banjar [bjn], and Brunei [xkd]. A member of macrolanguage Malay [msa]",
  "resources": "OLAC resources in and about Malay, Tenggarong Kutai"
}