{
  "id": "vmg",
  "name": "Lungalunga",
  "country": {
    "code": "PG",
    "name": "Papua New Guinea",
    "area": "Pacific"
  },
  "status": "6a (Vigorous)",
  "alternate_names": "Minigir, Tavue, Vinitiri",
  "population": "600 (2000). Ethnic population: 1,500",
  "location": "East New Britain Province, Gazelle peninsula, Ataliklikun bay, Lungalunga and Vunamarita villages",
  "maps": "Papua New Guinea, Map 12",
  "classification": "Austronesian, Malayo-Polynesian, Central-Eastern Malayo-Polynesian, Eastern Malayo-Polynesian, Oceanic, Western Oceanic, Meso Melanesian, New Ireland, South New Ireland-Northwest Solomonic, Mono-Uruava",
  "use": "Not endangered (2000 D. Tryon). Most domains. All ages",
  "resources": "OLAC resources in and about Lungalunga",
  "writing": "Latin script [Latn], used since 2002",
  "other_comments": "Although the language name, Lungalunga, was derived from Tok Pisin [tpi] ‘longlong’ meaning ‘crazy’, there is unanimous agreement within the community that this is the widely recognized language name, even though they prefer the name Tavue, meaning ‘brother’"
}