{
  "id": "vmu",
  "name": "Muluridyi",
  "country": {
    "code": "AU",
    "name": "Australia",
    "area": "Pacific"
  },
  "status": "10 (Extinct)",
  "alternate_names": "Binjara, Kokomoloroij, Kokomoloroitji, Kookanoona, Molloroidyi, Mooloroiji, Mularitchee, Mullridgey, Mulurutji, Waluridji",
  "population": "No known L1 speakers",
  "location": "Queensland, Mitchell river headwaters to Mount Carbine, Rumula, Mareeba, Woodville",
  "classification": "Australian, Pama-Nyungan, Yalandyic",
  "resources": "OLAC resources in and about Muluridyi"
}