{
  "id": "vsl",
  "name": "Venezuelan Sign Language",
  "country": {
    "code": "VE",
    "name": "Venezuela",
    "area": "Americas"
  },
  "status": "6a (Vigorous)",
  "alternate_names": "Lengua de Señas Venezolana",
  "location": "Scattered",
  "classification": "Deaf sign language",
  "dialects": "None known. Sign language used in school is different from that used by adults outside",
  "typology": "Finger-spelling system",
  "use": "Schools for the deaf since 1937 which use sign language. Deaf people attend college with a sign language interpreter. National bilingual education program for Venezuelan Sign Language and Spanish [spa]",
  "development": "Dictionary. Grammar",
  "resources": "OLAC resources in and about Venezuelan Sign Language"
}