{
  "id": "wad",
  "name": "Wandamen",
  "country": {
    "code": "ID",
    "name": "Indonesia",
    "area": "Asia"
  },
  "status": "5 (Developing)",
  "alternate_names": "Bentoeni, Bentuni, Bintuni, Wamesa, Wandamen-Windesi, Windesi, Windessi",
  "population": "5,000 (1993 R. Doriot)",
  "location": "Papua Barat Province, Wasior, Manokwari, west Cenderawasih bay along Wandamen bay extending to east end of Bintuni bay",
  "maps": "Indonesia, Northwestern Papua                      Indonesia, Sulawesi",
  "classification": "Austronesian, Malayo-Polynesian, Central-Eastern Malayo-Polynesian, Eastern Malayo-Polynesian, South Halmahera-West New Guinea, West New Guinea, Cenderawasih Bay, Yapen, Central-Western",
  "dialects": "Aibondeni, Ambumi, Bintuni, Dasener, Steenkool, Wamesa (Ubu), Waruritinao, Wasior, Windesi",
  "use": "Also use Indonesian [ind]",
  "development": "Literacy rate in L1: 25%. Literacy rate in L2: 50%. Dictionary. Bible portions: 1937–1994",
  "resources": "OLAC resources in and about Wandamen",
  "writing": "Latin script [Latn]",
  "other_comments": "Christian"
}