{
  "id": "waz",
  "name": "Wampur",
  "country": {
    "code": "PG",
    "name": "Papua New Guinea",
    "area": "Pacific"
  },
  "status": "6a (Vigorous)",
  "alternate_names": "Wampul",
  "population": "530 (2000 census). Ethnic population: 550",
  "location": "Morobe Province, Wanton river, Wampur and Mirir villages (Holzknecht 1989); some in Aringon village of Waffa [waj] language group",
  "maps": "Papua New Guinea, Map 10",
  "classification": "Austronesian, Malayo-Polynesian, Central-Eastern Malayo-Polynesian, Eastern Malayo-Polynesian, Oceanic, Western Oceanic, North New Guinea, Huon Gulf, Markham, Upper, Mountain",
  "dialects": "None known. Reportedly most similar to Mari [hob]. Lexical similarity: 50% with Adzera [adz]",
  "use": "Not endangered (2000 D. Tryon). Most domains. Positive attitudes. Also use Adzera [adz], Tok Pisin [tpi]",
  "development": "Literacy rate in L2: 30% age 10+ in at least Tok Pisin [tpi] (2000 census). Men 43%, Women 15%",
  "resources": "OLAC resources in and about Wampur",
  "other_comments": "Different from Wampar [lbq] in lower Markham Valley"
}