{
  "id": "wbe",
  "name": "Waritai",
  "country": {
    "code": "ID",
    "name": "Indonesia",
    "area": "Asia"
  },
  "status": "6b (Threatened)",
  "alternate_names": "Wari, Weretai",
  "population": "150 (Wurm 2000)",
  "location": "Papua Province, Lakes plain area around Taiyeve",
  "maps": "Indonesia, Eastern Papua",
  "classification": "Lakes Plain, Tariku, East",
  "use": "Endangered (2000 S. Wurm). Under pressure from Indonesian [ind] (Wurm 2007)",
  "resources": "OLAC resources in and about Waritai",
  "other_comments": "Different from Waris [wrs] or Wares [wai]. Christian, traditional religion"
}