{
  "id": "wbf",
  "name": "Wara",
  "country": {
    "code": "BF",
    "name": "Burkina Faso",
    "area": "Africa"
  },
  "status": "6b (Threatened)",
  "alternate_names": "Ouala, Ouara, Samoe, Samwé",
  "population": "4,500 (Johnstone 1993)",
  "location": "Cascades region: Leraba province west of Banfora, Sindou town area. Main village is Néguéni",
  "maps": "Burkina Faso",
  "classification": "Niger-Congo, Atlantic-Congo, Volta-Congo, North, Gur, Wara-Natioro",
  "dialects": "Negueni-Klani, Ouatourou-Niasogoni, Soulani. The Negueni dialect has over 95% intelligibility of the Niansogoni dialect, but Niansogoni below 80% of Negueni. No intelligibility of Natioro [nti]. Reportedly similar to Paleni [pnl]",
  "use": "All ages. Positive attitudes. Also use Jula [dyu]",
  "resources": "OLAC resources in and about Wara",
  "other_comments": "Traditional religion, Muslim"
}