{
  "id": "wbk",
  "name": "Waigali",
  "country": {
    "code": "AF",
    "name": "Afghanistan",
    "area": "Asia"
  },
  "status": "6a (Vigorous)",
  "alternate_names": "Suki, Wai, Wai-Ala, Waigala, Waigalii, Waigeli, Zhonjigali",
  "population": "11,500 (2011), increasing. 2,300 monolinguals. Ethnic population: 11,500",
  "location": "Southeast Nurestan Province, central Konar Province north of Pech; Varjan in north Waigal valley, Waigal, Zonchigal, Jamach, Ameshdesh villages, and east in Veligal valley villages; Chima-Nishey in lower valley villages",
  "maps": "Afghanistan",
  "classification": "Indo-European, Indo-Iranian, Indo-Aryan, Nuristani",
  "dialects": "Chima-Nishey, Varjan. Lexical similarity: 76%–80% with Tregami [trm]",
  "use": "All domains. All ages. Positive attitudes. 9,200 also use Northern Pashto [pbu]",
  "development": "Literacy rate in L2: 15%",
  "resources": "OLAC resources in and about Waigali",
  "writing": "Unwritten [Qaax]",
  "other_comments": "Muslim (Sunni)"
}