{
  "id": "wbq",
  "name": "Waddar",
  "country": {
    "code": "IN",
    "name": "India",
    "area": "Asia"
  },
  "status": "6a (Vigorous)",
  "alternate_names": "Od, Orh, Vadari, Vadda Beldar, Werders, Wodde",
  "population": "172,000 (2001 census). Ethnic population: In India, Pakistan, Nepal, and Sri Lanka about 3 million (2003 IMA)",
  "location": "Andhra Pradesh; Karnataka; Maharashtra, Jalgaon district",
  "maps": "India, Map 6",
  "classification": "Dravidian, South-Central, Telugu",
  "use": "Also use Hindi [hin], Marathi [mar], Telugu [tel]",
  "development": "Some literate in Telugu or Marathi",
  "resources": "OLAC resources in and about Waddar",
  "other_comments": "Glossonym: Od in North India and Pakistan. Hindu"
}