{
  "id": "wga",
  "name": "Wagaya",
  "country": {
    "code": "AU",
    "name": "Australia",
    "area": "Pacific"
  },
  "status": "10 (Extinct)",
  "alternate_names": "Leewakya, Ukkia, Waagai, Waagi, Wagai, Wagaja, Waggaia, Wakaja, Wakaya, Wakkaja, Warkya, Worgai, Worgaia, Workia",
  "population": "No known L1 speakers",
  "location": "Northern Territory, Avon Downs, Camooweal, Austral Downs, area north of Lake Nash",
  "classification": "Australian, Pama-Nyungan, Wagaya-Warluwaric, Warluwara-Thawa",
  "development": "Dictionary",
  "resources": "OLAC resources in and about Wagaya"
}