{
  "id": "wgb",
  "name": "Wagawaga",
  "country": {
    "code": "PG",
    "name": "Papua New Guinea",
    "area": "Pacific"
  },
  "status": "6a (Vigorous)",
  "alternate_names": "Baeaula, Beauli, Ealeba, Gamadoudou, Gibara, Kilikilana",
  "population": "600 (2000 census). 60 monolinguals",
  "location": "Milne Bay Province, Upper and Lower Dawadawa wards, along Tawala river and east of Wagawaga village, in the middle of Tawala [tbo] language area",
  "maps": "Papua New Guinea, Map 17",
  "classification": "Austronesian, Malayo-Polynesian, Central-Eastern Malayo-Polynesian, Eastern Malayo-Polynesian, Oceanic, Western Oceanic, Papuan Tip, Nuclear, Suauic",
  "dialects": "Gamadoudou. Reportedly similar to Yaleba [ylb]. Lexical similarity: 61% with Oya’oya [oyy], 31% with Tawala [tbo], 55% with Buhutu [bxh]",
  "use": "Also use Buhutu [bxh], Hiri Motu [hmo], Suau [swp], Tawala [tbo]",
  "development": "2 schools",
  "resources": "OLAC resources in and about Wagawaga"
}