{
  "id": "wgg",
  "name": "Wangganguru",
  "country": {
    "code": "AU",
    "name": "Australia",
    "area": "Pacific"
  },
  "status": "10 (Extinct)",
  "population": "No known L1 speakers",
  "location": "Northern Territory, southeast corner",
  "classification": "Australian, Pama-Nyungan, Karnic, Palku",
  "development": "Dictionary. Grammar",
  "resources": "OLAC resources in and about Wangganguru"
}