{
  "id": "wgi",
  "name": "Wahgi",
  "country": {
    "code": "PG",
    "name": "Papua New Guinea",
    "area": "Pacific"
  },
  "status": "5 (Developing)",
  "alternate_names": "Mid Wahgi",
  "population": "39,000 (1999 SIL)",
  "location": "Western Highlands Province, Minj district; Chimbu Province, south of Wahgi river",
  "maps": "Papua New Guinea, Map 9",
  "classification": "Trans-New Guinea, Chimbu-Wahgi, Wahgi",
  "dialects": "Kambia, Kunjip, Kup-Minj (Kumai), Mid-Wahgi, Pukamigl-Andegabu",
  "development": "Dictionary. Grammar. NT: 1989",
  "resources": "OLAC resources in and about Wahgi",
  "writing": "Latin script [Latn]"
}