{
  "id": "wic",
  "name": "Wichita",
  "country": {
    "code": "US",
    "name": "United States",
    "area": "Americas"
  },
  "status": "8b (Nearly extinct)",
  "population": "1 (2008 B. Levy). Ethnic population: 2,100 (Golla 2007)",
  "location": "West central Oklahoma, Caddo county, Anadarko",
  "maps": "Southeastern United States of America",
  "classification": "Caddoan, Northern Caddoan",
  "dialects": "Tawakoni, Waco. Reportedly similar to Kitsai [kii] and Pawnee [paw]",
  "use": "Shifted to English [eng]. Older adults",
  "development": "Extensive efforts to document and preserve the language by Wichita Documentation Project (Golla 2007)",
  "resources": "OLAC resources in and about Wichita"
}