{
  "id": "wlr",
  "name": "Wailapa",
  "country": {
    "code": "VU",
    "name": "Vanuatu",
    "area": "Pacific"
  },
  "status": "6b (Threatened)",
  "population": "100 (Wurm and Hattori 1981). Ethnic population: 140",
  "location": "Sanma Province, southwest Santo island",
  "maps": "Vanuatu, Enlarged Area",
  "classification": "Austronesian, Malayo-Polynesian, Central-Eastern Malayo-Polynesian, Eastern Malayo-Polynesian, Oceanic, Central-Eastern Oceanic, Remote Oceanic, North and Central Vanuatu, Northeast Vanuatu-Banks Islands, West Santo",
  "dialects": "A dialect chain with Akei [tsr] and Penantsiro [ptr] at the extremes",
  "use": "Potentially endangered (2000 D. Tryon). Most key domains. Used by 60% of children. Positive attitudes",
  "resources": "OLAC resources in and about Wailapa"
}