{
  "id": "wme",
  "name": "Wambule",
  "country": {
    "code": "NP",
    "name": "Nepal",
    "area": "Asia"
  },
  "status": "5 (Developing). Language of recognized indigenous nationality: Rai",
  "alternate_names": "Ambule, Caurasia, Chaurasia, Chaurasya, Chourase, Chourasia, Ombule, Tsaurasya, Umbule, Vambucauras Raduyor, Vambule",
  "population": "13,500 (2011 census). A few elderly monolinguals",
  "location": "Sagarmatha Zone, south Okhaldhunga district, Wamdyal dialect: Rikdum, Lukuvapani, Wamdyal (Ubu), Huku, Sikapu, Tarkomdada, Salle, Dhepti, Dhaircaur, Khayapu, Lorphe, Thulacaur, Moli, Vaksa, Leva, Sinju, Gairigau, Dhemdalu, Kopsepu, Phasku, and Serankhu; Hilepane dialect: Pipale, Bhadare, Hilepani, Thakle, Mandhare, Sokma Tar, Dundunma, Jakma, Jerun, Ricuva, and Lambole; Udayapur dialect: Udayapur, Phedigau, Barasi, Ghiramdi, Simkaku, and Peku; west Khotang district, Jhappali dialect: Kurleghat, Majhkhani, Byanditar, Rupatar, Kharka, Cuvabot, Jhapa, Lurkhudada, Vaitar, Balui, Thumka, Pakauci, Goviar, Gurdum, Jayaram Gha, Bahuni Dada, Todke, Limlun, Damli, Vetagau, and Temtuku; Sagarmatha Zone, north Udaypur district and Janakpur Zone, northeast Sindhuli district, Hilepane dialect: Lekhani, Ghurmi, Salle, Sorun, Salleni, Pallo Salleni, Sindure, Majhkhani, Bhirpani, Kusumtar, and Jortighat",
  "maps": "Eastern Nepal enlargements",
  "classification": "Sino-Tibetan, Tibeto-Burman, Western Tibeto-Burman, Himalayan, Kiranti, Western",
  "dialects": "Bonu, Hilepane, Jhappali, Udaipure, Wamdyal. Dialects appear adequately mutually inherently intelligible. Jerung [jee] and Wambule are mutually intelligible (Opgenort 2004). Lexical similarity: 93% with Jerung [jee] (Opgenort 2005)",
  "typology": "SOV; postpositions; noun head final; no noun classes or genders; content q-word in situ; 1 prefix, up to 4 (word-internal) suffixes and 4 phrasal affixes; clause constituents indicated by case-marking (and verbal marking for agent and patient); verbal affixation marks person and number; ergativity, but an expression of volitionality causes the intransitive subject to have ergative marking; both tense and aspect; no passives or voice; nontonal; 33 consonant and 9 vowel phonemes; ingressive laterals",
  "use": "Vigorous. Home, friends, religion; mixed use: Work, education. All ages. Also use Bahing [bhj], Jerung [jee], Nepali [npi]",
  "development": "Taught in primary schools. Poetry. Magazines. New media. Videos. Dictionary. Grammar",
  "resources": "OLAC resources in and about Wambule",
  "writing": "Devanagari script [Deva]",
  "other_comments": "Traditional religion, Christian, Hindu"
}