{
  "id": "wmn",
  "name": "Waamwang",
  "country": {
    "code": "NC",
    "name": "New Caledonia",
    "area": "Pacific"
  },
  "status": "10 (Extinct)",
  "alternate_names": "Wamoang",
  "population": "No known L1 speakers",
  "location": "West coast, North province, Voh commune",
  "classification": "Austronesian, Malayo-Polynesian, Central-Eastern Malayo-Polynesian, Eastern Malayo-Polynesian, Oceanic, Central-Eastern Oceanic, Remote Oceanic, New Caledonian, Northern, North, Hmwaveke",
  "dialects": "Now generally regarded as extinct dialect of Voh-Koné group of languages",
  "resources": "OLAC resources in and about Waamwang"
}