{
  "id": "wnu",
  "name": "Usan",
  "country": {
    "code": "PG",
    "name": "Papua New Guinea",
    "area": "Pacific"
  },
  "status": "5 (Developing)",
  "alternate_names": "Wanuma",
  "population": "1,400 (1991 SIL)",
  "location": "Madang Province, Madang district, 65 km northwest of Madang",
  "maps": "Papua New Guinea, Map 7",
  "classification": "Trans-New Guinea, Madang, Croisilles, Pihom, Numugenan",
  "typology": "SOV",
  "development": "Literacy rate in L2: 50%–75%. Grammar. NT: 2001",
  "resources": "OLAC resources in and about Usan",
  "writing": "Latin script [Latn]"
}