{
  "id": "wsk",
  "name": "Waskia",
  "country": {
    "code": "PG",
    "name": "Papua New Guinea",
    "area": "Pacific"
  },
  "status": "5 (Developing)",
  "alternate_names": "Vaskia, Woskia",
  "population": "20,000 (2007 SIL)",
  "location": "Madang Province, Madang district, northern half of Karkar island",
  "maps": "Papua New Guinea, Map 7",
  "classification": "Trans-New Guinea, Madang, South Adelbert Range, Kowan",
  "dialects": "None known. Reportedly most similar to Korak [koz]",
  "use": "Vigorous",
  "development": "Dictionary. NT: 1985–2014",
  "resources": "OLAC resources in and about Waskia",
  "writing": "Latin script [Latn]"
}