{
  "id": "wwr",
  "name": "Warrwa",
  "country": {
    "code": "AU",
    "name": "Australia",
    "area": "Pacific"
  },
  "status": "10 (Extinct)",
  "alternate_names": "Warrawai, Warwa",
  "population": "No known L1 speakers",
  "location": "Western Australia, West Kimberley, Derby region",
  "classification": "Australian, Nyulnyulan",
  "development": "Dictionary",
  "resources": "OLAC resources in and about Warrwa"
}