{
  "id": "wyy",
  "name": "Fijian, Western",
  "country": {
    "code": "FJ",
    "name": "Fiji",
    "area": "Pacific"
  },
  "status": "6a (Vigorous)",
  "alternate_names": "Fiji, Nadrogaa",
  "population": "57,000 (1977 P. Lincoln). 38,500 in Waya (Waya and Ba-Navosa), 18,500 in Nadroga",
  "location": "Western Viti Levu, Waya islands",
  "maps": "Fiji",
  "classification": "Austronesian, Malayo-Polynesian, Central-Eastern Malayo-Polynesian, Eastern Malayo-Polynesian, Oceanic, Central-Eastern Oceanic, Remote Oceanic, Central Pacific, West Fijian-Rotuman, West Fijian",
  "dialects": "Nuclear Western Fijian (Baaravi, Nadrogaa, Tubaniwai), Waya (Magodro, Nakoroboya, Noikoro)",
  "resources": "OLAC resources in and about Fijian, Western"
}