{
  "id": "xaw",
  "name": "Kawaiisu",
  "country": {
    "code": "US",
    "name": "United States",
    "area": "Americas"
  },
  "status": "8b (Nearly extinct)",
  "population": "5 (2005 J. Turner). Ethnic population: 150 (2005 J. Turner)",
  "location": "California, south, Mojave Desert, Tehachapi-Mojave area",
  "maps": "Western United States of America",
  "classification": "Uto-Aztecan, Northern Uto-Aztecan, Numic, Southern",
  "use": "Shifted to English [eng]. 60 to 95",
  "development": "Dictionary. Grammar",
  "resources": "OLAC resources in and about Kawaiisu"
}