{
  "id": "xay",
  "name": "Kayan Mahakam",
  "country": {
    "code": "ID",
    "name": "Indonesia",
    "area": "Asia"
  },
  "status": "6a (Vigorous)",
  "population": "1,300 (Wurm and Hattori 1981)",
  "location": "Kalimantan Timur Province, West Kutai and Malinau regencies. Area extends from Muller Mountains from south border northward, to within 25 km of Malasia, Sarawak State",
  "maps": "Indonesia, Kalimantan",
  "classification": "Austronesian, Malayo-Polynesian, North Borneo, North Sarawakan, Kayan-Kenyah, Kayanic, Kayan Proper",
  "resources": "OLAC resources in and about Kayan Mahakam",
  "other_comments": "Linguistic influences from Ot Danum [otd]"
}