{
  "id": "xbe",
  "name": "Bigambal",
  "country": {
    "code": "AU",
    "name": "Australia",
    "area": "Pacific"
  },
  "status": "10 (Extinct)",
  "alternate_names": "Bigambul, Bigumbil",
  "population": "No known L1 speakers",
  "location": "New South Wales",
  "classification": "Australian, Pama-Nyungan",
  "resources": "OLAC resources in and about Bigambal"
}