{
  "id": "xby",
  "name": "Batyala",
  "country": {
    "code": "AU",
    "name": "Australia",
    "area": "Pacific"
  },
  "status": "8b (Nearly extinct)",
  "alternate_names": "Badjela, Badtala, Badtjala, Badyala, Batjala, Bidhala, Butchulla, Dulingbara, Gnoolongbara, Koolaburra, Ngulungbara, Olungbura, Patyala, Thoorgine",
  "population": "7 (2006 AUSTLANG)",
  "location": "Queensland: Cairns; Fraser island; Great Sandy island; Kabikabi mission; Noosa Head; Pialba; Tinana creek; Yarrabah; Thoorgine",
  "classification": "Australian, Pama-Nyungan, Waka-Kabic",
  "resources": "OLAC resources in and about Batyala"
}