{
  "id": "xkc",
  "name": "Kho’ini",
  "country": {
    "code": "IR",
    "name": "Iran",
    "area": "Asia"
  },
  "status": "7 (Shifting)",
  "location": "Zanjan Province, Kho’in district",
  "classification": "Indo-European, Indo-Iranian, Iranian, Western, Northwestern, Talysh",
  "dialects": "Various dialects. Related to Kabatei [xkp] and Takestani [tks]. Closely related varieties spoken in nearby villages of Balbavin, Sefidkamar, Halab, and Sa’dabad",
  "resources": "OLAC resources in and about Kho’ini",
  "other_comments": "Muslim"
}