{
  "id": "xkv",
  "name": "Kgalagadi",
  "country": {
    "code": "BW",
    "name": "Botswana",
    "area": "Africa"
  },
  "status": "6a (Vigorous)",
  "alternate_names": "Kgalagarhi, Kgalagari, Khalagari, Khalakadi, Kxhalaxadi, Qhalaxarzi, Sekgalagadi, Shekgalagadi, Shekgalagari",
  "population": "40,000 in Botswana (2004 R. Cook). Population total all countries: 40,100",
  "location": "South and central, along South Africa border, north Kgalagadi district: west Kweneng; Southern district; Ghanzi district: Ghanzi, Kanagas, Tsotsha, Kuke, Karakobis, Ncojane, Kule, Charles Hill, New Xade, Dekar, and Grootlaagte; North West district: Sehitwa and Maun",
  "maps": "Botswana",
  "classification": "Niger-Congo, Atlantic-Congo, Volta-Congo, Benue-Congo, Bantoid, Southern, Narrow Bantu, Central, S, Sotho-Tswana (S.311)",
  "dialects": "Balaongwe (Boloongwe), Kenyi (Khena), Kgalagadi (Kgalagari), Kgwatheng, Khakhae, Koma, Ngologa, Pedi, Phaleng, Rhiti, Shaga, Shelala, Siwane (Gyegwana), Tjhauba. Ngologa is the largest dialect and may be a separate language. Different from Tswana [tsn]",
  "typology": "SVO; genitives, articles, adjectives, numerals, relatives after noun heads; question word final; word order distinguishes subject, object, indirect object; verb affixes mark person and number; passives formed by suffix -w; causatives formed by suffix -is; comparative locatives; CV; tonal",
  "use": "Also use Afrikaans [afr], English [eng], Tswana [tsn]. Used as L2 by !Xóõ [nmn]",
  "development": "Literacy rate in L2: Ages 15–29, 85% Tswana, 55% English; ages 30–54, 50% Tswana, 15% English; ages 55 and older, 20% Tswana, 2% English. Grammar. Bible portions: 2014",
  "resources": "OLAC resources in and about Kgalagadi",
  "other_comments": "Christian"
}