{
  "id": "xkz",
  "name": "Kurtokha",
  "country": {
    "code": "BT",
    "name": "Bhutan",
    "area": "Asia"
  },
  "status": "6a (Vigorous)",
  "alternate_names": "Gurtü, Kurteopkha, Kürthöpka, Kurthopkha, Kurtobikha, Kurtopakha",
  "population": "15,000 (2011 SIL)",
  "location": "Northwest Lhuntse district: bounded by Kurichhu river east and north, Tangmachhu village south and Rudong La pass west",
  "maps": "Bhutan",
  "classification": "Sino-Tibetan, Tibeto-Burman, Western Tibeto-Burman, Bodish, East Bodish, Bumthang",
  "dialects": "The dialect around Tangmachhu is more divergent. Lexical similarity: 69% with Nyengkha [neh], 70%–73% with Bumthangkha, 66%–74% with Khengkha",
  "use": "Used as L2 by Khengkha [xkf]",
  "resources": "OLAC resources in and about Kurtokha",
  "writing": "Latin script [Latn]. Tibetan script [Tibt], Uchen style"
}