{
  "id": "xnb",
  "name": "Kanakanabu",
  "country": {
    "code": "TW",
    "name": "China–Taiwan",
    "area": "Asia"
  },
  "status": "8b (Nearly extinct)",
  "alternate_names": "Kanabu, Kanakanavu",
  "population": "4 (2012 P. Jen-Kuei). A few other semi-speakers who have passive knowledge of the language (2012 P. Jen-Kuei). Ethnic population: 250 ( UNESCO)",
  "location": "Central, Sanmin Township, Kaohsiung County, Minchuan village area",
  "maps": "Taiwan",
  "classification": "Austronesian, Tsouic",
  "use": "Moribund (2000 S. Wurm). Shifted to Bunun [bnn], Taiwanese [nan], or Mandarin [cmn]. Also use Mandarin Chinese [cmn]",
  "development": "Literacy rate in L2: 8%. Grammar",
  "resources": "OLAC resources in and about Kanakanabu"
}