{
  "id": "xnt",
  "name": "Narragansett",
  "country": {
    "code": "US",
    "name": "United States",
    "area": "Americas"
  },
  "status": "9 (Dormant)",
  "population": "No known L1 speakers. Ethnic population: 1,400 ethnic population of Narragansett and Mohegan-Pequot [xpq] (1977 SIL)",
  "location": "Connecticut and Rhode Island",
  "classification": "Algic, Algonquian, Eastern Algonquian",
  "resources": "OLAC resources in and about Narragansett"
}