{
  "id": "xok",
  "name": "Xokleng",
  "country": {
    "code": "BR",
    "name": "Brazil",
    "area": "Americas"
  },
  "status": "7 (Shifting)",
  "alternate_names": "Aweikoma, Botocudos, Bugre",
  "population": "760 (1998 ISA)",
  "location": "Santa Catarina, along tributary of Itajaí river",
  "maps": "Southern Brazil",
  "classification": "Jean, Southern",
  "typology": "SOV",
  "use": "Number of speakers is dropping alarmingly due to intermarriage and countless social, political and cultural disruptions (Crevels 2007). Vast majority of the young people use only Portuguese [por] (Crevels 2007)",
  "resources": "OLAC resources in and about Xokleng",
  "writing": "Latin script [Latn]",
  "other_comments": "Glossonym: Bugre, used for Kaingang [kgp] and Brazilian Guaraní [gun]; Kaingang is sometimes used for Xokleng"
}