{
  "id": "xom",
  "name": "Komo",
  "country": {
    "code": "SD",
    "name": "Sudan",
    "area": "Africa"
  },
  "status": "6a (Vigorous)",
  "alternate_names": "Central Koma, Como, Gokwom, Hayahaya, Koma of Daga, Madiin",
  "population": "10,000 in Sudan (1979 W. James). Population total all countries: 18,530",
  "location": "An Nil al Azraq state: Kurmuk district, Ahmar, Tombak, and Yabus rivers area",
  "maps": "Djibouti, Eritrea and Ethiopia                      Sudan                      South Sudan",
  "classification": "Nilo-Saharan, Komuz, Koman",
  "dialects": "Beilla, Chali. Dialects may be separate languages. Lexical similarity: 52% with Uduk [udu]",
  "use": "All domains. All ages. Positive attitudes. Used as L2 by Ganza [gza]",
  "development": "Bible portions: 1960–1963",
  "resources": "OLAC resources in and about Komo",
  "writing": "Latin script [Latn], plans for future development in Ethiopia",
  "other_comments": "Called Aru in Uduk [udu]"
}