{
  "id": "xoo",
  "name": "Xukurú",
  "country": {
    "code": "BR",
    "name": "Brazil",
    "area": "Americas"
  },
  "status": "9 (Dormant)",
  "alternate_names": "Kirirí, Kirirí-Xokó",
  "population": "No known L1 speakers. Ethnic population: 6,360 (1999)",
  "location": "Pernambuco State, Serra de Urubá (Arobá) near Cimbres city, Bahía",
  "classification": "Language isolate",
  "use": "Shifted to Portuguese [por]",
  "resources": "OLAC resources in and about Xukurú"
}