{
  "id": "xop",
  "name": "Kopar",
  "country": {
    "code": "PG",
    "name": "Papua New Guinea",
    "area": "Pacific"
  },
  "status": "6a (Vigorous)",
  "population": "540 (2000 census)",
  "location": "East Sepik Province",
  "maps": "Papua New Guinea, Map 4",
  "classification": "Ramu-Lower Sepik, Lower Sepik, Nor",
  "dialects": "None known. Related to Murik [mtf]",
  "resources": "OLAC resources in and about Kopar"
}