{
  "id": "xpa",
  "name": "Pirriya",
  "country": {
    "code": "AU",
    "name": "Australia",
    "area": "Pacific"
  },
  "status": "10 (Extinct)",
  "alternate_names": "Bidia, Biria, Birria, Piria",
  "population": "No known L1 speakers",
  "location": "Queensland; Canaway range, Coopers creek, Gilpeppee, Jundah, Keeroongooloo, Thomson river, Whitula creek",
  "classification": "Australian, Pama-Nyungan, Karnic",
  "resources": "OLAC resources in and about Pirriya"
}