{
  "id": "xri",
  "name": "Krikati-Timbira",
  "country": {
    "code": "BR",
    "name": "Brazil",
    "area": "Americas"
  },
  "status": "6a (Vigorous)",
  "alternate_names": "Krikati-Gaviao, Krinkati-Gaviao, Krinkati-Timbira",
  "population": "680 (2005 FUNASA). Ethnic population: 680 (2005 FUNASA)",
  "location": "Maranhão State; municipality of Amarante, Governador village",
  "maps": "Eastern Central Brazil",
  "classification": "Jean, Northern, Timbira",
  "dialects": "Krinkati (Karakati), Timbira. Krikati and Timbira are separate ethnic groups speaking related dialects",
  "typology": "SOV",
  "use": "Also use Portuguese [por]",
  "resources": "OLAC resources in and about Krikati-Timbira"
}