{
  "id": "xsn",
  "name": "Sanga",
  "country": {
    "code": "NG",
    "name": "Nigeria",
    "area": "Africa"
  },
  "status": "6a (Vigorous)",
  "alternate_names": "Asanga, Isanga",
  "population": "20,100 (2000). 1,600 Bujiyel (1995 CAPRO)",
  "location": "Bauchi state: Toro LGA; Plateau state: Bassa LGA; Kaduna state: Lere LGA",
  "maps": "Nigeria, Map 2",
  "classification": "Niger-Congo, Atlantic-Congo, Volta-Congo, Benue-Congo, Kainji, Eastern, Northern Jos, Jera",
  "dialects": "Bujiyel",
  "use": "Used as L2 by Zari [zaz]",
  "resources": "OLAC resources in and about Sanga",
  "other_comments": "Glossonym: Isanga. Ethnonym: Osanga (sg.), Asanga (pl.). Distinct from Numana-Nunku-Gbantu [nbr] (Sanga) of Kaduna and Plateau states. Traditional religion, Christian"
}