{
  "id": "xtl",
  "name": "Mixtec, Tijaltepec",
  "country": {
    "code": "MX",
    "name": "Mexico",
    "area": "Americas"
  },
  "status": "6a (Vigorous)",
  "alternate_names": "Mixteco de San Pablo Tijaltepec, Mixteco de Santa María Yosoyúa",
  "population": "3,250 (2005 census). 420 monolinguals",
  "location": "Oaxaca, southeast Tlaxiaco district, San Pablo Tijaltepec, and Santa María Yosoyúa towns",
  "maps": "Southern Central Mexico",
  "classification": "Otomanguean, Eastern Otomanguean, Amuzgo-Mixtecan, Mixtecan, Mixtec",
  "dialects": "None known. 89% intelligibility of San Miguel el Grande [mig] and Yosondúa [mpm], 82% of San Mateo Peñasco, 81% of Sinicahua [xti] and 66% of Teita [xtj]",
  "use": "All ages",
  "development": "Primary schools. 1 secondary school",
  "resources": "OLAC resources in and about Mixtec, Tijaltepec",
  "writing": "Latin script [Latn]",
  "other_comments": "Some work outside in Veracruz or the United States"
}