{
  "id": "xwl",
  "name": "Gbe, Western Xwla",
  "country": {
    "code": "BJ",
    "name": "Benin",
    "area": "Africa"
  },
  "status": "6a (Vigorous)",
  "alternate_names": "Phla, Xwla, Xwla-Gbe",
  "population": "50,000 in Benin (2002 SIL). Population total all countries: 71,000",
  "location": "Mono department: Grand-Popo commune; Atlantique department: Ouidah commune; Littoral department: Cotonou",
  "maps": "Benin                      Togo",
  "classification": "Niger-Congo, Atlantic-Congo, Volta-Congo, Kwa, Left Bank, Gbe",
  "dialects": "None known. Lexical similarity: 86% with Gun [guw], 84% with Fon [fon], 73% with Gen [gej], 68% with Aja [ajg], 90% with Eastern Xwela Gbe [gbx], 88% with Saxwe Gbe [sxw]",
  "use": "All domains. All ages. Also use Fon [fon], French [fra], Gen [gej]",
  "resources": "OLAC resources in and about Gbe, Western Xwla",
  "other_comments": "Traditional religion, Christian"
}