{
  "id": "xww",
  "name": "Wemba Wemba",
  "country": {
    "code": "AU",
    "name": "Australia",
    "area": "Pacific"
  },
  "status": "10 (Extinct)",
  "alternate_names": "Gorrmjanyuk, Gourrmjanyuk, Jambajamba, Jupa-galk-wournditch, Mallenjerrick, Waamba, Waimbiwaimbi, Wamba, Wamba Wamba, Wambawamba, Wembawemba, Weumba, Womba, Yamba, Yambayamba, Yowewnillurn, Yuppila",
  "population": "No known L1 speakers",
  "location": "Victoria, on Loddon river, north to Swan Hill, on Avoca river, south to near Quambatook, northeastward to Boorooban and Moulamein (N.S.W.); near Barham, at Lake Boga and Boort",
  "classification": "Australian, Pama-Nyungan, Kulin",
  "resources": "OLAC resources in and about Wemba Wemba"
}