{
  "id": "yaa",
  "name": "Yaminahua",
  "country": {
    "code": "PE",
    "name": "Peru",
    "area": "Americas"
  },
  "status": "5 (Developing)",
  "alternate_names": "Jaminawá, Yamanawa, Yaminawa, Yuminahua",
  "population": "750 in Peru (2003 SIL). 400 Yaminahua (1998 SIL), 150 Chitonahua. Population total all countries: 1,570",
  "location": "Ucayali and Madre de Dios regions; Yuruá, Mapuya, and Mishagua",
  "maps": "Bolivia                      Western Central Brazil                      Peru",
  "classification": "Panoan, Mainline, Tri-State",
  "dialects": "Chitonahua (Foredafa, Horudahua, Horunahua, Moronahua, Morunahua), Yaminahua. Reportedly most similar to Sharanahua [mcd]",
  "use": "All ages. Also use Spanish [spa]. Used as L2 by Amahuaca [amc]",
  "development": "Literacy rate in L1: Below 1%. Literacy rate in L2: Below 5%. 2 bilingual schools sponsored by the Ministry of Education (Crevels 2007). Grammar. NT: 2003–2008",
  "resources": "OLAC resources in and about Yaminahua",
  "writing": "Latin script [Latn]",
  "other_comments": "Subgroups: Masronahua (Masrodawa), Nishinahua (Nishidawa), Chitonahua (Chitodawa), Shaonahua (Shaodawa)"
}