{
  "id": "yag",
  "name": "Yámana",
  "country": {
    "code": "CL",
    "name": "Chile",
    "area": "Americas"
  },
  "status": "8b (Nearly extinct)",
  "alternate_names": "Tequenica, Yagán, Yaghan, Yahgan",
  "population": "1 in Chile (2013 Y. Meroz). One elderly speaker in Ukika, 85 years old (2013 Y. Meroz). Ethnic population: 1,690 (2002 census)",
  "location": "Magallanes y Antártica Chilena Region; Patagonia area, Antartica Chilena province, Navarino island, Puerto Williams, Ukika hamlet",
  "classification": "Language isolate",
  "use": "There is pride and interest in the language. There are irregular language workshops (2013 Y. Meroz). Shifted to Spanish [spa]. Elderly only",
  "development": "Dictionary. Bible portions: 1881–1886",
  "resources": "OLAC resources in and about Yámana",
  "writing": "Latin script [Latn]"
}