{
  "id": "yaq",
  "name": "Yaqui",
  "country": {
    "code": "MX",
    "name": "Mexico",
    "area": "Americas"
  },
  "status": "5 (Developing)",
  "population": "11,800 in Mexico (2000 INALI). Population total all countries: 12,230",
  "location": "Sonora",
  "maps": "Mexico                      Western United States of America",
  "classification": "Uto-Aztecan, Southern Uto-Aztecan, Taracahitic, Cahitan",
  "dialects": "None known. Partial intelligibility of Mayo [mfy]",
  "typology": "SOV; affixes, clitics; median word length; single underlying tone",
  "use": "All ages. Also use English [eng]",
  "development": "Literacy rate in L1: 1%. Literacy rate in L2: 10%. Dictionary. Grammar. NT: 1977–2011",
  "resources": "OLAC resources in and about Yaqui",
  "writing": "Latin script [Latn]",
  "other_comments": "Traditional religion, Christian"
}