{
  "id": "ybo",
  "name": "Yabong",
  "country": {
    "code": "PG",
    "name": "Papua New Guinea",
    "area": "Pacific"
  },
  "status": "6a (Vigorous)",
  "population": "1,500 (2000 census)",
  "location": "Madang Province",
  "maps": "Papua New Guinea, Map 7                      Papua New Guinea, Map 10",
  "classification": "Trans-New Guinea, Madang, Rai Coast, Yaganon",
  "typology": "SOV; articles, adjectives, numerals after noun heads; verb affixes mark number of subject",
  "use": "Tok Pisin [tpi] is used with outsiders. Also use Tok Pisin [tpi]",
  "resources": "OLAC resources in and about Yabong",
  "writing": "Latin script [Latn], used since 2006"
}