{
  "id": "yir",
  "name": "Awyu, North",
  "country": {
    "code": "ID",
    "name": "Indonesia",
    "area": "Asia"
  },
  "status": "6a (Vigorous)",
  "alternate_names": "Awyu, Djair, Dyair, Jair, Yair",
  "population": "1,500 (1987 SIL)",
  "location": "Papua Province, Merauke district. West side, Digul river, upstream from Tanamerah town",
  "maps": "Indonesia, Eastern Papua",
  "classification": "Trans-New Guinea, Ok-Awyu, Awyu-Dumut, Awyu",
  "resources": "OLAC resources in and about Awyu, North",
  "other_comments": "Christian, traditional religion"
}