{
  "id": "yiz",
  "name": "Azhe",
  "country": {
    "code": "CN",
    "name": "China",
    "area": "Asia"
  },
  "status": "6a (Vigorous). Language of recognized nationality: Yi",
  "population": "54,000 (Bradley 2007). Ethnic population: 60,000",
  "location": "Yunnan Province, Mile county: Xun Jian, Wushan, and Jiangbian districts; Huaning county, Panxi district; north Kaiyuan county, Xiaolongtan district, Xiaolongtan community; Lebaidao district, Jiedian community; Mazheshao district, Chongzi community; northeast Jianshui county, 1 village",
  "maps": "Southwestern China",
  "classification": "Sino-Tibetan, Tibeto-Burman, Ngwi-Burmese, Ngwi, Southeastern",
  "use": "Also use Mandarin Chinese [cmn]",
  "resources": "OLAC resources in and about Azhe",
  "other_comments": "Traditional religion"
}