{
  "id": "yla",
  "name": "Yaul",
  "country": {
    "code": "PG",
    "name": "Papua New Guinea",
    "area": "Pacific"
  },
  "status": "6a (Vigorous)",
  "population": "1,210 (2003 SIL)",
  "location": "East Sepik Province, 35 km south of Angoram",
  "maps": "Papua New Guinea, Map 6",
  "classification": "Mongol-Langam",
  "resources": "OLAC resources in and about Yaul"
}