{
  "id": "ylg",
  "name": "Yelogu",
  "country": {
    "code": "PG",
    "name": "Papua New Guinea",
    "area": "Pacific"
  },
  "status": "6b (Threatened)",
  "alternate_names": "Buiamanambu, Kaunga",
  "population": "160 (2003 SIL)",
  "location": "East Sepik Province, Ambunti district. 1 village",
  "maps": "Papua New Guinea, Map 5",
  "classification": "Sepik, Ndu",
  "resources": "OLAC resources in and about Yelogu"
}