{
  "id": "yph",
  "name": "Phupha",
  "country": {
    "code": "CN",
    "name": "China",
    "area": "Asia"
  },
  "status": "6b (Threatened). Language of recognized nationality: Yi",
  "alternate_names": "Phula, Phupho, Tsapho",
  "population": "1,300 (2007), decreasing. Ethnic population: 1,500",
  "location": "Yunnan Province, southwest Gejiu county, 4 villages; Yuangyang county, across Honghe river, 1 village",
  "maps": "Southwestern China",
  "classification": "Sino-Tibetan, Tibeto-Burman, Ngwi-Burmese, Ngwi, Southeastern",
  "dialects": "None known. Closely related to, but not intelligible of, Alugu [aub]",
  "use": "4 villages linguistically vital, 1 is shifting to Nisu [nsd]",
  "resources": "OLAC resources in and about Phupha"
}