{
  "id": "ytp",
  "name": "Thopho",
  "country": {
    "code": "CN",
    "name": "China",
    "area": "Asia"
  },
  "status": "6b (Threatened). Language of recognized nationality: Yi",
  "alternate_names": "Black Hat Folk, Black Phula, Hei Mao Ren, Phula",
  "population": "200 (Pelkey 2011), decreasing. Ethnic population: 500",
  "location": "Yunnan Province, Guangnan county, South central Zhetu district; northeast Zhulin district, 2 villages",
  "maps": "Southwestern China",
  "classification": "Sino-Tibetan, Tibeto-Burman, Ngwi-Burmese, Ngwi, Southeastern",
  "use": "Also use Mandarin Chinese [cmn], Nong Zhuang [zhn]",
  "resources": "OLAC resources in and about Thopho",
  "other_comments": "Substantial subsequent contact with Pholo [yip] and Tai-Kadai varieties"
}