{
  "id": "ytw",
  "name": "Yout Wam",
  "country": {
    "code": "PG",
    "name": "Papua New Guinea",
    "area": "Pacific"
  },
  "status": "6a (Vigorous)",
  "population": "270 (2006 SIL)",
  "location": "Madang Province, Finisterre mountains north slope of Rai Coast, Yout village",
  "maps": "Papua New Guinea, Map 11",
  "classification": "Trans-New Guinea, Finisterre-Huon, Finisterre, Yupna",
  "use": "Home, traditional activities, sports, joking",
  "resources": "OLAC resources in and about Yout Wam"
}