{
  "id": "yud",
  "name": "Arabic, Judeo-Tripolitanian",
  "country": {
    "code": "IL",
    "name": "Israel",
    "area": "Asia"
  },
  "status": "7 (Shifting)",
  "alternate_names": "Jewish Tripolitanian-Libyan Arabic, Tripolita’it, Tripolitanian Judeo-Arabic, Yudi",
  "population": "30,000 in Israel (1994 H. Mutzafi). Population total all countries: 35,000",
  "location": "HaMerkaz District, south of Tel Aviv",
  "classification": "Afro-Asiatic, Semitic, Central, South, Arabic",
  "dialects": "None known. Not intelligible with Judeo-Iraqi Arabic [yhd]; medium intelligibility with Judeo-Tunisian Arabic [aeb] and Judeo-Morocco Arabic [aju]. A member of macrolanguage Judeo-Arabic [jrb]",
  "use": "Mainly older adults. Also use Hebrew [heb]",
  "resources": "OLAC resources in and about Arabic, Judeo-Tripolitanian",
  "writing": "Hebrew script [Hebr]",
  "other_comments": "Jewish"
}