{
  "id": "yug",
  "name": "Yug",
  "country": {
    "code": "RU",
    "name": "Russian Federation",
    "area": "Europe"
  },
  "status": "8b (Nearly extinct)",
  "alternate_names": "Sym-Ket, Yugh",
  "population": "1 (2010 census). Listed in census under Ket [ket]. Ethnic population: 19 (2002 census)",
  "location": "Krasnoyarskiy Kray, Turukhan area, Vorogovo settlement",
  "classification": "Yeniseian",
  "development": "Dictionary",
  "resources": "OLAC resources in and about Yug"
}