{
  "id": "yww",
  "name": "Yawarawarga",
  "country": {
    "code": "AU",
    "name": "Australia",
    "area": "Pacific"
  },
  "status": "10 (Extinct)",
  "population": "No known L1 speakers",
  "location": "South Australia and Queensland, north of Cooper creek, southeast of Lake Yamma Yamma",
  "classification": "Australian, Pama-Nyungan, Karnic, Karna",
  "resources": "OLAC resources in and about Yawarawarga"
}