{
  "id": "yxl",
  "name": "Yardliyawarra",
  "country": {
    "code": "AU",
    "name": "Australia",
    "area": "Pacific"
  },
  "status": "8b (Nearly extinct)",
  "alternate_names": "Aluri, Alury, Arabatura, Arkabatura, Jadliaura, Jadlijawara, Jadloori, Yadliaura, Yadlikowera, Yadliura, Yadliyawarra, Yadlouri, Yaldikowera, Yardliwarra",
  "population": "2 (Hercus and Austin 2004). 2 speakers in 1987 (Hercus and Austin 2004)",
  "location": "South Australia and New South Wales, Yardliyawara (Jadliaura), eastern side of northern Flinders range from Wertaloona south to Carrieton and Cradock, east to Frome Downs, at Holowilena station on Siccus river, west to Arkaba and Hawker",
  "classification": "Australian, Pama-Nyungan, Yarli",
  "resources": "OLAC resources in and about Yardliyawarra"
}