{
  "id": "yxy",
  "name": "Yabula Yabula",
  "country": {
    "code": "AU",
    "name": "Australia",
    "area": "Pacific"
  },
  "status": "10 (Extinct)",
  "alternate_names": "Jabalajabala, Jabulajabula, Maraban, Maragan, Moiraduban, Moitheriban, Ngarrimowro, Owanguttha, Pallaganmiddah, Panggarang, Waningotbun, Yabala-Yabala, Yoorta, Yurt",
  "population": "No known L1 speakers. Date of last speaker’s death unknown",
  "location": "Victoria and New South Wales states",
  "classification": "Australian, Pama-Nyungan, Yotayotic",
  "resources": "OLAC resources in and about Yabula Yabula",
  "writing": "Unwritten [Qaax]"
}