{
  "id": "yzg",
  "name": "Buyang, E’ma",
  "country": {
    "code": "CN",
    "name": "China",
    "area": "Asia"
  },
  "status": "8a (Moribund). Language of recognized nationality: Zhuang",
  "alternate_names": "Buozaang, Buyang Zhuang, Eastern Buyang, Funing Buyang, Langjia Buyang",
  "population": "600 (Li Jinfang 1997)",
  "location": "Yunnan Province, Wenshan Zhuang-Miao autonomous prefecture, Funing county, Gula township, 6 villages: E’cun, Maguan, Dugan, Zhelong, Nada, and Longna",
  "maps": "Southwestern China",
  "classification": "Tai-Kadai, Kra, Eastern Kra",
  "dialects": "None known. Lexical similarity: 78% with Langnian Buyang [yln], yet not intelligible despite frequent contact, 63% with Yerong (Yalang Buyang) [yrn], 48% with Baha Buyang [yha]. Also reportedly quite similar to En [enc] (200 speakers) of Northern Vietnam. (Li Jinfang 2006)",
  "use": "Those 15–50 speak local Guibian Zhuang language [zgn]. Some, especially men, can speak the local southwestern Mandarin [cmn] dialect",
  "resources": "OLAC resources in and about Buyang, E’ma",
  "other_comments": "Traditional religion"
}