{
  "id": "zaa",
  "name": "Zapotec, Sierra de Juárez",
  "country": {
    "code": "MX",
    "name": "Mexico",
    "area": "Americas"
  },
  "status": "6a (Vigorous)",
  "alternate_names": "Ixtlán Zapoteco, Zapoteco de Atepec",
  "population": "4,000 (1990 census). 150 monolinguals",
  "location": "North Oaxaca",
  "maps": "Southern Central Mexico",
  "classification": "Otomanguean, Eastern Otomanguean, Popolocan-Zapotecan, Zapotecan, Zapotec",
  "dialects": "Atepec, Macuiltianguis Zapotec. A member of macrolanguage Zapotec [zap]",
  "typology": "VSO; long words, affixes, clitics; tonal",
  "development": "Dictionary. Grammar. NT: 1970",
  "resources": "OLAC resources in and about Zapotec, Sierra de Juárez",
  "writing": "Latin script [Latn]",
  "other_comments": "Whistle speech reported"
}