{
  "id": "zaj",
  "name": "Zaramo",
  "country": {
    "code": "TZ",
    "name": "Tanzania",
    "area": "Africa"
  },
  "status": "8a (Moribund)",
  "alternate_names": "Dzalamo, Kizaramo, Myagatwa, Saramo, Zalamo, Zaramu",
  "population": "Few speakers (Brenzinger, Heine, and Sommer 1991). Ethnic population: 657,000 (2000)",
  "location": "Pwani region: Kisarawe and Bagamoyo districts, between Bagamoyo and Dar es Salaam; Morogoro region",
  "maps": "Tanzania",
  "classification": "Niger-Congo, Atlantic-Congo, Volta-Congo, Benue-Congo, Bantoid, Southern, Narrow Bantu, Central, G, Zigula-Zaramo (G.33)",
  "dialects": "None known. Lexical similarity: 68% with Kutu [kdc], 65% with Kami [kcu], 61% with Kwere [cwe] and Doe [doe]",
  "use": "Shifting rapidly to Swahili [swh]. Older adults",
  "development": "Dictionary. NT: 1975",
  "resources": "OLAC resources in and about Zaramo",
  "writing": "Latin script [Latn]",
  "other_comments": "Matrilineal. Endangered in the city but passed on to children in villages surrounding Dar es Salaam. Muslim"
}