{
  "id": "zbw",
  "name": "Berawan, West",
  "country": {
    "code": "MY",
    "name": "Malaysia",
    "area": "Asia"
  },
  "status": "6b (Threatened)",
  "alternate_names": "Berawan, Long Terawan",
  "population": "1,000 (2010 SIL)",
  "location": "Sarawak, Long Terawan village, Mulu town",
  "maps": "Brunei and Malaysia - Sarawak",
  "classification": "Austronesian, Malayo-Polynesian, North Borneo, North Sarawakan, Berawan-Lower Baram, Berawan",
  "use": "Home, church, village",
  "development": "Bible portions: 2011",
  "resources": "OLAC resources in and about Berawan, West",
  "writing": "Latin script [Latn], developed in about 2003"
}