{
  "id": "zca",
  "name": "Zapotec, Coatecas Altas",
  "country": {
    "code": "MX",
    "name": "Mexico",
    "area": "Americas"
  },
  "status": "6a (Vigorous)",
  "alternate_names": "Zapoteco de San Juan Coatecas Altas",
  "population": "4,880 (2005 census). 100 monolinguals",
  "location": "Oaxaca, Ejutla",
  "maps": "Southern Central Mexico",
  "classification": "Otomanguean, Eastern Otomanguean, Popolocan-Zapotecan, Zapotecan, Zapotec",
  "dialects": "None known. Reportedly most similar to San Gregorio Ozolotepec (83% intelligibility) and Miahuatlán [zam] (Cuitla). A member of macrolanguage Zapotec [zap]",
  "use": "Also use Spanish [spa]",
  "development": "Literacy rate in L1: Below 1%. Literacy rate in L2: 20%–30%. NT: 2013",
  "resources": "OLAC resources in and about Zapotec, Coatecas Altas",
  "writing": "Latin script [Latn]"
}