{
  "id": "zgm",
  "name": "Zhuang, Minz",
  "country": {
    "code": "CN",
    "name": "China",
    "area": "Asia"
  },
  "status": "6a (Vigorous). Language of recognized nationality: Zhuang",
  "alternate_names": "Black Zhuang, Bu Xiong, Heiyi Zhuang, Kon Min, Sung, Zong Zhuang",
  "population": "173,000 (2004)",
  "location": "Southwest Guangxi Zhuang Autonomous Region, Dejing area, Napo, Jingxi, and Debao counties; southeast Yunnan Province, Wenshan Zhuang and Miao autonomous prefectures, Funing county, Langheng district (now in Tianbeng township), Sankeshu, Xionggu, Shangmabu, Tianfang, Getao, Gezao, Gecai, Bagan, Na’en, Longnong, and Anha villages",
  "maps": "Southwestern China",
  "classification": "Tai-Kadai, Kam-Tai, Tai, Central",
  "dialects": "Cuengh (Zong), Minz (Min). Nong Zhuang [zhn] is reportedly most similar. A member of macrolanguage Zhuang [zha]",
  "typology": "SVO; phonemic distinction between aspirated, unaspirated voiceless, and preglottalized voiced plosives; 6 tones on unchecked, 3–4 on checked syllables, depending on dialect",
  "use": "Home, village, traditional ceremonies. All ages. Also use Guibian Zhuang [zgn], Mandarin Chinese [cmn], Yang Zhuang [zyg]",
  "resources": "OLAC resources in and about Zhuang, Minz",
  "writing": "Han (Hanzi, Kanji, Hanja) script [Hani], dating from Han dynasty, mainly used in non-official domains, gaining popularity",
  "other_comments": "Traditional religion"
}