{
  "id": "zgn",
  "name": "Zhuang, Guibian",
  "country": {
    "code": "CN",
    "name": "China",
    "area": "Asia"
  },
  "status": "3 (Wider communication). Language of recognized nationality: Zhuang.In concentrated Guibian areas, the main trade language on market days",
  "alternate_names": "Buyei, Buyoi, Kang Yei, Northern Zhuang",
  "population": "1,000,000 (2007). 420,000 monolinguals",
  "location": "Guangxi Zhuang Autonomous Region, Fengshan, Tianlin, Longlin, Xilin, Lingyun, Leyun; Yunnan, Funing, and north Guangnan",
  "maps": "Southwestern China",
  "classification": "Tai-Kadai, Kam-Tai, Tai, Northern",
  "dialects": "None known. Some intelligibility of standard Bouyei [pcc]; none of Qiubei Zhuang [zqe], Yongbei Zhuang [zyb], or Nong Zhuang [zhn] (2011 E. Johnson). Lexical similarity: 71% with Yongbei Zhuang [zyb], 83% with Qiubei Zhuang [zqe] (northern Taic), 64%–66% with Nong Zhuang [zhn] (central Taic). A member of macrolanguage Zhuang [zha]",
  "typology": "SVO",
  "use": "All domains. All ages. Positive attitudes. Some also use Nong Zhuang [zhn] in northern Guangnan County (Yunnan) due to intensive contact. Used as L2 by Baha Buyang [yha], E’ma Buyang [yzg], Langnian Buyang [yln], Minz Zhuang [zgm], Yerong [yrn]",
  "development": "Poetry. TV. Videos",
  "resources": "OLAC resources in and about Zhuang, Guibian",
  "writing": "Han (Hanzi, Kanji, Hanja) script [Hani], dating from Han dynasty, mainly used in non-official domains, gaining popularity",
  "other_comments": "Traditional religion"
}