{
  "id": "zgr",
  "name": "Magori",
  "country": {
    "code": "PG",
    "name": "Papua New Guinea",
    "area": "Pacific"
  },
  "status": "8b (Nearly extinct)",
  "population": "100 (Wurm 2000)",
  "location": "Central Province, Table bay east end, Bailebo-Tavenei river lower reaches",
  "maps": "Papua New Guinea, Map 17",
  "classification": "Austronesian, Malayo-Polynesian, Central-Eastern Malayo-Polynesian, Eastern Malayo-Polynesian, Oceanic, Western Oceanic, Papuan Tip, Peripheral, Central Papuan, Oumic, Magoric",
  "dialects": "None known. Reportedly most similar to Suau [swp]. Vocabulary heavily influenced by Mailu [mgu]",
  "use": "Potentially endangered (2000 D. Tryon). Also use Suau [swp] (Gadisu dialect). Also use Hiri Motu [hmo], Mailu [mgu]",
  "resources": "OLAC resources in and about Magori"
}