{
  "id": "zhi",
  "name": "Zhire",
  "country": {
    "code": "NG",
    "name": "Nigeria",
    "area": "Africa"
  },
  "status": "6a (Vigorous)",
  "alternate_names": "Kenyi",
  "location": "Kaduna state: Kachia and Jema’a LGAs",
  "maps": "Nigeria, Map 2",
  "classification": "Niger-Congo, Atlantic-Congo, Volta-Congo, Benue-Congo, Plateau, Western, Northwestern, Hyamic",
  "resources": "OLAC resources in and about Zhire"
}