{
  "id": "zhw",
  "name": "Zhoa",
  "country": {
    "code": "CM",
    "name": "Cameroon",
    "area": "Africa"
  },
  "status": "6b (Threatened)",
  "population": "2,000 (Troyer 1995)",
  "location": "North West region: Menchum division, Fungom subdivision. 1 village",
  "maps": "Central Cameroon",
  "classification": "Niger-Congo, Atlantic-Congo, Volta-Congo, Benue-Congo, Bantoid, Southern, Wide Grassfields, Narrow Grassfields, Ring, West",
  "dialects": "None known. Reportedly most similar to Weh [weh]",
  "resources": "OLAC resources in and about Zhoa",
  "writing": "Unwritten [Qaax]",
  "other_comments": "Traditional religion, Christian"
}