{
  "id": "zkp",
  "name": "Kaingáng, São Paulo",
  "country": {
    "code": "BR",
    "name": "Brazil",
    "area": "Americas"
  },
  "status": "10 (Extinct)",
  "population": "No known L1 speakers",
  "location": "São Paulo",
  "classification": "Jean, Southern, Kaingang",
  "resources": "OLAC resources in and about Kaingáng, São Paulo"
}