{
  "id": "zmv",
  "name": "Mbariman-Gudhinma",
  "country": {
    "code": "AU",
    "name": "Australia",
    "area": "Pacific"
  },
  "status": "10 (Extinct)",
  "alternate_names": "Rimang-Gudinhma",
  "population": "No known L1 speakers",
  "location": "Queensland, Cape York peninsula, Princess Charlotte bay southwest coast",
  "classification": "Australian, Pama-Nyungan, Paman, Mbariman",
  "resources": "OLAC resources in and about Mbariman-Gudhinma"
}