{
  "id": "zmx",
  "name": "Bomitaba",
  "country": {
    "code": "CG",
    "name": "Congo",
    "area": "Africa"
  },
  "status": "6b (Threatened)",
  "alternate_names": "Bamitaba, Leke, Mbomitaba, Mbomotaba",
  "population": "9,600 in Congo (2000). Population total all countries: 9,820",
  "location": "Likouala department: Epena district, along Likouala-aux-Herbes river",
  "maps": "Congo",
  "classification": "Niger-Congo, Atlantic-Congo, Volta-Congo, Benue-Congo, Bantoid, Southern, Narrow Bantu, Northwest, C, Ngondi (C.14)",
  "dialects": "Central Bomitaba (Epena), Northern Bomitaba (Matoki). Related to Bongili [bui]",
  "resources": "OLAC resources in and about Bomitaba",
  "writing": "Unwritten [Qaax]",
  "other_comments": "Traditional religion, Christian"
}