{
  "id": "zor",
  "name": "Zoque, Rayón",
  "country": {
    "code": "MX",
    "name": "Mexico",
    "area": "Americas"
  },
  "status": "7 (Shifting)",
  "alternate_names": "Zoque de Rayón",
  "population": "2,100 (1990 census). 20 monolinguals (1990 census). Ethnic population: 10,400 (1990 census)",
  "location": "Northwest Chiapas, Rayón and Tapilula",
  "maps": "Eastern Central Mexico",
  "classification": "Mixe-Zoquean, Zoquean, Chiapas Zoquean, Northeast Zoque",
  "dialects": "None known. Distinct from other Zoque",
  "typology": "VOS; short and long words, clitics, affixes; nontonal",
  "development": "Dictionary. Bible portions: 1982",
  "resources": "OLAC resources in and about Zoque, Rayón",
  "writing": "Latin script [Latn]"
}