{
  "id": "zpo",
  "name": "Zapotec, Amatlán",
  "country": {
    "code": "MX",
    "name": "Mexico",
    "area": "Americas"
  },
  "status": "5 (Developing)",
  "alternate_names": "Dizhze, Zapoteco de San Cristóbal Amatlán, Zapoteco del Noreste de Miahuatlán",
  "population": "10,000 (2000 SIL). 2,000 monolinguals",
  "location": "South Oaxaca, east of Miahuatlán. 2 towns",
  "maps": "Southern Central Mexico",
  "classification": "Otomanguean, Eastern Otomanguean, Popolocan-Zapotecan, Zapotecan, Zapotec",
  "dialects": "San Cristóbal Amatlán, San Francisco Logueche. Reportedly most similar to Loxicha [ztp]. A member of macrolanguage Zapotec [zap]",
  "typology": "VSO; short words; tonal",
  "use": "Vigorous. A few Spanish speakers who live there can speak it. All domains. All ages. Positive attitudes. Fluency in Spanish [spa] has increased, but Zapotec is preferred. Also use Spanish [spa]",
  "development": "Literacy rate in L1: Below 1%. Literacy rate in L2: 60%. NT: 2002",
  "resources": "OLAC resources in and about Zapotec, Amatlán",
  "writing": "Latin script [Latn]",
  "other_comments": "Some leave the area to find work; some return. Self name, Dizhze, also sometimes used for all languages except Spanish [spa]"
}