{
  "id": "zps",
  "name": "Zapotec, Coatlán",
  "country": {
    "code": "MX",
    "name": "Mexico",
    "area": "Americas"
  },
  "status": "7 (Shifting)",
  "alternate_names": "San Miguel Zapotec, Western Miahuatlán Zapotec, Zapoteco de Santa María Coatlán",
  "population": "500 (1992 SIL)",
  "location": "Southern Oaxaca near Chatino region, about 7 towns, but mainly Santo Domingo Coatlán",
  "maps": "Southern Central Mexico",
  "classification": "Otomanguean, Eastern Otomanguean, Popolocan-Zapotecan, Zapotecan, Zapotec",
  "dialects": "None known. 54% intelligibility of Loxicha [ztp] (most similar), 51% of San Gregorio Ozolotepec [zao], 44% of Cuixtla (Miahuatlam Zapotec) [zam], 29% of Logueche (Amatlan Zapotec) [zpo], 16% of Mixtepec [zpm], 1% of Quiquitani-Quierí [ztq]. A member of macrolanguage Zapotec [zap]",
  "use": "Also use Spanish [spa]",
  "resources": "OLAC resources in and about Zapotec, Coatlán",
  "writing": "Unwritten [Qaax]"
}