{
  "id": "zpx",
  "name": "Zapotec, San Baltazar Loxicha",
  "country": {
    "code": "MX",
    "name": "Mexico",
    "area": "Americas"
  },
  "status": "6b (Threatened)",
  "alternate_names": "Northwestern Pochutla Zapotec, San Baltázar Loxicha Zapotec, Zapoteco de San Baltázar Loxicha",
  "population": "1,500 (1990 census). 20 monolinguals",
  "location": "Oaxaca, south of Oaxaca City, San Baltázar Loxicha, Santa Catarina Loxicha",
  "maps": "Southern Central Mexico",
  "classification": "Otomanguean, Eastern Otomanguean, Popolocan-Zapotecan, Zapotecan, Zapotec",
  "dialects": "None known. 71% intelligibility of Santa María Coatlán [zps] (most similar), 63% of Cuixtla [zam] (Central Miahuatlán), 47% of San Vicente Coatlán [zpt]. A member of macrolanguage Zapotec [zap]",
  "use": "Also use Spanish [spa]",
  "resources": "OLAC resources in and about Zapotec, San Baltazar Loxicha",
  "writing": "Latin script [Latn]"
}