{
  "id": "zpz",
  "name": "Zapotec, Texmelucan",
  "country": {
    "code": "MX",
    "name": "Mexico",
    "area": "Americas"
  },
  "status": "5 (Developing)",
  "alternate_names": "Central Sola de Vega Zapotec, Papabuco, Zapoteco de San Lorenzo Texmelucan",
  "population": "4,100 (1992 SIL)",
  "location": "West Oaxaca",
  "maps": "Southern Central Mexico",
  "classification": "Otomanguean, Eastern Otomanguean, Popolocan-Zapotecan, Zapotecan, Zapotec",
  "dialects": "None known. Most similar to Western Sola de Vega [zpw] (Zaniza). A member of macrolanguage Zapotec [zap]",
  "typology": "VSO; short words, affixes, clitics; tonal",
  "development": "NT: 1989–2004",
  "resources": "OLAC resources in and about Zapotec, Texmelucan",
  "writing": "Latin script [Latn]",
  "other_comments": "Zaniza [zpw] and Elotepec Zapotec [zte] glossonym: Papabuco"
}