{
  "id": "zrg",
  "name": "Mirgan",
  "country": {
    "code": "IN",
    "name": "India",
    "area": "Asia"
  },
  "status": "6a (Vigorous)",
  "alternate_names": "Mirgami, Mirkan, Panika, Panka",
  "population": "60,000 (1998 N. Lima)",
  "location": "Chhattisgarh, Bastar District; Odisha, Koraput, and Nabarangapur districts",
  "maps": "India, Map 7",
  "classification": "Indo-European, Indo-Iranian, Indo-Aryan, Eastern zone, Bengali-Assamese",
  "dialects": "Batasuna, Jagdal Pur, Kosagumuda, Kotpad, Nabarang Pur, Umerkote. Dialects have good intelligibility. Not functionally intelligible of Halbi [hlb]. Lexical similarity: 83%–95% among dialects",
  "use": "Vigorous. Home, religion. Positive attitudes. Deshia [dso] used in Odisha. Halbi [hlb] used in Madhya Pradesh. Hindi [hin] used in Madhya Pradesh. Low proficiency in Oriya [ory]. Oriya used in Odisha",
  "development": "Literacy rate in L2: 10% Oriya [ory]",
  "resources": "OLAC resources in and about Mirgan",
  "writing": "Oriya script [Orya]. Telugu script [Telu]",
  "other_comments": "Declared a General Caste by the government. Divided into 2 groups, the larger Kabirpanthi and the smaller Sakta. Traditional religion, Christian, Hindu"
}