{
  "id": "zrs",
  "name": "Mairasi",
  "country": {
    "code": "ID",
    "name": "Indonesia",
    "area": "Asia"
  },
  "status": "5 (Developing)",
  "alternate_names": "Faranyao, Kaniran",
  "population": "3,300 (1996 SIL)",
  "location": "Papua Barat Province, Bomberai peninsula, southwest coast facing Arafura Sea; area from Arguni bay east, southeast toward Triton bay on south coast; westernmost extent, Papua Province (Papua Timur)",
  "maps": "Indonesia, Northwestern Papua",
  "classification": "Mairasi",
  "dialects": "Northeastern Mairasi. Reportedly similar to Semimi [etz]. Northeastern Mairasi may be a separate language. Lexical similarity: 69% with Semimi [etz], 61% with Mer [mnu]",
  "use": "Also use Indonesian [ind], Kowiai [kwh]",
  "development": "Literacy rate in L2: 15%–25%. Dictionary. NT: 2004",
  "resources": "OLAC resources in and about Mairasi",
  "writing": "Latin script [Latn]",
  "other_comments": "Christian, traditional religion"
}