{
  "id": "zsu",
  "name": "Sukurum",
  "country": {
    "code": "PG",
    "name": "Papua New Guinea",
    "area": "Pacific"
  },
  "status": "6a (Vigorous)",
  "population": "1,160 (2000 census). Ethnic population: 1,160",
  "location": "Morobe Province, upper Markham valley, Leron river northwest side",
  "maps": "Papua New Guinea, Map 11",
  "classification": "Austronesian, Malayo-Polynesian, Central-Eastern Malayo-Polynesian, Eastern Malayo-Polynesian, Oceanic, Western Oceanic, North New Guinea, Huon Gulf, Markham, Upper, Mountain",
  "use": "Most men also use Adzera [adz]. 100% also use Sarasira [zsa]. Also use Awara [awx], Tok Pisin [tpi]. Used as L2 by Sarasira [zsa]",
  "resources": "OLAC resources in and about Sukurum"
}