{
  "id": "ztg",
  "name": "Zapotec, Xanaguía",
  "country": {
    "code": "MX",
    "name": "Mexico",
    "area": "Americas"
  },
  "status": "6a (Vigorous)",
  "alternate_names": "Diidz Zë, Zapoteco de Santa Catarina Xanaguía",
  "population": "2,500 (1990 census). 880 monolinguals. Mainly older women",
  "location": "Oaxaca, southeast Miahuatlán, Santa Catarina Xanaguía, San Francisco Ozolotepec, and San José Ozolotepec",
  "maps": "Southern Central Mexico",
  "classification": "Otomanguean, Eastern Otomanguean, Popolocan-Zapotecan, Zapotecan, Zapotec",
  "dialects": "None known. A few phonological and lexical differences between San Francisco and San José areas. A member of macrolanguage Zapotec [zap]",
  "typology": "VSO",
  "use": "Vigorous. A few users of other languages have married into and speak it. Home, local administration, commerce, religion. All ages. Positive attitudes. 20% have some fluency in Spanish [spa]. San Francisco reportedly more monolingual than Santa Catarina, and San José the most bilingual. Some use other varieties of Zapotec",
  "development": "Literacy rate in L1: 1%. Literacy rate in L2: 10%. Bible portions: 1996–2014",
  "resources": "OLAC resources in and about Zapotec, Xanaguía",
  "writing": "Latin script [Latn]",
  "other_comments": "Many women over 40 and some men have no education. People leave the area for jobs. Christian, traditional religion"
}