{
  "id": "zum",
  "name": "Kumzari",
  "country": {
    "code": "OM",
    "name": "Oman",
    "area": "Asia"
  },
  "status": "8a (Moribund)",
  "alternate_names": "Kumzai",
  "population": "1,700 in Oman (1993 census). Population total all countries: 2,300",
  "location": "North Oman, Musandam peninsula",
  "maps": "Oman",
  "classification": "Indo-European, Indo-Iranian, Iranian, Western, Southwestern, Luri",
  "resources": "OLAC resources in and about Kumzari",
  "other_comments": "Distinct from Khunsari [kfm] of Iran. Muslim"
}