{
  "id": "zyb",
  "name": "Zhuang, Yongbei",
  "country": {
    "code": "CN",
    "name": "China",
    "area": "Asia"
  },
  "status": "6a (Vigorous). Language of recognized nationality: Zhuang",
  "population": "1,980,000 (2007)",
  "location": "Guangxi Zhuang Autonomous Region, north Yongning, Hengxian, Bingyang, Wuming, and Pingguo",
  "maps": "Southern China",
  "classification": "Tai-Kadai, Kam-Tai, Tai, Northern",
  "dialects": "A member of macrolanguage Zhuang [zha]",
  "use": "All domains. All ages. Positive attitudes",
  "development": "Newspapers. Radio programs. Dictionary. Grammar. Bible portions: 1904",
  "resources": "OLAC resources in and about Zhuang, Yongbei",
  "writing": "Han (Hanzi, Kanji, Hanja) script [Hani], dating from Han dynasty, mainly used in non-official domains, gaining popularity. Latin script [Latn], pinyin-based, used since 1982, official, mainly used in official domains"
}