{
  "id": "zyp",
  "name": "Chin, Zyphe",
  "country": {
    "code": "MM",
    "name": "Myanmar",
    "area": "Asia"
  },
  "status": "5 (Developing)",
  "alternate_names": "Zo-pe, Zophei, Zoptei, Zyphe",
  "population": "17,000 in Myanmar (1994). Population total all countries: 20,000",
  "location": "Chin State, Thantlang township",
  "maps": "India, Map 5                      Central Myanmar",
  "classification": "Sino-Tibetan, Tibeto-Burman, Sal, Kuki-Chin-Naga, Kuki-Chin, Maraic",
  "dialects": "Lower Zyphe, Upper Zyphe. Reportedly similar to Mara Chin [mrh]. Myanmar and India varieties reportedly mutually intelligible",
  "use": "Vigorous. All domains. All ages. Positive attitudes. 10,000 also use Haka Chin [cnh]. Also use Mara Chin [mrh], Mizo [lus]",
  "development": "Some community literacy classes. NT: 2010",
  "resources": "OLAC resources in and about Chin, Zyphe",
  "writing": "Latin script [Latn], developed in 1997",
  "other_comments": "Christian"
}